Taxon.ID,Name,Section,Last.two.numbers.of.Taxon.ID,Species.num.R.matrix,Height(cm).lower.min,Height(cm).min,Height(cm).median,Height(cm).max,Height(cm).upper.max,Width(mm).min,Width(mm).median,Width(mm).max,Width(mm).at.base.lower.min,Width(mm).at.base.min,Width(mm).at.base.max,Width(mm).at.base.upper.max,Width(mm).distal.lower.min,Width(mm).distal.min,Width(mm).distal.median,Width(mm).distal.max,Width(mm).distal.upper.max,Comments,,,,,
242357015,Carex aboriginum,Racemosae,15,1,,55,,80,,,,,,,,,,,,,,,,,,,
242357016,Carex abrupta,Ovales,16,2,,18,,66,,,,,,,,,,,,,,,,,,,
242357017,Carex abscondita,Careyanae,17,3,,7,,30,,0.2,,0.5,,,,,,,,,,,,,,,
242357018,Carex acidicola,Griseae,18,4,,11,,41,,,,,3.2,4.1,7.4,,,,,,,Width measurement taken at base & measurement 'to' entered data,,,,,
242101034,Carex acutiformis,Paludosae,,,,55,,130,,,,,,,,,,,,,,,,,,,
242357019,Carex adelostoma,Racemosae,19,5,,20,,35,,,,,,,,,,,,,,,,,,,
242357020,Carex adusta,Ovales,20,6,,25,,80,,,,,,,,,,,,,,,,,,,
242357021,Carex aestivalis,Hymenochlaenae,21,7,,25,,60,,,,,,,,,,,,,,,,,,,
242357022,Carex aggregata,Phaestoglochin,22,8,20,30,,100,,,,,,1.5,3.5,,,0.7,,1.2,,Width measurement taken at base,,,,,
242357023,Carex alata,Ovales,23,9,,30,,140,,,,,,,,,,,,,,,,,,,
242357024,Carex albicans,Acrocystis,24,10,,10,,45,,,,,,,,,,,,,,,,,,,
242357028,Carex albida,Aulocystis,28,14,,0,,60,,,,,,,,,,,,,,,,,,,
242357029,Carex albolutescens,Ovales,29,15,,25,,120,,,,,,,,,,,,,,,,,,,
242357030,Carex albonigra,Racemosae,30,16,,10,,30,,,,,,,,,,,,,,,,,,,
242357031,Carex albursina,Laxiflorae,31,17,,10,,62,,2,,2.4,,,,,,,,,,,,,,,
242357032,Carex alma,Multiflorae,32,18,,,,90,,,2,,,,,,,,,,,,,,,,
242357033,Carex alopecoidea,Vulpinae,33,19,,,,80,,,4,,,,,,,,,,,,,,,,
242357034,Carex amphibola,Griseae,34,20,,15,,80,,,,,,0.3,2.4,7.3,,,,,,Measurement 'to' entered data,,,,,
242357035,Carex amplectens,Ovales,35,21,30,50,,90,,,,,,,,,,,,,,,,,,,
242357036,Carex amplifolia,Anomalae,36,22,,50,,100,130,,,,,,,,,,,,,,,,,,
242357037,Carex angustata,Phacocystis,37,23,,30,,110,,,,,,,,,,,,,,,,,,,
242357038,Carex annectens,Multiflorae,38,24,,,,75,,,2,,,,,,,,,,,,,,,,
242357039,Carex anthoxanthea,Circinatae,39,25,,5,,40,,,,,,,,,,,,,,,,,,,
242357040,Carex aperta,Phacocystis,40,26,,15,,90,,,,,,,,,,,,,,,,,,,
242357041,Carex appalachica,Phaestoglochin,41,27,,20,,60,,,,,,0.7,1.3,,,0.2,,0.5,,,,,,,
242357042,Carex aquatilis,Phacocystis,42,28,,20,,150,,,,,,,,,,,,,,,,,,,
242357047,Carex arapahoensis,Ovales,47,33,,20,,30,,,,,,,,,,,,,,,,,,,
242357048,Carex arcta,Glareosae,48,34,,15,,80,,,,,,,,,,,,,,,,,,,
242357049,Carex arctata,Hymenochlaenae,49,35,,20,,100,,,,,,,,,,,,,,,,,,,
242357050,Carex arctiformis,Glareosae,50,36,15,20,,50,,,,,,2.5,4,,,,,,,,,,,,
242357051,Carex arenaria,Ammoglochin,51,37,,15,,60,,,,,,,,,,,,,,,,,,,
242357052,Carex argyrantha,Ovales,52,38,,30,,100,,,,,,,,,,,,,,,,,,,
242357053,Carex arkansana,Phaestoglochin,53,39,,15,,60,,,,,,1.4,2,,,0.7,,0.9,,,,,,,
242357054,Carex assiniboinensis,Hymenochlaenae,54,40,,35,,75,,,,,,,,,,,,,,,,,,,
242357055,Carex atherodes,Carex,55,41,,35,,125,,,,,,,,,,,,,,,,,,,
242357056,Carex athrostachya,Ovales,56,42,5,20,,80,,,,,,,,,,,,,,,,,,,
242357057,Carex atlantica,Stellulatae,57,43,,10,,110,,,,,,,,,,,,,,,,,,,
242357060,Carex atrata,Racemosae,60,46,10,30,,40,60,,,,,,,,,,,,,,,,,,
242357061,Carex atratiformis,Racemosae,61,47,,20,,70,,,,,,,,,,,,,,,,,,,
242101035,Carex atrofusca,Aulocystis,,,,,,30,60,,,,,,,,,,,,,,,,,,
242357062,Carex atrosquama,Racemosae,62,48,,20,,50,,,,,,,,,,,,,,,,,,,
242357063,Carex aurea,Bicolores,63,49,,5,,40,,,,,,,,,,,,,,,,,,,
242357064,Carex aureolensis,Squarrosae,64,50,10,20,,85,,,,,,,,,,,,,,,,,,,
242357065,Carex austrina,Phaestoglochin,65,51,,20,,90,,,,,,1.5,3,,,0.9,,1.1,,,,,,,
242357066,Carex austrocaroliniana,Careyanae,66,52,,19,,51,,0.2,,0.7,,,,,,,,,,,,,,,
242357067,Carex backii,Phyllostachyae,67,53,,1.4,,25,,,,,,,,,,,,,,,,,,,
242357068,Carex baileyi,Vesicariae,68,54,,20,,65,,,,,,,,,,,,,,,,,,,
242357069,Carex baltzellii,Pictae,69,55,,15,,40,,,,,,,,,,,,,,,,,,,
242357070,Carex barbarae,Phacocystis,70,56,,30,,110,,,,,,,,,,,,,,,,,,,
242357071,Carex barrattii,Limosae,71,57,,20,,90,,,,,,,,,,,,,,,,,,,
242357072,Carex basiantha,Phyllostachyae,72,58,10.7,18,,39,,0.5,,0.8,,,,,,,,,,,,,,,
242357073,Carex bebbii,Ovales,73,59,,20,,90,,,,,,,,,,,,,,,,,,,
242357074,Carex bella,Racemosae,74,60,,25,,55,,,,,,,,,,,,,,,,,,,
242357075,Carex bicknellii,Ovales,75,61,35,40,,110,,,,,,,,,,,,,,,,,,,
242357076,Carex bicolor,Bicolores,76,62,,,,20,,,,,,,,,,,,,,,,,,,
242357077,Carex bigelowii,Phacocystis,77,63,,10,,50,,,,,,,,,,,,,,,,,,,
242357080,Carex biltmoreana,Paniceae,80,66,,30,,75,,,,,,,,,,,,,,,,,,,
242357081,Carex blanda,Laxiflorae,81,67,,14,,53,,0.8,,1,,,,,,,,,,,,,,,
242357082,Carex bolanderi,Deweyanae,82,68,,31,,115,,0.2,,9,,,,,,,,,,,,,,,
242357083,Carex bonanzensis,Glareosae,83,69,,20,,50,,,,,,,,,,,,,,,,,,,
242357084,Carex brainerdii,Acrocystis,84,70,,6,,34,,,,,,,,,,,,,,,,,,,
242357085,Carex brevicaulis,Acrocystis,85,71,,2,,19,,,,,,,,,,,,,,,,,,,
242357086,Carex brevior,Ovales,86,72,,15,,120,,,,,,,,,,,,,,,,,,,
242357087,Carex breweri,Inflatae,87,73,,15,,22,30,2.5,,3,,,,,,,,,,,,,,,
242357088,Carex bromoides,Deweyanae,88,74,,23,,88,,0.5,,1.6,,,,,,,,,,,,,,,
242357091,Carex brunnescens,Glareosae,91,77,,15,,90,,,,,,,,,,,,,,,,,,,
242357094,Carex brysonii,Griseae,94,80,,25,,60,,,,,,,,,,,,,,,,,,,
242357095,Carex bulbostylis,Griseae,95,81,,10,,65,,,,,,3,7.4,,,,,,,Width measurement taken at base & measurement 'to' entered data,,,,,
242357096,Carex bullata,Vesicariae,96,82,,30,,85,,,,,,,,,,,,,,,,,,,
242357097,Carex bushii,Porocystis,97,83,,30,,90,,,,,,,,,,,,,,,,,,,
242357098,Carex buxbaumii,Racemosae,98,84,,25,,75,,,,,,,,,,,,,,,,,,,
242357099,Carex calcifugens,Griseae,99,85,,14,,37,,,,,,2.7,5.2,5.6,,,,,,Width measurement taken at base & measurement 'to' entered data,,,,,
242357100,Carex californica,Paniceae,100,86,,15,,60,,,,,,,,,,,,,,,,,,,
242101037,Carex canescens,Glareosae,,,,15,,90,,,,,,,,,,,,,,,,,,,
242357103,Carex capillaris,Chlorostachyae,103,89,,,,60,,,,,,,,,,,,,,,,,,,
242357104,Carex capitata,Capituligerae,104,90,,10,,35,,,,,,,,,,,,,,From Mackenzie,,,,,
242357105,Carex careyana,Careyanae,105,91,,34,,62,,1,,1.2,,,,,,,,,,,,,,,
242357106,Carex caroliniana,Porocystis,106,92,,25,,80,,,,,,,,,,,,,,,,,,,
242357107,Carex caryophyllea,Mitratae,107,93,,4,,35,,,,,,,,,,,,,,,,,,,
242357108,Carex castanea,Hymenochlaenae,108,94,,40,,90,,,,,,,,,,,,,,,,,,,
242357109,Carex cephaloidea,Phaestoglochin,109,95,,30,,120,,,,,,2.5,4,,,0.7,,1,,,,,,,
242357110,Carex cephalophora,Phaestoglochin,110,96,,20,,60,,,,,,2,3.5,,,0.5,,1,,,,,,,
242357111,Carex chalciolepis,Racemosae,111,97,,20,,50,,,,,,,,,,,,,,,,,,,
242357112,Carex chapmanii,Laxiflorae,112,98,,10,,32,,0.8,,1.6,,,,,,,,,,,,,,,
242357113,Carex cherokeensis,Hymenochlaenae,113,99,,30,,80,,,,,,,,,,,,,,,,,,,
242357114,Carex chihuahuensis,Multiflorae,114,100,,,,400,,,4,,,,,,,,,,,,,,,,
242357115,Carex chordorrhiza,Chordorrhizae,115,101,,5,,35,,,,,,,,,,,,,,,,,,,
242357116,Carex circinata,Circinatae,116,102,,5,,25,,,,,,,,,,,,,,,,,,,
242357117,Carex collinsii,Collinsiae,117,103,,15,,75,,,,,,,3,,,,,,,,,,,,
242357118,Carex communis,Acrocystis,118,104,,20,,60,,,,,,,,,,,,,,,,,,,
242357121,Carex comosa,Vesicariae,121,107,,50,,120,,,,,,,,,,,,,,,,,,,
242357122,Carex complanata,Porocystis,122,108,,20,,75,,,,,,,,,,,,,,,,,,,
242357123,Carex concinna,Clandestinae,123,109,,5.5,,20,,,,,,,,,,,,,,,,,,,
242357124,Carex concinnoides,Clandestinae,124,110,,14,,37,,,,,,,,,,,,,,,,,,,
242357125,Carex congdonii,Paludosae,125,111,,30,,90,,,,,,,,,,,,,,,,,,,
242357126,Carex conjuncta,Vulpinae,126,112,,,,80,,,3.5,,,,,,,,,,,,,,,,
242357127,Carex conoidea,Griseae,127,113,,2,,75,,,,,,,,,,,,,,,,,,,
242357128,Carex constanceana,Ovales,128,114,,25,,35,,,,,,,,,,,,,,,,,,,
242357129,Carex cordillerana,Phyllostachyae,129,115,,6.8,,40,,,,,,,,,,,,,,,,,,,
242357130,Carex corrugata,Griseae,130,116,,15,,90,,,,,,4,35,39,,,,,,Width measurement taken at base & measurement 'to' entered data,,,,,
242357131,Carex crawei,Granulares,131,117,,2,,30,40,,,,,,,,,,,,,,,,,,
242357132,Carex crawfordii,Ovales,132,118,,25,,60,85,,,,,,,,,,,,,,,,,,
242357133,Carex crebriflora,Laxiflorae,133,119,,17,,70,,1,,1.5,,,,,,,,,,,,,,,
242357134,Carex crinita,Phacocystis,134,120,,40,,150,,,,,,,,,,,,,,,,,,,
242357137,Carex cristatella,Ovales,137,123,,30,,100,,,,,,,,,,,,,,,,,,,
242357138,Carex crus-corvi,Vulpinae,138,124,,,,90,,,5,,,,,,,,,,,,,,,,
242357139,Carex cryptolepis,Ceratocystis,139,125,,10,,50,,,,,,,,,,,,,,,,,,,
242357140,Carex cumberlandensis,Careyanae,140,126,,17,,27,,0.4,,0.7,,,,,,,,,,,,,,,
242357141,Carex cumulata,Ovales,141,127,,20,,80,,,,,,,,,,,,,,,,,,,
242357142,Carex curatorum,Scirpinae,142,128,23,35,,91,,,,,,,,,,,,,,,,,,,
242357143,Carex cusickii,Heleoglochin,143,129,,3,,130,,,,,,,,,,,,,,,,,,,
242357144,Carex dasycarpa,Hallerianae,144,130,,13,,40,,,,,,,,,,,,,,,,,,,
242357145,Carex davisii,Hymenochlaenae,145,131,,30,,100,,,,,,,,,,,,,,,,,,,
242357146,Carex davyi,Ovales,146,132,,23,,37,,,,,,,,,,,,,,,,,,,
242357147,Carex debilis,Hymenochlaenae,147,133,,25,,100,,,,,,,,,,,,,,,,,,,
242357150,Carex decomposita,Heleoglochin,150,136,,5,,120,,,,,,,,,,,,,,,,,,,
242357151,Carex deflexa,Acrocystis,151,137,,5,,31,,,,,,,,,,,,,,,,,,,
242357154,Carex densa,Multiflorae,154,140,,,,70,,,1.5,,,,,,,,,,,,,,,,
242357155,Carex deweyana,Deweyanae,155,141,,14,,89,101,0.3,,1.1,,,,,,,,,,,,,,,
242101043,Carex diandra,Heleoglochin,,,1,2,,90,,,,,,,,,,,,,,,,,,,
242357158,Carex digitalis,Careyanae,158,144,,7,,52,,0.5,,1,,,,,,,,,,,,,,,
242101044,Carex diluta,Spirostachyae,,,,15,,55,,,,,,,,,,,,,,,,,,,
242357162,Carex disperma,Dispermae,162,148,,15,,60,,,,,,,,,,,,,,,,,,,
242357163,Carex distans,Spirostachyae,163,149,,40,,80,,,,,,,,,,,,,,,,,,,
242357164,Carex disticha,Holarrhenae,164,150,,30,,120,,,,,,,,,,,,,,,,,,,
242101045,Carex divisa,Divisae,,,15,25,,65,80,,,,,,,,,,,,,,,,,,
242101046,Carex divulsa,Phaestoglochin,,,,25,,90,,,,,,1.8,3,,,0.8,,1,,Taken from the supspecies description. There are two subspecies but only one in the FNA,,,,,
242357166,Carex douglasii,Divisae,166,152,8,15,,40,,,,,,,,,,,,,,,,,,,
200026560,Carex duriuscula,Divisae,,,6,10,,35,,,,,,,,,,,,,,,,,,,
242357167,Carex ebenea,Ovales,167,153,,18,,50,,,,,,,,,,,,,,,,,,,
242357168,Carex eburnea,Albae,168,154,,7,,31,,,,,,,,,,,,,,,,,,,
242357169,Carex echinata,Stellulatae,169,155,,10,,90,135,,,,,,,,,,,,,,,,,,
242357172,Carex edwardsiana,Griseae,172,158,,6,,34,,,,,3.7,4.7,11.7,,,,,,,Width measurement taken at base & measurement 'to' entered data,,,,,
242357173,Carex egglestonii,Ovales,173,159,,33,,72,,,,,,,,,,,,,,,,,,,
242357174,Carex eleusinoides,Phacocystis,174,160,,15,,30,,,,,,,,,,,,,,,,,,,
242357175,Carex elliottii,Vesicariae,175,161,,25,,75,,,,,,,,,,,,,,,,,,,
242357176,Carex elynoides,Filifoliae,176,162,,5,,22,,,,,,,,,,,,,,,,,,,
242357177,Carex emoryi,Phacocystis,177,163,,30,,115,,,,,,,,,,,,,,,,,,,
242357178,Carex endlichii,Phacocystis,178,164,,30,,50,,,,,,,,,,,,,,,,,,,
242357179,Carex engelmannii,Inflatae,179,165,,7,,15,,,,,,2,2.5,,,,,,,,,,,,
242357180,Carex epapillosa,Racemosae,180,166,,25,,60,100,,,,,,,,,,,,,,,,,,
242357181,Carex exilis,Stellulatae,181,167,,12,,80,,,,,,,,,,,,,,,,,,,
242357182,Carex exsiccata,Vesicariae,182,168,,30,,100,,,,,,,,,,,,,,,,,,,
242357183,Carex extensa,Spirostachyae,183,169,,15,,75,,,,,,,,,,,,,,,,,,,
242357184,Carex festucacea,Ovales,184,170,,45,,100,,,,,,,,,,,,,,,,,,,
242357185,Carex feta,Ovales,185,171,,51,,97,,,,,,,,,,,,,,,,,,,
242357186,Carex filifolia,Filifoliae,186,172,,5,,35,,,,,,,,,,,,,,,,,,,
242357189,Carex fissa,Multiflorae,189,175,,,,80,,3,,8,,,,,,,,,,,,,,,
242357192,Carex fissuricola,Aulocystis,192,178,,,,80,,,,,,,,,,,,,,,,,,,
242101050,Carex flacca,Thuringiaca,,,,,,35,,,1.5,,,,,,,,,,,,,,,,
242357193,Carex flaccosperma,Griseae,193,179,,10,,60,75,,,,,,,,,,,,,,,,,,
242357194,Carex flava,Ceratocystis,194,180,,10,,75,,,,,,,,,,,,,,,,,,,
242357195,Carex floridana,Acrocystis,195,181,,5,,17,,,,,,,,,,,,,,,,,,,
242357196,Carex foenea,Ovales,196,182,,20,,120,,,,,,,,,,,,,,,,,,,
242357197,Carex folliculata,Rostrales,197,183,25,40,,175,,,,,,,,,,,,,,,,,,,
242357198,Carex formosa,Hymenochlaenae,198,184,,30,,80,,,,,,0.5,1,,,,,,,,,,,,
242357199,Carex fracta,Ovales,199,185,,60,,115,,,,,,,,,,,,,,,,,,,
242357200,Carex frankii,Squarrosae,200,186,,18,,80,,,,,,,,,,,,,,,,,,,
242357201,Carex fuliginosa,Aulocystis,201,187,,,,30,,,,,,,,,,,,,,,,,,,
242357202,Carex garberi,Bicolores,202,188,,5,,40,,,,,,,,,,,,,,,,,,,
242357203,Carex geophila,Acrocystis,203,189,,3,,22,,,,,,,,,,,,,,,,,,,
242357204,Carex geyeri,Firmiculmes,204,190,,13,,49,,,,,,,,,,,,,,,,,,,
242357205,Carex gholsonii,Granulares,205,191,,20,,75,,,,,,,,,,,,,,,,,,,
242357206,Carex gigantea,Lupulinae,206,192,,35,,120,,,,,,,,,,,,,,,,,,,
242357207,Carex glacialis,Lamprochlaenae,207,193,,,,20,30,,,,,,,,,,,,,,,,,,
242357208,Carex glareosa,Glareosae,208,194,,10,,40,60,,,,,,,,,,,,,,,,,,
242357211,Carex glaucescens,Glaucescentes,211,197,,,,120,,,,,,,,,,,,,,,,,,,
242357212,Carex glaucodea,Griseae,212,198,,10,,50,,,,,,,,,,,,,,,,,,,
242357213,Carex globosa,Acrocystis,213,199,,7,,47,,,,,,,,,,,,,,,,,,,
242357214,Carex gmelinii,Racemosae,214,200,,20,,60,,,,,,,,,,,,,,,,,,,
242357215,Carex godfreyi,Griseae,215,201,,8,,65,85,,,,3.4,4,7.3,,,,,,,Width measurement taken at base & measurement 'to' entered data,,,,,
242357216,Carex gracilescens,Laxiflorae,216,202,,13,,78,,0.8,,1,,,,,,,,,,,,,,,
242357217,Carex gracilior,Ovales,217,203,,30,,70,110,,,,,,,,,,,,,,,,,,
242357218,Carex gracillima,Hymenochlaenae,218,204,,20,,90,,,,,,0.5,1.1,,,,,,,,,,,,
242357219,Carex granularis,Granulares,219,205,,13,,70,100,,,,,,,,,,,,,,,,,,
242357220,Carex gravida,Phaestoglochin,220,206,20,30,,100,,,,,,2.5,8,,,0.7,,1.6,,,,,,,
242357221,Carex grayi,Lupulinae,221,207,25,40,,90,110,,,,,,,,,,,,,,,,,,
242357222,Carex grisea,Griseae,222,208,,15,,90,,,,,,2,3.2,,,,,,,Width measurement taken at base & measurement 'to' entered data,,,,,
242357223,Carex gynandra,Phacocystis,223,209,,45,,140,,,,,,,,,,,,,,,,,,,
242357224,Carex gynocrates,Physoglochin,224,210,,2,,30,,,,,,,,,,,,,,,,,,,
242357225,Carex gynodynama,Hymenochlaenae,225,211,,20,,70,,,,,,,,,,,,,,,,,,,
242357226,Carex halliana,Paludosae,226,212,,10,,40,50,,,,,,,,,,,,,,,,,,
242357227,Carex hallii,Racemosae,227,213,,10,,30,,,,,,,,,,,,,,,,,,,
242357228,Carex harfordii,Ovales,228,214,29,50,,135,,,,,,,,,,,,,,,,,,,
242357229,Carex hassei,Bicolores,229,215,,10,,40,70,,,,,,,,,,,,,,,,,,
242357230,Carex haydeniana,Ovales,230,216,,9,,30,40,,,,,,,,,,,,,,,,,,
242357231,Carex haydenii,Phacocystis,231,217,,30,,115,,,,,,,,,,,,,,,,,,,
242357232,Carex heleonastes,Glareosae,232,218,,15,,35,,,,,,,,,,,,,,,,,,,
242357233,Carex helleri,Racemosae,233,219,,5,,30,,,,,,,,,,,,,,,,,,,
242357234,Carex hendersonii,Laxiflorae,234,220,,45,,87,,2,,2.2,,,,,,,,,,,,,,,
242357235,Carex heteroneura,Racemosae,235,221,,25,,60,100,,,,,,,,,,,,,,,,,,
200026581,Carex heterostachya,Paludosae,,,,25,,60,,,,,,,,,,,,,,,,,,,
242357236,Carex hirsutella,Porocystis,236,222,,20,,90,,,,,,,,,,,,,,,,,,,
242357237,Carex hirta,Carex,237,223,10,20,,90,,,,,,,,,,,,,,,,,,,
242357238,Carex hirtifolia,Hirtifoliae,238,224,,25,,60,,,,,,,,,,,,,,,,,,,
242357239,Carex hirtissima,Hymenochlaenae,239,225,,30,,60,,,,,,,,,,,,,,,,,,,
242357240,Carex hitchcockiana,Griseae,240,226,,15,,60,,,,,,,,,,,,,,,,,,,
242357241,Carex holostoma,Racemosae,241,227,,10,,30,,,,,,,,,,,,,,,,,,,
242357242,Carex hoodii,Phaestoglochin,242,228,,20,,80,,,,,,1.7,2,,,0.6,,0.9,,,,,,,
242357243,Carex hookerana,Phaestoglochin,243,229,,15,,80,,,,,,1.5,2,,,,0.5,,,,,,,,
242357244,Carex hormathodes,Ovales,244,230,,20,,80,,,,,,,,,,,,,,,,,,,
242357245,Carex hostiana,Ceratocystis,245,231,,25,,60,,,,,,,,,,,,,,,,,,,
242357246,Carex houghtoniana,Paludosae,246,232,,20,,80,100,,,,,,,,,,,,,,,,,,
242357247,Carex hyalina,Ovales,247,233,,25,,95,,,,,,,,,,,,,,,,,,,
242357248,Carex hyalinolepis,Paludosae,248,234,,40,,110,,,,,,,,,,,,,,,,,,,
242357249,Carex hystericina,Vesicariae,249,235,,20,,100,,,,,,,,,,,,,,,,,,,
242357250,Carex idahoa,Racemosae,250,236,,25,,40,,,,,,,,,,,,,,,,,,,
242357251,Carex illota,Ovales,251,237,,15,,38,,,,,,,,,,,,,,,,,,,
242357252,Carex impressinervia,Griseae,252,238,,25,,85,,,,,,,,,,,,,,,,,,,
242357253,Carex incurviformis,Foetidae,253,239,,2,,12,,,,,,,,,,,,,,,,,,,
242357254,Carex infirminervia,Deweyanae,254,240,,10,,83,,0.8,,1.3,,,,,,,,,,,,,,,
242357255,Carex inops,Acrocystis,255,241,,13,,50,,,,,,,,,,,,,,,,,,,
242357258,Carex integra,Ovales,258,244,11,15,,55,,,,,,,,,,,,,,,,,,,
242357259,Carex interior,Stellulatae,259,245,,10,,95,,,,,,,,,,,,,,,,,,,
242357260,Carex interrupta,Phacocystis,260,246,,20,,75,,,,,,,,,,,,,,,,,,,
242357261,Carex intumescens,Lupulinae,261,247,15,30,,80,140,,,,,,,,,,,,,,,,,,
242357262,Carex jamesii,Phyllostachyae,262,248,,4,,37,,,,,,,,,,,,,,,,,,,
242357263,Carex jonesii,Vulpinae,263,249,,,,60,,,2,,,,,,,,,,,,,,,,
242357264,Carex joorii,Glaucescentes,264,250,,,,125,,,,,,,,,,,,,,,,,,,
242357265,Carex juniperorum,Phyllostachyae,265,251,,2,,6.5,9.1,,,,,,,,,,,,,,,,,,
200026589,Carex kobomugi,Macrocephalae,,,,10,,30,,,,,,,,,,,,,,,,,,,
242357266,Carex kraliana,Laxiflorae,266,252,,9.2,,56,,0.8,,1.1,,,,,,,,,,,,,,,
242357267,Carex krausei,Chlorostachyae,267,253,,15,,35,,,,,,,,,,,,,,,,,,,
242357268,Carex lachenalii,Glareosae,268,254,,10,,40,,,,,,,,,,,,,,,,,,,
242357269,Carex lacustris,Paludosae,269,255,,50,,135,,,,,,,,,,,,,,,,,,,
242357270,Carex laeviconica,Carex,270,256,25,30,,110,,,,,,,,,,,,,,,,,,,
242357271,Carex laeviculmis,Deweyanae,271,257,,14,,66,,,,,,,,,,,,,,,,,,,
242357272,Carex laevivaginata,Vulpinae,272,258,,,,80,,,2,,,,,,,,,,,,,,,,
242357273,Carex lapponica,Glareosae,273,259,,15,,40,,,,,,,,,,,,,,,,,,,
242357274,Carex lasiocarpa,Paludosae,274,260,,40,,120,,,,,,,,,,,,,,,,,,,
242357275,Carex latebracteata,Phyllostachyae,275,261,,17,,13,,,,,,,,,,,,,,,,,,,
242357276,Carex lativena,Hallerianae,276,262,,,,12,,,,,,,,,,,,,,,,,,,
242357277,Carex laxa,Paniceae,277,263,,15,,40,,,,,,,,,,,,,,,,,,,
242357278,Carex laxiculmis,Careyanae,278,264,,9,,48,,0.6,,1,,,,,,,,,,,,,,,
242357281,Carex laxiflora,Laxiflorae,281,267,,39,,47,,0.8,,2,,,,,,,,,,,,,,,
242357282,Carex leavenworthii,Phaestoglochin,282,268,,10,,80,,,,,,1,2.4,,,0.5,,1,,,,,,,
242357283,Carex lemmonii,Aulocystis,283,269,,,,80,,,,,,,,,,,,,,,,,,,
242357284,Carex lenticularis,Phacocystis,284,270,,3,,90,,,,,,,,,,,,,,Took max and min from subspecies,,,,,
242357290,Carex leporinella,Ovales,290,276,,14,,30,,,,,,,,,,,,,,,,,,,
242357291,Carex leptalea,Leptocephalae,291,277,,10,,70,,,,,,,,,,,,,,,,,,,
242357292,Carex leptonervia,Laxiflorae,292,278,,12,,44,,0.7,,1.2,,,,,,,,,,,,,,,
242357293,Carex leptopoda,Deweyanae,293,279,,21,,67,,0.7,,1.4,,,,,,,,,,,,,,,
200026598,Carex limosa,Limosae,,,,20,,60,,,,,,,,,,,,,,,,,,,
242357294,Carex livida,Paniceae,294,280,,15,,55,,,,,,,,,,,,,,,,,,,
242357295,Carex loliacea,Glareosae,295,281,,15,,40,,,,,,,,,,,,,,,,,,,
242357296,Carex lonchocarpa,Rostrales,296,282,25,35,,125,,,,,,,,,,,,,,,,,,,
242357297,Carex longii,Ovales,297,283,,30,,120,140,,,,,,,,,,,,,,,,,,
242357298,Carex louisianica,Lupulinae,298,284,,20,,75,,,,,,,,,,,,,,,,,,,
242357299,Carex lucorum,Acrocystis,299,285,,7,,55,,,,,,,,,,,,,,,,,,,
242357302,Carex lupuliformis,Lupulinae,302,288,,50,,130,,,,,,,,,,,,,,,,,,,
242357303,Carex lupulina,Lupulinae,303,289,,20,,100,130,,,,,,,,,,,,,,,,,,
242357304,Carex lurida,Vesicariae,304,290,15,25,,95,110,,,,,,,,,,,,,,,,,,
242357305,Carex lutea,Ceratocystis,305,291,40,65,,110,125,,,,,,,,,,,,,,,,,,
242357306,Carex luzulifolia,Aulocystis,306,292,,,,100,,,,,,,,,,,,,,,,,,,
242357307,Carex luzulina,Aulocystis,307,293,,,,90,,,,,,,,,,,,,,,,,,,
242357310,Carex lyngbyei,Phacocystis,310,296,,25,,130,,,,,,,,,,,,,,,,,,,
242357311,Carex mackenziei,Glareosae,311,297,,10,,40,,,,,,,,,,,,,,,,,,,
242357312,Carex macloviana,Ovales,312,298,9,16,,60,,,,,,,,,,,,,,,,,,,
242357313,Carex macrocephala,Macrocephalae,313,299,,10,,35,,,,,,,,,,,,,,,,,,,
242357314,Carex macrochaeta,Limosae,314,300,,20,,70,,,,,,,,,,,,,,,,,,,
242357315,Carex magellanica,Limosae,315,301,,10,,80,,,,,,,,,,,,,,Taken from the supspecies description. There are two subspecies but only one in the FNA,,,,,
242357317,Carex manhartii,Laxiflorae,317,303,,21,,39,,0.7,,1,,,,,,,,,,,,,,,
242357318,Carex marina,Glareosae,318,304,,10,,15,30,,,,,,,,,,,,,,,,,,
242357319,Carex mariposana,Ovales,319,305,,20,,91,,,,,,,,,,,,,,,,,,,
242357320,Carex maritima,Foetidae,320,306,,1,,25,44,,,,,,,,,,,,,,,,,,
242357321,Carex mckittrickensis,Albae,321,307,,22,,35,,,,,,,,,,,,,,,,,,,
242357322,Carex meadii,Paniceae,322,308,,15,,60,,,,,,,,,,,,,,,,,,,
242357323,Carex media,Racemosae,323,309,,15,,50,70,,,,,,,,,,,,,,,,,,
242357324,Carex melanostachya,Paludosae,324,310,,25,,65,,,,,,,,,,,,,,,,,,,
242357325,Carex membranacea,Vesicariae,325,311,,13,,55,,,,,,,,,,,,,,,,,,,
242357326,Carex mendocinensis,Hymenochlaenae,326,312,,25,,80,,,,,,,,,,,,,,,,,,,
242357327,Carex merritt-fernaldii,Ovales,327,313,,30,,100,,,,,,,,,,,,,,,,,,,
242357328,Carex mertensii,Racemosae,328,314,,30,,80,,,,,,,,,,,,,,,,,,,
242357329,Carex mesochorea,Phaestoglochin,329,315,,15,,100,,,,,,1.5,3,,,0.9,,1.1,,,,,,,
242357330,Carex michauxiana,Rostrales,330,316,,15,,70,,,,,,,,,,,,,,,,,,,
242357331,Carex microchaeta,Scitae,331,317,,5,,35,,,,,,,,,,,,,,,,,,,
242357334,Carex microdonta,Granulares,334,320,,10,,56,,,,,,,,,,,,,,,,,,,
242101068,Carex microglochin,Leucoglochin,,,2,4,,23,36,,,,,,,,,,,,,Taken from the supspecies description. There are two subspecies but only one in the FNA,,,,,
242357336,Carex micropoda,Dornera,336,322,,5,,30,40,,,,,,,,,,,,,,,,,,
242357337,Carex microptera,Ovales,337,323,,20,,110,,,,,,,,,,,,,,,,,,,
242357338,Carex misera,Hymenochlaenae,338,324,,25,,50,,,,,,,,,,,,,,,,,,,
242357339,Carex missouriensis,Ovales,339,325,,45,,90,,,,,,,,,,,,,,,,,,,
242357340,Carex mitchelliana,Phacocystis,340,326,,40,,140,,,,,,,,,,,,,,,,,,,
242357341,Carex molesta,Ovales,341,327,,35,,110,,,,,,,,,,,,,,,,,,,
242357342,Carex molestiformis,Ovales,342,328,,25,,120,,,,,,,,,,,,,,,,,,,
242357343,Carex muehlenbergii,Phaestoglochin,343,329,,20,,90,,,,,,1.7,2.2,,,0.7,,1.1,,,,,,,
242357346,Carex multicaulis,Firmiculmes,346,332,,14,,50,,,,,,,,,,,,,,,,,,,
242357347,Carex multicostata,Ovales,347,333,,14,,110,,,,,,,,,,,,,,,,,,,
242357348,Carex muricata,Phaestoglochin,348,334,,10,,85,,,,,,1.5,2.5,,,0.6,,0.8,,Taken from the supspecies description. There are two subspecies but only one in the FNA,,,,,
242357350,Carex muriculata,Schiedeanae,350,336,10,20,,80,,,,,,,,,,,,,,,,,,,
242357351,Carex muskingumensis,Ovales,351,337,,40,,100,,,,,,,,,,,,,,,,,,,
242357352,Carex nardina,Nardinae,352,338,,1,,12,,,,,,,,,,,,,,,,,,,
242357353,Carex nebrascensis,Phacocystis,353,339,,20,,90,,,,,,,,,,,,,,,,,,,
242357354,Carex nelsonii,Racemosae,354,340,,15,,30,,,,,,,,,,,,,,,,,,,
242357355,Carex nervina,Vulpinae,355,341,,,,70,,,1.5,,,,,,,,,,,,,,,,
242357356,Carex neurophora,Vulpinae,356,342,,,,60,,,1.5,,,,,,,,,,,,,,,,
242357357,Carex nigra,Phacocystis,357,343,,10,,110,,,,,,,,,,,,,,,,,,,
242357358,Carex nigricans,Dornera,358,344,,5,,30,,,,,,,,,,,,,,,,,,,
242357359,Carex nigromarginata,Acrocystis,359,345,,8,,27,,,,,,,,,,,,,,,,,,,
242357360,Carex normalis,Ovales,360,346,,35,,140,,,,,,,,,,,,,,,,,,,
242357361,Carex norvegica,Racemosae,361,347,,5,,35,,,,,,,,,,,,,,,,,,,
242357362,Carex nova,Racemosae,362,348,,15,,60,,,,,,,,,,,,,,,,,,,
242357363,Carex novae-angliae,Acrocystis,363,349,,5,,40,,,,,,,,,,,,,,,,,,,
242357364,Carex nudata,Phacocystis,364,350,,35,,70,,,,,,,,,,,,,,,,,,,
242357365,Carex obispoensis,Hymenochlaenae,365,351,,60,,180,,2,,2.5,,,,,,,,,,,,,,,
242357366,Carex obnupta,Phacocystis,366,352,,20,,120,,,,,,,,,,,,,,,,,,,
242357367,Carex obtusata,Obtusatae,367,353,3,10,,20,,,,,,,,,,,,,,,,,,,
242357368,Carex occidentalis,Phaestoglochin,368,354,,25,,90,,,,,,1.6,2,,,0.6,,0.7,,,,,,,
242357369,Carex oklahomensis,Vulpinae,369,355,,,,80,,,2,,,,,,,,,,,,,,,,
242357370,Carex oligocarpa,Griseae,370,356,,10,,55,,,,,,3.2,8.8,,,,,,,Width measurement taken at base & measurement 'to' entered data,,,,,
242357371,Carex oligosperma,Vesicariae,371,357,,30,,90,,,,,,,,,,,,,,,,,,,
242357372,Carex opaca,Ovales,372,358,,50,,115,,,,,,,,,,,,,,,,,,,
242357373,Carex oreocharis,Filifoliae,373,359,,10,,50,,,,,,,,,,,,,,,,,,,
242357374,Carex ormostachya,Laxiflorae,374,360,,28,,44,,1.4,,1.8,,,,,,,,,,,,,,,
242357375,Carex oronensis,Ovales,375,361,,30,,100,,,,,,,,,,,,,,,,,,,
242357376,Carex ouachitana,Griseae,376,362,,20,,60,68,,,,,4.8,10.4,,,,,,,Width measurement taken at base & measurement 'to' entered data,,,,,
242357377,Carex ovalis,Ovales,377,363,24,35,,85,,,,,,,,,,,,,,,,,,,
242357378,Carex oxylepis,Hymenochlaenae,378,364,,25,,80,,,,,,,,,,,,,,,,,,,
242357379,Carex ozarkana,Ovales,379,365,35,45,,95,110,,,,,,,,,,,,,,,,,,
242357380,Carex pachystachya,Ovales,380,366,,15,,120,,,,,,,,,,,,,,,,,,,
242357381,Carex paeninsulae,Griseae,381,367,,8.9,,39,,,,,,4.8,11.4,,,,,,,Width measurement taken at base & measurement 'to' entered data,,,,,
242357382,Carex paleacea,Phacocystis,382,368,,15,,80,,,,,,,,,,,,,,,,,,,
242357383,Carex pallescens,Porocystis,383,369,,20,,80,,,,,,,,,,,,,,,,,,,
242357384,Carex panicea,Paniceae,384,370,0.8,14,,75,,,,,,,,,,,,,,,,,,,
242357385,Carex pansa,Divisae,385,371,,8,,40,,,,,,,,,,,,,,,,,,,
242357386,Carex parallela,Physoglochin,386,372,,5,,30,,,,,,,,,,,,,,,,,,,
242357388,Carex parryana,Racemosae,388,374,,10,,35,,,,,,,,,,,,,,,,,,,
242357389,Carex pauciflora,Leucoglochin,389,375,,10,,40,60,,,,,,,,,,,,,,,,,,
242357390,Carex paysonis,Scitae,390,376,,15,,50,,,,,,,,,,,,,,,,,,,
242357391,Carex peckii,Acrocystis,391,377,,21,,47,,,,,,,,,,,,,,,,,,,
242357392,Carex pedunculata,Clandestinae,392,378,,8.8,,28,,,,,,,,,,,,,,,,,,,
242357393,Carex pellita,Paludosae,393,379,,15,,100,,,,,,,,,,,,,,,,,,,
242357394,Carex pelocarpa,Racemosae,394,380,,10,,40,,,,,,,,,,,,,,,,,,,
242357395,Carex pendula,Rhynchocystis,395,381,,90,,180,,,,,,,,,,,,,,Filled in from section,,,,,
242357396,Carex pensylvanica,Acrocystis,396,382,,10,,45,,,,,,,,,,,,,,,,,,,
242357397,Carex perdentata,Phaestoglochin,397,383,,17,,75,90,,,,,2,3.5,,,,0.5,,,,,,,,
242357398,Carex perglobosa,Foetidae,398,384,,5,,15,,,,,,,,,,,,,,,,,,,
242357399,Carex petasata,Ovales,399,385,,30,,85,,,,,,,,,,,,,,,,,,,
242357400,Carex petricosa,Aulocystis,400,386,,10,,90,,,,,,,,,,,,,,,,,,,
242357403,Carex phaeocephala,Ovales,403,389,5,15,,45,,,,,,,,,,,,,,,,,,,
242357404,Carex picta,Pictae,404,390,,12,,35,,,,,,,,,,,,,,,,,,,
242357405,Carex pigra,Griseae,405,391,,10,,50,,,,,,,,,,,,,,,,,,,
242357406,Carex pityophila,Acrocystis,406,392,,3,,12,,,,,,,,,,,,,,,,,,,
242357407,Carex planispicata,Griseae,407,393,,14,,60,,,,,3.4,5.5,9.6,,,,,,,Width measurement taken at base & measurement 'to' entered data,,,,,
242357408,Carex planostachys,Hallerianae,408,394,,,,30,,,,,,,,,,,,,,,,,,,
242357409,Carex plantaginea,Careyanae,409,395,,24,,54,,0.7,,1,,,,,,,,,,,,,,,
242357410,Carex platyphylla,Careyanae,410,396,,14,,38,,0.2,,0.5,,,,,,,,,,,,,,,
242357411,Carex pluriflora,Limosae,411,397,,20,,60,,,,,,,,,,,,,,,,,,,
242357412,Carex podocarpa,Scitae,412,398,,5,,60,,,,,,,,,,,,,,,,,,,
242357413,Carex polymorpha,Paniceae,413,399,,30,,60,,,,,,,,,,,,,,,,,,,
242357414,Carex praeceptorum,Glareosae,414,400,,10,,20,30,,,,,,,,,,,,,,,,,,
242357415,Carex praegracilis,Divisae,415,401,10,25,,80,100,,,,,,,,,,,,,,,,,,
242357416,Carex prairea,Heleoglochin,416,402,,3,,6,100,,,,,,,,,,,,,,,,,,
242357417,Carex prasina,Hymenochlaenae,417,403,,30,,80,,,,,,,,,,,,,,,,,,,
242357418,Carex praticola,Ovales,418,404,16,30,,70,95,,,,,,,,,,,,,,,,,,
242357419,Carex preslii,Ovales,419,405,,23,,56,,,,,,,,,,,,,,,,,,,
242357420,Carex projecta,Ovales,420,406,,50,,90,,,,,,,,,,,,,,,,,,,
242357421,Carex proposita,Ovales,421,407,,10,,35,,,,,,,,,,,,,,,,,,,
242101081,Carex pseudocyperus,Vesicariae,,,,25,,100,,,,,,,,,,,,,,,,,,,
200026624,Carex pumila,Paludosae,,,,8,,30,,,,,,,,,,,,,,,,,,,
242357422,Carex purpurifera,Laxiflorae,422,408,,28,,56,,0.7,,1.2,,,,,,,,,,,,,,,
242357423,Carex radfordii,Laxiflorae,423,409,,28,,61,,0.7,,1.2,,,,,,,,,,,,,,,
242357424,Carex radiata,Phaestoglochin,424,410,,20,,80,,,,,,0.8,1.5,,,0.4,,0.5,,,,,,,
242357425,Carex ramenskii,Phacocystis,425,411,,10,,50,,,,,,,,,,,,,,,,,,,
242357426,Carex rariflora,Limosae,426,412,,5,,35,,,,,,,,,,,,,,,,,,,
242357427,Carex raynoldsii,Racemosae,427,413,,20,,75,,,,,,,,,,,,,,,,,,,
242357428,Carex recta,Phacocystis,428,414,,25,,80,,,,,,,,,,,,,,,,,,,
242357429,Carex reniformis,Ovales,429,415,,25,,75,,,,,,,,,,,,,,,,,,,
242357430,Carex retroflexa,Phaestoglochin,430,416,,10,,75,,,,,,1.3,1.8,,,0.5,,0.8,,,,,,,
242357431,Carex retrorsa,Vesicariae,431,417,,10,,105,,,,,,,,,,,,,,,,,,,
242357432,Carex richardsonii,Clandestinae,432,418,,14,,32,,,,,,,,,,,,,,,,,,,
242357433,Carex roanensis,Hymenochlaenae,433,419,,60,,85,,,,,,,,,,,,,,,,,,,
242357434,Carex rosea,Phaestoglochin,434,420,,20,,90,,,,,1.5,1.6,2.2,,,0.5,,0.9,,,,,,,
242357435,Carex rossii,Acrocystis,435,421,,7,,30,40,,,,,,,,,,,,,,,,,,
242357436,Carex rostrata,Vesicariae,436,422,,8,,90,,,,,,,,,,,,,,,,,,,
242357437,Carex rotundata,Vesicariae,437,423,,17,,48,,,,,,,,,,,,,,,,,,,
242357438,Carex rufina,Phacocystis,438,424,,4,,15,,,,,,,,,,,,,,,,,,,
242357439,Carex rupestris,Rupestres,439,425,,4,,20,,,,,,,,,,,,,,,,,,,
242357440,Carex ruthii,Stellulatae,440,426,23,30,,100,,,,,,,,,,,,,,,,,,,
242357441,Carex sabulosa,Racemosae,441,427,,25,,35,,,,,,,,,,,,,,,,,,,
242357442,Carex salina,Phacocystis,442,428,,6,,35,,,,,,,,,,,,,,,,,,,
242357443,Carex sartwelliana,Paludosae,443,429,,45,,130,,,,,,,,,,,,,,,,,,,
242357444,Carex sartwellii,Holarrhenae,444,430,30,40,,120,,,,,,,,,,,,,,,,,,,
242357445,Carex saxatilis,Vesicariae,445,431,,8,,90,,,,,,,,,,,,,,,,,,,
242357446,Carex saximontana,Phyllostachyae,446,432,,2.5,,34,,,,,,,,,,,,,,,,,,,
242357447,Carex scabrata,Anomalae,447,433,,30,,90,,,,,,,,,,,,,,,,,,,
242357448,Carex scabriuscula,Scirpinae,448,434,30,35,,65,,,,,,,,,,,,,,,,,,,
242357449,Carex schottii,Phacocystis,449,435,,75,,150,,,,,,,,,,,,,,,,,,,
242357450,Carex schweinitzii,Vesicariae,450,436,,18,,65,,,,,,,,,,,,,,,,,,,
242357451,Carex scirpoidea,,451,437,,5,,35,40,,,,,,,,,,,,,,,,,,
242357456,Carex scoparia,Ovales,456,442,,20,,100,,,,,,,,,,,,,,,,,,,
242357459,Carex scopulorum,Phacocystis,459,445,,10,,90,,,,,,,,,,,,,,,,,,,
242357533,Carex senta,Phacocystis,533,519,,50,,100,,,,,,,,,,,,,,,,,,,
242357534,Carex seorsa,Stellulatae,534,520,,15,,75,,,,,,,,,,,,,,,,,,,
242357535,Carex serpenticola,Acrocystis,535,521,,8,,38,,,,,,,,,,,,,,,,,,,
242357536,Carex serratodens,Racemosae,536,522,,30,,75,,,,,,,,,,,,,,,,,,,
242357537,Carex sheldonii,Carex,537,523,,40,,80,,,,,,,,,,,,,,,,,,,
242357538,Carex shinnersii,Ovales,538,524,,40,,110,,,,,,,,,,,,,,,,,,,
242357539,Carex shortiana,Shortianae,539,525,,30,,90,,,,,,,,,,,,,,,,,,,
242357540,Carex siccata,Ammoglochin,540,526,,15,,90,,,,,,,,,,,,,,,,,,,
242357541,Carex silicea,Ovales,541,527,,15,,85,,,,,,,,,,,,,,,,,,,
242357542,Carex simulata,Divisae,542,528,10,20,,80,,,,,,,,,,,,,,,,,,,
242357543,Carex socialis,Phaestoglochin,543,529,,20,,70,,,,,,1.2,1.8,,,0.4,,0.7,,,,,,,
242357544,Carex sparganioides,Phaestoglochin,544,530,,30,,100,,,,,,3,6,,,0.7,,1.1,,,,,,,
242357545,Carex specifica,Ovales,545,531,,50,,85,,,,,,,,,,,,,,,,,,,
242357546,Carex spectabilis,Scitae,546,532,,25,,50,,,,,,,,,,,,,,,,,,,
242357547,Carex specuicola,Racemosae,547,533,,25,,45,,,,,,,,,,,,,,,,,,,
242357548,Carex spicata,Phaestoglochin,548,534,,10,,85,,,,,,1.8,2.2,,,0.5,,0.9,,,,,,,
242357549,Carex spissa,Hispidae,549,535,,,110,,,,5,,,,,,,,,,,,,,,,
242357550,Carex sprengelii,Hymenochlaenae,550,536,,30,,90,,,,,,,,,,,,,,From Mackenzie,,,,,
242357551,Carex squarrosa,Squarrosae,551,537,,30,,80,,,,,,,,,,,,,,,,,,,
242357552,Carex stenoptila,Ovales,552,538,,17,,70,,,,,,,,,,,,,,,,,,,
242357553,Carex sterilis,Stellulatae,553,539,,10,,75,,,,,,,,,,,,,,,,,,,
242357554,Carex stevenii,Racemosae,554,540,,15,,60,,,,,,,,,,,,,,,,,,,
200026649,Carex stipata,Vulpinae,,,,,,120,,,7,,,,,,,,,,,,,,,,
242357557,Carex straminea,Ovales,557,543,,35,,100,,,,,,,,,,,,,,,,,,,
242357558,Carex straminiformis,Ovales,558,544,,20,,50,,,,,,,,,,,,,,,,,,,
242357559,Carex striata,Paludosae,559,545,,40,,90,,,,,,,,,,,,,,,,,,,
242357560,Carex striatula,Laxiflorae,560,546,,45,,62,,0.5,,1,,,,,,,,,,,,,,,
242357561,Carex stricta,Phacocystis,561,547,,50,,150,,,,,,,,,,,,,,,,,,,
242357562,Carex styloflexa,Laxiflorae,562,548,,24,,82,,0.8,,1.6,,,,,,,,,,,,,,,
242357563,Carex stylosa,Racemosae,563,549,,15,,50,,,,,,,,,,,,,,,,,,,
242357564,Carex subbracteata,Ovales,564,550,,27,,105,,,,,,,,,,,,,,,,,,,
242357565,Carex suberecta,Ovales,565,551,,40,,80,,,,,,,,,,,,,,,,,,,
242357566,Carex subfusca,Ovales,566,552,,20,,104,,,,,,,,,,,,,,,,,,,
242357567,Carex subnigricans,Inflatae,567,553,,5,,20,,,,,,2,2.5,,,,,,,,,,,,
242357568,Carex subspathacea,Phacocystis,568,554,,3,,15,,,,,,,,,,,,,,,,,,,
242357569,Carex superata,Phyllostachyae,569,555,4.7,7.1,,14.4,,,,,,,,,,,,,,,,,,,
242357570,Carex supina,Lamprochlaenae,570,556,,,,30,,,,,,,,,,,,,,Taken from the supspecies description. There are two subspecies but only one in the FNA,,,,,
242357572,Carex swanii,Porocystis,572,558,,15,,75,,,,,,,,,,,,,,,,,,,
242357573,Carex sychnocephala,Cyperoideae,573,559,,8,,40,,,,,,,,,,,,,,,,,,,
242357574,Carex sylvatica,Hymenochlaenae,574,560,,25,,80,,,,,,,,,,,,,,From Mackenzie,,,,,
242357575,Carex tahoensis,Ovales,575,561,,15,,45,,,,,,,,,,,,,,,,,,,
242357576,Carex tenax,Hallerianae,576,562,,20,,50,,,,,,,,,,,,,,,,,,,
242357577,Carex tenera,Ovales,577,563,,20,,90,,,,,,,,,,,,,,,,,,,
242357580,Carex tenuiflora,Glareosae,580,566,,10,,50,,,,,,,,,,,,,,,,,,,
242357581,Carex tetanica,Paniceae,581,567,,15,,65,,,,,,,,,,,,,,,,,,,
242357582,Carex tetrastachya,Ovales,582,568,,30,,100,,,,,,,,,,,,,,,,,,,
242357583,Carex texensis,Phaestoglochin,583,569,,10,,30,,,,,,0.5,1,,,0.4,,0.5,,,,,,,
242357584,Carex thornei,Griseae,584,570,,24,,53,,,,,,4.8,8.1,,,,,,,Width measurement taken at base & measurement 'to' entered data,,,,,
242357585,Carex thurberi,Vesicariae,585,571,,40,,100,,,,,,,,,,,,,,,,,,,
242357586,Carex timida,Phyllostachyae,586,572,,4.6,,34,,,,,,,,,,,,,,,,,,,
242357587,Carex tincta,Ovales,587,573,,25,,85,150,,,,,,,,,,,,,,,,,,
242357588,Carex tompkinsii,Firmiculmes,588,574,,10,,40,,,,,,,,,,,,,,,,,,,
242357589,Carex tonsa,Acrocystis,589,575,,4,,16,,,,,,,,,,,,,,,,,,,
242357592,Carex torreyi,Porocystis,592,578,,15,,50,,,,,,,,,,,,,,,,,,,
242357593,Carex torta,Phacocystis,593,579,,25,,75,,,,,,,,,,,,,,,,,,,
242357594,Carex triangularis,Multiflorae,594,580,,,,100,,,2,,,,,,,,,,,,,,,,
242357595,Carex tribuloides,Ovales,595,581,,50,,110,,,,,,,,,,,,,,,,,,,
242357598,Carex trichocarpa,Carex,598,584,,40,,120,,,,,,,,,,,,,,,,,,,
242357599,Carex triquetra,Triquetrae,599,585,,30,,75,,,,,,,,,,,,,,,,,,,
242357600,Carex trisperma,Glareosae,600,586,,20,,70,,,,,,,,,,,,,,,,,,,
242357601,Carex tuckermanii,Vesicariae,601,587,,40,,120,,,,,,,,,,,,,,,,,,,
242357602,Carex tumulicola,Phaestoglochin,602,588,,20,,80,,,,,,1,1.6,,,0.5,,0.8,,,,,,,
242357603,Carex turbinata,Acrocystis,603,589,,21,,47,,,,,,,,,,,,,,,,,,,
242357604,Carex turgescens,Rostrales,604,590,,45,,100,160,,,,,,,,,,,,,,,,,,
242357605,Carex typhina,Squarrosae,605,591,,30,,80,,,,,,,,,,,,,,,,,,,
242357606,Carex umbellata,Acrocystis,606,592,,3,,7.5,18,,,,,,,,,,,,,,,,,,
242357607,Carex unilateralis,Ovales,607,593,,35,,75,,,,,,,,,,,,,,,,,,,
242357608,Carex ursina,Glareosae,608,594,,2,,10,,,,,,,,,,,,,,,,,,,
242357609,Carex utriculata,Vesicariae,609,595,,25,,100,,,,,,,,,,,,,,,,,,,
242357610,Carex vacillans,Phacocystis,610,596,,15,,60,,,,,,,,,,,,,,,,,,,
242357611,Carex vaginata,Paniceae,611,597,,7,,60,,,,,,,,,,,,,,,,,,,
242357612,Carex vallicola,Phaestoglochin,612,598,,12,,60,,,,,,1,1.3,,,0.5,,1,,,,,,,
242357613,Carex venusta,Hymenochlaenae,613,599,,30,,90,,,,,,,,,,,,,,,,,,,
242357614,Carex vernacula,Foetidae,614,600,,8,,40,,,,,,,,,,,,,,,,,,,
242357615,Carex verrucosa,Glaucescentes,615,601,,,,125,,,,,,,,,,,,,,,,,,,
242357616,Carex vesicaria,Vesicariae,616,602,,15,,105,,,,,,,,,,,,,,,,,,,
242357617,Carex vestita,Paludosae,617,603,,25,,90,,,,,,,,,,,,,,,,,,,
242357618,Carex vexans,Ovales,618,604,,25,,80,,,,,,,,,,,,,,,,,,,
242357619,Carex virescens,Porocystis,619,605,,30,,100,,,,,,,,,,,,,,,,,,,
242357620,Carex viridula,Ceratocystis,620,606,,2,,85,,,,,,,,,,,,,,,,,,,
242357627,Carex vulpinoidea,Multiflorae,627,613,,,,100,,,2,,,,,,,,,,,,,,,,
242357628,Carex whitneyi,Longicaules,628,614,,25,,100,,,,,,,,,,,,,,,,,,,
242357629,Carex wiegandii,Stellulatae,629,615,,10,,105,,,,,,,,,,,,,,,,,,,
242357630,Carex willdenowii,Phyllostachyae,630,616,3.1,8.2,,29.7,,,,,,,,,,,,,,,,,,,
242357631,Carex williamsii,Chlorostachyae,631,617,,,,15,30,,,,,,,,,,,,,,,,,,
242357632,Carex woodii,Paniceae,632,618,,30,,70,,,,,,,,,,,,,,,,,,,
242357633,Carex wootonii,Ovales,633,619,,30,,75,,,,,,,,,,,,,,,,,,,
242357634,Carex xerantica,Ovales,634,620,,15,,70,,,,,,,,,,,,,,,,,,,
