"","species","continent","country","adm1","adm2","locality","lat","lon","coordUncertaintyM","alt","institution","collection","catalogNumber","basisOfRecord","collector","earliestDateCollected","latestDateCollected","gbifNotes","downloadDate","maxElevationM","minElevationM","maxDepthM","minDepthM","ISO2","cloc","calc_error","precise_enough","unique_record"
"1","Carex bulbostylis ...","North America","United States","Oklahoma","Murray","Davis, ca 1 mi S, 5 mi W",34.4769,-97.0308,NA,NA,"KU","KANU","338594","unknown","Caleb A Morse; Elizabeth F Smith",NA,NA,"Data from GBIF data index - original values.","2014-07-03",NA,NA,NA,NA,"US","Davis, ca 1 mi S, 5 mi W, Oklahoma, Murray, United States, North America",0.01,TRUE,TRUE
"4","Carex bulbostylis ...","North America","United States","Texas","Bell","Belton, ca 2 mi S, 2.5 mi W",31.0197,-97.5286,NA,NA,"KU","KANU","338547","unknown","Caleb A Morse; Elizabeth F Smith",NA,NA,"Data from GBIF data index - original values.","2014-07-03",NA,NA,NA,NA,"US","Belton, ca 2 mi S, 2.5 mi W, Texas, Bell, United States, North America",0.01,TRUE,TRUE
"5","Carex bulbostylis Mack.","North America","United States","Arkansas","Chicot","Eudora, Eudora City Park, ca. 0.5 mi. N jct. of Hwy US 65 and AR 8/159 and to E of Hwy US 65. Wooded slopes to W of cut over area in park",33.12,-91.25,NA,NA,"MO","Tropicos","3287455","specimen","C.T. Bryson & N.B. Bryson","2006-05-12","2006-05-12","Data from GBIF data index - original values.","2014-07-03",NA,NA,NA,NA,"US","Eudora, Eudora City Park, ca. 0.5 mi. N jct. of Hwy US 65 and AR 8/159 and to E of Hwy US 65. Wooded slopes to W of cut over area in park, Arkansas, Chicot, United States, North America",0.1,TRUE,TRUE
"6","Carex bulbostylis Mackenzie","North and Central America","United States","Arkansas","Jefferson","Pine Bluff, park between Lake Langhofer and Lake Pine Bluff T5S R9W S",34.23,-91.9,"32187",NA,"UA","UNA","UNA00055266","specimen","Philip E. Hyatt","1997-05-20","1997-05-20","Data from GBIF data index - original values.","2014-07-03",NA,NA,NA,NA,"US","Pine Bluff, park between Lake Langhofer and Lake Pine Bluff T5S R9W S, Arkansas, Jefferson, United States, North and Central America",0.1,TRUE,TRUE
"7","Carex bulbostylis Mackenzie","North and Central America","United States","Arkansas","Lafayette","Canfield vicinity ca 5 mi WNW along gravel road just inside the levee T18S R25W S4",33.27,-93.6,"32187",NA,"UA","UNA","UNA00057399","specimen","Philip E. Hyatt","1999-05-08","1999-05-08","Data from GBIF data index - original values.","2014-07-03",NA,NA,NA,NA,"US","Canfield vicinity ca 5 mi WNW along gravel road just inside the levee T18S R25W S4, Arkansas, Lafayette, United States, North and Central America",0.1,TRUE,TRUE
"8","Carex bulbostylis Mackenzie","North America","United States","Arkansas","Chicot County","Eudora",33.117184,-91.2565,"0.000",NA,"LSU","Herbarium","116181","unknown","Bryson, Charles T.",NA,NA,"Data from GBIF data index - original values.","2014-07-03","0.000","0.000","0.000","0.000","US","Eudora, Arkansas, Chicot County, United States, North America",1e-04,TRUE,TRUE
"111","Carex bulbostylis","North America","United States","Texas","Travis","Travis County, Texas",30.3333,-97.7794,NA,NA,"USDA NRCS","USDA Plants","CABU4-48453","unknown",NA,NA,NA,"Data from GBIF data index - original values.","2013-05-17",NA,NA,NA,NA,"US","Travis County, Texas, Texas, Travis, United States, North America",0.01,TRUE,TRUE
"26","Carex bulbostylis","North America","United States","Texas","Freestone","Freestone County, Texas",31.702337,-96.14795,NA,NA,"USDA NRCS","USDA Plants","CABU4-48161","unknown",NA,NA,NA,"Data from GBIF data index - original values.","2013-05-17",NA,NA,NA,NA,"US","Freestone County, Texas, Texas, Freestone, United States, North America",1e-04,TRUE,TRUE
"31","Carex bulbostylis","North America","United States","Texas","Bexar","Bexar County, Texas",29.448584,-98.51987,NA,NA,"USDA NRCS","USDA Plants","CABU4-48029","unknown",NA,NA,NA,"Data from GBIF data index - original values.","2013-05-17",NA,NA,NA,NA,"US","Bexar County, Texas, Texas, Bexar, United States, North America",1e-04,TRUE,TRUE
"41","Carex bulbostylis","North America","United States","Texas","Anderson","Anderson County, Texas",31.812084,-95.64744,NA,NA,"USDA NRCS","USDA Plants","CABU4-48001","unknown",NA,NA,NA,"Data from GBIF data index - original values.","2013-05-17",NA,NA,NA,NA,"US","Anderson County, Texas, Texas, Anderson, United States, North America",1e-04,TRUE,TRUE
"51","Carex bulbostylis","North America","United States","Texas","Gonzales","Gonzales County, Texas",29.451275,-97.494484,NA,NA,"USDA NRCS","USDA Plants","CABU4-48177","unknown",NA,NA,NA,"Data from GBIF data index - original values.","2013-05-17",NA,NA,NA,NA,"US","Gonzales County, Texas, Texas, Gonzales, United States, North America",1e-04,TRUE,TRUE
"62","Carex bulbostylis","North America","United States","Mississippi","Yazoo","Yazoo County, Mississippi",32.780666,-90.40496,NA,NA,"USDA NRCS","USDA Plants","CABU4-28163","unknown",NA,NA,NA,"Data from GBIF data index - original values.","2013-05-17",NA,NA,NA,NA,"US","Yazoo County, Mississippi, Mississippi, Yazoo, United States, North America",1e-04,TRUE,TRUE
"72","Carex bulbostylis","North America","United States","Texas","Brazoria","Brazoria County, Texas",29.169167,-95.435295,NA,NA,"USDA NRCS","USDA Plants","CABU4-48039","unknown",NA,NA,NA,"Data from GBIF data index - original values.","2013-05-17",NA,NA,NA,NA,"US","Brazoria County, Texas, Texas, Brazoria, United States, North America",1e-04,TRUE,TRUE
"82","Carex bulbostylis","North America","United States","Texas","Parker","Parker County, Texas",32.778,-97.8058,NA,NA,"USDA NRCS","USDA Plants","CABU4-48367","unknown",NA,NA,NA,"Data from GBIF data index - original values.","2013-05-17",NA,NA,NA,NA,"US","Parker County, Texas, Texas, Parker, United States, North America",0.1,TRUE,TRUE
"9","Carex bulbostylis","North America","United States","Texas","La Salle","La Salle County, Texas",28.3443,-99.100395,NA,NA,"USDA NRCS","USDA Plants","CABU4-48283","unknown",NA,NA,NA,"Data from GBIF data index - original values.","2013-05-17",NA,NA,NA,NA,"US","La Salle County, Texas, Texas, La Salle, United States, North America",0.01,TRUE,TRUE
"10","Carex bulbostylis","North America","United States","Texas","San Jacinto","San Jacinto County, Texas",30.575047,-95.16269,NA,NA,"USDA NRCS","USDA Plants","CABU4-48407","unknown",NA,NA,NA,"Data from GBIF data index - original values.","2013-05-17",NA,NA,NA,NA,"US","San Jacinto County, Texas, Texas, San Jacinto, United States, North America",1e-04,TRUE,TRUE
"11","Carex bulbostylis","North America","United States","Texas","Brazos","Brazos County, Texas",30.66165,-96.30053,NA,NA,"USDA NRCS","USDA Plants","CABU4-48041","unknown",NA,NA,NA,"Data from GBIF data index - original values.","2013-05-17",NA,NA,NA,NA,"US","Brazos County, Texas, Texas, Brazos, United States, North America",0.001,TRUE,TRUE
"12","Carex bulbostylis","North America","United States","Mississippi","Bolivar","Bolivar County, Mississippi",33.79471,-90.88209,NA,NA,"USDA NRCS","USDA Plants","CABU4-28011","unknown",NA,NA,NA,"Data from GBIF data index - original values.","2013-05-17",NA,NA,NA,NA,"US","Bolivar County, Mississippi, Mississippi, Bolivar, United States, North America",0.001,TRUE,TRUE
"13","Carex bulbostylis","North America","United States","Texas","Bosque","Bosque County, Texas",31.901794,-97.629105,NA,NA,"USDA NRCS","USDA Plants","CABU4-48035","unknown",NA,NA,NA,"Data from GBIF data index - original values.","2013-05-17",NA,NA,NA,NA,"US","Bosque County, Texas, Texas, Bosque, United States, North America",1e-04,TRUE,TRUE
"14","Carex bulbostylis","North America","United States","Texas","Burleson","Burleson County, Texas",30.49335,-96.62141,NA,NA,"USDA NRCS","USDA Plants","CABU4-48051","unknown",NA,NA,NA,"Data from GBIF data index - original values.","2013-05-17",NA,NA,NA,NA,"US","Burleson County, Texas, Texas, Burleson, United States, North America",0.001,TRUE,TRUE
"15","Carex bulbostylis","North America","United States","Texas","Bowie","Bowie County, Texas",33.445683,-94.42266,NA,NA,"USDA NRCS","USDA Plants","CABU4-48037","unknown",NA,NA,NA,"Data from GBIF data index - original values.","2013-05-17",NA,NA,NA,NA,"US","Bowie County, Texas, Texas, Bowie, United States, North America",1e-04,TRUE,TRUE
"16","Carex bulbostylis","North America","United States","Mississippi","Warren","Warren County, Mississippi",32.35744,-90.85174,NA,NA,"USDA NRCS","USDA Plants","CABU4-28149","unknown",NA,NA,NA,"Data from GBIF data index - original values.","2013-05-17",NA,NA,NA,NA,"US","Warren County, Mississippi, Mississippi, Warren, United States, North America",1e-04,TRUE,TRUE
"17","Carex bulbostylis","North America","United States","Texas","Collin","Collin County, Texas",33.1846,-96.577644,NA,NA,"USDA NRCS","USDA Plants","CABU4-48085","unknown",NA,NA,NA,"Data from GBIF data index - original values.","2013-05-17",NA,NA,NA,NA,"US","Collin County, Texas, Texas, Collin, United States, North America",1e-04,TRUE,TRUE
"18","Carex bulbostylis","North America","United States","Texas","Fannin","Fannin County, Texas",33.588238,-96.105156,NA,NA,"USDA NRCS","USDA Plants","CABU4-48147","unknown",NA,NA,NA,"Data from GBIF data index - original values.","2013-05-17",NA,NA,NA,NA,"US","Fannin County, Texas, Texas, Fannin, United States, North America",1e-04,TRUE,TRUE
"19","Carex bulbostylis","North America","United States","Texas","Marion","Marion County, Texas",32.798344,-94.3575,NA,NA,"USDA NRCS","USDA Plants","CABU4-48315","unknown",NA,NA,NA,"Data from GBIF data index - original values.","2013-05-17",NA,NA,NA,NA,"US","Marion County, Texas, Texas, Marion, United States, North America",1e-04,TRUE,TRUE
"20","Carex bulbostylis","North America","United States","Texas","Walker","Walker County, Texas",30.737951,-95.573906,NA,NA,"USDA NRCS","USDA Plants","CABU4-48471","unknown",NA,NA,NA,"Data from GBIF data index - original values.","2013-05-17",NA,NA,NA,NA,"US","Walker County, Texas, Texas, Walker, United States, North America",1e-04,TRUE,TRUE
"21","Carex bulbostylis","North America","United States","Texas","Tarrant","Tarrant County, Texas",32.77045,-97.29328,NA,NA,"USDA NRCS","USDA Plants","CABU4-48439","unknown",NA,NA,NA,"Data from GBIF data index - original values.","2013-05-17",NA,NA,NA,NA,"US","Tarrant County, Texas, Texas, Tarrant, United States, North America",1e-04,TRUE,TRUE
"22","Carex bulbostylis","North America","United States","Texas","Bastrop","Bastrop County, Texas",30.103798,-97.31155,NA,NA,"USDA NRCS","USDA Plants","CABU4-48021","unknown",NA,NA,NA,"Data from GBIF data index - original values.","2013-05-17",NA,NA,NA,NA,"US","Bastrop County, Texas, Texas, Bastrop, United States, North America",1e-04,TRUE,TRUE
"23","Carex bulbostylis","North America","United States","Texas","Bell","Bell County, Texas",31.037453,-97.4759,NA,NA,"USDA NRCS","USDA Plants","CABU4-48027","unknown",NA,NA,NA,"Data from GBIF data index - original values.","2013-05-17",NA,NA,NA,NA,"US","Bell County, Texas, Texas, Bell, United States, North America",1e-04,TRUE,TRUE
"24","Carex bulbostylis","North America","United States","Texas","Dallas","Dallas County, Texas",32.76685,-96.77801,NA,NA,"USDA NRCS","USDA Plants","CABU4-48113","unknown",NA,NA,NA,"Data from GBIF data index - original values.","2013-05-17",NA,NA,NA,NA,"US","Dallas County, Texas, Texas, Dallas, United States, North America",0.001,TRUE,TRUE
"25","Carex bulbostylis","North America","United States","Texas","Red River","Red River County, Texas",33.618416,-95.05102,NA,NA,"USDA NRCS","USDA Plants","CABU4-48387","unknown",NA,NA,NA,"Data from GBIF data index - original values.","2013-05-17",NA,NA,NA,NA,"US","Red River County, Texas, Texas, Red River, United States, North America",1e-04,TRUE,TRUE
