"","species","continent","country","adm1","adm2","locality","lat","lon","coordUncertaintyM","alt","institution","collection","catalogNumber","basisOfRecord","collector","earliestDateCollected","latestDateCollected","gbifNotes","downloadDate","maxElevationM","minElevationM","maxDepthM","minDepthM","ISO2","cloc","calc_error","precise_enough","unique_record"
"1","Carex chapmanii Steud.","North America","United States","Florida",NA,"Aspalaga.",30.62,-84.91,NA,NA,"MO","Tropicos","2713941","specimen","Anonymous",NA,NA,"Data from GBIF data index - original values.","2014-07-03",NA,NA,NA,NA,"US","Aspalaga., Florida, United States, North America",1,TRUE,TRUE
"111","Carex chapmanii","North America","United States","Florida","Columbia","Columbia County, Florida",30.225178,-82.62503,NA,NA,"USDA NRCS","USDA Plants","CACH9-12023","unknown",NA,NA,NA,"Data from GBIF data index - original values.","2013-05-17",NA,NA,NA,NA,"US","Columbia County, Florida, Florida, Columbia, United States, North America",1e-04,TRUE,TRUE
"2","Carex chapmanii","North America","United States","Florida","Wakulla","Wakulla County, Florida",30.152674,-84.38125,NA,NA,"USDA NRCS","USDA Plants","CACH9-12129","unknown",NA,NA,NA,"Data from GBIF data index - original values.","2013-05-17",NA,NA,NA,NA,"US","Wakulla County, Florida, Florida, Wakulla, United States, North America",1e-04,TRUE,TRUE
"3","Carex chapmanii","North America","United States","Florida","St. Johns","St. Johns County, Florida",29.907782,-81.40676,NA,NA,"USDA NRCS","USDA Plants","CACH9-12109","unknown",NA,NA,NA,"Data from GBIF data index - original values.","2013-05-17",NA,NA,NA,NA,"US","St. Johns County, Florida, Florida, St. Johns, United States, North America",1e-04,TRUE,TRUE
"4","Carex chapmanii","North America","United States","Florida","Clay","Clay County, Florida",29.976759,-81.85793,NA,NA,"USDA NRCS","USDA Plants","CACH9-12019","unknown",NA,NA,NA,"Data from GBIF data index - original values.","2013-05-17",NA,NA,NA,NA,"US","Clay County, Florida, Florida, Clay, United States, North America",1e-04,TRUE,TRUE
"5","Carex chapmanii","North America","United States","Tennessee","Putnam","Putnam County, Tennessee",36.13952,-85.49622,NA,NA,"USDA NRCS","USDA Plants","CACH9-47141","unknown",NA,NA,NA,"Data from GBIF data index - original values.","2013-05-17",NA,NA,NA,NA,"US","Putnam County, Tennessee, Tennessee, Putnam, United States, North America",1e-04,TRUE,TRUE
"6","Carex chapmanii","North America","United States","North Carolina","Craven","Craven County, North Carolina",35.120365,-77.08206,NA,NA,"USDA NRCS","USDA Plants","CACH9-37049","unknown",NA,NA,NA,"Data from GBIF data index - original values.","2013-05-17",NA,NA,NA,NA,"US","Craven County, North Carolina, North Carolina, Craven, United States, North America",1e-04,TRUE,TRUE
"7","Carex chapmanii","North America","United States","South Carolina","Dorchester","Dorchester County, South Carolina",33.08131,-80.40449,NA,NA,"USDA NRCS","USDA Plants","CACH9-45035","unknown",NA,NA,NA,"Data from GBIF data index - original values.","2013-05-17",NA,NA,NA,NA,"US","Dorchester County, South Carolina, South Carolina, Dorchester, United States, North America",0.001,TRUE,TRUE
"8","Carex chapmanii","North America","United States","Florida","Jefferson","Jefferson County, Florida",30.420937,-83.89646,NA,NA,"USDA NRCS","USDA Plants","CACH9-12065","unknown",NA,NA,NA,"Data from GBIF data index - original values.","2013-05-17",NA,NA,NA,NA,"US","Jefferson County, Florida, Florida, Jefferson, United States, North America",1e-04,TRUE,TRUE
"9","Carex chapmanii","North America","United States","Florida","Pasco","Pasco County, Florida",28.300959,-82.43857,NA,NA,"USDA NRCS","USDA Plants","CACH9-12101","unknown",NA,NA,NA,"Data from GBIF data index - original values.","2013-05-17",NA,NA,NA,NA,"US","Pasco County, Florida, Florida, Pasco, United States, North America",1e-04,TRUE,TRUE
"10","Carex chapmanii","North America","United States","Florida","Taylor","Taylor County, Florida",30.018776,-83.61589,NA,NA,"USDA NRCS","USDA Plants","CACH9-12123","unknown",NA,NA,NA,"Data from GBIF data index - original values.","2013-05-17",NA,NA,NA,NA,"US","Taylor County, Florida, Florida, Taylor, United States, North America",1e-04,TRUE,TRUE
"11","Carex chapmanii","North America","United States","Florida","Marion","Marion County, Florida",29.211533,-82.05905,NA,NA,"USDA NRCS","USDA Plants","CACH9-12083","unknown",NA,NA,NA,"Data from GBIF data index - original values.","2013-05-17",NA,NA,NA,NA,"US","Marion County, Florida, Florida, Marion, United States, North America",1e-04,TRUE,TRUE
"12","Carex chapmanii","North America","United States","North Carolina","Bladen","Bladen County, North Carolina",34.619415,-78.555916,NA,NA,"USDA NRCS","USDA Plants","CACH9-37017","unknown",NA,NA,NA,"Data from GBIF data index - original values.","2013-05-17",NA,NA,NA,NA,"US","Bladen County, North Carolina, North Carolina, Bladen, United States, North America",1e-04,TRUE,TRUE
"13","Carex chapmanii","North America","United States","Virginia","Greensville","Greensville County, Virginia",36.674526,-77.562485,NA,NA,"USDA NRCS","USDA Plants","CACH9-51081","unknown",NA,NA,NA,"Data from GBIF data index - original values.","2013-05-17",NA,NA,NA,NA,"US","Greensville County, Virginia, Virginia, Greensville, United States, North America",1e-04,TRUE,TRUE
"14","Carex chapmanii","North America","United States","Florida","Duval","Duval County, Florida",30.33415,-81.648506,NA,NA,"USDA NRCS","USDA Plants","CACH9-12031","unknown",NA,NA,NA,"Data from GBIF data index - original values.","2013-05-17",NA,NA,NA,NA,"US","Duval County, Florida, Florida, Duval, United States, North America",0.001,TRUE,TRUE
"15","Carex chapmanii","North America","United States","Florida","Polk","Polk County, Florida",27.959784,-81.70007,NA,NA,"USDA NRCS","USDA Plants","CACH9-12105","unknown",NA,NA,NA,"Data from GBIF data index - original values.","2013-05-17",NA,NA,NA,NA,"US","Polk County, Florida, Florida, Polk, United States, North America",1e-04,TRUE,TRUE
"16","Carex chapmanii","North America","United States","North Carolina","New Hanover","New Hanover County, North Carolina",34.182266,-77.86493,NA,NA,"USDA NRCS","USDA Plants","CACH9-37129","unknown",NA,NA,NA,"Data from GBIF data index - original values.","2013-05-17",NA,NA,NA,NA,"US","New Hanover County, North Carolina, North Carolina, New Hanover, United States, North America",1e-04,TRUE,TRUE
"17","Carex chapmanii","North America","United States","Florida","Putnam","Putnam County, Florida",29.605267,-81.74038,NA,NA,"USDA NRCS","USDA Plants","CACH9-12107","unknown",NA,NA,NA,"Data from GBIF data index - original values.","2013-05-17",NA,NA,NA,NA,"US","Putnam County, Florida, Florida, Putnam, United States, North America",1e-04,TRUE,TRUE
"18","Carex chapmanii","North America","United States","Florida","Hamilton","Hamilton County, Florida",30.491674,-82.94891,NA,NA,"USDA NRCS","USDA Plants","CACH9-12047","unknown",NA,NA,NA,"Data from GBIF data index - original values.","2013-05-17",NA,NA,NA,NA,"US","Hamilton County, Florida, Florida, Hamilton, United States, North America",1e-04,TRUE,TRUE
"19","Carex chapmanii","North America","United States","Florida","Volusia","Volusia County, Florida",29.067589,-81.1385,NA,NA,"USDA NRCS","USDA Plants","CACH9-12127","unknown",NA,NA,NA,"Data from GBIF data index - original values.","2013-05-17",NA,NA,NA,NA,"US","Volusia County, Florida, Florida, Volusia, United States, North America",1e-04,TRUE,TRUE
"20","Carex chapmanii","North America","United States","Florida","Orange","Orange County, Florida",28.513954,-81.32213,NA,NA,"USDA NRCS","USDA Plants","CACH9-12095","unknown",NA,NA,NA,"Data from GBIF data index - original values.","2013-05-17",NA,NA,NA,NA,"US","Orange County, Florida, Florida, Orange, United States, North America",1e-04,TRUE,TRUE
"21","Carex chapmanii","North America","United States","Florida","Hernando","Hernando County, Florida",28.553015,-82.46823,NA,NA,"USDA NRCS","USDA Plants","CACH9-12053","unknown",NA,NA,NA,"Data from GBIF data index - original values.","2013-05-17",NA,NA,NA,NA,"US","Hernando County, Florida, Florida, Hernando, United States, North America",1e-04,TRUE,TRUE
"22","Carex chapmanii","North America","United States","South Carolina","Bamberg","Bamberg County, South Carolina",33.218685,-81.05088,NA,NA,"USDA NRCS","USDA Plants","CACH9-45009","unknown",NA,NA,NA,"Data from GBIF data index - original values.","2013-05-17",NA,NA,NA,NA,"US","Bamberg County, South Carolina, South Carolina, Bamberg, United States, North America",1e-04,TRUE,TRUE
"23","Carex chapmanii","North America","United States","Florida","Dixie","Dixie County, Florida",29.585857,-83.19364,NA,NA,"USDA NRCS","USDA Plants","CACH9-12029","unknown",NA,NA,NA,"Data from GBIF data index - original values.","2013-05-17",NA,NA,NA,NA,"US","Dixie County, Florida, Florida, Dixie, United States, North America",1e-04,TRUE,TRUE
"24","Carex chapmanii","North America","United States","Florida","Alachua","Alachua County, Florida",29.676031,-82.35834,NA,NA,"USDA NRCS","USDA Plants","CACH9-12001","unknown",NA,NA,NA,"Data from GBIF data index - original values.","2013-05-17",NA,NA,NA,NA,"US","Alachua County, Florida, Florida, Alachua, United States, North America",1e-04,TRUE,TRUE
"25","Carex chapmanii","North America","United States","Florida","Osceola","Osceola County, Florida",28.058084,-81.14685,NA,NA,"USDA NRCS","USDA Plants","CACH9-12097","unknown",NA,NA,NA,"Data from GBIF data index - original values.","2013-05-17",NA,NA,NA,NA,"US","Osceola County, Florida, Florida, Osceola, United States, North America",1e-04,TRUE,TRUE
"26","Carex chapmanii","North America","United States","Florida","Citrus","Citrus County, Florida",28.84924,-82.51638,NA,NA,"USDA NRCS","USDA Plants","CACH9-12017","unknown",NA,NA,NA,"Data from GBIF data index - original values.","2013-05-17",NA,NA,NA,NA,"US","Citrus County, Florida, Florida, Citrus, United States, North America",0.001,TRUE,TRUE
"27","Carex chapmanii","North America","United States","Florida","Hillsborough","Hillsborough County, Florida",27.906324,-82.34609,NA,NA,"USDA NRCS","USDA Plants","CACH9-12057","unknown",NA,NA,NA,"Data from GBIF data index - original values.","2013-05-17",NA,NA,NA,NA,"US","Hillsborough County, Florida, Florida, Hillsborough, United States, North America",1e-04,TRUE,TRUE
"28","Carex chapmanii","North America","United States","Florida","Suwannee","Suwannee County, Florida",30.18671,-82.99346,NA,NA,"USDA NRCS","USDA Plants","CACH9-12121","unknown",NA,NA,NA,"Data from GBIF data index - original values.","2013-05-17",NA,NA,NA,NA,"US","Suwannee County, Florida, Florida, Suwannee, United States, North America",0.001,TRUE,TRUE
"29","Carex chapmanii","North America","United States","Florida","Seminole","Seminole County, Florida",28.708658,-81.2271,NA,NA,"USDA NRCS","USDA Plants","CACH9-12117","unknown",NA,NA,NA,"Data from GBIF data index - original values.","2013-05-17",NA,NA,NA,NA,"US","Seminole County, Florida, Florida, Seminole, United States, North America",1e-04,TRUE,TRUE
"30","Carex chapmanii","North America","United States","South Carolina","Berkeley","Berkeley County, South Carolina",33.195152,-79.95028,NA,NA,"USDA NRCS","USDA Plants","CACH9-45015","unknown",NA,NA,NA,"Data from GBIF data index - original values.","2013-05-17",NA,NA,NA,NA,"US","Berkeley County, South Carolina, South Carolina, Berkeley, United States, North America",1e-04,TRUE,TRUE
"31","Carex chapmanii","North America","United States","Florida","Sumter","Sumter County, Florida",28.708136,-82.07918,NA,NA,"USDA NRCS","USDA Plants","CACH9-12119","unknown",NA,NA,NA,"Data from GBIF data index - original values.","2013-05-17",NA,NA,NA,NA,"US","Sumter County, Florida, Florida, Sumter, United States, North America",1e-04,TRUE,TRUE
"32","Carex chapmanii","North America","United States","Florida","Lake","Lake County, Florida",28.76558,-81.71741,NA,NA,"USDA NRCS","USDA Plants","CACH9-12069","unknown",NA,NA,NA,"Data from GBIF data index - original values.","2013-05-17",NA,NA,NA,NA,"US","Lake County, Florida, Florida, Lake, United States, North America",0.001,TRUE,TRUE
"33","Carex chapmanii","North America","United States","Florida","Levy","Levy County, Florida",29.277485,-82.78985,NA,NA,"USDA NRCS","USDA Plants","CACH9-12075","unknown",NA,NA,NA,"Data from GBIF data index - original values.","2013-05-17",NA,NA,NA,NA,"US","Levy County, Florida, Florida, Levy, United States, North America",1e-04,TRUE,TRUE
