"","species","continent","country","adm1","adm2","locality","lat","lon","coordUncertaintyM","alt","institution","collection","catalogNumber","basisOfRecord","collector","earliestDateCollected","latestDateCollected","gbifNotes","downloadDate","maxElevationM","minElevationM","maxDepthM","minDepthM","ISO2","cloc","calc_error","precise_enough","unique_record"
"1","Carex congdonii  L.H.Bailey","North America","United States","California","Fresno County","Kings River Basin. Ca. 68 km NE of Fresno (FSC), Sierra National Forest, near Dinkey Lakes Trailhead.",37.157223,-119.09889,NA,"2690","CAS","BOT","942171","specimen","York, Dana","1996-07-12","1996-07-12","Data from GBIF data index - original values.","2014-07-03","2690","2690",NA,NA,"US","Kings River Basin. Ca. 68 km NE of Fresno (FSC), Sierra National Forest, near Dinkey Lakes Trailhead., California, Fresno County, United States, North America",1e-04,TRUE,TRUE
"2","Carex congdonii  L.H.Bailey","North America","United States","California","Inyo County","Morgan Pass, just east of Summit.",37.390038,-118.74908,NA,"3352.8","CAS","DS","315041","specimen","Howell, John Thomas","1946-07-16","1946-07-16","Data from GBIF data index - original values.","2014-07-03","3352.8","3352.8",NA,NA,"US","Morgan Pass, just east of Summit., California, Inyo County, United States, North America",1e-04,TRUE,TRUE
"3","Carex congdonii  L.H.Bailey","North America","United States","California","Fresno County","Kings River Basin. Ca. 97 km. E-NE of Fresno (FSC), W slope of Mt. Goddard.",37.101387,-118.72722,NA,"3755","CAS","BOT","1035580","specimen","York, Dana","1997-07-24","1997-07-24","Data from GBIF data index - original values.","2014-07-03","3755","3755",NA,NA,"US","Kings River Basin. Ca. 97 km. E-NE of Fresno (FSC), W slope of Mt. Goddard., California, Fresno County, United States, North America",1e-04,TRUE,TRUE
"4","Carex congdonii  L.H.Bailey","North America","United States","California","Fresno County","Kings Canyon National Park, Kings River Basin. Ca. 34 km S of Bishop, 4 km S-SE of Bishop Pass, Palisade Basin, shore of a Barrett Lake (topo. elev. 11,468) near my camp",37.085835,-118.534164,NA,"3495","CAS","BOT","1153410","specimen","York, Dana","1996-07-28","1996-07-28","Data from GBIF data index - original values.","2014-07-03",NA,"3495",NA,NA,"US","Kings Canyon National Park, Kings River Basin. Ca. 34 km S of Bishop, 4 km S-SE of Bishop Pass, Palisade Basin, shore of a Barrett Lake (topo. elev. 11,468) near my camp, California, Fresno County, United States, North America",1e-04,TRUE,TRUE
"5","Carex congdonii  L.H.Bailey","North America","United States","California","Mono County","Sierra Nevada. Glacier Canyon near Tioga Pass. Below lower lake.",37.9022,-119.2147,NA,"3505.2","CAS","BOT","908860","specimen","Taylor, Dean William","1981-07-28","1981-07-28","Data from GBIF data index - original values.","2014-07-03","3505.2","3505.2",NA,NA,"US","Sierra Nevada. Glacier Canyon near Tioga Pass. Below lower lake., California, Mono County, United States, North America",0.01,TRUE,TRUE
"6","Carex congdonii  L.H.Bailey","North America","United States","California","Mono County","Sierra Nevada. Hall Area, North Peak, south side, opposite Conness Glacier head.",37.977,-119.3189,NA,"3570","CAS","DS","700493","specimen","Keck, David D.","1938-08-29","1938-08-29","Data from GBIF data index - original values.","2014-07-03","3570","3570",NA,NA,"US","Sierra Nevada. Hall Area, North Peak, south side, opposite Conness Glacier head., California, Mono County, United States, North America",0.1,TRUE,TRUE
"7","Carex congdonii  L.H.Bailey","North America","United States","California","Mono County","Harvey Monroe Hall Natural Area, at southeast face of North Peak.",37.9784,-119.3101,NA,"3370","CAS","DS","263170","specimen","Keck, David D.","1938-08-29","1938-08-29","Data from GBIF data index - original values.","2014-07-03","3400","3340",NA,NA,"US","Harvey Monroe Hall Natural Area, at southeast face of North Peak., California, Mono County, United States, North America",0.01,TRUE,TRUE
"8","Carex congdonii  L.H.Bailey","North America","United States","California","Fresno County","Kings River Basin. Ca. 43 km S-SW of Bishop, 1.5 km SW of Taboose Pass, a few m back from a lake on NW of Striped Mtn",36.97139,-118.414444,NA,"3535","CAS","BOT","1089959","specimen","York, Dana","1996-09-07","1996-09-07","Data from GBIF data index - original values.","2014-07-03","3535","3535",NA,NA,"US","Kings River Basin. Ca. 43 km S-SW of Bishop, 1.5 km SW of Taboose Pass, a few m back from a lake on NW of Striped Mtn, California, Fresno County, United States, North America",0.001,TRUE,TRUE
"9","Carex congdonii  L.H.Bailey","North America","United States","California","Inyo County","Rock Creek Lake Basin. On shore of the Upper Glacial Lake.",37.399364,-118.76094,NA,"3383.28","CAS","BOT","221165","specimen","Peirson, Frank W.","1934-07-22","1934-07-22","Data from GBIF data index - original values.","2014-07-03","3383.28","3383.28",NA,NA,"US","Rock Creek Lake Basin. On shore of the Upper Glacial Lake., California, Inyo County, United States, North America",1e-04,TRUE,TRUE
"10","Carex congdonii  L.H.Bailey","North America","United States","California","Mono County","Harvey Monroe Hall Natural Area, at southeast face of North Peak.",37.9784,-119.3101,NA,"3370","CAS","BOT","293317","specimen","Keck, David D.","1938-08-29","1938-08-29","Data from GBIF data index - original values.","2014-07-03","3400","3340",NA,NA,"US","Harvey Monroe Hall Natural Area, at southeast face of North Peak., California, Mono County, United States, North America",0.01,TRUE,FALSE
"11","Carex congdonii  L.H.Bailey","North America","United States","California","Inyo County","Bench Lake.",36.7603,-118.3622,NA,"3352.8","CAS","BOT","343535","specimen","Howell, John Thomas","1948-07-19","1948-07-19","Data from GBIF data index - original values.","2014-07-03","3352.8","3352.8",NA,NA,"US","Bench Lake., California, Inyo County, United States, North America",0.01,TRUE,TRUE
"12","Carex congdonii  L.H.Bailey","North America","United States","California","Inyo County","Sierra Nevada. Near summit Kearsarge Pass, on east side.",36.7715,-118.3697,NA,"3444.24","CAS","DS","325568","specimen","Sharsmith, C. W.","1937-08-15","1937-08-15","Data from GBIF data index - original values.","2014-07-03","3444.24","3444.24",NA,NA,"US","Sierra Nevada. Near summit Kearsarge Pass, on east side., California, Inyo County, United States, North America",1e-04,TRUE,TRUE
"13","Carex congdonii  L.H.Bailey","North America","United States","California","Mono County","Sierra Nevada. Harvey Monroe Hall Natural Area. Southeast facing ravine between Mount Conness and North Plateau (west of Saddlebag Lake).",37.9567,-119.3071,NA,"3260","CAS","DS","700490","specimen","Clausen, J.","1937-08-05","1937-08-05","Data from GBIF data index - original values.","2014-07-03","3260","3260",NA,NA,"US","Sierra Nevada. Harvey Monroe Hall Natural Area. Southeast facing ravine between Mount Conness and North Plateau (west of Saddlebag Lake)., California, Mono County, United States, North America",0.01,TRUE,TRUE
"14","Carex congdonii  L.H.Bailey","North America","United States","California",NA,"Inyo-Fresno County. 0.5 km north Kearsarge Pass.",36.7804,-118.3786,NA,"3700","CAS","BOT","857149","specimen","Keefe, Joseph","1973-08-18","1973-08-18","Data from GBIF data index - original values.","2014-07-03","3700","3700",NA,NA,"US","Inyo-Fresno County. 0.5 km north Kearsarge Pass., California, United States, North America",0.01,TRUE,TRUE
"15","Carex congdonii  L.H.Bailey","North America","United States","California","Inyo County","Upper Cottonwood Lakes.",36.4964,-118.2179,NA,"3398.52","CAS","BOT","355587","specimen","Howell, John Thomas","1949-08-12","1949-08-12","Data from GBIF data index - original values.","2014-07-03","3398.52","3398.52",NA,NA,"US","Upper Cottonwood Lakes., California, Inyo County, United States, North America",0.01,TRUE,TRUE
"16","Carex congdonii  L.H.Bailey","North America","United States","California","Mono County","Foot of Mammoth Creek, west of Horseshoe Lake.",37.6107,-119.0275,NA,NA,"CAS","BOT","326072","specimen","Pollard, Henry M.","1944-08-05","1944-08-05","Data from GBIF data index - original values.","2014-07-03",NA,NA,NA,NA,"US","Foot of Mammoth Creek, west of Horseshoe Lake., California, Mono County, United States, North America",0.01,TRUE,TRUE
"17","Carex congdonii  L.H.Bailey","North America","United States","California","Mono County","Sierra Nevada. Harvey Monroe Hall Natural Area. Slate Creek Basin, east of Mount Conness. Southeast flank of Mt. Conness, above Haning Valley. In cirque between Mt. Conness and White Mountain.",37.9578,-119.3125,NA,"3455","CAS","DS","284138","specimen","Keck, David D.","1937-08-30","1937-08-30","Data from GBIF data index - original values.","2014-07-03","3470","3440",NA,NA,"US","Sierra Nevada. Harvey Monroe Hall Natural Area. Slate Creek Basin, east of Mount Conness. Southeast flank of Mt. Conness, above Haning Valley. In cirque between Mt. Conness and White Mountain., California, Mono County, United States, North America",0.01,TRUE,TRUE
"18","Carex congdonii  L.H.Bailey","North America","United States","California","Inyo County","Rock Creek Basin. Gorge east of Mono Pass.",37.419357,-118.76015,NA,"3596.64","CAS","DS","379964","specimen","Peirson, F. W.","1930-08-05","1930-08-05","Data from GBIF data index - original values.","2014-07-03","3596.64","3596.64",NA,NA,"US","Rock Creek Basin. Gorge east of Mono Pass., California, Inyo County, United States, North America",1e-04,TRUE,TRUE
"19","Carex congdonii  L.H.Bailey","North America","United States","California","Mono County","Harvey Monroe Hall Natural Area. Southeast flank of Mt. Conness, above Haning Valley. In cirque between Mt. Conness and White Mountain.",37.9578,-119.3125,NA,"3455","CAS","DS","700491","specimen","Keck, David D.","1937-08-30","1937-08-30","Data from GBIF data index - original values.","2014-07-03","3470","3440",NA,NA,"US","Harvey Monroe Hall Natural Area. Southeast flank of Mt. Conness, above Haning Valley. In cirque between Mt. Conness and White Mountain., California, Mono County, United States, North America",0.01,TRUE,FALSE
"20","Carex congdonii  L.H.Bailey","North America","United States","California","Mono County","Tamarack Creek 15 miles SW of Bridgeport.",38.1327,-119.3164,NA,"2895.6","CAS","BOT","293314","specimen","Munz, P. A.","1940-07-18","1940-07-18","Data from GBIF data index - original values.","2014-07-03","2895.6","2895.6",NA,NA,"US","Tamarack Creek 15 miles SW of Bridgeport., California, Mono County, United States, North America",0.01,TRUE,TRUE
"21","Carex congdonii  L.H.Bailey","North America","United States","California","Inyo County","Morgan Pass, just east of summit.",37.390038,-118.74908,NA,"3352.8","CAS","BOT","332316","specimen","Howell, John Thomas","1946-07-16","1946-07-16","Data from GBIF data index - original values.","2014-07-03","3352.8","3352.8",NA,NA,"US","Morgan Pass, just east of summit., California, Inyo County, United States, North America",1e-04,TRUE,FALSE
"22","Carex congdonii  L.H.Bailey","North America","United States","California","Inyo County","Rock Creek Lake Basin. Slope west of Heart Lake.",37.41779,-118.7653,NA,"3383.28","CAS","BOT","221171","specimen","Peirson, Frank W.","1933-08-08","1933-08-08","Data from GBIF data index - original values.","2014-07-03","3383.28","3383.28",NA,NA,"US","Rock Creek Lake Basin. Slope west of Heart Lake., California, Inyo County, United States, North America",1e-04,TRUE,TRUE
"23","Carex congdonii  L.H.Bailey","North America","United States","California","Tuolumne County","Mt. Dana.",37.90124,-119.22737,NA,"3352.8","CAS","BOT","239484","specimen","Sharsmith, C. W.","1936-09-18","1936-09-18","Data from GBIF data index - original values.","2014-07-03","3352.8","3352.8",NA,NA,"US","Mt. Dana., California, Tuolumne County, United States, North America",0.001,TRUE,TRUE
"24","Carex congdonii  L.H.Bailey","North America","United States","California","Mono County","Sierra Nevada. Virginia Lakes.",38.0478,-119.2629,NA,"3048","CAS","BOT","649311","specimen","Lavin, M.","1980-07-23","1980-07-23","Data from GBIF data index - original values.","2014-07-03","3048","3048",NA,NA,"US","Sierra Nevada. Virginia Lakes., California, Mono County, United States, North America",0.01,TRUE,TRUE
"25","Carex congdonii  L.H.Bailey","North America","United States","California","Fresno County","Ca. 73 km NE of Fresno (FSC), Sierra National Forest, Dinkey Lakes Wilderness, in basaltic gravels on the summit of Black Peak",37.181667,-119.05055,NA,"2965","CAS","BOT","1120243","specimen","York, Dana","1996-07-13","1996-07-13","Data from GBIF data index - original values.","2014-07-03",NA,"2965",NA,NA,"US","Ca. 73 km NE of Fresno (FSC), Sierra National Forest, Dinkey Lakes Wilderness, in basaltic gravels on the summit of Black Peak, California, Fresno County, United States, North America",1e-04,TRUE,TRUE
"26","Carex congdonii  L.H.Bailey","North America","United States","California","Mono County","Sierra Nevada. Horse Creek, South of Twin Lakes.",38.1251,-119.3781,NA,"2560.32","CAS","BOT","660052","specimen","Lavin, M.; Smith, F.","1980-08-07","1980-08-07","Data from GBIF data index - original values.","2014-07-03","2560.32","2560.32",NA,NA,"US","Sierra Nevada. Horse Creek, South of Twin Lakes., California, Mono County, United States, North America",1e-04,TRUE,TRUE
"27","Carex congdonii  L.H.Bailey","North America","United States","California","Mono County","Harvey Monroe Hall Natural Area. North slope of White Mountain, on ridge separating the shallow lake W. of Big Horn Lake and Spuller Lake.",37.9462,-119.2898,NA,"3350","CAS","BOT","261393","specimen","Keck, David D.","1938-08-20","1938-08-20","Data from GBIF data index - original values.","2014-07-03","3350","3350",NA,NA,"US","Harvey Monroe Hall Natural Area. North slope of White Mountain, on ridge separating the shallow lake W. of Big Horn Lake and Spuller Lake., California, Mono County, United States, North America",0.01,TRUE,TRUE
"28","Carex congdonii  L.H.Bailey","North America","United States","California","Inyo County","East of and above Moonlight Lake, above Lake Sabrina.",37.156384,-118.62728,NA,"3749.04","CAS","BOT","362694","specimen","Raven, Peter H.; Stebbins, G. L.","1950-08-03","1950-08-03","Data from GBIF data index - original values.","2014-07-03","3749.04","3749.04",NA,NA,"US","East of and above Moonlight Lake, above Lake Sabrina., California, Inyo County, United States, North America",1e-04,TRUE,TRUE
"29","Carex congdonii  L.H.Bailey","North America","United States","California","Inyo County","Kearsarge Pass trail, W of Independence.",36.7679,-118.3581,NA,"3200.4","CAS","DS","331823","specimen","Alexander, Annie M.; Kellogg, Louise","1942-08-12","1942-08-12","Data from GBIF data index - original values.","2014-07-03","3200.4","3200.4",NA,NA,"US","Kearsarge Pass trail, W of Independence., California, Inyo County, United States, North America",0.01,TRUE,TRUE
"30","Carex congdonii  L.H.Bailey","North America","United States","California","Inyo County","Big Pine Lakes. Above Summit Lake.",37.135994,-118.50107,NA,"3413.76","CAS","BOT","342344","specimen","Howell, John Thomas","1947-08-06","1947-08-06","Data from GBIF data index - original values.","2014-07-03","3413.76","3413.76",NA,NA,"US","Big Pine Lakes. Above Summit Lake., California, Inyo County, United States, North America",1e-04,TRUE,TRUE
"31","Carex congdonii  L.H.Bailey","North America","United States","California","Fresno County","Kings River Basin. Ca. 76 km NE of Fresno (FSC), Sierra Nat'l Forest, summit of Maxson Dome (Courtright Reservoir Area).",37.1225,-118.95556,NA,"2860","CAS","BOT","1089476","specimen","York, Dana; Shevock, Jim","1998-07-19","1998-07-19","Data from GBIF data index - original values.","2014-07-03","2860","2860",NA,NA,"US","Kings River Basin. Ca. 76 km NE of Fresno (FSC), Sierra Nat'l Forest, summit of Maxson Dome (Courtright Reservoir Area)., California, Fresno County, United States, North America",0.01,TRUE,TRUE
"32","Carex congdonii  L.H.Bailey","North America","United States","California","Mono County","Harvey Monroe Hall Natural Area. Slate Creek Valley, east of Mt. Conness. Above Timberline Station cabin.",37.9675,-119.2821,NA,"3200","CAS","DS","700492","specimen","Keck, David D.","1936-08-22","1936-08-22","Data from GBIF data index - original values.","2014-07-03","3200","3200",NA,NA,"US","Harvey Monroe Hall Natural Area. Slate Creek Valley, east of Mt. Conness. Above Timberline Station cabin., California, Mono County, United States, North America",0.01,TRUE,TRUE
"33","Carex congdonii  L.H.Bailey","North America","United States","California","Fresno County","Kings River Basin. Ca. 68 km NE of Fresno (FSC), Sierra National Forest, near Dinkey Lakes trailhead",37.157223,-119.09889,NA,"2690","CAS","BOT","1129289","specimen","York, Dana","1996-07-12","1996-07-12","Data from GBIF data index - original values.","2014-07-03",NA,"2690",NA,NA,"US","Kings River Basin. Ca. 68 km NE of Fresno (FSC), Sierra National Forest, near Dinkey Lakes trailhead, California, Fresno County, United States, North America",1e-04,TRUE,FALSE
"34","Carex congdonii  L.H.Bailey","North America","United States","California","Mono County","Sierra Nevada. Slope adjacent to gully 1.2 mile east of summit of Dunderberg Peak.",38.0667,-119.2528,NA,"3200.4","CAS","BOT","1000421","specimen","Messick, Tim","1980-07-27","1980-07-27","Data from GBIF data index - original values.","2014-07-03","3200.4","3200.4",NA,NA,"US","Sierra Nevada. Slope adjacent to gully 1.2 mile east of summit of Dunderberg Peak., California, Mono County, United States, North America",0.01,TRUE,TRUE
"35","Carex congdonii",NA,"United States","California","Mono","Near old railroad cut, below Ellery Lake, Route 120, central Sierra Nevada Highlands.",37.93667,-119.23167,NA,"2880","UWBM","Plants","187108","specimen","Peter F. Zika",NA,NA,"Data from GBIF data index - original values.","2014-07-03","2880","2880",NA,NA,"US","Near old railroad cut, below Ellery Lake, Route 120, central Sierra Nevada Highlands., California, Mono, United States",0.001,TRUE,TRUE
"36","Carex congdonii",NA,"United States","California","Mono","Near old railroad cut, below Ellery Lake, Route 120, central Sierra Nevada Highlands.",37.93667,-119.23167,NA,"2880","UWBM","Plant","187108","specimen","Peter F. Zika",NA,NA,"Data from GBIF data index - original values.","2014-07-03","2880","2880",NA,NA,"US","Near old railroad cut, below Ellery Lake, Route 120, central Sierra Nevada Highlands., California, Mono, United States",0.001,TRUE,FALSE
"37","Carex congdonii","NORTH AMERICA","United States","CA","Fresno County","Fresno; Mt. Muriel; s",37.217175,-118.69231,NA,NA,"UCJEPS","UC","UC1042353","fossil","Peter H. Raven",NA,NA,"Data from GBIF data index - original values.","2014-07-03",NA,NA,NA,NA,"US","Fresno; Mt. Muriel; s, CA, Fresno County, United States, NORTH AMERICA",1e-04,TRUE,TRUE
"38","Carex congdonii","NORTH AMERICA","United States","CA","Fresno County","Fresno; Fresno; 73 km ne of; Sierra National Forest, Dinkey Lakes Wilderness, on summit of Black Peak; Kings River Basin, Sierra Nat,l Forest, Black Peak; 9S27E5",37.1773,-119.0518,NA,NA,"UCJEPS","JEPS","JEPS96281","fossil","Dana York",NA,NA,"Data from GBIF data index - original values.","2014-07-03",NA,NA,NA,NA,"US","Fresno; Fresno; 73 km ne of; Sierra National Forest, Dinkey Lakes Wilderness, on summit of Black Peak; Kings River Basin, Sierra Nat,l Forest, Black Peak; 9S27E5, CA, Fresno County, United States, NORTH AMERICA",0.01,TRUE,TRUE
"39","Carex congdonii","NORTH AMERICA","United States","CA","Mono County","Mono; 01N25E",37.947,-119.2034,NA,NA,"UCJEPS","JEPS","JEPS100908","fossil","Dean Wm. Taylor",NA,NA,"Data from GBIF data index - original values.","2014-07-03",NA,NA,NA,NA,"US","Mono; 01N25E, CA, Mono County, United States, NORTH AMERICA",0.1,TRUE,TRUE
"40","Carex congdonii","NORTH AMERICA","United States","CA","Fresno County","Fresno; Fresno; on slopes of Mt. Hooper approx. 93 km ne of; John Muir Wilderness, Sierra National Forest; San Joaquin River Basin, Sierra Nat'l Forest, Mt. Hooper; 7S28E27",37.2968,-118.8949,NA,NA,"UCJEPS","JEPS","JEPS96146","fossil","Dana York",NA,NA,"Data from GBIF data index - original values.","2014-07-03",NA,NA,NA,NA,"US","Fresno; Fresno; on slopes of Mt. Hooper approx. 93 km ne of; John Muir Wilderness, Sierra National Forest; San Joaquin River Basin, Sierra Nat'l Forest, Mt. Hooper; 7S28E27, CA, Fresno County, United States, NORTH AMERICA",0.01,TRUE,TRUE
"41","Carex congdonii","NORTH AMERICA","United States","CA","Mariposa County","Mariposa; Mt. Clark; Yosemite National Park, Mt. Lyell Quadrangle, Mt. Clark; 3S23E",37.6746,-119.4276,NA,NA,"UCJEPS","UC","UC1133338","fossil","W. Augustine",NA,NA,"Data from GBIF data index - original values.","2014-07-03",NA,NA,NA,NA,"US","Mariposa; Mt. Clark; Yosemite National Park, Mt. Lyell Quadrangle, Mt. Clark; 3S23E, CA, Mariposa County, United States, NORTH AMERICA",0.01,TRUE,TRUE
"42","Carex congdonii","NORTH AMERICA","United States","CA","Inyo County","Inyo",37.100277,-118.43472,NA,NA,"UCJEPS","JEPS","JEPS100909","fossil","Dean Wm. Taylor",NA,NA,"Data from GBIF data index - original values.","2014-07-03",NA,NA,NA,NA,"US","Inyo, CA, Inyo County, United States, NORTH AMERICA",1e-04,TRUE,TRUE
"43","Carex congdonii","NORTH AMERICA","United States","CA","Fresno County","Fresno; Heart Lake; Sierra Nevada, Heart Lake",37.28194,-118.87389,NA,NA,"UCJEPS","UC","UC1010713","fossil","Peter H. Raven",NA,NA,"Data from GBIF data index - original values.","2014-07-03",NA,NA,NA,NA,"US","Fresno; Heart Lake; Sierra Nevada, Heart Lake, CA, Fresno County, United States, NORTH AMERICA",0.001,TRUE,TRUE
"44","Carex congdonii","NORTH AMERICA","United States","CA","Tuolumne County","Tuolumne; 01S23E11",37.851387,-119.41695,NA,NA,"UCJEPS","JEPS","JEPS105448","fossil","Dean Wm. Taylor",NA,NA,"Data from GBIF data index - original values.","2014-07-03",NA,NA,NA,NA,"US","Tuolumne; 01S23E11, CA, Tuolumne County, United States, NORTH AMERICA",1e-04,TRUE,TRUE
"45","Carex congdonii","NORTH AMERICA","United States","CA","Mono County","Mono; 01S25E10",37.866386,-119.20861,NA,NA,"UCJEPS","JEPS","JEPS112981","fossil","Dean Wm. Taylor",NA,NA,"Data from GBIF data index - original values.","2014-07-03",NA,NA,NA,NA,"US","Mono; 01S25E10, CA, Mono County, United States, NORTH AMERICA",1e-04,TRUE,TRUE
"46","Carex congdonii","NORTH AMERICA","United States","CA","Mono County","Mono",38.084167,-119.31778,NA,NA,"UCJEPS","JEPS","JEPS105244","fossil","Dean Wm. Taylor",NA,NA,"Data from GBIF data index - original values.","2014-07-03",NA,NA,NA,NA,"US","Mono, CA, Mono County, United States, NORTH AMERICA",1e-04,TRUE,TRUE
"47","Carex congdonii","NORTH AMERICA","United States","CA","Fresno County","Fresno; Big Margaret Lake; 1 1/2 mi e of and 800' above; 1 mi se of Silver Peak on Silver Divide, 9 map mi n of Mono Hot Springs, about 1/8 mi wnw of little headwaters Lakelet; Silver Divide",37.458294,-119.03337,NA,NA,"UCJEPS","JEPS","JEPS27785","fossil","Chas. H. Quibell",NA,NA,"Data from GBIF data index - original values.","2014-07-03",NA,NA,NA,NA,"US","Fresno; Big Margaret Lake; 1 1/2 mi e of and 800' above; 1 mi se of Silver Peak on Silver Divide, 9 map mi n of Mono Hot Springs, about 1/8 mi wnw of little headwaters Lakelet; Silver Divide, CA, Fresno County, United States, NORTH AMERICA",1e-04,TRUE,TRUE
"48","Carex congdonii","NORTH AMERICA","United States","CA","Fresno County","Fresno; pass between 10619-ft and 10165-ft Sisters of Three Sisters; just below and nw; Dinkey Lakes region",37.142773,-119.06164,NA,NA,"UCJEPS","JEPS","JEPS24137","fossil","Rimo Bacigalupi",NA,NA,"Data from GBIF data index - original values.","2014-07-03",NA,NA,NA,NA,"US","Fresno; pass between 10619-ft and 10165-ft Sisters of Three Sisters; just below and nw; Dinkey Lakes region, CA, Fresno County, United States, NORTH AMERICA",1e-04,TRUE,TRUE
"49","Carex congdonii","NORTH AMERICA","United States","CA","Fresno County","Fresno; second lake in lower group; 200 ft e above; Graveyard Lakes",37.45306,-118.97861,NA,NA,"UCJEPS","JEPS","JEPS27787","fossil","Chas. H. Quibell",NA,NA,"Data from GBIF data index - original values.","2014-07-03",NA,NA,NA,NA,"US","Fresno; second lake in lower group; 200 ft e above; Graveyard Lakes, CA, Fresno County, United States, NORTH AMERICA",0.001,TRUE,TRUE
"50","Carex congdonii","NORTH AMERICA","United States","CA","Madera County","Madera; Burro Lake; e base of peak above; upper San Joaquin River watershed, (ca. 35 air mi e of Oakhurst), Timber Knob 7 1/2' USGS quadrangle, 1990 edition; Sierra National Forest, Madera Peak, Jackass Creek drainage; 5S24E5",37.518055,-119.35139,NA,NA,"UCJEPS","JEPS","JEPS90433","fossil","Dean Wm. Taylor",NA,NA,"Data from GBIF data index - original values.","2014-07-03",NA,NA,NA,NA,"US","Madera; Burro Lake; e base of peak above; upper San Joaquin River watershed, (ca. 35 air mi e of Oakhurst), Timber Knob 7 1/2' USGS quadrangle, 1990 edition; Sierra National Forest, Madera Peak, Jackass Creek drainage; 5S24E5, CA, Madera County, United States, NORTH AMERICA",1e-04,TRUE,TRUE
"51","Carex congdonii","NORTH AMERICA","United States","CA","Tuolumne County","Tuolumne; Upper Young Lake; 1 mi ne; Yosemite National Park, Mt. Lyell Quadrangle; 1N24E11",37.9614,-119.2954,NA,NA,"UCJEPS","UC","UC1133337","fossil","W. D. Thomas",NA,NA,"Data from GBIF data index - original values.","2014-07-03",NA,NA,NA,NA,"US","Tuolumne; Upper Young Lake; 1 mi ne; Yosemite National Park, Mt. Lyell Quadrangle; 1N24E11, CA, Tuolumne County, United States, NORTH AMERICA",0.01,TRUE,TRUE
"52","Carex congdonii","NORTH AMERICA","United States","CA","Tuolumne County","Tuolumne; 01S23E11",37.851387,-119.41695,NA,NA,"UCJEPS","JEPS","JEPS104907","fossil","Dean Wm. Taylor",NA,NA,"Data from GBIF data index - original values.","2014-07-03",NA,NA,NA,NA,"US","Tuolumne; 01S23E11, CA, Tuolumne County, United States, NORTH AMERICA",1e-04,TRUE,FALSE
"53","Carex congdonii","North America","United States","California","Tuolumne","northwest base of Medicot Dome; Yosemite National Park (about 3 miles NE of Teneya Lake)",38,-119,"0",NA,"Consortium of California Herbaria","JEPS","JEPS104907","specimen","Dean Wm. Taylor",NA,NA,"Data from GBIF data index - original values.","2014-07-03",NA,NA,NA,NA,"US","northwest base of Medicot Dome; Yosemite National Park (about 3 miles NE of Teneya Lake), California, Tuolumne, United States, North America",100,FALSE,TRUE
"55","Carex congdonii","North America","United States","California","Mono","Central High Sierra Nevada. Along the \trail\ from Glacier Canyon up to Dana Plateau, about 1.8 km east of Tioga Lake",38,-119,"0",NA,"Consortium of California Herbaria","CHSC","CHSC82978","specimen","L. P. Janeway",NA,NA,"Data from GBIF data index - original values.","2014-07-03",NA,NA,NA,NA,"US","Central High Sierra Nevada. Along the trail from Glacier Canyon up to Dana Plateau, about 1.8 km east of Tioga Lake, California, Mono, United States, North America",100,FALSE,FALSE
"56","Carex congdonii","North America","United States","California","Mono","cirque at E base Tioga Peak, Lee Vining Canyon, Inyo National Forest; between Warren Fork and Ellery Lake",38,-119,"4824",NA,"Consortium of California Herbaria","JEPS","JEPS100908","specimen","Dean Wm. Taylor",NA,NA,"Data from GBIF data index - original values.","2014-07-03",NA,NA,NA,NA,"US","cirque at E base Tioga Peak, Lee Vining Canyon, Inyo National Forest; between Warren Fork and Ellery Lake, California, Mono, United States, North America",100,FALSE,FALSE
"57","Carex congdonii","North America","United States","California","Tulare","near head of Kern-Kaweah River (e side Colby Pass) - Sierra Nevada, Kern River drainage, Colby Pass",37,-118,"1058",NA,"Consortium of California Herbaria","UC","UC714249","specimen","C. W. Sharsmith",NA,NA,"Data from GBIF data index - original values.","2014-07-03",NA,NA,NA,NA,"US","near head of Kern-Kaweah River (e side Colby Pass) - Sierra Nevada, Kern River drainage, Colby Pass, California, Tulare, United States, North America",100,FALSE,TRUE
"65","Carex congdonii","North America","United States","California","Fresno","s Mt. Muriel",37,-119,"1621",NA,"Consortium of California Herbaria","UC","UC1042353","specimen","Peter H. Raven",NA,NA,"Data from GBIF data index - original values.","2014-07-03",NA,NA,NA,NA,"US","s Mt. Muriel, California, Fresno, United States, North America",100,FALSE,FALSE
"70","Carex congdonii","North America","United States","California","Tuolumne","Yosemite National Park - East of Dorothy Lake",38,-120,"0",NA,"Consortium of California Herbaria","UC","UC1861912","specimen","Alison Colwell, Dena Grossenbacher",NA,NA,"Data from GBIF data index - original values.","2014-07-03",NA,NA,NA,NA,"US","Yosemite National Park - East of Dorothy Lake, California, Tuolumne, United States, North America",100,FALSE,TRUE
"71","Carex congdonii","North America","United States","California","Tulare","on divide between Deadman Canyon and Middle Fork Kaweah River - Sierra Nevada, Elizabeth Pass",37,-119,"254",NA,"Consortium of California Herbaria","UC","UC714266","specimen","Carl W. Sharsmith",NA,NA,"Data from GBIF data index - original values.","2014-07-03",NA,NA,NA,NA,"US","on divide between Deadman Canyon and Middle Fork Kaweah River - Sierra Nevada, Elizabeth Pass, California, Tulare, United States, North America",100,FALSE,FALSE
"72","Carex congdonii","North America","United States","California","Fresno","73 km ne of Fresno (Sierra National Forest, Dinkey Lakes Wilderness, on summit of Black Peak) - Kings River Basin, Sierra Nat,l Forest, Black Peak",37,-119,"804",NA,"Consortium of California Herbaria","JEPS","JEPS96281","specimen","Dana York",NA,NA,"Data from GBIF data index - original values.","2014-07-03",NA,NA,NA,NA,"US","73 km ne of Fresno (Sierra National Forest, Dinkey Lakes Wilderness, on summit of Black Peak) - Kings River Basin, Sierra Nat,l Forest, Black Peak, California, Fresno, United States, North America",100,FALSE,FALSE
"74","Carex congdonii","North America","United States","California","Inyo","Sierra Nevada; Southern Sierra Nevada region Along trail to Golden Trout Lake above Onion Valley in north fork Independence creek drainage.",37,-118,"0",NA,"Consortium of California Herbaria","RSA","RSA669404","specimen","Michael Denslow, G. Katz",NA,NA,"Data from GBIF data index - original values.","2014-07-03",NA,NA,NA,NA,"US","Sierra Nevada; Southern Sierra Nevada region Along trail to Golden Trout Lake above Onion Valley in north fork Independence creek drainage., California, Inyo, United States, North America",100,FALSE,FALSE
"75","Carex congdonii","North America","United States","California","Inyo","Big Pine Canyon, on trail to Willow Lake, South Fork Big Pine Creek",37,-118,"0",NA,"Consortium of California Herbaria","JEPS","JEPS100909","specimen","Dean Wm. Taylor",NA,NA,"Data from GBIF data index - original values.","2014-07-03",NA,NA,NA,NA,"US","Big Pine Canyon, on trail to Willow Lake, South Fork Big Pine Creek, California, Inyo, United States, North America",100,FALSE,FALSE
"77","Carex congdonii","North America","United States","California","Tuolumne","northwest base of Medicot Dome; Yosemite National Park (about 3 miles NE of Teneya Lake)",38,-119,"0",NA,"Consortium of California Herbaria","JEPS","JEPS105448","specimen","Dean Wm. Taylor",NA,NA,"Data from GBIF data index - original values.","2014-07-03",NA,NA,NA,NA,"US","northwest base of Medicot Dome; Yosemite National Park (about 3 miles NE of Teneya Lake), California, Tuolumne, United States, North America",100,FALSE,FALSE
"79","Carex congdonii","North America","United States","California","Tuolumne","near n boundary of Yosemite National Park - Sierra Nevada, Yosemite National Park, Slide Mountain",38,-119,"1071",NA,"Consortium of California Herbaria","UC","UC1147931","specimen","Paul S. Bartholomew",NA,NA,"Data from GBIF data index - original values.","2014-07-03",NA,NA,NA,NA,"US","near n boundary of Yosemite National Park - Sierra Nevada, Yosemite National Park, Slide Mountain, California, Tuolumne, United States, North America",100,FALSE,FALSE
"80","Carex congdonii","North America","United States","California","Fresno","2-3 mi s and e Hutchinson Meadow (on ne slopes of Glacier Divide at its n extremity) - Glacier Divide",37,-119,"3136",NA,"Consortium of California Herbaria","UC","UC972345","specimen","G. Thomas Robbins",NA,NA,"Data from GBIF data index - original values.","2014-07-03",NA,NA,NA,NA,"US","2-3 mi s and e Hutchinson Meadow (on ne slopes of Glacier Divide at its n extremity) - Glacier Divide, California, Fresno, United States, North America",100,FALSE,FALSE
"81","Carex congdonii","North America","United States","California","Amador","Ca. 6.5 mi SW of community of Kit Carson, 1.0 road mi SW of junction of route 88 and Mormon Emigrant Trail, along small stream ESE of its crossing by route 88",39,-120,"0",NA,"Consortium of California Herbaria","CHSC","CHSC99419","specimen","Robert F. C. Naczi",NA,NA,"Data from GBIF data index - original values.","2014-07-03",NA,NA,NA,NA,"US","Ca. 6.5 mi SW of community of Kit Carson, 1.0 road mi SW of junction of route 88 and Mormon Emigrant Trail, along small stream ESE of its crossing by route 88, California, Amador, United States, North America",100,FALSE,TRUE
"83","Carex congdonii","North America","United States","California","Tulare","w face, Black Rock Pass Sequoia National Park, Black Rock Pass",36,-119,"174",NA,"Consortium of California Herbaria","UC","UC721654","specimen","Roxana S. Ferris and Laura Lorraine",NA,NA,"Data from GBIF data index - original values.","2014-07-03",NA,NA,NA,NA,"US","w face, Black Rock Pass Sequoia National Park, Black Rock Pass, California, Tulare, United States, North America",100,FALSE,TRUE
"84","Carex congdonii","North America","United States","California","Mono","Bloody Canyon, NE slope Mt. Gibbs; in cirque above Lower Sardine Lake",38,-119,"0",NA,"Consortium of California Herbaria","JEPS","JEPS112981","specimen","Dean Wm. Taylor",NA,NA,"Data from GBIF data index - original values.","2014-07-03",NA,NA,NA,NA,"US","Bloody Canyon, NE slope Mt. Gibbs; in cirque above Lower Sardine Lake, California, Mono, United States, North America",100,FALSE,FALSE
"86","Carex congdonii","North America","United States","California","Tuolumne","w spur of Ragged Peak Sierra Nevada, Conness Range, Ragged Peak",38,-119,"728",NA,"Consortium of California Herbaria","UC","UC714228","specimen","H. L. Mason",NA,NA,"Data from GBIF data index - original values.","2014-07-03",NA,NA,NA,NA,"US","w spur of Ragged Peak Sierra Nevada, Conness Range, Ragged Peak, California, Tuolumne, United States, North America",100,FALSE,FALSE
"89","Carex congdonii","North America","United States","California","Fresno","Heart Lake Sierra Nevada, Heart Lake",37,-119,"0",NA,"Consortium of California Herbaria","UC","UC1010713","specimen","Peter H. Raven",NA,NA,"Data from GBIF data index - original values.","2014-07-03",NA,NA,NA,NA,"US","Heart Lake Sierra Nevada, Heart Lake, California, Fresno, United States, North America",100,FALSE,FALSE
"95","Carex congdonii","North America","United States","California","Mariposa","Mt. Clark Yosemite National Park, Mt. Lyell Quadrangle, Mt. Clark",38,-119,"4824",NA,"Consortium of California Herbaria","UC","UC1133338","specimen","W. Augustine",NA,NA,"Data from GBIF data index - original values.","2014-07-03",NA,NA,NA,NA,"US","Mt. Clark Yosemite National Park, Mt. Lyell Quadrangle, Mt. Clark, California, Mariposa, United States, North America",100,FALSE,FALSE
"98","Carex congdonii","North America","United States","California","Tuolumne","e Tilden Lake - Yosemite National Park, Macomb Ridge",38,-120,"0",NA,"Consortium of California Herbaria","UC","UC599129","specimen","H. L. Mason",NA,NA,"Data from GBIF data index - original values.","2014-07-03",NA,NA,NA,NA,"US","e Tilden Lake - Yosemite National Park, Macomb Ridge, California, Tuolumne, United States, North America",100,FALSE,FALSE
"103","Carex congdonii","North America","United States","California","Fresno","just below and nw pass between 10619-ft and 10165-ft Sisters of Three Sisters - Dinkey Lakes region",37,-119,"174",NA,"Consortium of California Herbaria","JEPS","JEPS24137","specimen","Rimo Bacigalupi (with Charles H. Quibell)",NA,NA,"Data from GBIF data index - original values.","2014-07-03",NA,NA,NA,NA,"US","just below and nw pass between 10619-ft and 10165-ft Sisters of Three Sisters - Dinkey Lakes region, California, Fresno, United States, North America",100,FALSE,FALSE
"105","Carex congdonii","North America","United States","California","Madera","e base of peak above Burro Lake (upper San Joaquin River watershed, (ca. 35 air mi e of Oakhurst), Timber Knob 7 1/2' USGS quadrangle, 1990 edition) - Sierra National Forest, Madera Peak, Jackass Creek drainage",38,-119,"0",NA,"Consortium of California Herbaria","JEPS","JEPS90433","specimen","Dean Wm. Taylor",NA,NA,"Data from GBIF data index - original values.","2014-07-03",NA,NA,NA,NA,"US","e base of peak above Burro Lake (upper San Joaquin River watershed, (ca. 35 air mi e of Oakhurst), Timber Knob 7 1/2' USGS quadrangle, 1990 edition) - Sierra National Forest, Madera Peak, Jackass Creek drainage, California, Madera, United States, North America",100,FALSE,FALSE
"109","Carex congdonii","North America","United States","California","Fresno","200 ft e above second lake in lower group - Graveyard Lakes - ca. 200' e. above second lake in lower group to largest lake in upper group n-ne.",37,-119,"0",NA,"Consortium of California Herbaria","JEPS","JEPS27787","specimen","Chas. H. Quibell",NA,NA,"Data from GBIF data index - original values.","2014-07-03",NA,NA,NA,NA,"US","200 ft e above second lake in lower group - Graveyard Lakes - ca. 200' e. above second lake in lower group to largest lake in upper group n-ne., California, Fresno, United States, North America",100,FALSE,FALSE
"111","Carex congdonii","North America","United States","California","Mariposa","SW MARGIN OF MAY LAKE YOSEMITE NATIONAL PARK (BASE OF MT. HOFFMAN)",38,-119,"0",NA,"Consortium of California Herbaria","UCSB","UCSB42103","specimen","C. Sharsmith",NA,NA,"Data from GBIF data index - original values.","2014-07-03",NA,NA,NA,NA,"US","SW MARGIN OF MAY LAKE YOSEMITE NATIONAL PARK (BASE OF MT. HOFFMAN), California, Mariposa, United States, North America",100,FALSE,FALSE
"114","Carex congdonii","North America","United States","California","Mariposa","MOUNT CLARK YOSEMITE NATIONAL PARK (SECTION UNSURVEYED; T.3S; R.23E)",37,-119,"0",NA,"Consortium of California Herbaria","UCSB","UCSB42102","specimen","Augustine",NA,NA,"Data from GBIF data index - original values.","2014-07-03",NA,NA,NA,NA,"US","MOUNT CLARK YOSEMITE NATIONAL PARK (SECTION UNSURVEYED; T.3S; R.23E), California, Mariposa, United States, North America",100,FALSE,FALSE
"115","Carex congdonii","North America","United States","California","Tuolumne","Cathedral Cr. Sierra Nevada, Yosemite National Park, Cathedral Cr.",38,-119,"6157",NA,"Consortium of California Herbaria","UC","UC406845","specimen","H. M. Hall",NA,NA,"Data from GBIF data index - original values.","2014-07-03",NA,NA,NA,NA,"US","Cathedral Cr. Sierra Nevada, Yosemite National Park, Cathedral Cr., California, Tuolumne, United States, North America",100,FALSE,FALSE
"116","Carex congdonii","North America","United States","California","Tuolumne","1 mi ne Upper Young Lake - Yosemite National Park, Mt. Lyell Quadrangle",38,-119,"804",NA,"Consortium of California Herbaria","UC","UC1133337","specimen","W. D. Thomas",NA,NA,"Data from GBIF data index - original values.","2014-07-03",NA,NA,NA,NA,"US","1 mi ne Upper Young Lake - Yosemite National Park, Mt. Lyell Quadrangle, California, Tuolumne, United States, North America",100,FALSE,FALSE
"117","Carex congdonii","North America","United States","California","Fresno","on slopes of Mt. Hooper approx. 93 km ne of Fresno (John Muir Wilderness, Sierra National Forest) - San Joaquin River Basin, Sierra Nat'l Forest, Mt. Hooper",37,-119,"804",NA,"Consortium of California Herbaria","JEPS","JEPS96146","specimen","Dana York",NA,NA,"Data from GBIF data index - original values.","2014-07-03",NA,NA,NA,NA,"US","on slopes of Mt. Hooper approx. 93 km ne of Fresno (John Muir Wilderness, Sierra National Forest) - San Joaquin River Basin, Sierra Nat'l Forest, Mt. Hooper, California, Fresno, United States, North America",100,FALSE,FALSE
"118","Carex congdonii","North America","United States","California","Tulare","vicinity of Mineral King (Sawtooth Peak) - Southern Sierra Nevada Mountains, Sawtooth Peak",36,-119,"1058",NA,"Consortium of California Herbaria","UC","UC127676","specimen","H. M. Hall and H. D. Babcock",NA,NA,"Data from GBIF data index - original values.","2014-07-03",NA,NA,NA,NA,"US","vicinity of Mineral King (Sawtooth Peak) - Southern Sierra Nevada Mountains, Sawtooth Peak, California, Tulare, United States, North America",100,FALSE,FALSE
"119","Carex congdonii","North America","United States","California","Tulare","e slope Cirque Peak above Siberian Outpost (vicinity Mount Whitney) - Sierra Nevada, Cirque Peak",36,-118,"3261",NA,"Consortium of California Herbaria","UC","UC714265","specimen","Carl W. Sharsmith",NA,NA,"Data from GBIF data index - original values.","2014-07-03",NA,NA,NA,NA,"US","e slope Cirque Peak above Siberian Outpost (vicinity Mount Whitney) - Sierra Nevada, Cirque Peak, California, Tulare, United States, North America",100,FALSE,FALSE
"120","Carex congdonii","North America","United States","California","Tuolumne","w Finger Peak (at head of Slide Canyon, near n boundary of Park) - Yosemite National Park, Slide Mountain, Slide Canyon",38,-119,"4428",NA,"Consortium of California Herbaria","UC","UC625310","specimen","Paul S. Bartholomew",NA,NA,"Data from GBIF data index - original values.","2014-07-03",NA,NA,NA,NA,"US","w Finger Peak (at head of Slide Canyon, near n boundary of Park) - Yosemite National Park, Slide Mountain, Slide Canyon, California, Tuolumne, United States, North America",100,FALSE,FALSE
"121","Carex congdonii","North America","United States","California","Mono","Sierra Nevada Mtns. Saddle Bag Lake, rocky slope above the lake",38,-119,"0",NA,"Consortium of California Herbaria","UCR","UCR129365","specimen","G. R. Johnstone",NA,NA,"Data from GBIF data index - original values.","2014-07-03",NA,NA,NA,NA,"US","Sierra Nevada Mtns. Saddle Bag Lake, rocky slope above the lake, California, Mono, United States, North America",100,FALSE,FALSE
"126","Carex congdonii","North America","United States","California","Mono","Central High Sierra Nevada. Cirque on eastern side of Tioga Peak, overlooking Warren Fork",38,-119,"0",NA,"Consortium of California Herbaria","CHSC","CHSC82748","specimen","L. P. Janeway",NA,NA,"Data from GBIF data index - original values.","2014-07-03",NA,NA,NA,NA,"US","Central High Sierra Nevada. Cirque on eastern side of Tioga Peak, overlooking Warren Fork, California, Mono, United States, North America",100,FALSE,FALSE
"128","Carex congdonii","North America","United States","California","Tuolumne","Yosemite National Park - Virginia Pass",38,-119,"0",NA,"Consortium of California Herbaria","UC","UC1861937","specimen","Alison Colwell, Dena Grossenbacher, Holly Wanamaker",NA,NA,"Data from GBIF data index - original values.","2014-07-03",NA,NA,NA,NA,"US","Yosemite National Park - Virginia Pass, California, Tuolumne, United States, North America",100,FALSE,FALSE
"130","Carex congdonii","North America","United States","California","Mono","Glacier Canyon near Tioga Pass (talus below lower lake) - Sierra Nevada, Mono Craters 15' Quadrangle, Glacier Canyon",38,-119,"804",NA,"Consortium of California Herbaria","UC","UC1520570","specimen","Dean Wm. Taylor",NA,NA,"Data from GBIF data index - original values.","2014-07-03",NA,NA,NA,NA,"US","Glacier Canyon near Tioga Pass (talus below lower lake) - Sierra Nevada, Mono Craters 15' Quadrangle, Glacier Canyon, California, Mono, United States, North America",100,FALSE,FALSE
"132","Carex congdonii","North America","United States","California","Mono","Bergona Lake; tributary East Fork Green Creek; Walker River watershed; Toiyabe National Forest; northside of the lake near the outlet",38,-119,"0",NA,"Consortium of California Herbaria","JEPS","JEPS105244","specimen","Dean Wm. Taylor",NA,NA,"Data from GBIF data index - original values.","2014-07-03",NA,NA,NA,NA,"US","Bergona Lake; tributary East Fork Green Creek; Walker River watershed; Toiyabe National Forest; northside of the lake near the outlet, California, Mono, United States, North America",100,FALSE,FALSE
"133","Carex congdonii","North America","United States","California","Fresno","1 1/2 mi e of and 800' above Big Margaret Lake (1 mi se of Silver Peak on Silver Divide, 9 map mi n of Mono Hot Springs, about 1/8 mi wnw of little headwaters Lakelet) - Silver Divide",37,-119,"817",NA,"Consortium of California Herbaria","JEPS","JEPS27785","specimen","Chas. H. Quibell",NA,NA,"Data from GBIF data index - original values.","2014-07-03",NA,NA,NA,NA,"US","1 1/2 mi e of and 800' above Big Margaret Lake (1 mi se of Silver Peak on Silver Divide, 9 map mi n of Mono Hot Springs, about 1/8 mi wnw of little headwaters Lakelet) - Silver Divide, California, Fresno, United States, North America",100,FALSE,FALSE
"135","Carex congdonii","North America","United States","California","Mono","Sierra Nevada Mtns. Slate Creek Valley, east of Mt. Conness, Harvey Monroe Hall Natural Area, slope above Timberline Station cabin",38,-119,"0",NA,"Consortium of California Herbaria","UCR","UCR129366","specimen","David D. Keck",NA,NA,"Data from GBIF data index - original values.","2014-07-03",NA,NA,NA,NA,"US","Sierra Nevada Mtns. Slate Creek Valley, east of Mt. Conness, Harvey Monroe Hall Natural Area, slope above Timberline Station cabin, California, Mono, United States, North America",100,FALSE,FALSE
"1210","Carex congdonii  L.H.Bailey","North America","United States","California","Fresno County","Kings River Basin. Ca. 68 km NE of Fresno (FSC), Sierra National Forest, near Dinkey Lakes trailhead",37.157223,-119.09889,NA,"2690","CAS","BOT","1129289","specimen","York, Dana","1996-07-12","1996-07-12","Data from GBIF data index - original values.","2014-01-13",NA,"2690",NA,NA,"US","Kings River Basin. Ca. 68 km NE of Fresno (FSC), Sierra National Forest, near Dinkey Lakes trailhead, California, Fresno County, United States, North America",1e-04,TRUE,TRUE
"191","Carex congdonii  L.H.Bailey","North America","United States","California","Mono County","Harvey Monroe Hall Natural Area, at southeast face of North Peak.",37.9784,-119.3101,NA,"3370","CAS","BOT","293317","specimen","Keck, David D.","1938-08-29","1938-08-29","Data from GBIF data index - original values.","2014-01-13","3400","3340",NA,NA,"US","Harvey Monroe Hall Natural Area, at southeast face of North Peak., California, Mono County, United States, North America",0.01,TRUE,TRUE
"221","Carex congdonii  L.H.Bailey","North America","United States","California","Inyo County","Morgan Pass, just east of summit.",37.390038,-118.74908,NA,"3352.8","CAS","BOT","332316","specimen","Howell, John Thomas","1946-07-16","1946-07-16","Data from GBIF data index - original values.","2014-01-13","3352.8","3352.8",NA,NA,"US","Morgan Pass, just east of summit., California, Inyo County, United States, North America",1e-04,TRUE,TRUE
"261","Carex congdonii  L.H.Bailey","North America","United States","California","Fresno County","Kings River Basin. Ca. 68 km NE of Fresno (FSC), Sierra National Forest, near Dinkey Lakes Trailhead.",37.157223,-119.09889,NA,"2690","CAS","BOT","942171","specimen","York, Dana","1996-07-12","1996-07-12","Data from GBIF data index - original values.","2014-01-13","2690","2690",NA,NA,"US","Kings River Basin. Ca. 68 km NE of Fresno (FSC), Sierra National Forest, near Dinkey Lakes Trailhead., California, Fresno County, United States, North America",1e-04,TRUE,FALSE
"321","Carex congdonii  L.H.Bailey","North America","United States","California","Inyo County","Morgan Pass, just east of Summit.",37.390038,-118.74908,NA,"3352.8","CAS","DS","315041","specimen","Howell, John Thomas","1946-07-16","1946-07-16","Data from GBIF data index - original values.","2014-01-13","3352.8","3352.8",NA,NA,"US","Morgan Pass, just east of Summit., California, Inyo County, United States, North America",1e-04,TRUE,FALSE
"331","Carex congdonii  L.H.Bailey","North America","United States","California","Mono County","Harvey Monroe Hall Natural Area, at southeast face of North Peak.",37.9784,-119.3101,NA,"3370","CAS","DS","263170","specimen","Keck, David D.","1938-08-29","1938-08-29","Data from GBIF data index - original values.","2014-01-13","3400","3340",NA,NA,"US","Harvey Monroe Hall Natural Area, at southeast face of North Peak., California, Mono County, United States, North America",0.01,TRUE,FALSE
"351","Carex congdonii",NA,"United States","California","Mono","Near old railroad cut, below Ellery Lake, Route 120, central Sierra Nevada Highlands.",37.93667,-119.23167,NA,"2880","UWBM","Plant","187108","specimen","Peter F. Zika",NA,NA,"Data from GBIF data index - original values.","2014-01-13","2880","2880",NA,NA,"US","Near old railroad cut, below Ellery Lake, Route 120, central Sierra Nevada Highlands., California, Mono, United States",0.001,TRUE,TRUE
"361","Carex congdonii",NA,"United States","California","Mono","Near old railroad cut, below Ellery Lake, Route 120, central Sierra Nevada Highlands.",37.93667,-119.23167,NA,"2880","UWBM","Plants","187108","specimen","Peter F. Zika",NA,NA,"Data from GBIF data index - original values.","2014-01-13","2880","2880",NA,NA,"US","Near old railroad cut, below Ellery Lake, Route 120, central Sierra Nevada Highlands., California, Mono, United States",0.001,TRUE,FALSE
"371","Carex congdonii","North America","United States","California","Tulare","on divide between Deadman Canyon and Middle Fork Kaweah River - Sierra Nevada, Elizabeth Pass",37,-119,"254",NA,"Consortium of California Herbaria","UC","UC714266","specimen","Carl W. Sharsmith",NA,NA,"Data from GBIF data index - original values.","2014-01-13",NA,NA,NA,NA,"US","on divide between Deadman Canyon and Middle Fork Kaweah River - Sierra Nevada, Elizabeth Pass, California, Tulare, United States, North America",100,FALSE,TRUE
"431","Carex congdonii","North America","United States","California","Tuolumne","1 mi ne Upper Young Lake - Yosemite National Park, Mt. Lyell Quadrangle",38,-119,"804",NA,"Consortium of California Herbaria","UC","UC1133337","specimen","W. D. Thomas",NA,NA,"Data from GBIF data index - original values.","2014-01-13",NA,NA,NA,NA,"US","1 mi ne Upper Young Lake - Yosemite National Park, Mt. Lyell Quadrangle, California, Tuolumne, United States, North America",100,FALSE,TRUE
"461","Carex congdonii","North America","United States","California","Inyo","Sierra Nevada; Southern Sierra Nevada region Along trail to Golden Trout Lake above Onion Valley in north fork Independence creek drainage.",37,-118,"0",NA,"Consortium of California Herbaria","RSA","RSA669404","specimen","Michael Denslow, G. Katz",NA,NA,"Data from GBIF data index - original values.","2014-01-13",NA,NA,NA,NA,"US","Sierra Nevada; Southern Sierra Nevada region Along trail to Golden Trout Lake above Onion Valley in north fork Independence creek drainage., California, Inyo, United States, North America",100,FALSE,TRUE
"59","Carex congdonii","North America","United States","California","Tuolumne","e Tilden Lake - Yosemite National Park, Macomb Ridge",38,-120,"0",NA,"Consortium of California Herbaria","UC","UC599129","specimen","H. L. Mason",NA,NA,"Data from GBIF data index - original values.","2014-01-13",NA,NA,NA,NA,"US","e Tilden Lake - Yosemite National Park, Macomb Ridge, California, Tuolumne, United States, North America",100,FALSE,TRUE
"88","Carex congdonii","North America","United States","California","Tuolumne","Yosemite National Park - East of Dorothy Lake",38,-120,"0",NA,"Consortium of California Herbaria","UC","UC1861912","specimen","Alison Colwell, Dena Grossenbacher",NA,NA,"Data from GBIF data index - original values.","2014-01-13",NA,NA,NA,NA,"US","Yosemite National Park - East of Dorothy Lake, California, Tuolumne, United States, North America",100,FALSE,FALSE
"94","Carex congdonii","North America","United States","California","Tuolumne","northwest base of Medicot Dome; Yosemite National Park (about 3 miles NE of Teneya Lake)",38,-119,"0",NA,"Consortium of California Herbaria","JEPS","JEPS104907","specimen","Dean Wm. Taylor",NA,NA,"Data from GBIF data index - original values.","2014-01-13",NA,NA,NA,NA,"US","northwest base of Medicot Dome; Yosemite National Park (about 3 miles NE of Teneya Lake), California, Tuolumne, United States, North America",100,FALSE,FALSE
"113","Carex congdonii","North America","United States","California","Tulare","near head of Kern-Kaweah River (e side Colby Pass) - Sierra Nevada, Kern River drainage, Colby Pass",37,-118,"1058",NA,"Consortium of California Herbaria","UC","UC714249","specimen","C. W. Sharsmith",NA,NA,"Data from GBIF data index - original values.","2014-01-13",NA,NA,NA,NA,"US","near head of Kern-Kaweah River (e side Colby Pass) - Sierra Nevada, Kern River drainage, Colby Pass, California, Tulare, United States, North America",100,FALSE,FALSE
"138","Carex congdonii","North America","United States","California","Fresno","Fresno County, California",36.75399,-119.647934,NA,NA,"USDA NRCS","USDA Plants","CACO12-06019","unknown",NA,NA,NA,"Data from GBIF data index - original values.","2013-05-17",NA,NA,NA,NA,"US","Fresno County, California, California, Fresno, United States, North America",0.001,TRUE,TRUE
"212","Carex congdonii","North America","United States","California","Tulare","Tulare County, California",36.227814,-118.79661,NA,NA,"USDA NRCS","USDA Plants","CACO12-06107","unknown",NA,NA,NA,"Data from GBIF data index - original values.","2013-05-17",NA,NA,NA,NA,"US","Tulare County, California, California, Tulare, United States, North America",1e-04,TRUE,TRUE
"312","Carex congdonii","North America","United States","California","Mariposa","Mariposa County, California",37.578194,-119.9096,NA,NA,"USDA NRCS","USDA Plants","CACO12-06043","unknown",NA,NA,NA,"Data from GBIF data index - original values.","2013-05-17",NA,NA,NA,NA,"US","Mariposa County, California, California, Mariposa, United States, North America",1e-04,TRUE,TRUE
"411","Carex congdonii","North America","United States","California","Mono","Mono County, California",37.91055,-118.87397,NA,NA,"USDA NRCS","USDA Plants","CACO12-06051","unknown",NA,NA,NA,"Data from GBIF data index - original values.","2013-05-17",NA,NA,NA,NA,"US","Mono County, California, California, Mono, United States, North America",0.001,TRUE,TRUE
"58","Carex congdonii","North America","United States","California","Inyo","Inyo County, California",36.58933,-117.483185,NA,NA,"USDA NRCS","USDA Plants","CACO12-06027","unknown",NA,NA,NA,"Data from GBIF data index - original values.","2013-05-17",NA,NA,NA,NA,"US","Inyo County, California, California, Inyo, United States, North America",1e-04,TRUE,TRUE
"611","Carex congdonii","North America","United States","California","Tuolumne","Tuolumne County, California",38.018665,-119.94492,NA,NA,"USDA NRCS","USDA Plants","CACO12-06109","unknown",NA,NA,NA,"Data from GBIF data index - original values.","2013-05-17",NA,NA,NA,NA,"US","Tuolumne County, California, California, Tuolumne, United States, North America",1e-04,TRUE,TRUE
"710","Carex congdonii","North America","United States","California","Madera","Madera County, California",37.219685,-119.76514,NA,NA,"USDA NRCS","USDA Plants","CACO12-06039","unknown",NA,NA,NA,"Data from GBIF data index - original values.","2013-05-17",NA,NA,NA,NA,"US","Madera County, California, California, Madera, United States, North America",1e-04,TRUE,TRUE
"262","Carex congdonii","North America","United States","California","Mono","Central High Sierra Nevada. Cirque on eastern side of Tioga Peak, overlooking Warren Fork",38,-119,"0",NA,"Consortium of California Herbaria","CHSC","CHSC82748","specimen","L. P. Janeway",NA,NA,"Data from GBIF data index - original values.","2013-05-17",NA,NA,NA,NA,"US","Central High Sierra Nevada. Cirque on eastern side of Tioga Peak, overlooking Warren Fork, California, Mono, United States, North America",100,FALSE,TRUE
"332","Carex congdonii","North America","United States","California","Fresno","2-3 mi s and e Hutchinson Meadow (on ne slopes of Glacier Divide at its n extremity) - Glacier Divide",37,-119,"3136",NA,"Consortium of California Herbaria","UC","UC972345","specimen","G. Thomas Robbins",NA,NA,"Data from GBIF data index - original values.","2013-05-17",NA,NA,NA,NA,"US","2-3 mi s and e Hutchinson Meadow (on ne slopes of Glacier Divide at its n extremity) - Glacier Divide, California, Fresno, United States, North America",100,FALSE,TRUE
"352","Carex congdonii","North America","United States","California","Tulare","e slope Cirque Peak above Siberian Outpost (vicinity Mount Whitney) - Sierra Nevada, Cirque Peak",36,-118,"3261",NA,"Consortium of California Herbaria","UC","UC714265","specimen","Carl W. Sharsmith",NA,NA,"Data from GBIF data index - original values.","2013-05-17",NA,NA,NA,NA,"US","e slope Cirque Peak above Siberian Outpost (vicinity Mount Whitney) - Sierra Nevada, Cirque Peak, California, Tulare, United States, North America",100,FALSE,TRUE
"612","Carex congdonii","North America","United States","California","Tulare","w face, Black Rock Pass Sequoia National Park, Black Rock Pass",36,-119,"174",NA,"Consortium of California Herbaria","UC","UC721654","specimen","Roxana S. Ferris and Laura Lorraine",NA,NA,"Data from GBIF data index - original values.","2013-05-17",NA,NA,NA,NA,"US","w face, Black Rock Pass Sequoia National Park, Black Rock Pass, California, Tulare, United States, North America",100,FALSE,FALSE
