"","species","continent","country","adm1","adm2","locality","lat","lon","coordUncertaintyM","alt","institution","collection","catalogNumber","basisOfRecord","collector","earliestDateCollected","latestDateCollected","gbifNotes","downloadDate","maxElevationM","minElevationM","maxDepthM","minDepthM","ISO2","cloc","calc_error","precise_enough","unique_record"
"1","Carex fissa Mack.",NA,"Japan","Tokyo Metropolis","Tama-shi",NA,35.6114,139.4,NA,NA,"KPM",NA,"KPM-NA0122069","specimen",NA,"2000-05-24","2000-05-24","Data from GBIF data index - original values.","2014-07-03",NA,NA,NA,NA,"JP","Tokyo Metropolis, Tama-shi, Japan",1e-04,TRUE,TRUE
"2","Carex fissa Mack.",NA,"Japan","Tokyo Metropolis","Tama-shi",NA,35.6114,139.4,NA,NA,"KPM",NA,"KPM-NA0122070","specimen",NA,"2001-06-24","2001-06-24","Data from GBIF data index - original values.","2014-07-03",NA,NA,NA,NA,"JP","Tokyo Metropolis, Tama-shi, Japan",1e-04,TRUE,FALSE
"3","Carex fissa Mack.",NA,"Japan","Tokyo Metropolis","Tama-shi",NA,35.6114,139.4,NA,NA,"KPM",NA,"KPM-NA0122068","specimen",NA,"2000-05-12","2000-05-12","Data from GBIF data index - original values.","2014-07-03",NA,NA,NA,NA,"JP","Tokyo Metropolis, Tama-shi, Japan",1e-04,TRUE,FALSE
"6","Carex fissa var. fissa","North America","United States","Missouri","Jasper","Wa-Sha-She Prairie Conservation Area, 2 mi N of Asbury on N side of County Highway M, 1/2 mi E of junction with State Highway 171 upland prairie with small drainage system impounded to create small pond and marsh; locally common in prairie at edge of cree",37.31,-94.61,NA,"277","MO","Tropicos","3555379","specimen","G. Yatskievych, D. Ladd, A. Reznicek, S. Reznicek, S. Jones & G. Jones","1994-05-27","1994-05-27","Data from GBIF data index - original values.","2014-07-03",NA,"277",NA,NA,"US","Wa-Sha-She Prairie Conservation Area, 2 mi N of Asbury on N side of County Highway M, 1/2 mi E of junction with State Highway 171 upland prairie with small drainage system impounded to create small pond and marsh; locally common in prairie at edge of cree, Missouri, Jasper, United States, North America",1,TRUE,TRUE
"7","Carex fissa var. fissa","North America","United States","Missouri","Phelps","6 1/2 mi SW of Newburg and 1 1/2 mi S of Mill Creek Recreational Campground shallow water of spring fed pools, and wet marshy meadow",37.86,-91.94,NA,NA,"MO","Tropicos","3551135","specimen","B. Summers & J. Ryan","1991-07-02","1991-07-02","Data from GBIF data index - original values.","2014-07-03",NA,NA,NA,NA,"US","6 1/2 mi SW of Newburg and 1 1/2 mi S of Mill Creek Recreational Campground shallow water of spring fed pools, and wet marshy meadow, Missouri, Phelps, United States, North America",1,TRUE,TRUE
"8","Carex fissa var. fissa","North America","United States","Missouri","Laclede","West city limits of Richland. wet areas along railroad right-of-way",37.85,-92.42,NA,NA,"MO","Tropicos","3548779","specimen","B. Summers","1991-06-10","1991-06-10","Data from GBIF data index - original values.","2014-07-03",NA,NA,NA,NA,"US","West city limits of Richland. wet areas along railroad right-of-way, Missouri, Laclede, United States, North America",1,TRUE,TRUE
"9","Carex fissa var. fissa","North America","United States","Kansas","Sedgwick","Wichita, SW side",37.6225,-97.4006,NA,NA,"KU","KANU","362675","unknown","Caleb A Morse",NA,NA,"Data from GBIF data index - original values.","2014-07-03",NA,NA,NA,NA,"US","Wichita, SW side, Kansas, Sedgwick, United States, North America",0.01,TRUE,TRUE
"10","Carex fissa var. fissa","North America","United States","Oklahoma","Grant","Medford, 17 mi W along OK Hwy 11",36.8114,-98.0374,NA,NA,"KU","KANU","359113","unknown","Caleb A Morse",NA,NA,"Data from GBIF data index - original values.","2014-07-03",NA,NA,NA,NA,"US","Medford, 17 mi W along OK Hwy 11, Oklahoma, Grant, United States, North America",0.01,TRUE,TRUE
"11","Carex fissa var. fissa","North America","United States","Kansas","Sedgwick","Wichita, SW side",37.6225,-97.4006,NA,NA,"KU","KANU","362368","unknown","Caleb A Morse",NA,NA,"Data from GBIF data index - original values.","2014-07-03",NA,NA,NA,NA,"US","Wichita, SW side, Kansas, Sedgwick, United States, North America",0.01,TRUE,FALSE
"12","Carex fissa ...","North America","United States","Kansas","Montgomery","Independence, 3 mi S, 1 mi E",37.183,-95.6989,NA,NA,"KU","KANU","106973","unknown","Ronald L McGregor",NA,NA,"Data from GBIF data index - original values.","2014-07-03",NA,NA,NA,NA,"US","Independence, 3 mi S, 1 mi E, Kansas, Montgomery, United States, North America",0.1,TRUE,TRUE
"14","Carex fissa var. fissa","North America","United States","Oklahoma","Johnston","Tishomingo, ca 3 mi N, 1 mi W",34.2803,-96.6947,NA,NA,"KU","KANU","368769","unknown","Caleb A Morse; Douglas Ladd",NA,NA,"Data from GBIF data index - original values.","2014-07-03",NA,NA,NA,NA,"US","Tishomingo, ca 3 mi N, 1 mi W, Oklahoma, Johnston, United States, North America",1e-04,TRUE,TRUE
"16","Carex fissa ...","North America","United States","Kansas","Elk","Busby, 3.25 mi S, 3 mi E",37.4303,-95.9908,NA,NA,"KU","KANU","341998","unknown","Caleb A Morse",NA,NA,"Data from GBIF data index - original values.","2014-07-03",NA,NA,NA,NA,"US","Busby, 3.25 mi S, 3 mi E, Kansas, Elk, United States, North America",0.01,TRUE,TRUE
"17","Carex fissa var. fissa","North America","United States","Kansas","Kingman","Cheney, ca 0.5 mi S, 3.5 mi W",37.6186,-97.8514,NA,NA,"KU","KANU","363120","unknown","Caleb A Morse",NA,NA,"Data from GBIF data index - original values.","2014-07-03",NA,NA,NA,NA,"US","Cheney, ca 0.5 mi S, 3.5 mi W, Kansas, Kingman, United States, North America",0.01,TRUE,TRUE
"18","Carex fissa ...","North America","United States","Kansas","Crawford","Pittsburg, 3 mi S, 3 mi E",37.3677,-94.6502,NA,NA,"KU","KANU","50900","unknown","Ole A Kolstad; Larry J Harms",NA,NA,"Data from GBIF data index - original values.","2014-07-03",NA,NA,NA,NA,"US","Pittsburg, 3 mi S, 3 mi E, Kansas, Crawford, United States, North America",0.01,TRUE,TRUE
"19","Carex fissa var. fissa","North America","United States","Kansas","Kingman","Cheney, ca 0.5 mi S, 1.5 mi W",37.6186,-97.8135,NA,NA,"KU","KANU","362373","unknown","Caleb A Morse",NA,NA,"Data from GBIF data index - original values.","2014-07-03",NA,NA,NA,NA,"US","Cheney, ca 0.5 mi S, 1.5 mi W, Kansas, Kingman, United States, North America",0.01,TRUE,TRUE
"22","Carex fissa ...","North America","United States","Kansas","Neosho","Neosho Co State Lake, 1 mi W",37.4238,-95.2187,NA,NA,"KU","KANU","50725","unknown","Ole A Kolstad; Larry J Harms",NA,NA,"Data from GBIF data index - original values.","2014-07-03",NA,NA,NA,NA,"US","Neosho Co State Lake, 1 mi W, Kansas, Neosho, United States, North America",0.01,TRUE,TRUE
"23","Carex fissa","North America","United States","Maryland","Talbot","Town of Easton, along MD Rte 331",38.7714,-76.0553,NA,NA,"KU","KANU","364761","unknown","Wayne D Longbottom",NA,NA,"Data from GBIF data index - original values.","2014-07-03",NA,NA,NA,NA,"US","Town of Easton, along MD Rte 331, Maryland, Talbot, United States, North America",0.01,TRUE,TRUE
"24","Carex fissa var. fissa","North America","United States","Oklahoma","Kay","N edge of Newkirk, 1.9 roadmi N on US Hwy 77",36.9188,-97.056,NA,NA,"KU","KANU","359088","unknown","Caleb A Morse",NA,NA,"Data from GBIF data index - original values.","2014-07-03",NA,NA,NA,NA,"US","N edge of Newkirk, 1.9 roadmi N on US Hwy 77, Oklahoma, Kay, United States, North America",0.01,TRUE,TRUE
"26","Carex fissa ...","North America","United States","Kansas","Greenwood","Fall River, 5 mi N, 0.5 mi W",37.6794,-96.0414,NA,NA,"KU","KANU","341961","unknown","Caleb A Morse",NA,NA,"Data from GBIF data index - original values.","2014-07-03",NA,NA,NA,NA,"US","Fall River, 5 mi N, 0.5 mi W, Kansas, Greenwood, United States, North America",0.01,TRUE,TRUE
"310","Carex fissa Mack.",NA,"Japan","Tokyo Metropolis","Tama-shi",NA,35.6114,139.4,NA,NA,"KPM",NA,"KPM-NA0122068","specimen",NA,"2000-05-12","2000-05-12","Data from GBIF data index - original values.","2014-01-16",NA,NA,NA,NA,"JP","Tokyo Metropolis, Tama-shi, Japan",1e-04,TRUE,TRUE
"4","Carex fissa Mack.",NA,"Japan","Tokyo Metropolis","Tama-shi",NA,35.6114,139.4,NA,NA,"KPM",NA,"KPM-NA0122069","specimen",NA,"2000-05-24","2000-05-24","Data from GBIF data index - original values.","2014-01-16",NA,NA,NA,NA,"JP","Tokyo Metropolis, Tama-shi, Japan",1e-04,TRUE,FALSE
"91","Carex fissa var. fissa","North America","United States","Kansas","Sedgwick","Wichita, SW side",37.6225,-97.4006,NA,NA,"KU","KANU","362368","unknown","Caleb A Morse",NA,NA,"Data from GBIF data index - original values.","2014-01-16",NA,NA,NA,NA,"US","Wichita, SW side, Kansas, Sedgwick, United States, North America",0.01,TRUE,TRUE
"21","Carex fissa var. fissa","North America","United States","Kansas","Sedgwick","Wichita, SW side",37.6225,-97.4006,NA,NA,"KU","KANU","362675","unknown","Caleb A Morse",NA,NA,"Data from GBIF data index - original values.","2014-01-16",NA,NA,NA,NA,"US","Wichita, SW side, Kansas, Sedgwick, United States, North America",0.01,TRUE,FALSE
"122","Carex fissa","North America","United States","Florida","Wakulla","Wakulla County, Florida",30.152674,-84.38125,NA,NA,"USDA NRCS","USDA Plants","CAFI5-12129","unknown",NA,NA,NA,"Data from GBIF data index - original values.","2013-05-20",NA,NA,NA,NA,"US","Wakulla County, Florida, Florida, Wakulla, United States, North America",1e-04,TRUE,TRUE
"13","Carex fissa","North America","United States","Florida","Lake","Lake County, Florida",28.76558,-81.71741,NA,NA,"USDA NRCS","USDA Plants","CAFI5-12069","unknown",NA,NA,NA,"Data from GBIF data index - original values.","2013-05-20",NA,NA,NA,NA,"US","Lake County, Florida, Florida, Lake, United States, North America",0.001,TRUE,TRUE
"142","Carex fissa","North America","United States","Florida","Dixie","Dixie County, Florida",29.585857,-83.19364,NA,NA,"USDA NRCS","USDA Plants","CAFI5-12029","unknown",NA,NA,NA,"Data from GBIF data index - original values.","2013-05-20",NA,NA,NA,NA,"US","Dixie County, Florida, Florida, Dixie, United States, North America",1e-04,TRUE,TRUE
"151","Carex fissa","North America","United States","Florida","Flagler","Flagler County, Florida",29.469978,-81.29693,NA,NA,"USDA NRCS","USDA Plants","CAFI5-12035","unknown",NA,NA,NA,"Data from GBIF data index - original values.","2013-05-20",NA,NA,NA,NA,"US","Flagler County, Florida, Florida, Flagler, United States, North America",1e-04,TRUE,TRUE
"161","Carex fissa","North America","United States","Texas","Austin","Austin County, Texas",29.883408,-96.27741,NA,NA,"USDA NRCS","USDA Plants","CAFI5-48015","unknown",NA,NA,NA,"Data from GBIF data index - original values.","2013-05-20",NA,NA,NA,NA,"US","Austin County, Texas, Texas, Austin, United States, North America",1e-04,TRUE,TRUE
"172","Carex fissa","North America","United States","Texas","Brazos","Brazos County, Texas",30.66165,-96.30053,NA,NA,"USDA NRCS","USDA Plants","CAFI5-48041","unknown",NA,NA,NA,"Data from GBIF data index - original values.","2013-05-20",NA,NA,NA,NA,"US","Brazos County, Texas, Texas, Brazos, United States, North America",0.001,TRUE,TRUE
"182","Carex fissa","North America","United States","Florida","Gadsden","Gadsden County, Florida",30.581581,-84.612366,NA,NA,"USDA NRCS","USDA Plants","CAFI5-12039","unknown",NA,NA,NA,"Data from GBIF data index - original values.","2013-05-20",NA,NA,NA,NA,"US","Gadsden County, Florida, Florida, Gadsden, United States, North America",1e-04,TRUE,TRUE
"192","Carex fissa","North America","United States","Florida","Sumter","Sumter County, Florida",28.708136,-82.07918,NA,NA,"USDA NRCS","USDA Plants","CAFI5-12119","unknown",NA,NA,NA,"Data from GBIF data index - original values.","2013-05-20",NA,NA,NA,NA,"US","Sumter County, Florida, Florida, Sumter, United States, North America",1e-04,TRUE,TRUE
"201","Carex fissa","North America","United States","Florida","Hernando","Hernando County, Florida",28.553015,-82.46823,NA,NA,"USDA NRCS","USDA Plants","CAFI5-12053","unknown",NA,NA,NA,"Data from GBIF data index - original values.","2013-05-20",NA,NA,NA,NA,"US","Hernando County, Florida, Florida, Hernando, United States, North America",1e-04,TRUE,TRUE
"211","Carex fissa","North America","United States","Florida","Leon","Leon County, Florida",30.4569,-84.27908,NA,NA,"USDA NRCS","USDA Plants","CAFI5-12073","unknown",NA,NA,NA,"Data from GBIF data index - original values.","2013-05-20",NA,NA,NA,NA,"US","Leon County, Florida, Florida, Leon, United States, North America",0.01,TRUE,TRUE
"222","Carex fissa","North America","United States","Louisiana","Sabine","Sabine Parish, Louisiana",31.55972,-93.55815,NA,NA,"USDA NRCS","USDA Plants","CAFI5-22085","unknown",NA,NA,NA,"Data from GBIF data index - original values.","2013-05-20",NA,NA,NA,NA,"US","Sabine Parish, Louisiana, Louisiana, Sabine, United States, North America",0.001,TRUE,TRUE
"231","Carex fissa","North America","United States","Florida","Levy","Levy County, Florida",29.277485,-82.78985,NA,NA,"USDA NRCS","USDA Plants","CAFI5-12075","unknown",NA,NA,NA,"Data from GBIF data index - original values.","2013-05-20",NA,NA,NA,NA,"US","Levy County, Florida, Florida, Levy, United States, North America",1e-04,TRUE,TRUE
"241","Carex fissa","North America","United States","Florida","Jefferson","Jefferson County, Florida",30.420937,-83.89646,NA,NA,"USDA NRCS","USDA Plants","CAFI5-12065","unknown",NA,NA,NA,"Data from GBIF data index - original values.","2013-05-20",NA,NA,NA,NA,"US","Jefferson County, Florida, Florida, Jefferson, United States, North America",1e-04,TRUE,TRUE
"251","Carex fissa","North America","United States","Florida","Osceola","Osceola County, Florida",28.058084,-81.14685,NA,NA,"USDA NRCS","USDA Plants","CAFI5-12097","unknown",NA,NA,NA,"Data from GBIF data index - original values.","2013-05-20",NA,NA,NA,NA,"US","Osceola County, Florida, Florida, Osceola, United States, North America",1e-04,TRUE,TRUE
"262","Carex fissa","North America","United States","Florida","Orange","Orange County, Florida",28.513954,-81.32213,NA,NA,"USDA NRCS","USDA Plants","CAFI5-12095","unknown",NA,NA,NA,"Data from GBIF data index - original values.","2013-05-20",NA,NA,NA,NA,"US","Orange County, Florida, Florida, Orange, United States, North America",1e-04,TRUE,TRUE
"27","Carex fissa","North America","United States","Florida","Columbia","Columbia County, Florida",30.225178,-82.62503,NA,NA,"USDA NRCS","USDA Plants","CAFI5-12023","unknown",NA,NA,NA,"Data from GBIF data index - original values.","2013-05-20",NA,NA,NA,NA,"US","Columbia County, Florida, Florida, Columbia, United States, North America",1e-04,TRUE,TRUE
"28","Carex fissa","North America","United States","Kansas","Neosho","Neosho County, Kansas",37.55683,-95.30133,NA,NA,"USDA NRCS","USDA Plants","CAFI5-20133","unknown",NA,NA,NA,"Data from GBIF data index - original values.","2013-05-20",NA,NA,NA,NA,"US","Neosho County, Kansas, Kansas, Neosho, United States, North America",0.001,TRUE,TRUE
"29","Carex fissa","North America","United States","Florida","Nassau","Nassau County, Florida",30.610691,-81.767654,NA,NA,"USDA NRCS","USDA Plants","CAFI5-12089","unknown",NA,NA,NA,"Data from GBIF data index - original values.","2013-05-20",NA,NA,NA,NA,"US","Nassau County, Florida, Florida, Nassau, United States, North America",1e-04,TRUE,TRUE
"30","Carex fissa","North America","United States","Texas","Wood","Wood County, Texas",32.781918,-95.38155,NA,NA,"USDA NRCS","USDA Plants","CAFI5-48499","unknown",NA,NA,NA,"Data from GBIF data index - original values.","2013-05-20",NA,NA,NA,NA,"US","Wood County, Texas, Texas, Wood, United States, North America",1e-04,TRUE,TRUE
"31","Carex fissa","North America","United States","Florida","Gilchrist","Gilchrist County, Florida",29.734196,-82.802704,NA,NA,"USDA NRCS","USDA Plants","CAFI5-12041","unknown",NA,NA,NA,"Data from GBIF data index - original values.","2013-05-20",NA,NA,NA,NA,"US","Gilchrist County, Florida, Florida, Gilchrist, United States, North America",1e-04,TRUE,TRUE
"32","Carex fissa","North America","United States","Texas","Kaufman","Kaufman County, Texas",32.59681,-96.284035,NA,NA,"USDA NRCS","USDA Plants","CAFI5-48257","unknown",NA,NA,NA,"Data from GBIF data index - original values.","2013-05-20",NA,NA,NA,NA,"US","Kaufman County, Texas, Texas, Kaufman, United States, North America",0.001,TRUE,TRUE
"33","Carex fissa","North America","United States","Florida","Seminole","Seminole County, Florida",28.708658,-81.2271,NA,NA,"USDA NRCS","USDA Plants","CAFI5-12117","unknown",NA,NA,NA,"Data from GBIF data index - original values.","2013-05-20",NA,NA,NA,NA,"US","Seminole County, Florida, Florida, Seminole, United States, North America",1e-04,TRUE,TRUE
"34","Carex fissa","North America","United States","Kansas","Cherokee","Cherokee County, Kansas",37.16942,-94.84551,NA,NA,"USDA NRCS","USDA Plants","CAFI5-20021","unknown",NA,NA,NA,"Data from GBIF data index - original values.","2013-05-20",NA,NA,NA,NA,"US","Cherokee County, Kansas, Kansas, Cherokee, United States, North America",1e-04,TRUE,TRUE
"35","Carex fissa","North America","United States","Florida","St. Johns","St. Johns County, Florida",29.907782,-81.40676,NA,NA,"USDA NRCS","USDA Plants","CAFI5-12109","unknown",NA,NA,NA,"Data from GBIF data index - original values.","2013-05-20",NA,NA,NA,NA,"US","St. Johns County, Florida, Florida, St. Johns, United States, North America",1e-04,TRUE,TRUE
"36","Carex fissa","North America","United States","Texas","Rusk","Rusk County, Texas",32.105286,-94.75741,NA,NA,"USDA NRCS","USDA Plants","CAFI5-48401","unknown",NA,NA,NA,"Data from GBIF data index - original values.","2013-05-20",NA,NA,NA,NA,"US","Rusk County, Texas, Texas, Rusk, United States, North America",1e-04,TRUE,TRUE
"37","Carex fissa","North America","United States","Florida","Clay","Clay County, Florida",29.976759,-81.85793,NA,NA,"USDA NRCS","USDA Plants","CAFI5-12019","unknown",NA,NA,NA,"Data from GBIF data index - original values.","2013-05-20",NA,NA,NA,NA,"US","Clay County, Florida, Florida, Clay, United States, North America",1e-04,TRUE,TRUE
"38","Carex fissa","North America","United States","Florida","Alachua","Alachua County, Florida",29.676031,-82.35834,NA,NA,"USDA NRCS","USDA Plants","CAFI5-12001","unknown",NA,NA,NA,"Data from GBIF data index - original values.","2013-05-20",NA,NA,NA,NA,"US","Alachua County, Florida, Florida, Alachua, United States, North America",1e-04,TRUE,TRUE
"39","Carex fissa","North America","United States","Florida","Bradford","Bradford County, Florida",29.949503,-82.168175,NA,NA,"USDA NRCS","USDA Plants","CAFI5-12007","unknown",NA,NA,NA,"Data from GBIF data index - original values.","2013-05-20",NA,NA,NA,NA,"US","Bradford County, Florida, Florida, Bradford, United States, North America",1e-04,TRUE,TRUE
"40","Carex fissa","North America","United States","Texas","Walker","Walker County, Texas",30.737951,-95.573906,NA,NA,"USDA NRCS","USDA Plants","CAFI5-48471","unknown",NA,NA,NA,"Data from GBIF data index - original values.","2013-05-20",NA,NA,NA,NA,"US","Walker County, Texas, Texas, Walker, United States, North America",1e-04,TRUE,TRUE
"41","Carex fissa","North America","United States","Florida","Franklin","Franklin County, Florida",29.801579,-84.816734,NA,NA,"USDA NRCS","USDA Plants","CAFI5-12037","unknown",NA,NA,NA,"Data from GBIF data index - original values.","2013-05-20",NA,NA,NA,NA,"US","Franklin County, Florida, Florida, Franklin, United States, North America",1e-04,TRUE,TRUE
"42","Carex fissa","North America","United States","Florida","Escambia","Escambia County, Florida",30.60728,-87.332596,NA,NA,"USDA NRCS","USDA Plants","CAFI5-12033","unknown",NA,NA,NA,"Data from GBIF data index - original values.","2013-05-20",NA,NA,NA,NA,"US","Escambia County, Florida, Florida, Escambia, United States, North America",0.001,TRUE,TRUE
"43","Carex fissa","North America","United States","Florida","Taylor","Taylor County, Florida",30.018776,-83.61589,NA,NA,"USDA NRCS","USDA Plants","CAFI5-12123","unknown",NA,NA,NA,"Data from GBIF data index - original values.","2013-05-20",NA,NA,NA,NA,"US","Taylor County, Florida, Florida, Taylor, United States, North America",1e-04,TRUE,TRUE
"44","Carex fissa","North America","United States","Florida","Putnam","Putnam County, Florida",29.605267,-81.74038,NA,NA,"USDA NRCS","USDA Plants","CAFI5-12107","unknown",NA,NA,NA,"Data from GBIF data index - original values.","2013-05-20",NA,NA,NA,NA,"US","Putnam County, Florida, Florida, Putnam, United States, North America",1e-04,TRUE,TRUE
"45","Carex fissa","North America","United States","Florida","Marion","Marion County, Florida",29.211533,-82.05905,NA,NA,"USDA NRCS","USDA Plants","CAFI5-12083","unknown",NA,NA,NA,"Data from GBIF data index - original values.","2013-05-20",NA,NA,NA,NA,"US","Marion County, Florida, Florida, Marion, United States, North America",1e-04,TRUE,TRUE
