"","species","continent","country","adm1","adm2","locality","lat","lon","coordUncertaintyM","alt","institution","collection","catalogNumber","basisOfRecord","collector","earliestDateCollected","latestDateCollected","gbifNotes","downloadDate","maxElevationM","minElevationM","maxDepthM","minDepthM","ISO2","cloc","calc_error","precise_enough","unique_record"
"1","Carex impressinervia Bryson, Kral & Manhart","North and Central America","United States","Mississippi","Forrest","Camp Shelby, Training Area #2 bordering Helton creek & its tributaries T3N R12W S23 NW1/4 of E1/4",31.20667,-89.16167,"1138",NA,"UA","UNA","UNA00057499","specimen","John R. MacDonald with Dan Wyrick","1995-04-06","1995-04-06","Data from GBIF data index - original values.","2014-07-03",NA,NA,NA,NA,"US","Camp Shelby, Training Area #2 bordering Helton creek & its tributaries T3N R12W S23 NW1/4 of E1/4, Mississippi, Forrest, United States, North and Central America",0.001,TRUE,TRUE
"2","Carex impressinervia Bryson, Kral & Manhart","North and Central America","United States","North Carolina","Montgomery","Uwharrie National Forest; West Fork of McLean Creek, Park's Place Road",35.35,-79.9,"11380",NA,"UA","UNA","UNA00027350","specimen","S. W. Leonard with A. E. Radford, D. Wells, E. Wells","1970-05-18","1970-05-18","Data from GBIF data index - original values.","2014-07-03",NA,NA,NA,NA,"US","Uwharrie National Forest; West Fork of McLean Creek, Park's Place Road, North Carolina, Montgomery, United States, North and Central America",1,TRUE,TRUE
