"","species","continent","country","adm1","adm2","locality","lat","lon","coordUncertaintyM","alt","institution","collection","catalogNumber","basisOfRecord","collector","earliestDateCollected","latestDateCollected","gbifNotes","downloadDate","maxElevationM","minElevationM","maxDepthM","minDepthM","ISO2","cloc","calc_error","precise_enough","unique_record"
"2","Carex integra","North America","United States","California","Fresno","Kaiser Pass Meadow, 0.2 road mi N of Kaiser Pass, along Kaiser Pass Road. Upslope from meadow",37,-119,"0",NA,"Consortium of California Herbaria","CHSC","CHSC93397","specimen","Robert F. C. Naczi",NA,NA,"Data from GBIF data index - original values.","2014-07-03",NA,NA,NA,NA,"US","Kaiser Pass Meadow, 0.2 road mi N of Kaiser Pass, along Kaiser Pass Road. Upslope from meadow, California, Fresno, United States, North America",100,FALSE,TRUE
"3","Carex integra","North America","United States","California","Siskiyou","Klamath Ranges. Salmon Mountains; south side of upper Carter Meadows 0.5 km west of Carter Meadows Summit",41,-123,"0",NA,"Consortium of California Herbaria","CHSC","CHSC96014","specimen","L. P. Janeway",NA,NA,"Data from GBIF data index - original values.","2014-07-03",NA,NA,NA,NA,"US","Klamath Ranges. Salmon Mountains; south side of upper Carter Meadows 0.5 km west of Carter Meadows Summit, California, Siskiyou, United States, North America",100,FALSE,TRUE
"4","Carex integra","North America","United States","California","Tulare","Bakeoven Meadows Sierra Nevada",36,-118,"1106",NA,"Consortium of California Herbaria","UC","UC1026417","specimen","John Thomas Howell",NA,NA,"Data from GBIF data index - original values.","2014-07-03",NA,NA,NA,NA,"US","Bakeoven Meadows Sierra Nevada, California, Tulare, United States, North America",100,FALSE,TRUE
"5","Carex integra","North America","United States","California","El Dorado","Northern Sierra Nevada Mountains Ice House Road, 9.1 miles north of Hwy US-50",39,-120,"0",NA,"Consortium of California Herbaria","UCR","UCR173977","specimen","G. K. Helmkamp, Elizabeth A. Helmkamp",NA,NA,"Data from GBIF data index - original values.","2014-07-03",NA,NA,NA,NA,"US","Northern Sierra Nevada Mountains Ice House Road, 9.1 miles north of Hwy US-50, California, El Dorado, United States, North America",100,FALSE,TRUE
"6","Carex integra","North America","United States","California","Lassen","High Cascade Range. Along Forest Service Road 30N14 1.1 km from Road 30N21; small side drainage of upper Susan River 4.7 (air) km west of Clover Valley",40,-121,"0",NA,"Consortium of California Herbaria","CHSC","CHSC85976","specimen","L. P. Janeway",NA,NA,"Data from GBIF data index - original values.","2014-07-03",NA,NA,NA,NA,"US","High Cascade Range. Along Forest Service Road 30N14 1.1 km from Road 30N21; small side drainage of upper Susan River 4.7 (air) km west of Clover Valley, California, Lassen, United States, North America",100,FALSE,TRUE
"8","Carex integra","North America","United States","California","Siskiyou","Tobacco Lake Salmon Mountains, Marble Mountain Wilderness Area",41,-123,"174",NA,"Consortium of California Herbaria","UC","UC1265329","specimen","Frederick W. Oettinger",NA,NA,"Data from GBIF data index - original values.","2014-07-03",NA,NA,NA,NA,"US","Tobacco Lake Salmon Mountains, Marble Mountain Wilderness Area, California, Siskiyou, United States, North America",100,FALSE,FALSE
"9","Carex integra","North America","United States","California","Tehama","On the high east bank of Colby Creek, about 50 yards north of where the dirt road crosses Colby Creek, about 2 miles (air) southeast of Colby Mountain, about 5 miles (air) northeast of Butte Meadows",40,-121,"0",NA,"Consortium of California Herbaria","JEPS","JEPS110418","specimen","Lowell Ahart",NA,NA,"Data from GBIF data index - original values.","2014-07-03",NA,NA,NA,NA,"US","On the high east bank of Colby Creek, about 50 yards north of where the dirt road crosses Colby Creek, about 2 miles (air) southeast of Colby Mountain, about 5 miles (air) northeast of Butte Meadows, California, Tehama, United States, North America",100,FALSE,FALSE
"10","Carex integra","North America","United States","California","Butte","ca. 3.3 air mi se Jonesville (Humbug Rd.) - Butte Creek, Butte Creek House",40,-121,"804",NA,"Consortium of California Herbaria","UC","UC1564775","specimen","V. Oswald and L. Ahart",NA,NA,"Data from GBIF data index - original values.","2014-07-03",NA,NA,NA,NA,"US","ca. 3.3 air mi se Jonesville (Humbug Rd.) - Butte Creek, Butte Creek House, California, Butte, United States, North America",100,FALSE,FALSE
"11","Carex integra","North America","United States","California","El Dorado","Northern Sierra Nevada Foothills E of Sacramento; Along Mother Load Road, 0.3 mi N of Pleasant Valley Road (just west of El Dorado)",39,-121,"0",NA,"Consortium of California Herbaria","UCR","UCR172671B","specimen","G. K. Helmkamp, Elizabeth Helmkamp",NA,NA,"Data from GBIF data index - original values.","2014-07-03",NA,NA,NA,NA,"US","Northern Sierra Nevada Foothills E of Sacramento; Along Mother Load Road, 0.3 mi N of Pleasant Valley Road (just west of El Dorado), California, El Dorado, United States, North America",100,FALSE,FALSE
"14","Carex integra","North America","United States","California","Butte","On the east side of Willow Creek, on the east side of a large meadow and bog, about 200 yards southeast of the cabin, about 3/4 mile (air) northwest of Jonesville, about 5 miles (air) northeast of Butte Meadows",40,-121,"0",NA,"Consortium of California Herbaria","JEPS","JEPS110201","specimen","Lowell Ahart",NA,NA,"Data from GBIF data index - original values.","2014-07-03",NA,NA,NA,NA,"US","On the east side of Willow Creek, on the east side of a large meadow and bog, about 200 yards southeast of the cabin, about 3/4 mile (air) northwest of Jonesville, about 5 miles (air) northeast of Butte Meadows, California, Butte, United States, North America",100,FALSE,FALSE
"16","Carex integra","North America","United States","California","Plumas","near intersection of Lumpkin Ridge Road and road to Tamarack Flat (about 200 yards e of a logging road, about 1 mile (air) w of Little Grass Valley Reservoir)",40,-121,"804",NA,"Consortium of California Herbaria","JEPS","JEPS87741","specimen","Lowell Ahart",NA,NA,"Data from GBIF data index - original values.","2014-07-03",NA,NA,NA,NA,"US","near intersection of Lumpkin Ridge Road and road to Tamarack Flat (about 200 yards e of a logging road, about 1 mile (air) w of Little Grass Valley Reservoir), California, Plumas, United States, North America",100,FALSE,FALSE
"17","Carex integra","North America","United States","California","Tuolumne","ca 11 air mi ne Pinecrest (s side Stanislaus Natl. For. Rd. 5N01 to Eagle Peak 0.5 mi e of Hwy. 108, 0.2 mi e of jct. Rd. 6N24 to Niagara Creek Campground)",38,-120,"804",NA,"Consortium of California Herbaria","UC","UC1561799","specimen","Barbara Ertter with Annetta Carter",NA,NA,"Data from GBIF data index - original values.","2014-07-03",NA,NA,NA,NA,"US","ca 11 air mi ne Pinecrest (s side Stanislaus Natl. For. Rd. 5N01 to Eagle Peak 0.5 mi e of Hwy. 108, 0.2 mi e of jct. Rd. 6N24 to Niagara Creek Campground), California, Tuolumne, United States, North America",100,FALSE,TRUE
"18","Carex integra","North America","United States","California","Shasta","near start of Bench Lake Trail - Lassen Volcanic National Park, Lower Kings Creek Meadow",40,-121,"334",NA,"Consortium of California Herbaria","JEPS","JEPS28352","specimen","George W. Gillett",NA,NA,"Data from GBIF data index - original values.","2014-07-03",NA,NA,NA,NA,"US","near start of Bench Lake Trail - Lassen Volcanic National Park, Lower Kings Creek Meadow, California, Shasta, United States, North America",100,FALSE,FALSE
"19","Carex integra","North America","United States","California","Shasta","Lower Kings Creek Meadow Lassen Volcanic National Park (near start of Bench Lake trail)",40,-121,"174",NA,"Consortium of California Herbaria","JEPS","JEPS28358","specimen","George W. Gillett",NA,NA,"Data from GBIF data index - original values.","2014-07-03",NA,NA,NA,NA,"US","Lower Kings Creek Meadow Lassen Volcanic National Park (near start of Bench Lake trail), California, Shasta, United States, North America",100,FALSE,FALSE
"20","Carex integra","North America","United States","California","Tulare","Rock Creek Sierra Nevada",36,-118,"0",NA,"Consortium of California Herbaria","UC","UC905032","specimen","John Thomas Howell",NA,NA,"Data from GBIF data index - original values.","2014-07-03",NA,NA,NA,NA,"US","Rock Creek Sierra Nevada, California, Tulare, United States, North America",100,FALSE,FALSE
"23","Carex integra","North America","United States","California","Plumas","Plumas National Forest. McRae Meadow, upper end of East Nelson Creek",40,-121,"0",NA,"Consortium of California Herbaria","CHSC","CHSC57103","specimen","L. P. Janeway",NA,NA,"Data from GBIF data index - original values.","2014-07-03",NA,NA,NA,NA,"US","Plumas National Forest. McRae Meadow, upper end of East Nelson Creek, California, Plumas, United States, North America",100,FALSE,FALSE
"24","Carex integra","North America","United States","California","Plumas","Southwest of Bucks Lake near Grizzly Cr campground",40,-121,"0",NA,"Consortium of California Herbaria","CHSC","CHSC48076","specimen","L. P. Janeway",NA,NA,"Data from GBIF data index - original values.","2014-07-03",NA,NA,NA,NA,"US","Southwest of Bucks Lake near Grizzly Cr campground, California, Plumas, United States, North America",100,FALSE,FALSE
"25","Carex integra","North America","United States","California","El Dorado","Meadow along Upper Truckee River about 0.3 mi south of Grass Lake Creek",39,-120,"0",NA,"Consortium of California Herbaria","CHSC","CHSC73326","specimen","L. P. Janeway, Eric Schroder",NA,NA,"Data from GBIF data index - original values.","2014-07-03",NA,NA,NA,NA,"US","Meadow along Upper Truckee River about 0.3 mi south of Grass Lake Creek, California, El Dorado, United States, North America",100,FALSE,FALSE
"26","Carex integra","North America","United States","California","Lassen","4.1 mi wnw Aspen Well - Lassen National Forest, Halls Flat Quadrangle",41,-121,"804",NA,"Consortium of California Herbaria","UC","UC1133501","specimen","A. Simontacchi",NA,NA,"Data from GBIF data index - original values.","2014-07-03",NA,NA,NA,NA,"US","4.1 mi wnw Aspen Well - Lassen National Forest, Halls Flat Quadrangle, California, Lassen, United States, North America",100,FALSE,FALSE
"27","Carex integra","North America","United States","California","Plumas","In a small drainage that runs into Fant Creek, west of the meadow, about 250 yards southwest of Fant Creek and the corral, north of Forest Road 27N09, about 6 miles (air) northwest of the Boulder Creek Work Center at Antelope Lake",40,-121,"0",NA,"Consortium of California Herbaria","CHSC","CHSC92297","specimen","Lowell Ahart, Josephine Guardino",NA,NA,"Data from GBIF data index - original values.","2014-07-03",NA,NA,NA,NA,"US","In a small drainage that runs into Fant Creek, west of the meadow, about 250 yards southwest of Fant Creek and the corral, north of Forest Road 27N09, about 6 miles (air) northwest of the Boulder Creek Work Center at Antelope Lake, California, Plumas, United States, North America",100,FALSE,FALSE
"28","Carex integra","North America","United States","California","Butte","Forest floor between the Humboldt-to-Humbug Road, Butte Creek House, and Humbug Road",40,-121,"0",NA,"Consortium of California Herbaria","CHSC","CHSC52913","specimen","L. P. Janeway, R. A. Schlising",NA,NA,"Data from GBIF data index - original values.","2014-07-03",NA,NA,NA,NA,"US","Forest floor between the Humboldt-to-Humbug Road, Butte Creek House, and Humbug Road, California, Butte, United States, North America",100,FALSE,FALSE
"31","Carex integra","North America","United States","California","Butte","Open disturbed grassy area N of and adjacent to Fall River at the Fall River Campground",40,-121,"0",NA,"Consortium of California Herbaria","CHSC","CHSC35710","specimen","J. D. Jokerst, R. A. Schlising",NA,NA,"Data from GBIF data index - original values.","2014-07-03",NA,NA,NA,NA,"US","Open disturbed grassy area N of and adjacent to Fall River at the Fall River Campground, California, Butte, United States, North America",100,FALSE,FALSE
"32","Carex integra","North America","United States","California","Sierra","Webber Lake -   -",39,-120,"0",NA,"Consortium of California Herbaria","UC","UC174650","specimen","P. B. Kennedy and S. B. Doten",NA,NA,"Data from GBIF data index - original values.","2014-07-03",NA,NA,NA,NA,"US","Webber Lake -   -, California, Sierra, United States, North America",100,FALSE,FALSE
"34","Carex integra","North America","United States","California","Plumas","Plumas National Forest. In marshy meadow below Mud Lake, 3/4 mile NE of Eisenheimer Peak",40,-121,"0",NA,"Consortium of California Herbaria","CHSC","CHSC77169","specimen","G. Douglas Barbe, T. C. Fuller",NA,NA,"Data from GBIF data index - original values.","2014-07-03",NA,NA,NA,NA,"US","Plumas National Forest. In marshy meadow below Mud Lake, 3/4 mile NE of Eisenheimer Peak, California, Plumas, United States, North America",100,FALSE,FALSE
"35","Carex integra","North America","United States","California","El Dorado","about 1.5 mi e of Upper Truckee River (and 0.6 mi s of Highway 50, Big Meadow, Freel Peak Quadrangle) - Big Meadow, Freel Peak Quadrangle",39,-120,"804",NA,"Consortium of California Herbaria","UC","UC1729958","specimen","L. P. Janeway and Eric Schroder",NA,NA,"Data from GBIF data index - original values.","2014-07-03",NA,NA,NA,NA,"US","about 1.5 mi e of Upper Truckee River (and 0.6 mi s of Highway 50, Big Meadow, Freel Peak Quadrangle) - Big Meadow, Freel Peak Quadrangle, California, El Dorado, United States, North America",100,FALSE,FALSE
"36","Carex integra","North America","United States","California","Siskiyou","Fawn Creek Meadow Shasta-Trinity National Forests, Mt. Shasta Ranger Dist.",41,-123,"804",NA,"Consortium of California Herbaria","UC","UC1608359","specimen","J. Kierstead",NA,NA,"Data from GBIF data index - original values.","2014-07-03",NA,NA,NA,NA,"US","Fawn Creek Meadow Shasta-Trinity National Forests, Mt. Shasta Ranger Dist., California, Siskiyou, United States, North America",100,FALSE,FALSE
"38","Carex integra","North America","United States","California","Inyo","3 MI W OF HWY 395 LOWER ROCK CREEK ROAD",37,-118,"0",NA,"Consortium of California Herbaria","UCSB","UCSB45201","specimen","R. Woicik",NA,NA,"Data from GBIF data index - original values.","2014-07-03",NA,NA,NA,NA,"US","3 MI W OF HWY 395 LOWER ROCK CREEK ROAD, California, Inyo, United States, North America",100,FALSE,FALSE
"39","Carex integra","North America","United States","California","Trinity","just n Big Flat (headwaters of Coffee Creek) - Salmon Mts. region, Coffee Creek",41,-123,"1621",NA,"Consortium of California Herbaria","JEPS","JEPS25604","specimen","Rimo Bacigalupi",NA,NA,"Data from GBIF data index - original values.","2014-07-03",NA,NA,NA,NA,"US","just n Big Flat (headwaters of Coffee Creek) - Salmon Mts. region, Coffee Creek, California, Trinity, United States, North America",100,FALSE,FALSE
"40","Carex integra","North America","United States","California","Modoc","Head Deep Creek.",42,-120,"0",NA,"Consortium of California Herbaria","CAS","CAS348857","specimen","Annie Montague Alexander, L. Kellogg",NA,NA,"Data from GBIF data index - original values.","2014-07-03",NA,NA,NA,NA,"US","Head Deep Creek., California, Modoc, United States, North America",100,FALSE,TRUE
"41","Carex integra","North America","United States","California","Fresno","Southern High Sierra Nevada. Converse Basin; long wide meadow 0.6 km east of Chicago Stump",37,-119,"0",NA,"Consortium of California Herbaria","CHSC","CHSC86107","specimen","L. P. Janeway",NA,NA,"Data from GBIF data index - original values.","2014-07-03",NA,NA,NA,NA,"US","Southern High Sierra Nevada. Converse Basin; long wide meadow 0.6 km east of Chicago Stump, California, Fresno, United States, North America",100,FALSE,FALSE
"42","Carex integra","North America","United States","California","Siskiyou","At the north end of Atkin's Meadow near the lodgepole pine margin. Ca 15 air mile east of McCloud",41,-122,"0",NA,"Consortium of California Herbaria","CHSC","CHSC39000","specimen","J. D. Jokerst",NA,NA,"Data from GBIF data index - original values.","2014-07-03",NA,NA,NA,NA,"US","At the north end of Atkin's Meadow near the lodgepole pine margin. Ca 15 air mile east of McCloud, California, Siskiyou, United States, North America",100,FALSE,TRUE
"43","Carex integra","North America","United States","California","Plumas","About 200 yards east of a logging road, near the intersection of Lumpkin Ridge Road and the road to Tamarack Flat, about 1 mile (air) west of Little Grass Valley Reservoir",40,-121,"0",NA,"Consortium of California Herbaria","CHSC","CHSC63291","specimen","Lowell Ahart",NA,NA,"Data from GBIF data index - original values.","2014-07-03",NA,NA,NA,NA,"US","About 200 yards east of a logging road, near the intersection of Lumpkin Ridge Road and the road to Tamarack Flat, about 1 mile (air) west of Little Grass Valley Reservoir, California, Plumas, United States, North America",100,FALSE,FALSE
"44","Carex integra","North America","United States","California","Madera","Devils Postpile National Monument - Islet on E side of Middle Fork San Joaquin River with alder and willow thickets. Gravelly sand.",38,-119,"0",NA,"Consortium of California Herbaria","JEPS","JEPS99711","specimen","Melanie Arnett",NA,NA,"Data from GBIF data index - original values.","2014-07-03",NA,NA,NA,NA,"US","Devils Postpile National Monument - Islet on E side of Middle Fork San Joaquin River with alder and willow thickets. Gravelly sand., California, Madera, United States, North America",100,FALSE,FALSE
"46","Carex integra","North America","United States","California","Butte","Dry open meadow near a seepy area along the road to Jones Meadow, 9.6 mi from Inskip; NW-facing slopes above Last Chance Cr",40,-121,"0",NA,"Consortium of California Herbaria","CHSC","CHSC52911","specimen","L. P. Janeway",NA,NA,"Data from GBIF data index - original values.","2014-07-03",NA,NA,NA,NA,"US","Dry open meadow near a seepy area along the road to Jones Meadow, 9.6 mi from Inskip; NW-facing slopes above Last Chance Cr, California, Butte, United States, North America",100,FALSE,FALSE
"47","Carex integra","North America","United States","California","Nevada","meadow opposite University of California Trout Laboratory - Sierra Nevada, Sage Hen Creek",39,-120,"121",NA,"Consortium of California Herbaria","UC","UC965617","specimen","Herbert L. Mason",NA,NA,"Data from GBIF data index - original values.","2014-07-03",NA,NA,NA,NA,"US","meadow opposite University of California Trout Laboratory - Sierra Nevada, Sage Hen Creek, California, Nevada, United States, North America",100,FALSE,FALSE
"48","Carex integra","North America","United States","California","Butte","3.1 mi N of Stirling City towards Inskip; along logging road 0.2 mi W of Skyway",40,-122,"0",NA,"Consortium of California Herbaria","CHSC","CHSC52868","specimen","L. P. Janeway",NA,NA,"Data from GBIF data index - original values.","2014-07-03",NA,NA,NA,NA,"US","3.1 mi N of Stirling City towards Inskip; along logging road 0.2 mi W of Skyway, California, Butte, United States, North America",100,FALSE,FALSE
"49","Carex integra","North America","United States","California","Tehama","On the high east bank of Colby Creek, about 50 yards north of where the dirt road crosses Colby Creek, about 2 miles (air) southeast of Colby Mountain, about 5 miles (air) northeast of Butte Meadows",40,-121,"0",NA,"Consortium of California Herbaria","CHSC","CHSC94219","specimen","Lowell Ahart",NA,NA,"Data from GBIF data index - original values.","2014-07-03",NA,NA,NA,NA,"US","On the high east bank of Colby Creek, about 50 yards north of where the dirt road crosses Colby Creek, about 2 miles (air) southeast of Colby Mountain, about 5 miles (air) northeast of Butte Meadows, California, Tehama, United States, North America",100,FALSE,FALSE
"50","Carex integra","North America","United States","California","Plumas","Plumas National Forest. About 1/4 mi east of Emigrant Creek and about 1/4 mi south of Little Grizzly Creek. Southerly finger of meadows along Little Grizzly Creek",40,-121,"0",NA,"Consortium of California Herbaria","CHSC","CHSC55438","specimen","L. P. Janeway",NA,NA,"Data from GBIF data index - original values.","2014-07-03",NA,NA,NA,NA,"US","Plumas National Forest. About 1/4 mi east of Emigrant Creek and about 1/4 mi south of Little Grizzly Creek. Southerly finger of meadows along Little Grizzly Creek, California, Plumas, United States, North America",100,FALSE,FALSE
"51","Carex integra","North America","United States","California","El Dorado","Large, long meadow along Trout Creek about 0.4 mi south-southeast of Hwy 50",39,-120,"0",NA,"Consortium of California Herbaria","CHSC","CHSC73325","specimen","L. P. Janeway, Eric Schroder",NA,NA,"Data from GBIF data index - original values.","2014-07-03",NA,NA,NA,NA,"US","Large, long meadow along Trout Creek about 0.4 mi south-southeast of Hwy 50, California, El Dorado, United States, North America",100,FALSE,FALSE
"54","Carex integra","North America","United States","California","Tulare","Nobe Young Mdw. Sequoia Forest",36,-119,"804",NA,"Consortium of California Herbaria","UC","UC1256237","specimen","R. K. Gierisch",NA,NA,"Data from GBIF data index - original values.","2014-07-03",NA,NA,NA,NA,"US","Nobe Young Mdw. Sequoia Forest, California, Tulare, United States, North America",100,FALSE,FALSE
"55","Carex integra","North America","United States","California","Butte","Humbug Rd at Butte Creek House, ca. 3.3 mi (air) se of Jonesville",40,-121,"0",NA,"Consortium of California Herbaria","CHSC","CHSC46462","specimen","V. Oswald, L. Ahart",NA,NA,"Data from GBIF data index - original values.","2014-07-03",NA,NA,NA,NA,"US","Humbug Rd at Butte Creek House, ca. 3.3 mi (air) se of Jonesville, California, Butte, United States, North America",100,FALSE,FALSE
"56","Carex integra","North America","United States","California","Tulare","Southern High Sierra Nevada. South edge of headwaters meadow that eventually feeds into Deep Meadow and Boulder Creek; along Road 20S79 (road to Lewis Camp Trailhead)",36,-119,"0",NA,"Consortium of California Herbaria","CHSC","CHSC89573","specimen","L. P. Janeway",NA,NA,"Data from GBIF data index - original values.","2014-07-03",NA,NA,NA,NA,"US","Southern High Sierra Nevada. South edge of headwaters meadow that eventually feeds into Deep Meadow and Boulder Creek; along Road 20S79 (road to Lewis Camp Trailhead), California, Tulare, United States, North America",100,FALSE,FALSE
"57","Carex integra","North America","United States","California","Sierra","Milton range section 16 Tahoe National Forest",40,-121,"2666",NA,"Consortium of California Herbaria","UC","UC733663","specimen","L. S. Smith",NA,NA,"Data from GBIF data index - original values.","2014-07-03",NA,NA,NA,NA,"US","Milton range section 16 Tahoe National Forest, California, Sierra, United States, North America",100,FALSE,FALSE
"59","Carex integra","North America","United States","California","Plumas","Meadow at head of western branch of Stag Creek; along Road 22N80Y 0.1 mi north of Road 22N72; about 0.3 mi south-southeast of Table Mountain",40,-121,"0",NA,"Consortium of California Herbaria","CHSC","CHSC65595","specimen","L. P. Janeway",NA,NA,"Data from GBIF data index - original values.","2014-07-03",NA,NA,NA,NA,"US","Meadow at head of western branch of Stag Creek; along Road 22N80Y 0.1 mi north of Road 22N72; about 0.3 mi south-southeast of Table Mountain, California, Plumas, United States, North America",100,FALSE,FALSE
"60","Carex integra","North America","United States","California","Butte","On the high sides of a snow lake, on the south side of Coon Hollow, about 2 (air) miles north-east of Philbrook Reservoir",40,-121,"0",NA,"Consortium of California Herbaria","CHSC","CHSC59007","specimen","Lowell Ahart",NA,NA,"Data from GBIF data index - original values.","2014-07-03",NA,NA,NA,NA,"US","On the high sides of a snow lake, on the south side of Coon Hollow, about 2 (air) miles north-east of Philbrook Reservoir, California, Butte, United States, North America",100,FALSE,FALSE
"61","Carex integra","North America","United States","California","Butte","Snow Mt. region located ca. 6 air mi se of Jonesville",40,-121,"0",NA,"Consortium of California Herbaria","CHSC","CHSC44168","specimen","V. Oswald, L. Ahart",NA,NA,"Data from GBIF data index - original values.","2014-07-03",NA,NA,NA,NA,"US","Snow Mt. region located ca. 6 air mi se of Jonesville, California, Butte, United States, North America",100,FALSE,FALSE
"64","Carex integra","North America","United States","California","Butte","Meadow near Dresser Camp, 3.0 mi N of Jones Meadow along road to Philbrook Reservoir",40,-121,"0",NA,"Consortium of California Herbaria","CHSC","CHSC52910","specimen","L. P. Janeway",NA,NA,"Data from GBIF data index - original values.","2014-07-03",NA,NA,NA,NA,"US","Meadow near Dresser Camp, 3.0 mi N of Jones Meadow along road to Philbrook Reservoir, California, Butte, United States, North America",100,FALSE,FALSE
"65","Carex integra","North America","United States","California","Plumas","In a small drainage that runs into Fant Creek, west of the meadow, about 250 yards southwest of Fant Creek and the corral, north of Forest Road 27N09, about 6 miles (air) northwest of the Boulder Creek Work Center at Antelope Lake",40,-121,"0",NA,"Consortium of California Herbaria","JEPS","JEPS107624","specimen","Lowell Ahart, Josephine Guardino",NA,NA,"Data from GBIF data index - original values.","2014-07-03",NA,NA,NA,NA,"US","In a small drainage that runs into Fant Creek, west of the meadow, about 250 yards southwest of Fant Creek and the corral, north of Forest Road 27N09, about 6 miles (air) northwest of the Boulder Creek Work Center at Antelope Lake, California, Plumas, United States, North America",100,FALSE,FALSE
"66","Carex integra","North America","United States","California","Tulare","Olancha Mountain Southern Sierra Nevada Mountains",36,-118,"4354",NA,"Consortium of California Herbaria","UC","UC127704","specimen","H. M. Hall and H. D. Babcock",NA,NA,"Data from GBIF data index - original values.","2014-07-03",NA,NA,NA,NA,"US","Olancha Mountain Southern Sierra Nevada Mountains, California, Tulare, United States, North America",100,FALSE,FALSE
"67","Carex integra","North America","United States","California","Mono","Sierra Nevada Mtns south side of Lake Mary, south of Mammoth Lakes",38,-119,"0",NA,"Consortium of California Herbaria","UCR","UCR114347","specimen","G. K. Helmkamp, E. A. Helmkamp",NA,NA,"Data from GBIF data index - original values.","2014-07-03",NA,NA,NA,NA,"US","Sierra Nevada Mtns south side of Lake Mary, south of Mammoth Lakes, California, Mono, United States, North America",100,FALSE,FALSE
"68","Carex integra","North America","United States","California","El Dorado","Big Meadow; about 1.5 mi east of Upper Truckee River and 0.6 mi south of Hwy 50",39,-120,"0",NA,"Consortium of California Herbaria","CHSC","CHSC73327","specimen","L. P. Janeway, Eric Schroder",NA,NA,"Data from GBIF data index - original values.","2014-07-03",NA,NA,NA,NA,"US","Big Meadow; about 1.5 mi east of Upper Truckee River and 0.6 mi south of Hwy 50, California, El Dorado, United States, North America",100,FALSE,FALSE
"70","Carex integra","North America","United States","California","Calaveras","Sierra Nevada: ca. 4 mi NE of Big Meadows",38,-120,"1000",NA,"Consortium of California Herbaria","SBBG","SBBG35897","specimen","T. L. Secrest",NA,NA,"Data from GBIF data index - original values.","2014-07-03",NA,NA,NA,NA,"US","Sierra Nevada: ca. 4 mi NE of Big Meadows, California, Calaveras, United States, North America",100,FALSE,FALSE
"72","Carex integra","North America","United States","California","Mono","NEAR SPRING BELOW HANS GEORGE'S CABIN VALENTINE EASTERN SIERRA RESERVE (2.5 MI SW OF HWY 203; ON OLD MAMMOTH ROAD)",38,-119,"0",NA,"Consortium of California Herbaria","UCSB","UCSB35624","specimen","A. Howald",NA,NA,"Data from GBIF data index - original values.","2014-07-03",NA,NA,NA,NA,"US","NEAR SPRING BELOW HANS GEORGE'S CABIN VALENTINE EASTERN SIERRA RESERVE (2.5 MI SW OF HWY 203; ON OLD MAMMOTH ROAD), California, Mono, United States, North America",100,FALSE,FALSE
"73","Carex integra","North America","United States","California","Calaveras","Sierra Nevada: Big Meadow",38,-120,"1000",NA,"Consortium of California Herbaria","SBBG","SBBG30781","specimen","T. L. Secrest",NA,NA,"Data from GBIF data index - original values.","2014-07-03",NA,NA,NA,NA,"US","Sierra Nevada: Big Meadow, California, Calaveras, United States, North America",100,FALSE,FALSE
"75","Carex integra","North America","United States","California","Butte","Near Coon Cr and near Bull Hill Rd 1.0 mi from Skyway",40,-122,"0",NA,"Consortium of California Herbaria","CHSC","CHSC52915","specimen","L. P. Janeway",NA,NA,"Data from GBIF data index - original values.","2014-07-03",NA,NA,NA,NA,"US","Near Coon Cr and near Bull Hill Rd 1.0 mi from Skyway, California, Butte, United States, North America",100,FALSE,FALSE
"76","Carex integra","North America","United States","California","Butte","N edge of a wet area W of a large open meadow and bog, about 20 yards E of the poor dirt road, about 100 yards S of the cabin, about 3/4 mile (air) NW of Jonesville, about 5 miles (air) NE of Butte Meadows.",40,-121,"0",NA,"Consortium of California Herbaria","JEPS","JEPS110450","specimen","Lowell Ahart",NA,NA,"Data from GBIF data index - original values.","2014-07-03",NA,NA,NA,NA,"US","N edge of a wet area W of a large open meadow and bog, about 20 yards E of the poor dirt road, about 100 yards S of the cabin, about 3/4 mile (air) NW of Jonesville, about 5 miles (air) NE of Butte Meadows., California, Butte, United States, North America",100,FALSE,FALSE
"77","Carex integra","North America","United States","California","Madera","Devils Postpile National Monument - E-facing 2% midslope of intermittent riparian and surrounding meadow, ca. 0.1 mi W of the Middle Fork San Joaquin River. Loose pumice over degrading granite. Site surrounded by a 50/50 live/burned lodgepole forest with Jeffrey pine and granite outcrop",38,-119,"0",NA,"Consortium of California Herbaria","JEPS","JEPS99710","specimen","Melanie Arnett",NA,NA,"Data from GBIF data index - original values.","2014-07-03",NA,NA,NA,NA,"US","Devils Postpile National Monument - E-facing 2% midslope of intermittent riparian and surrounding meadow, ca. 0.1 mi W of the Middle Fork San Joaquin River. Loose pumice over degrading granite. Site surrounded by a 50/50 live/burned lodgepole forest with Jeffrey pine and granite outcrop, California, Madera, United States, North America",100,FALSE,FALSE
"78","Carex integra","North America","United States","California","Butte","North edge of a wet area west of a large open meadow and bog, about 20 yards east of the poor dirt road, about 100 yards south of the cabin, about 3/4 mile (air) northwest of Jonesville, about 5 miles (air) northeast of Butte Meadows",40,-121,"0",NA,"Consortium of California Herbaria","CHSC","CHSC94426","specimen","Lowell Ahart",NA,NA,"Data from GBIF data index - original values.","2014-07-03",NA,NA,NA,NA,"US","North edge of a wet area west of a large open meadow and bog, about 20 yards east of the poor dirt road, about 100 yards south of the cabin, about 3/4 mile (air) northwest of Jonesville, about 5 miles (air) northeast of Butte Meadows, California, Butte, United States, North America",100,FALSE,FALSE
"79","Carex integra","North America","United States","California","Tuolumne","n side of Pigeon Flat Pigeon Flat",38,-120,"0",NA,"Consortium of California Herbaria","UC","UC766695","specimen","R. F. Hoover",NA,NA,"Data from GBIF data index - original values.","2014-07-03",NA,NA,NA,NA,"US","n side of Pigeon Flat Pigeon Flat, California, Tuolumne, United States, North America",100,FALSE,FALSE
"80","Carex integra","North America","United States","California","Butte","On the east side of Willow Creek, on the east side of a large meadow and bog, about 200 yards southeast of the cabin, about 3/4 mile (air) northwest of Jonesville, about 5 miles (air) northeast of Butte Meadows",40,-121,"0",NA,"Consortium of California Herbaria","CHSC","CHSC94260","specimen","Lowell Ahart",NA,NA,"Data from GBIF data index - original values.","2014-07-03",NA,NA,NA,NA,"US","On the east side of Willow Creek, on the east side of a large meadow and bog, about 200 yards southeast of the cabin, about 3/4 mile (air) northwest of Jonesville, about 5 miles (air) northeast of Butte Meadows, California, Butte, United States, North America",100,FALSE,FALSE
"81","Carex integra","North America","United States","California","Mariposa","Chowchilla Mountains; wet meadow at head Laurel Creek (ca. 15 air mi East of Mariposa)",37,-120,"0",NA,"Consortium of California Herbaria","JEPS","JEPS100935","specimen","Dean Wm. Taylor",NA,NA,"Data from GBIF data index - original values.","2014-07-03",NA,NA,NA,NA,"US","Chowchilla Mountains; wet meadow at head Laurel Creek (ca. 15 air mi East of Mariposa), California, Mariposa, United States, North America",100,FALSE,FALSE
"82","Carex integra","North America","United States","California","Butte","East end of Philbrook Reservoir",40,-121,"0",NA,"Consortium of California Herbaria","CHSC","CHSC52912","specimen","L. P. Janeway",NA,NA,"Data from GBIF data index - original values.","2014-07-03",NA,NA,NA,NA,"US","East end of Philbrook Reservoir, California, Butte, United States, North America",100,FALSE,FALSE
"84","Carex integra","North America","United States","California","El Dorado","Northern Sierra Nevada Mountains Wright's Lake Road, north of US-50 at the Lyon's Creek trailhead and creek crossing",39,-120,"0",NA,"Consortium of California Herbaria","UCR","UCR192508","specimen","G. K. Helmkamp, E. A. Helmkamp",NA,NA,"Data from GBIF data index - original values.","2014-07-03",NA,NA,NA,NA,"US","Northern Sierra Nevada Mountains Wright's Lake Road, north of US-50 at the Lyon's Creek trailhead and creek crossing, California, El Dorado, United States, North America",100,FALSE,FALSE
"86","Carex integra","North America","United States","California","Butte","Large mdw at head\waters\ of Willow Cr",40,-121,"0",NA,"Consortium of California Herbaria","CHSC","CHSC52869","specimen","L. P. Janeway, R. A. Schlising",NA,NA,"Data from GBIF data index - original values.","2014-07-03",NA,NA,NA,NA,"US","Large mdw at headwaters of Willow Cr, California, Butte, United States, North America",100,FALSE,FALSE
"87","Carex integra","North America","United States","California","Siskiyou","At Poker Flat, a meadow",42,-124,"0",NA,"Consortium of California Herbaria","CHSC","CHSC40176","specimen","L. P. Janeway",NA,NA,"Data from GBIF data index - original values.","2014-07-03",NA,NA,NA,NA,"US","At Poker Flat, a meadow, California, Siskiyou, United States, North America",100,FALSE,TRUE
"88","Carex integra","North America","United States","California","Madera","marble outcrop bordering meadow in headwaters of Chiquito Cr; , at end of jeep road to prospects at SW base of Redtop",38,-119,"0",NA,"Consortium of California Herbaria","JEPS","JEPS100933","specimen","Dean Wm. Taylor",NA,NA,"Data from GBIF data index - original values.","2014-07-03",NA,NA,NA,NA,"US","marble outcrop bordering meadow in headwaters of Chiquito Cr; , at end of jeep road to prospects at SW base of Redtop, California, Madera, United States, North America",100,FALSE,FALSE
"92","Carex integra","North America","United States","California","Sierra","In the vicinity of Tioga Pass.",38,-119,"0",NA,"Consortium of California Herbaria","CDA","CDA9656","specimen","D. W. Taylor",NA,NA,"Data from GBIF data index - original values.","2014-07-03",NA,NA,NA,NA,"US","In the vicinity of Tioga Pass., California, Sierra, United States, North America",100,FALSE,FALSE
"93","Carex integra","North America","United States","California","Butte","Concow Rd. at Rag Dump. Grassy flat near Fall Creek",40,-121,"0",NA,"Consortium of California Herbaria","CHSC","CHSC45049","specimen","Vernon Oswald",NA,NA,"Data from GBIF data index - original values.","2014-07-03",NA,NA,NA,NA,"US","Concow Rd. at Rag Dump. Grassy flat near Fall Creek, California, Butte, United States, North America",100,FALSE,FALSE
"94","Carex integra","North America","United States","California","Placer","Meadow complex on north side of Ward Creek about 3.1 mi west of Lake Tahoe and Sunnyside",39,-120,"0",NA,"Consortium of California Herbaria","CHSC","CHSC74290","specimen","Susi Urie, Eric Schroder",NA,NA,"Data from GBIF data index - original values.","2014-07-03",NA,NA,NA,NA,"US","Meadow complex on north side of Ward Creek about 3.1 mi west of Lake Tahoe and Sunnyside, California, Placer, United States, North America",100,FALSE,FALSE
"97","Carex integra","North America","United States","California","Siskiyou","Klamath Ranges. Scott Mountains; Darlingtonia fen and creeklet complex above Road 40N13 1.6 air km west of Scott Mountain Summit",41,-123,"0",NA,"Consortium of California Herbaria","CHSC","CHSC95997","specimen","L. P. Janeway",NA,NA,"Data from GBIF data index - original values.","2014-07-03",NA,NA,NA,NA,"US","Klamath Ranges. Scott Mountains; Darlingtonia fen and creeklet complex above Road 40N13 1.6 air km west of Scott Mountain Summit, California, Siskiyou, United States, North America",100,FALSE,FALSE
"98","Carex integra","North America","United States","California","Modoc","Benton Meadow, upper meadow.",42,-120,"0",NA,"Consortium of California Herbaria","CAS","CAS348855","specimen","Annie Montague Alexander, L. Kellogg",NA,NA,"Data from GBIF data index - original values.","2014-07-03",NA,NA,NA,NA,"US","Benton Meadow, upper meadow., California, Modoc, United States, North America",100,FALSE,FALSE
"99","Carex integra","North America","United States","California","Sierra","In a small meadow, on the west side of a poor dirt road that ends at a stream, on the north side of Mount Fillmore, about 3/4 mile south of the dirt road from Gibsonville to Johnsville",40,-121,"0",NA,"Consortium of California Herbaria","CHSC","CHSC61928","specimen","Lowell Ahart",NA,NA,"Data from GBIF data index - original values.","2014-07-03",NA,NA,NA,NA,"US","In a small meadow, on the west side of a poor dirt road that ends at a stream, on the north side of Mount Fillmore, about 3/4 mile south of the dirt road from Gibsonville to Johnsville, California, Sierra, United States, North America",100,FALSE,FALSE
"100","Carex integra","North America","United States","California","Butte","Upper canyon of Philbrook Creek, 0.7 mi W of the pass",40,-122,"0",NA,"Consortium of California Herbaria","CHSC","CHSC52914","specimen","L. P. Janeway, R. A. Schlising",NA,NA,"Data from GBIF data index - original values.","2014-07-03",NA,NA,NA,NA,"US","Upper canyon of Philbrook Creek, 0.7 mi W of the pass, California, Butte, United States, North America",100,FALSE,FALSE
"101","Carex integra","North America","United States","California","Placer","Trail from The Cedars, high Sierra Nevada SW of Donner Lake, camp area",39,-120,"0",NA,"Consortium of California Herbaria","CHSC","CHSC68060","specimen","James D. Jokerst",NA,NA,"Data from GBIF data index - original values.","2014-07-03",NA,NA,NA,NA,"US","Trail from The Cedars, high Sierra Nevada SW of Donner Lake, camp area, California, Placer, United States, North America",100,FALSE,FALSE
"103","Carex integra","North America","United States","California","Tulare","Southern High Sierra Nevada. Junction of Road 20S53 (road to Clicks Creek Trailhead) and Road 20S579 (road to Lewis Camp Trailhead); near the east end of Loggy Meadow that heads Fish Creek",36,-119,"0",NA,"Consortium of California Herbaria","CHSC","CHSC89597","specimen","L. P. Janeway",NA,NA,"Data from GBIF data index - original values.","2014-07-03",NA,NA,NA,NA,"US","Southern High Sierra Nevada. Junction of Road 20S53 (road to Clicks Creek Trailhead) and Road 20S579 (road to Lewis Camp Trailhead); near the east end of Loggy Meadow that heads Fish Creek, California, Tulare, United States, North America",100,FALSE,FALSE
"105","Carex integra","North America","United States","California","Plumas","near intersection of Lumpkin Ridge Road and road to Tamarack Flat (about 200 yards e of a logging road, about 1 mile (air) w of Little Grass Valley Reservoir)",40,-121,"804",NA,"Consortium of California Herbaria","JEPS","JEPS87742","specimen","Lowell Ahart",NA,NA,"Data from GBIF data index - original values.","2014-07-03",NA,NA,NA,NA,"US","near intersection of Lumpkin Ridge Road and road to Tamarack Flat (about 200 yards e of a logging road, about 1 mile (air) w of Little Grass Valley Reservoir), California, Plumas, United States, North America",100,FALSE,FALSE
"106","Carex integra","North America","United States","California","Placer","Trail from The Cedars, high Sierra Nevada SW of Donner Lake, S side of river along trail from Chickerings home upstream to Blue and Gold Meadow",39,-120,"0",NA,"Consortium of California Herbaria","CHSC","CHSC68058","specimen","James D. Jokerst",NA,NA,"Data from GBIF data index - original values.","2014-07-03",NA,NA,NA,NA,"US","Trail from The Cedars, high Sierra Nevada SW of Donner Lake, S side of river along trail from Chickerings home upstream to Blue and Gold Meadow, California, Placer, United States, North America",100,FALSE,FALSE
"107","Carex integra",NA,"United States","Utah","Garfield",NA,37.71,-111.92,NA,NA,"USU","UTC","183003","unknown","JS Tuhy","1983-07-04","1983-07-04","Data from GBIF data index - original values.","2014-07-03",NA,NA,NA,NA,"US","Utah, Garfield, United States",1,TRUE,TRUE
"108","Carex integra Mack.","North America","United States","Alaska","Fairbanks North Star","W side of Harding Lake Rd, along powerline W of road, NE 1/4, Section 35",64.4,-146.9,NA,"68","NY","Herbarium","43414","specimen","J. C. Lyman","1995-07-24","1995-07-24","Data from GBIF data index - original values.","2014-07-03","68","68",NA,NA,"US","W side of Harding Lake Rd, along powerline W of road, NE 1/4, Section 35, Alaska, Fairbanks North Star, United States, North America",10,FALSE,TRUE
"109","Carex integra  Mack.","North America","United States","California","Fresno County","Ca. 65 kilometers E-NE of Fresno (FSC), Sierra National Forest, edge of House Meadow.",37.00139,-119.04611,NA,"2165","CAS","BOT","1034438","specimen","York, Dana","1996-05-18","1996-05-18","Data from GBIF data index - original values.","2014-07-03","2165","2165",NA,NA,"US","Ca. 65 kilometers E-NE of Fresno (FSC), Sierra National Forest, edge of House Meadow., California, Fresno County, United States, North America",0.001,TRUE,TRUE
"110","Carex integra  Mack.","North America","United States","California","Fresno County","Ca 70 km ENE of Fresno, Sierra National Forest, Smith Meadow.",36.93222,-118.97111,NA,"2050","CAS","BOT","1118353","specimen","York, Dana Adrian; Shevock, James R.","1996-06-15","1996-06-15","Data from GBIF data index - original values.","2014-07-03","2050","2050",NA,NA,"US","Ca 70 km ENE of Fresno, Sierra National Forest, Smith Meadow., California, Fresno County, United States, North America",0.001,TRUE,TRUE
"111","Carex integra  Mack.","North America","United States","California","Trinity County","Siligo Peak-Summit Lake area. Boggy area below west side of Summit L.",41,-123,NA,"2194.56","CAS","BOT","580586","specimen","Ferlatte, William J.","1974-08-16","1974-08-16","Data from GBIF data index - original values.","2014-07-03","2194.56","2194.56",NA,NA,"US","Siligo Peak-Summit Lake area. Boggy area below west side of Summit L., California, Trinity County, United States, North America",100,FALSE,FALSE
"112","Carex integra  Mack.","North America","United States","California","Inyo County","Sedge meadow south off Cottonwood Lakes Road and north of Cottonwood Creek (land owned by city of Los Angeles).",36.460835,-118.151665,NA,"2896","CAS","BOT","864802","specimen","Tallent, R.","1987-07-18","1987-07-18","Data from GBIF data index - original values.","2014-07-03","2896","2896",NA,NA,"US","Sedge meadow south off Cottonwood Lakes Road and north of Cottonwood Creek (land owned by city of Los Angeles)., California, Inyo County, United States, North America",1e-04,TRUE,TRUE
"113","Carex integra  Mack.","North America","United States","California","El Dorado County","Cut clearing north of Strawberry Creek. El Dorado National Forest; near intermittent stream/ditch (disturbed).",38.78611,-120.140274,NA,"1800","CAS","BOT","864925","specimen","Tallent, R.","1987-07-23","1987-07-23","Data from GBIF data index - original values.","2014-07-03","1800","1800",NA,NA,"US","Cut clearing north of Strawberry Creek. El Dorado National Forest; near intermittent stream/ditch (disturbed)., California, El Dorado County, United States, North America",0.001,TRUE,TRUE
"114","Carex integra  Mack.","North America","United States","California","Tulare County","Little Whitney Meadow.",36.3759,-118.3456,NA,"2590.8","CAS","BOT","355518","specimen","Howell, John Thomas","1949-07-29","1949-07-29","Data from GBIF data index - original values.","2014-07-03","2590.8","2590.8",NA,NA,"US","Little Whitney Meadow., California, Tulare County, United States, North America",0.01,TRUE,TRUE
"115","Carex integra  Mack.","North America","United States","California","Fresno County","Kings River Basin. Ca. 73 km NE of Fresno (FSC), Sierra National Forest, Dinkey Lakes Wilderness, large meadow feeding into inlet creek of First Dinkey Lake",37.166943,-119.06111,NA,"2830","CAS","BOT","1127110","specimen","York, Dana; Shevock, Jim","1996-07-20","1996-07-20","Data from GBIF data index - original values.","2014-07-03",NA,"2830",NA,NA,"US","Kings River Basin. Ca. 73 km NE of Fresno (FSC), Sierra National Forest, Dinkey Lakes Wilderness, large meadow feeding into inlet creek of First Dinkey Lake, California, Fresno County, United States, North America",1e-04,TRUE,TRUE
"116","Carex integra  Mack.","North America","United States","California","El Dorado County","Cut clearing north of Strawberry Creek. El Dorado National Forest; near intermittent stream/ditch (disturbed).",38.78611,-120.140274,NA,"1800","CAS","BOT","864847","specimen","Tallent, R.","1987-07-24","1987-07-24","Data from GBIF data index - original values.","2014-07-03","1800","1800",NA,NA,"US","Cut clearing north of Strawberry Creek. El Dorado National Forest; near intermittent stream/ditch (disturbed)., California, El Dorado County, United States, North America",0.001,TRUE,FALSE
"117","Carex integra  Mack.","North America","United States","California","Tulare County","Golden Trout Wildnerness. Sequoia National Forest. Wet meadow south off trail.",36.185,-118.47806,NA,"1982","CAS","BOT","864794","specimen","Tallent, R.","1987-07-16","1987-07-16","Data from GBIF data index - original values.","2014-07-03","1982","1982",NA,NA,"US","Golden Trout Wildnerness. Sequoia National Forest. Wet meadow south off trail., California, Tulare County, United States, North America",0.1,TRUE,TRUE
"118","Carex integra  Mack.","North America","United States","California","Modoc County","Benton Meadow, upper meadow.",41.6847,-120.3003,NA,"2072.64","CAS","BOT","348855","specimen","Alexander, Annie Montague; Kellogg, L.","1946-07-18","1946-07-18","Data from GBIF data index - original values.","2014-07-03","2072.64","2072.64",NA,NA,"US","Benton Meadow, upper meadow., California, Modoc County, United States, North America",0.01,TRUE,TRUE
"119","Carex integra  Mack.","North America","United States","California","Modoc County","Head Deep Creek.",41.5276,-120.2792,NA,"2133.6","CAS","BOT","348857","specimen","Alexander, Annie Montague; Kellogg, L.","1946-06-15","1946-06-15","Data from GBIF data index - original values.","2014-07-03","2133.6","2133.6",NA,NA,"US","Head Deep Creek., California, Modoc County, United States, North America",0.01,TRUE,TRUE
"120","Carex integra  Mack.","North America","United States","California","Trinity County","Along creek just above Landers Lake. Trinity Alps Wilderness.",41.03361,-122.89333,NA,"2165","CAS","BOT","865714","specimen","Tallent, R.","1987-08-14","1987-08-14","Data from GBIF data index - original values.","2014-07-03","2165","2165",NA,NA,"US","Along creek just above Landers Lake. Trinity Alps Wilderness., California, Trinity County, United States, North America",1e-04,TRUE,TRUE
"121","Carex integra","NORTH AMERICA","United States","CA","Madera County","Madera; 04S23E",37.53361,-119.40111,NA,NA,"UCJEPS","JEPS","JEPS100933","fossil","Dean Wm. Taylor",NA,NA,"Data from GBIF data index - original values.","2014-07-03",NA,NA,NA,NA,"US","Madera; 04S23E, CA, Madera County, United States, NORTH AMERICA",1e-04,TRUE,TRUE
"122","Carex integra","NORTH AMERICA","United States","CA","Plumas County","Plumas; 27N11E",40.22889,-120.71861,NA,NA,"UCJEPS","JEPS","JEPS107624","fossil","Lowell Ahart",NA,NA,"Data from GBIF data index - original values.","2014-07-03",NA,NA,NA,NA,"US","Plumas; 27N11E, CA, Plumas County, United States, NORTH AMERICA",0.001,TRUE,TRUE
"123","Carex integra","NORTH AMERICA","United States","CA","Plumas County","Plumas; intersection of Lumpkin Ridge Road and road to Tamarack Flat; near; about 200 yards e of a logging road, about 1 mile (air) w of Little Grass Valley Reservoir; 22N8E25",39.7352,-121.0274,NA,NA,"UCJEPS","JEPS","JEPS87741","fossil","Lowell Ahart",NA,NA,"Data from GBIF data index - original values.","2014-07-03",NA,NA,NA,NA,"US","Plumas; intersection of Lumpkin Ridge Road and road to Tamarack Flat; near; about 200 yards e of a logging road, about 1 mile (air) w of Little Grass Valley Reservoir; 22N8E25, CA, Plumas County, United States, NORTH AMERICA",0.01,TRUE,TRUE
"124","Carex integra","NORTH AMERICA","United States","CA","Mariposa County","Mariposa; 05S21E",37.484444,-119.68472,NA,NA,"UCJEPS","JEPS","JEPS100935","fossil","Dean Wm. Taylor",NA,NA,"Data from GBIF data index - original values.","2014-07-03",NA,NA,NA,NA,"US","Mariposa; 05S21E, CA, Mariposa County, United States, NORTH AMERICA",1e-04,TRUE,TRUE
"125","Carex integra","NORTH AMERICA","United States","CA","Tulare County","Tulare; Bakeoven Meadows; Sierra Nevada",36.23416,-118.19944,NA,NA,"UCJEPS","UC","UC1026417","fossil","John Thomas Howell",NA,NA,"Data from GBIF data index - original values.","2014-07-03",NA,NA,NA,NA,"US","Tulare; Bakeoven Meadows; Sierra Nevada, CA, Tulare County, United States, NORTH AMERICA",1e-04,TRUE,TRUE
"126","Carex integra","NORTH AMERICA","United States","CA","Plumas County","Plumas; intersection of Lumpkin Ridge Road and road to Tamarack Flat; near; about 200 yards e of a logging road, about 1 mile (air) w of Little Grass Valley Reservoir; 22N8E25",39.7352,-121.0274,NA,NA,"UCJEPS","JEPS","JEPS87742","fossil","Lowell Ahart",NA,NA,"Data from GBIF data index - original values.","2014-07-03",NA,NA,NA,NA,"US","Plumas; intersection of Lumpkin Ridge Road and road to Tamarack Flat; near; about 200 yards e of a logging road, about 1 mile (air) w of Little Grass Valley Reservoir; 22N8E25, CA, Plumas County, United States, NORTH AMERICA",0.01,TRUE,FALSE
"127","Carex integra","NORTH AMERICA","United States","CA","Shasta County","Shasta; start of Bench Lake Trail; near; Lassen Volcanic National Park, Lower Kings Creek Meadow",40.45866,-121.45081,NA,NA,"UCJEPS","JEPS","JEPS28352","fossil","George W. Gillett",NA,NA,"Data from GBIF data index - original values.","2014-07-03",NA,NA,NA,NA,"US","Shasta; start of Bench Lake Trail; near; Lassen Volcanic National Park, Lower Kings Creek Meadow, CA, Shasta County, United States, NORTH AMERICA",0.001,TRUE,TRUE
"128","Carex integra","NORTH AMERICA","United States","CA","Lassen County","Lassen; Aspen Well; 4.1 mi wnw; Lassen National Forest, Halls Flat Quadrangle; 33N7E13",40.7212,-121.1364,NA,NA,"UCJEPS","UC","UC1133501","fossil","A. Simontacchi",NA,NA,"Data from GBIF data index - original values.","2014-07-03",NA,NA,NA,NA,"US","Lassen; Aspen Well; 4.1 mi wnw; Lassen National Forest, Halls Flat Quadrangle; 33N7E13, CA, Lassen County, United States, NORTH AMERICA",1e-04,TRUE,TRUE
"129","Carex integra","NORTH AMERICA","United States","CA","Tehama County","Tehama; 26N04E",40.12639,-121.49222,NA,NA,"UCJEPS","JEPS","JEPS110418","fossil","Lowell Ahart",NA,NA,"Data from GBIF data index - original values.","2014-07-03",NA,NA,NA,NA,"US","Tehama; 26N04E, CA, Tehama County, United States, NORTH AMERICA",0.001,TRUE,TRUE
"130","Carex integra","NORTH AMERICA","United States","CA","Shasta County","Shasta; Lower Kings Creek Meadow; near start of Bench Lake trail; Lassen Volcanic National Park",40.45866,-121.45081,NA,NA,"UCJEPS","JEPS","JEPS28358","fossil","George W. Gillett",NA,NA,"Data from GBIF data index - original values.","2014-07-03",NA,NA,NA,NA,"US","Shasta; Lower Kings Creek Meadow; near start of Bench Lake trail; Lassen Volcanic National Park, CA, Shasta County, United States, NORTH AMERICA",0.001,TRUE,FALSE
"131","Carex integra","NORTH AMERICA","United States","CA","Butte County","Butte; 26N04E",40.116943,-121.47417,NA,NA,"UCJEPS","JEPS","JEPS110201","fossil","Lowell Ahart",NA,NA,"Data from GBIF data index - original values.","2014-07-03",NA,NA,NA,NA,"US","Butte; 26N04E, CA, Butte County, United States, NORTH AMERICA",1e-04,TRUE,TRUE
"132","Carex integra","NORTH AMERICA","United States","CA","Butte County","Butte; 26N04E12",40.11861,-121.47056,NA,NA,"UCJEPS","JEPS","JEPS110450","fossil","Lowell Ahart",NA,NA,"Data from GBIF data index - original values.","2014-07-03",NA,NA,NA,NA,"US","Butte; 26N04E12, CA, Butte County, United States, NORTH AMERICA",1e-04,TRUE,TRUE
"133","Carex integra","NORTH AMERICA","United States","CA","Trinity County","Trinity; Big Flat; just n; headwaters of Coffee Creek; Salmon Mts. region, Coffee Creek",41.090183,-122.93984,NA,NA,"UCJEPS","JEPS","JEPS25604","fossil","Rimo Bacigalupi",NA,NA,"Data from GBIF data index - original values.","2014-07-03",NA,NA,NA,NA,"US","Trinity; Big Flat; just n; headwaters of Coffee Creek; Salmon Mts. region, Coffee Creek, CA, Trinity County, United States, NORTH AMERICA",1e-04,TRUE,TRUE
"134","Carex integra",NA,"United States","California","El Dorado","Northwest end of Grass Lake, west side of Luther Pass, northern Sierra Nevada Highlands.",38.796665,-119.96833,NA,"2365","UWBM","Plants","187158","specimen","Peter F. Zika",NA,NA,"Data from GBIF data index - original values.","2014-07-03","2365","2365",NA,NA,"US","Northwest end of Grass Lake, west side of Luther Pass, northern Sierra Nevada Highlands., California, El Dorado, United States",1e-04,TRUE,TRUE
"135","Carex integra",NA,"United States","California","El Dorado","Northwest end of Grass Lake, west side of Luther Pass, northern Sierra Nevada Highlands.",38.796665,-119.96833,NA,"2365","UWBM","Plant","187158","specimen","Peter F. Zika",NA,NA,"Data from GBIF data index - original values.","2014-07-03","2365","2365",NA,NA,"US","Northwest end of Grass Lake, west side of Luther Pass, northern Sierra Nevada Highlands., California, El Dorado, United States",1e-04,TRUE,FALSE
"136","Carex integra","North America","United States","Oregon","Jackson","on the road to Parsnip Lakes, Bureau of Land Management property.",42.1088,-122.4493,"402.336",NA,"OSC","OSC","OSC205080","specimen","Barbara L. Wilson, Keli Kuykendall","2001-06-19","2001-06-19","Data from GBIF data index - original values.","2014-07-03",NA,NA,NA,NA,"US","on the road to Parsnip Lakes, Bureau of Land Management property., Oregon, Jackson, United States, North America",0.01,TRUE,TRUE
"137","Carex integra","North America","United States","Oregon","Lane","West Lava Camp, near Three Sisters Wilderness",44.2406,-121.8456,"804.672","1535","OSC","ORE","ORE35839","specimen","O.L. Ireland","1946-07-21","1946-07-21","Data from GBIF data index - original values.","2014-07-03","1535.00","1535.00",NA,NA,"US","West Lava Camp, near Three Sisters Wilderness, Oregon, Lane, United States, North America",0.01,TRUE,TRUE
"138","Carex integra","North America","United States","Oregon","Klamath","ca. 0.25 mi. NW of Teddy Powers meadow, SW side of Forest Service road 44, Winema National Forest, Chiloquin Ranger District",42.6399,-122.2687,"201.168","1485.9","OSC","OSC","OSC184406","specimen","Peter Zika","1992-07-06","1992-07-06","Data from GBIF data index - original values.","2014-07-03","1485.90","1485.90",NA,NA,"US","ca. 0.25 mi. NW of Teddy Powers meadow, SW side of Forest Service road 44, Winema National Forest, Chiloquin Ranger District, Oregon, Klamath, United States, North America",0.01,TRUE,TRUE
"139","Carex integra","North America","United States","Oregon","Lake","Quartz Mt.",42.3347,-120.8117,"1609.344",NA,"OSC","WILLU","WILLU27213","specimen","M.E. Peck","1948-06-28","1948-06-28","Data from GBIF data index - original values.","2014-07-03",NA,NA,NA,NA,"US","Quartz Mt., Oregon, Lake, United States, North America",0.01,TRUE,TRUE
"140","Carex integra","North America","United States","Oregon","Jackson","Huckleberry Mt., Rougue River Nat. For.",42.8456,-122.3133,"1609.344","914.4","OSC","WILLU","WILLU19963","specimen","J. William Thompson","1936-07-01","1936-07-01","Data from GBIF data index - original values.","2014-07-03","914.40","914.40",NA,NA,"US","Huckleberry Mt., Rougue River Nat. For., Oregon, Jackson, United States, North America",0.01,TRUE,TRUE
"141","Carex integra","North America","United States","Oregon","Deschutes","Big Lake, where the road forks at the north end of the lake.",44.3859,-121.7463,"804.672","1417.32","OSC","OSC","OSC184783","specimen","Barbara L. Wilson","1993-09-08","1993-09-08","Data from GBIF data index - original values.","2014-07-03","1417.32","1417.32",NA,NA,"US","Big Lake, where the road forks at the north end of the lake., Oregon, Deschutes, United States, North America",0.01,TRUE,TRUE
"142","Carex integra","North America","United States","Oregon","Deschutes","entrance to Three-Creek meadow campground.",44.1153,-121.6236,"804.672","2026.92","OSC","OSC","OSC209746","specimen","Barbara Wilson","1990-08-09","1990-08-09","Data from GBIF data index - original values.","2014-07-03","2026.92","2026.92",NA,NA,"US","entrance to Three-Creek meadow campground., Oregon, Deschutes, United States, North America",0.01,TRUE,TRUE
"143","Carex integra","North America","United States","Oregon","Lane","SE edge of Horse Lake, W off Park Trail",43.9987,-121.8649,"402.336","1499.61","OSC","OSC","OSC159029B","specimen","Charlie Halpern, Teresa Magee","1982-07-30","1982-07-30","Data from GBIF data index - original values.","2014-07-03","1499.61","1499.61",NA,NA,"US","SE edge of Horse Lake, W off Park Trail, Oregon, Lane, United States, North America",0.01,TRUE,TRUE
"144","Carex integra","North America","United States","Oregon","Lane","Cascade National Forest; Olalla Ranger Station",44.0054,-122.0917,"4828.032","1524","OSC","OSC","OSC180981","specimen","D.C. Ingram","1924-07-13","1924-07-13","Data from GBIF data index - original values.","2014-07-03","1524.00","1524.00",NA,NA,"US","Cascade National Forest; Olalla Ranger Station, Oregon, Lane, United States, North America",0.01,TRUE,TRUE
"145","Carex integra","North America","United States","Oregon","Crook","Maury Mts., 31 airline miles SE of Prineville, just downstream from Double Cabin Pond, off Forest Service Road 16.",44.0298,-120.3116,"201.168","1560.57","OSC","OSC","OSC189979","specimen","Nick Otting, Danna Lytjen","1997-07-18","1997-07-18","Data from GBIF data index - original values.","2014-07-03","1560.57","1560.57",NA,NA,"US","Maury Mts., 31 airline miles SE of Prineville, just downstream from Double Cabin Pond, off Forest Service Road 16., Oregon, Crook, United States, North America",0.01,TRUE,TRUE
"146","Carex integra","North America","United States","Oregon","Lane","along McKenzie Pass at summit of Cascades.",44.257,-121.813,"1609.344","1700","OSC","WILLU","WILLU6124","specimen","M.E. Peck","1914-07-19","1914-07-19","Data from GBIF data index - original values.","2014-07-03","1700.00","1700.00",NA,NA,"US","along McKenzie Pass at summit of Cascades., Oregon, Lane, United States, North America",0.1,TRUE,TRUE
"147","Carex integra","North America","United States","Oregon","Klamath","4 mi. W. of Odell L.",43.5906,-122.1266,"4828.032",NA,"OSC","WILLU","WILLU23009","specimen","M.E. Peck","1941-07-11","1941-07-11","Data from GBIF data index - original values.","2014-07-03",NA,NA,NA,NA,"US","4 mi. W. of Odell L., Oregon, Klamath, United States, North America",0.01,TRUE,TRUE
"148","Carex integra","North America","United States","Oregon","Jackson","Rogue River National Forest, Prospect Road.",42.9272,-122.2902,"201.168","1554.48","OSC","OSC","OSC172929","specimen","Larry Loftis","1990-08-20","1990-08-20","Data from GBIF data index - original values.","2014-07-03","1554.48","1554.48",NA,NA,"US","Rogue River National Forest, Prospect Road., Oregon, Jackson, United States, North America",0.01,TRUE,TRUE
"149","Carex integra","North America","United States","Oregon","Klamath","2 mi. NW of Fort Klamath.",42.7252,-122.0225,"4828.032",NA,"OSC","WILLU","WILLU22528","specimen","M.E. Peck","1937-07-05","1937-07-05","Data from GBIF data index - original values.","2014-07-03",NA,NA,NA,NA,"US","2 mi. NW of Fort Klamath., Oregon, Klamath, United States, North America",0.01,TRUE,TRUE
"150","Carex integra","North America","United States","Oregon","Klamath","4 mi. NE of Crescent Lake.",43.5505,-121.9119,"4828.032",NA,"OSC","WILLU","WILLU27250","specimen","M.E. Peck","1948-07-02","1948-07-02","Data from GBIF data index - original values.","2014-07-03",NA,NA,NA,NA,"US","4 mi. NE of Crescent Lake., Oregon, Klamath, United States, North America",0.01,TRUE,TRUE
"151","Carex integra","North America","United States","Oregon","[Lane]","Cascade Forest, Olalla Ranger Station",44.0054,-122.0917,"4828.032","1524","OSC","ORE","ORE17110","specimen","D.C. Ingram","1924-07-13","1924-07-13","Data from GBIF data index - original values.","2014-07-03","1524.00","1524.00",NA,NA,"US","Cascade Forest, Olalla Ranger Station, Oregon, [Lane], United States, North America",0.01,TRUE,FALSE
"1","Carex integra",NA,"United States","California","El Dorado","Northwest end of Grass Lake, west side of Luther Pass, northern Sierra Nevada Highlands.",38.796665,-119.96833,NA,"2365","UWBM","Plant","187158","specimen","Peter F. Zika",NA,NA,"Data from GBIF data index - original values.","2014-01-16","2365","2365",NA,NA,"US","Northwest end of Grass Lake, west side of Luther Pass, northern Sierra Nevada Highlands., California, El Dorado, United States",1e-04,TRUE,TRUE
"22","Carex integra",NA,"United States","California","El Dorado","Northwest end of Grass Lake, west side of Luther Pass, northern Sierra Nevada Highlands.",38.796665,-119.96833,NA,"2365","UWBM","Plants","187158","specimen","Peter F. Zika",NA,NA,"Data from GBIF data index - original values.","2014-01-16","2365","2365",NA,NA,"US","Northwest end of Grass Lake, west side of Luther Pass, northern Sierra Nevada Highlands., California, El Dorado, United States",1e-04,TRUE,FALSE
"191","Carex integra","North America","United States","California","Plumas","In a small drainage that runs into Fant Creek, west of the meadow, about 250 yards southwest of Fant Creek and the corral, north of Forest Road 27N09, about 6 miles (air) northwest of the Boulder Creek Work Center at Antelope Lake",40,-121,"0",NA,"Consortium of California Herbaria","CHSC","CHSC92297","specimen","Lowell Ahart, Josephine Guardino",NA,NA,"Data from GBIF data index - original values.","2014-01-16",NA,NA,NA,NA,"US","In a small drainage that runs into Fant Creek, west of the meadow, about 250 yards southwest of Fant Creek and the corral, north of Forest Road 27N09, about 6 miles (air) northwest of the Boulder Creek Work Center at Antelope Lake, California, Plumas, United States, North America",100,FALSE,TRUE
"21","Carex integra","North America","United States","California","Butte","Upper canyon of Philbrook Creek, 0.7 mi W of the pass",40,-122,"0",NA,"Consortium of California Herbaria","CHSC","CHSC52914","specimen","L. P. Janeway, R. A. Schlising",NA,NA,"Data from GBIF data index - original values.","2014-01-16",NA,NA,NA,NA,"US","Upper canyon of Philbrook Creek, 0.7 mi W of the pass, California, Butte, United States, North America",100,FALSE,TRUE
"261","Carex integra","North America","United States","California","Siskiyou","Fawn Creek Meadow Shasta-Trinity National Forests, Mt. Shasta Ranger Dist.",41,-123,"804",NA,"Consortium of California Herbaria","UC","UC1608359","specimen","J. Kierstead",NA,NA,"Data from GBIF data index - original values.","2014-01-16",NA,NA,NA,NA,"US","Fawn Creek Meadow Shasta-Trinity National Forests, Mt. Shasta Ranger Dist., California, Siskiyou, United States, North America",100,FALSE,TRUE
"30","Carex integra","North America","United States","California","El Dorado","Meadow along Upper Truckee River about 0.3 mi south of Grass Lake Creek",39,-120,"0",NA,"Consortium of California Herbaria","CHSC","CHSC73326","specimen","L. P. Janeway, Eric Schroder",NA,NA,"Data from GBIF data index - original values.","2014-01-16",NA,NA,NA,NA,"US","Meadow along Upper Truckee River about 0.3 mi south of Grass Lake Creek, California, El Dorado, United States, North America",100,FALSE,TRUE
"33","Carex integra","North America","United States","California","Mono","NEAR SPRING BELOW HANS GEORGE'S CABIN VALENTINE EASTERN SIERRA RESERVE (2.5 MI SW OF HWY 203; ON OLD MAMMOTH ROAD)",38,-119,"0",NA,"Consortium of California Herbaria","UCSB","UCSB35624","specimen","A. Howald",NA,NA,"Data from GBIF data index - original values.","2014-01-16",NA,NA,NA,NA,"US","NEAR SPRING BELOW HANS GEORGE'S CABIN VALENTINE EASTERN SIERRA RESERVE (2.5 MI SW OF HWY 203; ON OLD MAMMOTH ROAD), California, Mono, United States, North America",100,FALSE,TRUE
"361","Carex integra","North America","United States","California","Lassen","High Cascade Range. Along Forest Service Road 30N14 1.1 km from Road 30N21; small side drainage of upper Susan River 4.7 (air) km west of Clover Valley",40,-121,"0",NA,"Consortium of California Herbaria","CHSC","CHSC85976","specimen","L. P. Janeway",NA,NA,"Data from GBIF data index - original values.","2014-01-16",NA,NA,NA,NA,"US","High Cascade Range. Along Forest Service Road 30N14 1.1 km from Road 30N21; small side drainage of upper Susan River 4.7 (air) km west of Clover Valley, California, Lassen, United States, North America",100,FALSE,FALSE
"421","Carex integra","North America","United States","California","Tulare","Southern High Sierra Nevada. South edge of headwaters meadow that eventually feeds into Deep Meadow and Boulder Creek; along Road 20S79 (road to Lewis Camp Trailhead)",36,-119,"0",NA,"Consortium of California Herbaria","CHSC","CHSC89573","specimen","L. P. Janeway",NA,NA,"Data from GBIF data index - original values.","2014-01-16",NA,NA,NA,NA,"US","Southern High Sierra Nevada. South edge of headwaters meadow that eventually feeds into Deep Meadow and Boulder Creek; along Road 20S79 (road to Lewis Camp Trailhead), California, Tulare, United States, North America",100,FALSE,TRUE
"441","Carex integra","North America","United States","California","Tuolumne","ca 11 air mi ne Pinecrest (s side Stanislaus Natl. For. Rd. 5N01 to Eagle Peak 0.5 mi e of Hwy. 108, 0.2 mi e of jct. Rd. 6N24 to Niagara Creek Campground)",38,-120,"804",NA,"Consortium of California Herbaria","UC","UC1561799","specimen","Barbara Ertter with Annetta Carter",NA,NA,"Data from GBIF data index - original values.","2014-01-16",NA,NA,NA,NA,"US","ca 11 air mi ne Pinecrest (s side Stanislaus Natl. For. Rd. 5N01 to Eagle Peak 0.5 mi e of Hwy. 108, 0.2 mi e of jct. Rd. 6N24 to Niagara Creek Campground), California, Tuolumne, United States, North America",100,FALSE,FALSE
"721","Carex integra","North America","United States","California","Mariposa","Chowchilla Mountains; wet meadow at head Laurel Creek (ca. 15 air mi East of Mariposa)",37,-120,"0",NA,"Consortium of California Herbaria","JEPS","JEPS100935","specimen","Dean Wm. Taylor",NA,NA,"Data from GBIF data index - original values.","2014-01-16",NA,NA,NA,NA,"US","Chowchilla Mountains; wet meadow at head Laurel Creek (ca. 15 air mi East of Mariposa), California, Mariposa, United States, North America",100,FALSE,TRUE
"791","Carex integra","North America","United States","California","El Dorado","Northern Sierra Nevada Mountains Ice House Road, 9.1 miles north of Hwy US-50",39,-120,"0",NA,"Consortium of California Herbaria","UCR","UCR173977","specimen","G. K. Helmkamp, Elizabeth A. Helmkamp",NA,NA,"Data from GBIF data index - original values.","2014-01-16",NA,NA,NA,NA,"US","Northern Sierra Nevada Mountains Ice House Road, 9.1 miles north of Hwy US-50, California, El Dorado, United States, North America",100,FALSE,FALSE
"89","Carex integra","North America","United States","California","Tulare","Rock Creek Sierra Nevada",36,-118,"0",NA,"Consortium of California Herbaria","UC","UC905032","specimen","John Thomas Howell",NA,NA,"Data from GBIF data index - original values.","2014-01-16",NA,NA,NA,NA,"US","Rock Creek Sierra Nevada, California, Tulare, United States, North America",100,FALSE,TRUE
"931","Carex integra","North America","United States","California","Tulare","Bakeoven Meadows Sierra Nevada",36,-118,"1106",NA,"Consortium of California Herbaria","UC","UC1026417","specimen","John Thomas Howell",NA,NA,"Data from GBIF data index - original values.","2014-01-16",NA,NA,NA,NA,"US","Bakeoven Meadows Sierra Nevada, California, Tulare, United States, North America",100,FALSE,FALSE
"1051","Carex integra","North America","United States","California","Siskiyou","Klamath Ranges. Salmon Mountains; south side of upper Carter Meadows 0.5 km west of Carter Meadows Summit",41,-123,"0",NA,"Consortium of California Herbaria","CHSC","CHSC96014","specimen","L. P. Janeway",NA,NA,"Data from GBIF data index - original values.","2014-01-16",NA,NA,NA,NA,"US","Klamath Ranges. Salmon Mountains; south side of upper Carter Meadows 0.5 km west of Carter Meadows Summit, California, Siskiyou, United States, North America",100,FALSE,FALSE
"1071","Carex integra","North America","United States","California","Fresno","Kaiser Pass Meadow, 0.2 road mi N of Kaiser Pass, along Kaiser Pass Road. Upslope from meadow",37,-119,"0",NA,"Consortium of California Herbaria","CHSC","CHSC93397","specimen","Robert F. C. Naczi",NA,NA,"Data from GBIF data index - original values.","2014-01-16",NA,NA,NA,NA,"US","Kaiser Pass Meadow, 0.2 road mi N of Kaiser Pass, along Kaiser Pass Road. Upslope from meadow, California, Fresno, United States, North America",100,FALSE,FALSE
"1181","Carex integra","North America","United States","California","Modoc","Head Deep Creek.",42,-120,"0",NA,"Consortium of California Herbaria","CAS","CAS348857","specimen","Annie Montague Alexander, L. Kellogg",NA,NA,"Data from GBIF data index - original values.","2014-01-16",NA,NA,NA,NA,"US","Head Deep Creek., California, Modoc, United States, North America",100,FALSE,FALSE
"1301","Carex integra  Mack.","North America","United States","California","El Dorado County","Cut clearing north of Strawberry Creek. El Dorado National Forest; near intermittent stream/ditch (disturbed).",38.78611,-120.140274,NA,"1800","CAS","BOT","864847","specimen","Tallent, R.","1987-07-24","1987-07-24","Data from GBIF data index - original values.","2014-01-16","1800","1800",NA,NA,"US","Cut clearing north of Strawberry Creek. El Dorado National Forest; near intermittent stream/ditch (disturbed)., California, El Dorado County, United States, North America",0.001,TRUE,TRUE
"1331","Carex integra  Mack.","North America","United States","California","El Dorado County","Cut clearing north of Strawberry Creek. El Dorado National Forest; near intermittent stream/ditch (disturbed).",38.78611,-120.140274,NA,"1800","CAS","BOT","864925","specimen","Tallent, R.","1987-07-23","1987-07-23","Data from GBIF data index - original values.","2014-01-16","1800","1800",NA,NA,"US","Cut clearing north of Strawberry Creek. El Dorado National Forest; near intermittent stream/ditch (disturbed)., California, El Dorado County, United States, North America",0.001,TRUE,FALSE
"162","Carex integra","North America","United States","California","Butte","Near Coon Cr and near Bull Hill Rd 1.0 mi from Skyway",40,-122,"0",NA,"Consortium of California Herbaria","CHSC","CHSC52915","specimen","L. P. Janeway",NA,NA,"Data from GBIF data index - original values.","2013-05-23",NA,NA,NA,NA,"US","Near Coon Cr and near Bull Hill Rd 1.0 mi from Skyway, California, Butte, United States, North America",100,FALSE,TRUE
"172","Carex integra","North America","United States","California","Siskiyou","Klamath Ranges. Scott Mountains; Darlingtonia fen and creeklet complex above Road 40N13 1.6 air km west of Scott Mountain Summit",41,-123,"0",NA,"Consortium of California Herbaria","CHSC","CHSC95997","specimen","L. P. Janeway",NA,NA,"Data from GBIF data index - original values.","2013-05-23",NA,NA,NA,NA,"US","Klamath Ranges. Scott Mountains; Darlingtonia fen and creeklet complex above Road 40N13 1.6 air km west of Scott Mountain Summit, California, Siskiyou, United States, North America",100,FALSE,TRUE
"192","Carex integra","North America","United States","California","Plumas","In a small drainage that runs into Fant Creek, west of the meadow, about 250 yards southwest of Fant Creek and the corral, north of Forest Road 27N09, about 6 miles (air) northwest of the Boulder Creek Work Center at Antelope Lake",40,-121,"0",NA,"Consortium of California Herbaria","JEPS","JEPS107624","specimen","Lowell Ahart, Josephine Guardino",NA,NA,"Data from GBIF data index - original values.","2013-05-23",NA,NA,NA,NA,"US","In a small drainage that runs into Fant Creek, west of the meadow, about 250 yards southwest of Fant Creek and the corral, north of Forest Road 27N09, about 6 miles (air) northwest of the Boulder Creek Work Center at Antelope Lake, California, Plumas, United States, North America",100,FALSE,TRUE
"392","Carex integra","North America","United States","California","Sierra","In the vicinity of Tioga Pass.",38,-119,"0",NA,"Consortium of California Herbaria","CDA","CDA9656","specimen","D. W. Taylor",NA,NA,"Data from GBIF data index - original values.","2013-05-23",NA,NA,NA,NA,"US","In the vicinity of Tioga Pass., California, Sierra, United States, North America",100,FALSE,TRUE
"402","Carex integra","North America","United States","California","El Dorado","Northern Sierra Nevada Mountains Wright's Lake Road, north of US-50 at the Lyon's Creek trailhead and creek crossing",39,-120,"0",NA,"Consortium of California Herbaria","UCR","UCR192508","specimen","G. K. Helmkamp, E. A. Helmkamp",NA,NA,"Data from GBIF data index - original values.","2013-05-23",NA,NA,NA,NA,"US","Northern Sierra Nevada Mountains Wright's Lake Road, north of US-50 at the Lyon's Creek trailhead and creek crossing, California, El Dorado, United States, North America",100,FALSE,TRUE
"592","Carex integra","North America","United States","California","Siskiyou","At the north end of Atkin's Meadow near the lodgepole pine margin. Ca 15 air mile east of McCloud",41,-122,"0",NA,"Consortium of California Herbaria","CHSC","CHSC39000","specimen","J. D. Jokerst",NA,NA,"Data from GBIF data index - original values.","2013-05-23",NA,NA,NA,NA,"US","At the north end of Atkin's Meadow near the lodgepole pine margin. Ca 15 air mile east of McCloud, California, Siskiyou, United States, North America",100,FALSE,FALSE
"1241","Carex integra","North America","United States","Oregon","[Lane]","Cascade Forest, Olalla Ranger Station",44.0054,-122.0917,"4828.032","1524","OSC","ORE","ORE17110","specimen","D.C. Ingram","1924-07-13","1924-07-13","Data from GBIF data index - original values.","2013-05-23","1524.00","1524.00",NA,NA,"US","Cascade Forest, Olalla Ranger Station, Oregon, [Lane], United States, North America",0.01,TRUE,TRUE
"1362","Carex integra","North America","United States","Oregon","Lane","Cascade National Forest; Olalla Ranger Station",44.0054,-122.0917,"4828.032","1524","OSC","OSC","OSC180981","specimen","D.C. Ingram","1924-07-13","1924-07-13","Data from GBIF data index - original values.","2013-05-23","1524.00","1524.00",NA,NA,"US","Cascade National Forest; Olalla Ranger Station, Oregon, Lane, United States, North America",0.01,TRUE,FALSE
