"","species","continent","country","adm1","adm2","locality","lat","lon","coordUncertaintyM","alt","institution","collection","catalogNumber","basisOfRecord","collector","earliestDateCollected","latestDateCollected","gbifNotes","downloadDate","maxElevationM","minElevationM","maxDepthM","minDepthM","ISO2","cloc","calc_error","precise_enough","unique_record"
"1","Carex lemmonii  W.Boott","North America","United States","California","Fresno County","Ca. 74 km E-NE of Fresno (FSC), Sierra National Forest, 0.3 km W of Courtright Res. Rd., Lower Coyote Meadow",37.036945,-119.003334,NA,"2420","CAS","BOT","1119167","specimen","York, Dana; Shevock, Jim","1999-07-03","1999-07-03","Data from GBIF data index - original values.","2014-07-03",NA,"2420",NA,NA,"US","Ca. 74 km E-NE of Fresno (FSC), Sierra National Forest, 0.3 km W of Courtright Res. Rd., Lower Coyote Meadow, California, Fresno County, United States, North America",1e-04,TRUE,TRUE
"2","Carex lemmonii  W.Boott","North America","United States","California","Sonoma County","Pitkin Marsh, near Forestville. Uppermost part of the western branch of the Upper Marsh.",38.457672,-122.867744,NA,NA,"CAS","BOT","388479","specimen","Rubtzoff, Peter","1951-06-16","1951-06-16","Data from GBIF data index - original values.","2014-07-03",NA,NA,NA,NA,"US","Pitkin Marsh, near Forestville. Uppermost part of the western branch of the Upper Marsh., California, Sonoma County, United States, North America",1e-04,TRUE,TRUE
"3","Carex lemmonii  W.Boott","North America","United States","California","Sonoma County","Pitkin Marsh, near Forestville. Western branch of the Upper Marsh.",38.457672,-122.867744,NA,NA,"CAS","DS","368719","specimen","Rubtzoff, Peter","1951-06-16","1951-06-16","Data from GBIF data index - original values.","2014-07-03",NA,NA,NA,NA,"US","Pitkin Marsh, near Forestville. Western branch of the Upper Marsh., California, Sonoma County, United States, North America",1e-04,TRUE,FALSE
"4","Carex lemmonii  W.Boott","North America","United States","California","Butte County","Jonesville quad. Seep just above the High Lakes Rd. 3.4 mi W of the pass. In the canyon of Philbrook Creek.",40.04111,-121.46,NA,"1905","CAS","BOT","909525","specimen","Janeway, L. P.; Schlising, Robert A.","1988-07-22","1988-07-22","Data from GBIF data index - original values.","2014-07-03","1905","1905",NA,NA,"US","Jonesville quad. Seep just above the High Lakes Rd. 3.4 mi W of the pass. In the canyon of Philbrook Creek., California, Butte County, United States, North America",1e-04,TRUE,TRUE
"5","Carex lemmonii  W.Boott","North America","United States","California","Fresno County","Ca 64 km NE of Fresno (FSC), Sierra Natl Forest, in meadow 1.1 km E of Exchequer Meadow.",37.073055,-119.09917,NA,"2270","CAS","BOT","1089471","specimen","York, Dana Adrian; Shevock, J.","1978-07-28","1978-07-28","Data from GBIF data index - original values.","2014-07-03","2270","2270",NA,NA,"US","Ca 64 km NE of Fresno (FSC), Sierra Natl Forest, in meadow 1.1 km E of Exchequer Meadow., California, Fresno County, United States, North America",1e-04,TRUE,TRUE
"6","Carex lemmonii  W.Boott","North America","United States","California","Sonoma County","Pitkin Marsh.  5 mi N of Sebastopol.",38.457672,-122.867744,NA,NA,"CAS","BOT","235821","specimen","Howell, John Thomas; Stacey, J. W.","1936-07-26","1936-07-26","Data from GBIF data index - original values.","2014-07-03",NA,NA,NA,NA,"US","Pitkin Marsh.  5 mi N of Sebastopol., California, Sonoma County, United States, North America",1e-04,TRUE,FALSE
"7","Carex lemmonii  W.Boott","North America","United States","California","Trinity County","Meadow, Scott Ranch, 3 miles S of Trinity Center.",40.9526,-122.7378,NA,"701.04","CAS","BOT","233713","specimen","Cantelow, Mrs. H. C.","1936-05-22","1936-05-22","Data from GBIF data index - original values.","2014-07-03","701.04","701.04",NA,NA,"US","Meadow, Scott Ranch, 3 miles S of Trinity Center., California, Trinity County, United States, North America",1e-04,TRUE,TRUE
"8","Carex lemmonii  W.Boott","North America","United States","California","Sonoma County","Pitkin Marsh, near Forestville. Lower part of the Upper Marsh.",38.457672,-122.867744,NA,NA,"CAS","BOT","388483","specimen","Rubtzoff, Peter","1951-06-16","1951-06-16","Data from GBIF data index - original values.","2014-07-03",NA,NA,NA,NA,"US","Pitkin Marsh, near Forestville. Lower part of the Upper Marsh., California, Sonoma County, United States, North America",1e-04,TRUE,FALSE
"9","Carex lemmonii  W.Boott","North America","United States","California","Butte County","Pinkard Creek ca. 1.5 mi N of Lost Creek Reservoir.",39.59139,-121.1375,NA,"1066.8","CAS","BOT","865721","specimen","Oswald, V.; Ahart, Lowell","1988-06-17","1988-06-17","Data from GBIF data index - original values.","2014-07-03","1066.8","1066.8",NA,NA,"US","Pinkard Creek ca. 1.5 mi N of Lost Creek Reservoir., California, Butte County, United States, North America",1e-04,TRUE,TRUE
"10","Carex lemmonii  W.Boott","North America","United States","California","Butte County","Butte Meadows quad. Creek along Bull Hill Rd 2.2 mi from the Skyway.",40.055,-121.53889,NA,"1508.76","CAS","BOT","909527","specimen","Janeway, L. P.","1988-06-25","1988-06-25","Data from GBIF data index - original values.","2014-07-03","1508.76","1508.76",NA,NA,"US","Butte Meadows quad. Creek along Bull Hill Rd 2.2 mi from the Skyway., California, Butte County, United States, North America",0.1,TRUE,TRUE
"11","Carex lemmonii  W.Boott","North America","United States","California","Sonoma County","Pitkin Marsh, near forestville.  In the southern part of the Upper Marsh, SE of the end of Templeman Road.",38.457672,-122.867744,NA,NA,"CAS","BOT","596864","specimen","Rubtzoff, Peter","1974-06-08","1974-06-08","Data from GBIF data index - original values.","2014-07-03",NA,NA,NA,NA,"US","Pitkin Marsh, near forestville.  In the southern part of the Upper Marsh, SE of the end of Templeman Road., California, Sonoma County, United States, North America",1e-04,TRUE,FALSE
"12","Carex lemmonii  W.Boott","North America","United States","California","Sonoma County","Pitkin Marsh.",38.457672,-122.867744,NA,NA,"CAS","BOT","406180","specimen","Howell, John Thomas","1957-06-13","1957-06-13","Data from GBIF data index - original values.","2014-07-03",NA,NA,NA,NA,"US","Pitkin Marsh., California, Sonoma County, United States, North America",1e-04,TRUE,FALSE
"13","Carex lemmonii  W.Boott","North America","United States","California","Sonoma County","Pitkin Marsh.",38.457672,-122.867744,NA,NA,"CAS","BOT","406179","specimen","Howell, John Thomas","1957-06-13","1957-06-13","Data from GBIF data index - original values.","2014-07-03",NA,NA,NA,NA,"US","Pitkin Marsh., California, Sonoma County, United States, North America",1e-04,TRUE,FALSE
"14","Carex lemmonii  W.Boott","North America","United States","California","El Dorado County","El Dorado National Forest; cut clearing N of Strawberry Crk, near intermittent stream/ditch.",38.78611,-120.140274,NA,"1799.5392","CAS","BOT","864837","specimen","Tallent, R.","1987-07-24","1987-07-24","Data from GBIF data index - original values.","2014-07-03","1799.5392","1799.5392",NA,NA,"US","El Dorado National Forest; cut clearing N of Strawberry Crk, near intermittent stream/ditch., California, El Dorado County, United States, North America",0.001,TRUE,TRUE
"15","Carex lemmonii  W.Boott","North America","United States","California","Butte County","Mooreville Ridge Road, 0.4 road miles N of dam on Lost Creek Reservoir, northern Sierra Nevada Highlands (n SNH)",39.578335,-121.136665,NA,"1025","CAS","BOT","1152149","specimen","Zika, Peter F.","2011-07-06","2011-07-06","Data from GBIF data index - original values.","2014-07-03",NA,"1025",NA,NA,"US","Mooreville Ridge Road, 0.4 road miles N of dam on Lost Creek Reservoir, northern Sierra Nevada Highlands (n SNH), California, Butte County, United States, North America",1e-04,TRUE,TRUE
"16","Carex lemmonii  W.Boott","North America","United States","California","Fresno County","Kings River Basin. Ca. 70 km E-NE of Fresno (FSC), Sierra National Forest, Smith Meadow",36.93222,-118.97111,NA,"2050","CAS","BOT","1152010","specimen","York, Dana; Shevock, Jim","1996-06-15","1996-06-15","Data from GBIF data index - original values.","2014-07-03",NA,"2050",NA,NA,"US","Kings River Basin. Ca. 70 km E-NE of Fresno (FSC), Sierra National Forest, Smith Meadow, California, Fresno County, United States, North America",0.001,TRUE,TRUE
"17","Carex lemmonii  W.Boott","North America","United States","California","San Bernardino County","South Fork Meadows, along South Fork Santa Ana River, San Georgino Wilderness Area, San Bernardino National Forest, San Bernardino Mountains (SnBr)",34.13,-116.84333,NA,"2500","CAS","BOT","1118900","specimen","Zika, Peter F.; Otting, Nick; Gross, LeRoy","2010-08-05","2010-08-05","Data from GBIF data index - original values.","2014-07-03","2500","2500",NA,NA,"US","South Fork Meadows, along South Fork Santa Ana River, San Georgino Wilderness Area, San Bernardino National Forest, San Bernardino Mountains (SnBr), California, San Bernardino County, United States, North America",0.1,TRUE,TRUE
"18","Carex lemmonii  W.Boott","North America","United States","California","Butte County","Kimshew Point quad.  SW end of Logue Meadows.",39.890835,-121.415276,NA,"1325.88","CAS","BOT","909526","specimen","Janeway, L. P.","1987-06-26","1987-06-26","Data from GBIF data index - original values.","2014-07-03","1325.88","1325.88",NA,NA,"US","Kimshew Point quad.  SW end of Logue Meadows., California, Butte County, United States, North America",1e-04,TRUE,TRUE
"19","Carex lemmonii  W.Boott","North America","United States","California","Sonoma County","Pitkin Marsh, near Forestville. Western branch of the Upper Marsh.",38.457672,-122.867744,NA,NA,"CAS","BOT","388481","specimen","Rubtzoff, Peter","1951-06-07","1951-06-07","Data from GBIF data index - original values.","2014-07-03",NA,NA,NA,NA,"US","Pitkin Marsh, near Forestville. Western branch of the Upper Marsh., California, Sonoma County, United States, North America",1e-04,TRUE,FALSE
"20","Carex lemmonii  W.Boott","North America","United States","California","San Bernardino County","San Bernardino Mts. Wildhorse Creek at and above Forest Service campsite, 1.5 mi ESE of summit of Sugarloaf Mtn.",34.191666,-116.78333,NA,"740.664","CAS","BOT","1034084","specimen","Sanders, A. C.; MacKay, P.","1994-07-10","1994-07-10","Data from GBIF data index - original values.","2014-07-03","749.808","731.52",NA,NA,"US","San Bernardino Mts. Wildhorse Creek at and above Forest Service campsite, 1.5 mi ESE of summit of Sugarloaf Mtn., California, San Bernardino County, United States, North America",1e-04,TRUE,TRUE
"21","Carex lemmonii  W.Boott","North America","United States","California","Sonoma County","Pitkin Marsh, near Forestville. Southern half of Lower Marsh.",38.457672,-122.867744,NA,NA,"CAS","BOT","388480","specimen","Rubtzoff, Peter","1951-07-21","1951-07-21","Data from GBIF data index - original values.","2014-07-03",NA,NA,NA,NA,"US","Pitkin Marsh, near Forestville. Southern half of Lower Marsh., California, Sonoma County, United States, North America",1e-04,TRUE,FALSE
"22","Carex lemmonii  W.Boott","North America","United States","California","Sonoma County","Marsh adjoining Pitkin Ranch on the North.",38.457672,-122.867744,NA,NA,"CAS","BOT","402916","specimen","Baker, Milo S.","1946-05-13","1946-05-13","Data from GBIF data index - original values.","2014-07-03",NA,NA,NA,NA,"US","Marsh adjoining Pitkin Ranch on the North., California, Sonoma County, United States, North America",1e-04,TRUE,FALSE
"23","Carex lemmonii  W.Boott","North America","United States","California","Sonoma County","Pitkin Marsh.",38.457672,-122.867744,NA,NA,"CAS","BOT","355881","specimen","Howell, John Thomas","1945-05-30","1945-05-30","Data from GBIF data index - original values.","2014-07-03",NA,NA,NA,NA,"US","Pitkin Marsh., California, Sonoma County, United States, North America",1e-04,TRUE,FALSE
"24","Carex lemmonii","NORTH AMERICA","United States","CA","Plumas County","Plumas; 22N08E",39.745834,-121.07583,NA,NA,"UCJEPS","JEPS","JEPS110425","fossil","Lowell Ahart",NA,NA,"Data from GBIF data index - original values.","2014-07-03",NA,NA,NA,NA,"US","Plumas; 22N08E, CA, Plumas County, United States, NORTH AMERICA",1e-04,TRUE,TRUE
"25","Carex lemmonii","NORTH AMERICA","United States","CA","Butte County","Butte; Lost Creek Reservoir; about 1/4 mi w; on the s side of the dirt road; 20N7E24",39.5764,-121.139,NA,NA,"UCJEPS","JEPS","JEPS87493","fossil","Lowell Ahart",NA,NA,"Data from GBIF data index - original values.","2014-07-03",NA,NA,NA,NA,"US","Butte; Lost Creek Reservoir; about 1/4 mi w; on the s side of the dirt road; 20N7E24, CA, Butte County, United States, NORTH AMERICA",0.01,TRUE,TRUE
"26","Carex lemmonii","NORTH AMERICA","United States","CA","Butte County","Butte; 24N04E12",39.95,-121.4675,NA,NA,"UCJEPS","JEPS","JEPS105281","fossil","Dean Wm. Taylor",NA,NA,"Data from GBIF data index - original values.","2014-07-03",NA,NA,NA,NA,"US","Butte; 24N04E12, CA, Butte County, United States, NORTH AMERICA",0.1,TRUE,TRUE
"27","Carex lemmonii","NORTH AMERICA","United States","CA","Madera County","Madera; 05S24E",37.5175,-119.318054,NA,NA,"UCJEPS","JEPS","JEPS109548","fossil","Dean Wm. Taylor",NA,NA,"Data from GBIF data index - original values.","2014-07-03",NA,NA,NA,NA,"US","Madera; 05S24E, CA, Madera County, United States, NORTH AMERICA",0.01,TRUE,TRUE
"28","Carex lemmonii","NORTH AMERICA","United States","CA","Yuba County","Yuba; Strawberry Valley; 4 mi NE of, E of the logging road, E of Schwartz Meadow, E side of La Porte Road; 20N08E10",39.6053,-121.0646,NA,NA,"UCJEPS","JEPS","JEPS95507","fossil","Lowell Ahart",NA,NA,"Data from GBIF data index - original values.","2014-07-03",NA,NA,NA,NA,"US","Yuba; Strawberry Valley; 4 mi NE of, E of the logging road, E of Schwartz Meadow, E side of La Porte Road; 20N08E10, CA, Yuba County, United States, NORTH AMERICA",0.01,TRUE,TRUE
"29","Carex lemmonii","NORTH AMERICA","United States","CA","Tuolumne County","Tuolumne; 05N20E05",38.300835,-119.78445,NA,NA,"UCJEPS","JEPS","JEPS100669","fossil","Dean Wm. Taylor",NA,NA,"Data from GBIF data index - original values.","2014-07-03",NA,NA,NA,NA,"US","Tuolumne; 05N20E05, CA, Tuolumne County, United States, NORTH AMERICA",1e-04,TRUE,TRUE
"30","Carex lemmonii","NORTH AMERICA","United States","CA","Butte County","Butte; 24N04E12",39.95,-121.4675,NA,NA,"UCJEPS","JEPS","JEPS105274","fossil","Dean Wm. Taylor",NA,NA,"Data from GBIF data index - original values.","2014-07-03",NA,NA,NA,NA,"US","Butte; 24N04E12, CA, Butte County, United States, NORTH AMERICA",0.1,TRUE,FALSE
"31","Carex lemmonii","NORTH AMERICA","United States","CA","Butte County","Butte",40.04333,-121.504166,NA,NA,"UCJEPS","JEPS","JEPS106372","fossil","Lowell Ahart",NA,NA,"Data from GBIF data index - original values.","2014-07-03",NA,NA,NA,NA,"US","Butte, CA, Butte County, United States, NORTH AMERICA",1e-04,TRUE,TRUE
"32","Carex lemmonii","NORTH AMERICA","United States","CA","Yuba County","Yuba; Forbestown; about 3 (air) miles E of; Costa Creek, on the S side of Forbestown Road; 19N07E07",39.5187,-121.2321,NA,NA,"UCJEPS","JEPS","JEPS95438","fossil","Lowell Ahart",NA,NA,"Data from GBIF data index - original values.","2014-07-03",NA,NA,NA,NA,"US","Yuba; Forbestown; about 3 (air) miles E of; Costa Creek, on the S side of Forbestown Road; 19N07E07, CA, Yuba County, United States, NORTH AMERICA",0.01,TRUE,TRUE
"33","Carex lemmonii","NORTH AMERICA","United States","CA","Fresno County","Fresno; 13S28E",36.795277,-118.967224,NA,NA,"UCJEPS","JEPS","JEPS105619","fossil","L. P. Janeway",NA,NA,"Data from GBIF data index - original values.","2014-07-03",NA,NA,NA,NA,"US","Fresno; 13S28E, CA, Fresno County, United States, NORTH AMERICA",1e-04,TRUE,TRUE
"34","Carex lemmonii","NORTH AMERICA","United States","CA","Butte County","Butte; 20N07E",39.623333,-121.19028,NA,NA,"UCJEPS","JEPS","JEPS100487","fossil","Lowell Ahart",NA,NA,"Data from GBIF data index - original values.","2014-07-03",NA,NA,NA,NA,"US","Butte; 20N07E, CA, Butte County, United States, NORTH AMERICA",1e-04,TRUE,TRUE
"35","Carex lemmonii","NORTH AMERICA","United States","CA","Plumas County","Plumas; E side of Sly Creek, 1 mi N of Schwartz Meadow, 1 mi E of Sly Creek Reservoir; 20N08E03",39.6197,-121.0646,NA,NA,"UCJEPS","JEPS","JEPS95361","fossil","Lowell Ahart",NA,NA,"Data from GBIF data index - original values.","2014-07-03",NA,NA,NA,NA,"US","Plumas; E side of Sly Creek, 1 mi N of Schwartz Meadow, 1 mi E of Sly Creek Reservoir; 20N08E03, CA, Plumas County, United States, NORTH AMERICA",0.01,TRUE,TRUE
"36","Carex lemmonii","NORTH AMERICA","United States","CA","Butte County","Butte; Stirling City; about 8 air mi ne of; near some small streamlets of Little Kimshew Creek, in Snow Meadow, about 1/4 mi e of Table Mountain; Snow Meadow; 25N5E33",39.9807,-121.4181,NA,NA,"UCJEPS","JEPS","JEPS94302","fossil","Lowell Ahart",NA,NA,"Data from GBIF data index - original values.","2014-07-03",NA,NA,NA,NA,"US","Butte; Stirling City; about 8 air mi ne of; near some small streamlets of Little Kimshew Creek, in Snow Meadow, about 1/4 mi e of Table Mountain; Snow Meadow; 25N5E33, CA, Butte County, United States, NORTH AMERICA",0.01,TRUE,TRUE
"37","Carex lemmonii","NORTH AMERICA","United States","CA","Tuolumne County","Tuolumne",37.9964,-119.4324,NA,NA,"UCJEPS","JEPS","JEPS63697","fossil","W. L. Jepson",NA,NA,"Data from GBIF data index - original values.","2014-07-03",NA,NA,NA,NA,"US","Tuolumne, CA, Tuolumne County, United States, NORTH AMERICA",0.01,TRUE,TRUE
"38","Carex lemmonii","NORTH AMERICA","United States","CA","Tehama County","Tehama; 26N04E",40.1275,-121.491104,NA,NA,"UCJEPS","JEPS","JEPS110342","fossil","Lowell Ahart",NA,NA,"Data from GBIF data index - original values.","2014-07-03",NA,NA,NA,NA,"US","Tehama; 26N04E, CA, Tehama County, United States, NORTH AMERICA",0.01,TRUE,TRUE
"39","Carex lemmonii","NORTH AMERICA","United States","CA","Plumas County","Plumas; 200 yds E of a logging road, near the int. of Lumpkin Ridge Road and the road to Tamarack Flat, 1 air mile W of Little Grass Valley Reservoir; 22N08E25",39.7352,-121.0274,NA,NA,"UCJEPS","JEPS","JEPS95336","fossil","Lowell Ahart",NA,NA,"Data from GBIF data index - original values.","2014-07-03",NA,NA,NA,NA,"US","Plumas; 200 yds E of a logging road, near the int. of Lumpkin Ridge Road and the road to Tamarack Flat, 1 air mile W of Little Grass Valley Reservoir; 22N08E25, CA, Plumas County, United States, NORTH AMERICA",0.01,TRUE,TRUE
"40","Carex lemmonii","NORTH AMERICA","United States","CA","Butte County","Butte; 24N04E12",39.956844,-121.46102,NA,NA,"UCJEPS","JEPS","JEPS105283","fossil","Dean Wm. Taylor",NA,NA,"Data from GBIF data index - original values.","2014-07-03",NA,NA,NA,NA,"US","Butte; 24N04E12, CA, Butte County, United States, NORTH AMERICA",1e-04,TRUE,TRUE
"41","Carex lemmonii","NORTH AMERICA","United States","CA","Mariposa County","Mariposa; 05S21E",37.484444,-119.68472,NA,NA,"UCJEPS","JEPS","JEPS109547","fossil","Dean Wm. Taylor",NA,NA,"Data from GBIF data index - original values.","2014-07-03",NA,NA,NA,NA,"US","Mariposa; 05S21E, CA, Mariposa County, United States, NORTH AMERICA",1e-04,TRUE,TRUE
"42","Carex lemmonii",NA,"United States","California","San Bernardino County","San Bernardino Mtns.: Wildhorse Creek at and above Forest Service campsite, 1.5 mi ESE of summit of Sugarloaf Mtn. Decomposed granite soil. Dry meadow at campsite, and stream margins and wet stream-edge meadows above. Coniferous forest with Pinus, Abies,",34.19167,-116.78333,NA,"2433.5","Herbarium","ARIZ","dbsn291742","specimen","A. C. Sanders",NA,NA,"Data from GBIF data index - original values.","2014-07-03","2468.000","2399.000",NA,NA,"US","San Bernardino Mtns.: Wildhorse Creek at and above Forest Service campsite, 1.5 mi ESE of summit of Sugarloaf Mtn. Decomposed granite soil. Dry meadow at campsite, and stream margins and wet stream-edge meadows above. Coniferous forest with Pinus, Abies,, California, San Bernardino County, United States",0.001,TRUE,TRUE
"43","Carex lemmonii",NA,"United States","California","Butte","Mooreville Ridge Road, 0.4 miles north of dam on Lost Creek Reservoir, northern Sierra Nevada Highlands.",39.578335,-121.136665,NA,"1025","UWBM","Plants","191756","specimen","Peter F. Zika",NA,NA,"Data from GBIF data index - original values.","2014-07-03","1025","1025",NA,NA,"US","Mooreville Ridge Road, 0.4 miles north of dam on Lost Creek Reservoir, northern Sierra Nevada Highlands., California, Butte, United States",1e-04,TRUE,FALSE
"44","Carex lemmonii",NA,"United States","California","Mariposa","Above Glacier Point Road, circa 3.3 road miles northeast of Chinquapin, Yosemite National Park, central Sierra Nevada Highlands.",37.67,-119.683334,NA,"2120","UWBM","Plant","185888","specimen","P. F. Zika",NA,NA,"Data from GBIF data index - original values.","2014-07-03","2120","2120",NA,NA,"US","Above Glacier Point Road, circa 3.3 road miles northeast of Chinquapin, Yosemite National Park, central Sierra Nevada Highlands., California, Mariposa, United States",1,TRUE,TRUE
"45","Carex lemmonii",NA,"United States","California","Mariposa","Above Glacier Point Road, circa 3.3 road miles northeast of Chinquapin, Yosemite National Park, central Sierra Nevada Highlands.",37.67,-119.683334,NA,"2120","UWBM","Plants","185888","specimen","P. F. Zika",NA,NA,"Data from GBIF data index - original values.","2014-07-03","2120","2120",NA,NA,"US","Above Glacier Point Road, circa 3.3 road miles northeast of Chinquapin, Yosemite National Park, central Sierra Nevada Highlands., California, Mariposa, United States",1,TRUE,FALSE
"46","Carex lemmonii",NA,"United States","California","San Bernardino","Along South Fork Santa Ana River.  San Gorgonio Wilderness Area, San Bernardino National Forest, San Bernardino Mountains (SnBr).",34.13,-116.84333,NA,"2500","UWBM","Plant","187160","specimen","P. F. Zika",NA,NA,"Data from GBIF data index - original values.","2014-07-03","2500","2500",NA,NA,"US","Along South Fork Santa Ana River.  San Gorgonio Wilderness Area, San Bernardino National Forest, San Bernardino Mountains (SnBr)., California, San Bernardino, United States",0.1,TRUE,FALSE
"47","Carex lemmonii",NA,"United States","California","San Bernardino","Along South Fork Santa Ana River.  San Gorgonio Wilderness Area, San Bernardino National Forest, San Bernardino Mountains (SnBr).",34.13,-116.84333,NA,"2500","UWBM","Plants","187160","specimen","P. F. Zika",NA,NA,"Data from GBIF data index - original values.","2014-07-03","2500","2500",NA,NA,"US","Along South Fork Santa Ana River.  San Gorgonio Wilderness Area, San Bernardino National Forest, San Bernardino Mountains (SnBr)., California, San Bernardino, United States",0.1,TRUE,FALSE
"50","Carex lemmonii","North America","United States","California","Tuolumne","Bennett Juniper, headwaters Eagle Creek",38,-120,"0",NA,"Consortium of California Herbaria","UC","UC1755083","specimen","Dean Wm. Taylor",NA,NA,"Data from GBIF data index - original values.","2014-07-03",NA,NA,NA,NA,"US","Bennett Juniper, headwaters Eagle Creek, California, Tuolumne, United States, North America",100,FALSE,TRUE
"51","Carex lemmonii","North America","United States","California","Fresno","Southern High Sierra Nevada. Converse Basin; narrow lower end of a meadow 2.1 km (air) north-northwest of Cherry Gap. Along edges of small creek channel",37,-119,"0",NA,"Consortium of California Herbaria","CHSC","CHSC86113","specimen","L. P. Janeway",NA,NA,"Data from GBIF data index - original values.","2014-07-03",NA,NA,NA,NA,"US","Southern High Sierra Nevada. Converse Basin; narrow lower end of a meadow 2.1 km (air) north-northwest of Cherry Gap. Along edges of small creek channel, California, Fresno, United States, North America",100,FALSE,TRUE
"52","Carex lemmonii","North America","United States","California","Butte","Jonesville",40,-121,"0",NA,"Consortium of California Herbaria","CHSC","CHSC11934","specimen","E. B. Copeland",NA,NA,"Data from GBIF data index - original values.","2014-07-03",NA,NA,NA,NA,"US","Jonesville, California, Butte, United States, North America",100,FALSE,TRUE
"53","Carex lemmonii","North America","United States","California","Plumas","Northern Sierra Nevada Butterfly Valley Botanical Area: Clumping perennial in moist areas about bog edges.",40,-121,"0",NA,"Consortium of California Herbaria","CDA","CDA17263","specimen","G. F. Hrusa, S. Gaimari, P. Kerr, M. Epstein, S. Winterton",NA,NA,"Data from GBIF data index - original values.","2014-07-03",NA,NA,NA,NA,"US","Northern Sierra Nevada Butterfly Valley Botanical Area: Clumping perennial in moist areas about bog edges., California, Plumas, United States, North America",100,FALSE,FALSE
"54","Carex lemmonii","North America","United States","California","Butte","High Cascade Range. Meadow along southeast side of Humbug Summit Road, at the Cornelia Lott Sank Memorial Spring",40,-122,"0",NA,"Consortium of California Herbaria","CHSC","CHSC84921","specimen","L. P. Janeway",NA,NA,"Data from GBIF data index - original values.","2014-07-03",NA,NA,NA,NA,"US","High Cascade Range. Meadow along southeast side of Humbug Summit Road, at the Cornelia Lott Sank Memorial Spring, California, Butte, United States, North America",100,FALSE,TRUE
"55","Carex lemmonii","North America","United States","California","San Bernardino","San Bernardino Mtns: lower South Fk Meadow, San Gorgonio Wilderness Area",34,-117,"1000",NA,"Consortium of California Herbaria","SBBG","SBBG52732","specimen","C. Davidson, R. F. Thorne",NA,NA,"Data from GBIF data index - original values.","2014-07-03",NA,NA,NA,NA,"US","San Bernardino Mtns: lower South Fk Meadow, San Gorgonio Wilderness Area, California, San Bernardino, United States, North America",100,FALSE,TRUE
"57","Carex lemmonii","North America","United States","California","San Bernardino","San Bernardino Mtns. Lower South Fork Meadow, San Gorgonio Wilderness Area",34,-117,"0",NA,"Consortium of California Herbaria","UCR","UCR129853","specimen","Christopher Davidson, R. F. Thorne",NA,NA,"Data from GBIF data index - original values.","2014-07-03",NA,NA,NA,NA,"US","San Bernardino Mtns. Lower South Fork Meadow, San Gorgonio Wilderness Area, California, San Bernardino, United States, North America",100,FALSE,FALSE
"58","Carex lemmonii","North America","United States","California","Butte","Cherry Hill Meadow. On n side of Humboldt Rd., ca. 3.2 mi e of Butte Meadows",40,-122,"0",NA,"Consortium of California Herbaria","CHSC","CHSC64236","specimen","S. C. Morey",NA,NA,"Data from GBIF data index - original values.","2014-07-03",NA,NA,NA,NA,"US","Cherry Hill Meadow. On n side of Humboldt Rd., ca. 3.2 mi e of Butte Meadows, California, Butte, United States, North America",100,FALSE,FALSE
"59","Carex lemmonii","North America","United States","California","Butte","about 8 air mi ne of Stirling City (near some small streamlets of Little Kimshew Creek, in Snow Meadow, about 1/4 mi e of Table Mountain) - Snow Meadow",40,-121,"804",NA,"Consortium of California Herbaria","JEPS","JEPS94302","specimen","Lowell Ahart",NA,NA,"Data from GBIF data index - original values.","2014-07-03",NA,NA,NA,NA,"US","about 8 air mi ne of Stirling City (near some small streamlets of Little Kimshew Creek, in Snow Meadow, about 1/4 mi e of Table Mountain) - Snow Meadow, California, Butte, United States, North America",100,FALSE,FALSE
"61","Carex lemmonii","North America","United States","California","El Dorado","Slippery Ford Sierra Nevada Mountains",39,-120,"577",NA,"Consortium of California Herbaria","UC","UC598","specimen","Ezra Brainerd",NA,NA,"Data from GBIF data index - original values.","2014-07-03",NA,NA,NA,NA,"US","Slippery Ford Sierra Nevada Mountains, California, El Dorado, United States, North America",100,FALSE,TRUE
"62","Carex lemmonii","North America","United States","California","Lake","near Glenbrook Cobb Valley (Serpentine Meadow)",39,-123,"1163",NA,"Consortium of California Herbaria","UC","UC728669","specimen","Milo S. Baker",NA,NA,"Data from GBIF data index - original values.","2014-07-03",NA,NA,NA,NA,"US","near Glenbrook Cobb Valley (Serpentine Meadow), California, Lake, United States, North America",100,FALSE,TRUE
"64","Carex lemmonii","North America","United States","California","Yuba","about 3 (air) miles E of Forbestown (Costa Creek, on the S side of Forbestown Road)",40,-121,"804",NA,"Consortium of California Herbaria","JEPS","JEPS95438","specimen","Lowell Ahart",NA,NA,"Data from GBIF data index - original values.","2014-07-03",NA,NA,NA,NA,"US","about 3 (air) miles E of Forbestown (Costa Creek, on the S side of Forbestown Road), California, Yuba, United States, North America",100,FALSE,FALSE
"65","Carex lemmonii","North America","United States","California","Butte","Jonesville",40,-121,"1299",NA,"Consortium of California Herbaria","UC","UC478550","specimen","E. B. Copeland",NA,NA,"Data from GBIF data index - original values.","2014-07-03",NA,NA,NA,NA,"US","Jonesville, California, Butte, United States, North America",100,FALSE,FALSE
"66","Carex lemmonii","North America","United States","California","Plumas","Small bog, about 100 yards east of Ohio Ravine and the dirt road, about 2 1/2 miles south of Grizzly Mountain",40,-121,"0",NA,"Consortium of California Herbaria","CHSC","CHSC43521","specimen","Lowell Ahart",NA,NA,"Data from GBIF data index - original values.","2014-07-03",NA,NA,NA,NA,"US","Small bog, about 100 yards east of Ohio Ravine and the dirt road, about 2 1/2 miles south of Grizzly Mountain, California, Plumas, United States, North America",100,FALSE,FALSE
"68","Carex lemmonii","North America","United States","California","El Dorado","near Fallen Leaf Lake (ridge above Fallen Leaf Lodge)",39,-120,"2425",NA,"Consortium of California Herbaria","UC","UC747745","specimen","H. F. Copeland",NA,NA,"Data from GBIF data index - original values.","2014-07-03",NA,NA,NA,NA,"US","near Fallen Leaf Lake (ridge above Fallen Leaf Lodge), California, El Dorado, United States, North America",100,FALSE,FALSE
"69","Carex lemmonii","North America","United States","California","Tehama","Small meadow, east of the abandoned logging road, about 150 yards northeast of where the dirt road crosses Colby Creek, about 2 miles (air) southeast of Colby Mountain, about 5 1/8 miles (air) northeast of Butte Meadows",40,-121,"0",NA,"Consortium of California Herbaria","JEPS","JEPS110342","specimen","Lowell Ahart",NA,NA,"Data from GBIF data index - original values.","2014-07-03",NA,NA,NA,NA,"US","Small meadow, east of the abandoned logging road, about 150 yards northeast of where the dirt road crosses Colby Creek, about 2 miles (air) southeast of Colby Mountain, about 5 1/8 miles (air) northeast of Butte Meadows, California, Tehama, United States, North America",100,FALSE,FALSE
"70","Carex lemmonii","North America","United States","California","Plumas","Plumas National Forest. Along a northerly branch of Consignee Creek and rd 23N49 4.3 mi SE of Jackson Creek campground",40,-121,"0",NA,"Consortium of California Herbaria","CHSC","CHSC53525","specimen","L. P. Janeway",NA,NA,"Data from GBIF data index - original values.","2014-07-03",NA,NA,NA,NA,"US","Plumas National Forest. Along a northerly branch of Consignee Creek and rd 23N49 4.3 mi SE of Jackson Creek campground, California, Plumas, United States, North America",100,FALSE,FALSE
"72","Carex lemmonii","North America","United States","California","Butte","Along Scotts John Cr 2.7 mi N of the Butte Cr rd",40,-121,"0",NA,"Consortium of California Herbaria","CHSC","CHSC45255","specimen","L. P. Janeway, R. A. Schlising, B. Castro",NA,NA,"Data from GBIF data index - original values.","2014-07-03",NA,NA,NA,NA,"US","Along Scotts John Cr 2.7 mi N of the Butte Cr rd, California, Butte, United States, North America",100,FALSE,FALSE
"73","Carex lemmonii","North America","United States","California","El Dorado","Sierra Nevada Mtns. on the road to Cody Meadows, 2.5 road miles north of the road along the Silver Fork of the American River, 0.2 mi NE of the junction with the road to Pack Saddle Pass",39,-120,"0",NA,"Consortium of California Herbaria","UCR","UCR37024","specimen","A. C. Sanders",NA,NA,"Data from GBIF data index - original values.","2014-07-03",NA,NA,NA,NA,"US","Sierra Nevada Mtns. on the road to Cody Meadows, 2.5 road miles north of the road along the Silver Fork of the American River, 0.2 mi NE of the junction with the road to Pack Saddle Pass, California, El Dorado, United States, North America",100,FALSE,FALSE
"74","Carex lemmonii","North America","United States","California","Plumas","Ravine on N side of S Branch Middle Fk Feather R below Whiskey Hill",40,-121,"0",NA,"Consortium of California Herbaria","CHSC","CHSC42824","specimen","L. P. Janeway",NA,NA,"Data from GBIF data index - original values.","2014-07-03",NA,NA,NA,NA,"US","Ravine on N side of S Branch Middle Fk Feather R below Whiskey Hill, California, Plumas, United States, North America",100,FALSE,FALSE
"75","Carex lemmonii","North America","United States","California","Butte","Along a small stream, east of the dirt road to the Forbestown Res., about 2 1/2 miles north-east of Forbestown",40,-121,"0",NA,"Consortium of California Herbaria","CHSC","CHSC40924","specimen","Lowell Ahart",NA,NA,"Data from GBIF data index - original values.","2014-07-03",NA,NA,NA,NA,"US","Along a small stream, east of the dirt road to the Forbestown Res., about 2 1/2 miles north-east of Forbestown, California, Butte, United States, North America",100,FALSE,FALSE
"77","Carex lemmonii","North America","United States","California","Butte","Along Barton Hill Rd towards Sly Cr Reservoir, 1.7 mi from the Challenge-LaPorte Rd and Travis Saddle",39,-121,"0",NA,"Consortium of California Herbaria","CHSC","CHSC42821","specimen","L. P. Janeway",NA,NA,"Data from GBIF data index - original values.","2014-07-03",NA,NA,NA,NA,"US","Along Barton Hill Rd towards Sly Cr Reservoir, 1.7 mi from the Challenge-LaPorte Rd and Travis Saddle, California, Butte, United States, North America",100,FALSE,FALSE
"79","Carex lemmonii","North America","United States","California","San Bernardino","San Bernardino Mtns. Wildhorse Creek at and above Forest Service campsite, 1.5 mi. ESE of summit of Sugarloaf Mtn.",34,-117,"0",NA,"Consortium of California Herbaria","UCR","UCR120736","specimen","A. C. Sanders, P. J. MacKay",NA,NA,"Data from GBIF data index - original values.","2014-07-03",NA,NA,NA,NA,"US","San Bernardino Mtns. Wildhorse Creek at and above Forest Service campsite, 1.5 mi. ESE of summit of Sugarloaf Mtn., California, San Bernardino, United States, North America",100,FALSE,FALSE
"80","Carex lemmonii","North America","United States","California","Butte","Small meadow, on the south side of the dirt road, about 1/4 mile west of the Lost Creek Reservoir",40,-121,"0",NA,"Consortium of California Herbaria","CHSC","CHSC61510","specimen","Lowell Ahart",NA,NA,"Data from GBIF data index - original values.","2014-07-03",NA,NA,NA,NA,"US","Small meadow, on the south side of the dirt road, about 1/4 mile west of the Lost Creek Reservoir, California, Butte, United States, North America",100,FALSE,FALSE
"82","Carex lemmonii","North America","United States","California","Butte","Sierra Nevada NE side of upper end of Paradise Lake. Where last tributaries from E enter. Old growth Douglas-fir/mixed hardwoods. Clumping perennial at edge of wet creekbed. Shaded, rocky site. Uncommon here.",40,-122,"0",NA,"Consortium of California Herbaria","CDA","CDA14081","specimen","G. F. Hrusa, T. D. Wilfred",NA,NA,"Data from GBIF data index - original values.","2014-07-03",NA,NA,NA,NA,"US","Sierra Nevada NE side of upper end of Paradise Lake. Where last tributaries from E enter. Old growth Douglas-fir/mixed hardwoods. Clumping perennial at edge of wet creekbed. Shaded, rocky site. Uncommon here., California, Butte, United States, North America",100,FALSE,FALSE
"83","Carex lemmonii","North America","United States","California","Plumas","Plumas National Forest. Halfway between Paradise Creek and Emigrant Creek, and about 2/3 mi south of Little Grizzly Creek",40,-121,"0",NA,"Consortium of California Herbaria","CHSC","CHSC55440","specimen","L. P. Janeway",NA,NA,"Data from GBIF data index - original values.","2014-07-03",NA,NA,NA,NA,"US","Plumas National Forest. Halfway between Paradise Creek and Emigrant Creek, and about 2/3 mi south of Little Grizzly Creek, California, Plumas, United States, North America",100,FALSE,FALSE
"85","Carex lemmonii","North America","United States","California","Plumas","SW of Bucks Lake, near Grizzly Cr Campground",40,-121,"0",NA,"Consortium of California Herbaria","CHSC","CHSC43021","specimen","L. P. Janeway",NA,NA,"Data from GBIF data index - original values.","2014-07-03",NA,NA,NA,NA,"US","SW of Bucks Lake, near Grizzly Cr Campground, California, Plumas, United States, North America",100,FALSE,FALSE
"86","Carex lemmonii","North America","United States","California","Siskiyou","Klamath Ranges. Scott Mountains; Darlingtonia fen and creeklet complex above Road 40N13 1.6 air km west of Scott Mountain Summit",41,-123,"0",NA,"Consortium of California Herbaria","CHSC","CHSC96004","specimen","L. P. Janeway",NA,NA,"Data from GBIF data index - original values.","2014-07-03",NA,NA,NA,NA,"US","Klamath Ranges. Scott Mountains; Darlingtonia fen and creeklet complex above Road 40N13 1.6 air km west of Scott Mountain Summit, California, Siskiyou, United States, North America",100,FALSE,TRUE
"87","Carex lemmonii","North America","United States","California","Yuba","On the sides of Costa Creek, on the south side of Forbestown Road, about 3 (air) miles east of Forbestown",40,-121,"0",NA,"Consortium of California Herbaria","CHSC","CHSC63293","specimen","Lowell Ahart",NA,NA,"Data from GBIF data index - original values.","2014-07-03",NA,NA,NA,NA,"US","On the sides of Costa Creek, on the south side of Forbestown Road, about 3 (air) miles east of Forbestown, California, Yuba, United States, North America",100,FALSE,FALSE
"89","Carex lemmonii","North America","United States","California","Butte","ca. 5 air miles NE of Stirling City; boggy meadow 0.5 miles E of Bald Mtn summit; Lassen National Forest",40,-121,"0",NA,"Consortium of California Herbaria","JEPS","JEPS105274","specimen","Dean Wm. Taylor",NA,NA,"Data from GBIF data index - original values.","2014-07-03",NA,NA,NA,NA,"US","ca. 5 air miles NE of Stirling City; boggy meadow 0.5 miles E of Bald Mtn summit; Lassen National Forest, California, Butte, United States, North America",100,FALSE,FALSE
"90","Carex lemmonii","North America","United States","California","Butte","Seeps, on the sides of a dirt road, about 100 yards north of Lumpkin Ridge Road, upper west branch of Know-nothing Creek, about 1 mile southwest of the intersection of Lumpkin Ridge Road, road to Fall River, and the County Road, about 4 miles (air) northe",40,-121,"0",NA,"Consortium of California Herbaria","JEPS","JEPS100487","specimen","Lowell Ahart",NA,NA,"Data from GBIF data index - original values.","2014-07-03",NA,NA,NA,NA,"US","Seeps, on the sides of a dirt road, about 100 yards north of Lumpkin Ridge Road, upper west branch of Know-nothing Creek, about 1 mile southwest of the intersection of Lumpkin Ridge Road, road to Fall River, and the County Road, about 4 miles (air) northe, California, Butte, United States, North America",100,FALSE,FALSE
"91","Carex lemmonii","North America","United States","California","Butte","Mdw just NE of jct of Concow Rd and rd to Flea Mtn",40,-121,"0",NA,"Consortium of California Herbaria","CHSC","CHSC42815","specimen","L. P. Janeway",NA,NA,"Data from GBIF data index - original values.","2014-07-03",NA,NA,NA,NA,"US","Mdw just NE of jct of Concow Rd and rd to Flea Mtn, California, Butte, United States, North America",100,FALSE,FALSE
"92","Carex lemmonii","North America","United States","California","Mariposa","Yosemite National Park, Grouse Creek headwaters, 900 m ne of Badger Pass ski area",38,-120,"0",NA,"Consortium of California Herbaria","UC","UC1862069","specimen","Alison Colwell",NA,NA,"Data from GBIF data index - original values.","2014-07-03",NA,NA,NA,NA,"US","Yosemite National Park, Grouse Creek headwaters, 900 m ne of Badger Pass ski area, California, Mariposa, United States, North America",100,FALSE,FALSE
"93","Carex lemmonii","North America","United States","California","Butte","Scotts John Cr 2.3 mi N of the Butte Cr Rd",40,-121,"0",NA,"Consortium of California Herbaria","CHSC","CHSC48551","specimen","L. P. Janeway, R. A. Schlising, B. Castro",NA,NA,"Data from GBIF data index - original values.","2014-07-03",NA,NA,NA,NA,"US","Scotts John Cr 2.3 mi N of the Butte Cr Rd, California, Butte, United States, North America",100,FALSE,FALSE
"94","Carex lemmonii","North America","United States","California","Butte","On sides of small stream, ca. 20 yd NW of the dirt road to the West Branch Cpgd, ca. 50 yd SE of the intersection of Humbug Rd and Philbrook Reservoir Rd, ca. 1 3/4 mi (air) W of Philbrook Reservoir Dam, ca. 3 mi (air) SE of Butte Meadows",40,-122,"0",NA,"Consortium of California Herbaria","JEPS","JEPS106372","specimen","Lowell Ahart",NA,NA,"Data from GBIF data index - original values.","2014-07-03",NA,NA,NA,NA,"US","On sides of small stream, ca. 20 yd NW of the dirt road to the West Branch Cpgd, ca. 50 yd SE of the intersection of Humbug Rd and Philbrook Reservoir Rd, ca. 1 3/4 mi (air) W of Philbrook Reservoir Dam, ca. 3 mi (air) SE of Butte Meadows, California, Butte, United States, North America",100,FALSE,FALSE
"95","Carex lemmonii","North America","United States","California","Butte","Jonesville.",40,-121,"0",NA,"Consortium of California Herbaria","UCR","UCR66603","specimen","E. B. Copeland",NA,NA,"Data from GBIF data index - original values.","2014-07-03",NA,NA,NA,NA,"US","Jonesville., California, Butte, United States, North America",100,FALSE,FALSE
"96","Carex lemmonii","North America","United States","California","Butte","Northern California, Sierra Nevada. NE side of upper end of Paradise Lake. Where last tributaries from E enter. [Lat./Long. on label is \39 52 N; 121 35 W\]",40,-122,"0",NA,"Consortium of California Herbaria","CHSC","CHSC77170","specimen","G. F. Hrusa, T. D. Wilfred",NA,NA,"Data from GBIF data index - original values.","2014-07-03",NA,NA,NA,NA,"US","Northern California, Sierra Nevada. NE side of upper end of Paradise Lake. Where last tributaries from E enter. [Lat./Long. on label is 39 52 N; 121 35 W], California, Butte, United States, North America",100,FALSE,FALSE
"99","Carex lemmonii","North America","United States","California","Butte","about 1/4 mi w Lost Creek Reservoir (on the s side of the dirt road)",40,-121,"804",NA,"Consortium of California Herbaria","UC","UC1609198","specimen","Lowell Ahart",NA,NA,"Data from GBIF data index - original values.","2014-07-03",NA,NA,NA,NA,"US","about 1/4 mi w Lost Creek Reservoir (on the s side of the dirt road), California, Butte, United States, North America",100,FALSE,FALSE
"101","Carex lemmonii","North America","United States","California","Butte","Mdw at jct of Skyway and Doe Mill/Humbug Rd; just N of Da Sable Reservoir",40,-122,"0",NA,"Consortium of California Herbaria","CHSC","CHSC42816","specimen","L. P. Janeway",NA,NA,"Data from GBIF data index - original values.","2014-07-03",NA,NA,NA,NA,"US","Mdw at jct of Skyway and Doe Mill/Humbug Rd; just N of Da Sable Reservoir, California, Butte, United States, North America",100,FALSE,FALSE
"103","Carex lemmonii","North America","United States","California","Butte","Seep along Jordan Hill Rd 8.0 mi N of Concow Rd",40,-122,"0",NA,"Consortium of California Herbaria","CHSC","CHSC47059","specimen","L. P. Janeway",NA,NA,"Data from GBIF data index - original values.","2014-07-03",NA,NA,NA,NA,"US","Seep along Jordan Hill Rd 8.0 mi N of Concow Rd, California, Butte, United States, North America",100,FALSE,FALSE
"106","Carex lemmonii","North America","United States","California","El Dorado","Northern High Sierra Nevada. Kings Meadow, near headwaters of Slab Creek",39,-121,"0",NA,"Consortium of California Herbaria","CHSC","CHSC95050","specimen","L. P. Janeway",NA,NA,"Data from GBIF data index - original values.","2014-07-03",NA,NA,NA,NA,"US","Northern High Sierra Nevada. Kings Meadow, near headwaters of Slab Creek, California, El Dorado, United States, North America",100,FALSE,FALSE
"107","Carex lemmonii","North America","United States","California","Yuba","Along a small stream in a meadow, east of the power line, about 50 yards west of Fountain Hill Road, about 5 miles (air) north of Dobbins",39,-121,"0",NA,"Consortium of California Herbaria","CHSC","CHSC84197","specimen","Lowell Ahart",NA,NA,"Data from GBIF data index - original values.","2014-07-03",NA,NA,NA,NA,"US","Along a small stream in a meadow, east of the power line, about 50 yards west of Fountain Hill Road, about 5 miles (air) north of Dobbins, California, Yuba, United States, North America",100,FALSE,FALSE
"109","Carex lemmonii","North America","United States","California","Plumas","Small bog or wet meadow, below the basalt gravel road, about 2 miles (air) west of Tamarack Flat, about 4 miles (air) northwest of Little Grass Valley Reservoir",40,-121,"0",NA,"Consortium of California Herbaria","CHSC","CHSC94113","specimen","Lowell Ahart",NA,NA,"Data from GBIF data index - original values.","2014-07-03",NA,NA,NA,NA,"US","Small bog or wet meadow, below the basalt gravel road, about 2 miles (air) west of Tamarack Flat, about 4 miles (air) northwest of Little Grass Valley Reservoir, California, Plumas, United States, North America",100,FALSE,FALSE
"111","Carex lemmonii","North America","United States","California","Plumas","Northern High Sierra Nevada. Drainage bottom at head of an upper northern branch of Spanish Creek, about 1.1 km northeast of Maple Flat",40,-121,"0",NA,"Consortium of California Herbaria","CHSC","CHSC78726","specimen","L. P. Janeway",NA,NA,"Data from GBIF data index - original values.","2014-07-03",NA,NA,NA,NA,"US","Northern High Sierra Nevada. Drainage bottom at head of an upper northern branch of Spanish Creek, about 1.1 km northeast of Maple Flat, California, Plumas, United States, North America",100,FALSE,FALSE
"113","Carex lemmonii","North America","United States","California","Plumas","About 200 yards east of a logging road, near the intersection of Lumpkin Ridge Road and the road to Tamarack Flat, about 1 mile (air) west of Little Grass Valley Reservoir",40,-121,"0",NA,"Consortium of California Herbaria","CHSC","CHSC63294","specimen","Lowell Ahart",NA,NA,"Data from GBIF data index - original values.","2014-07-03",NA,NA,NA,NA,"US","About 200 yards east of a logging road, near the intersection of Lumpkin Ridge Road and the road to Tamarack Flat, about 1 mile (air) west of Little Grass Valley Reservoir, California, Plumas, United States, North America",100,FALSE,FALSE
"115","Carex lemmonii","North America","United States","California","Plumas","Meadow at head of western branch of Stag Creek; along Road 22N80Y 0.1 mi north of Road 22N72; about 0.3 mi south-southeast of Table Mountain",40,-121,"0",NA,"Consortium of California Herbaria","CHSC","CHSC65598","specimen","L. P. Janeway",NA,NA,"Data from GBIF data index - original values.","2014-07-03",NA,NA,NA,NA,"US","Meadow at head of western branch of Stag Creek; along Road 22N80Y 0.1 mi north of Road 22N72; about 0.3 mi south-southeast of Table Mountain, California, Plumas, United States, North America",100,FALSE,FALSE
"116","Carex lemmonii","North America","United States","California","Tuolumne","Bennett Juniper, headwaters Eagle Creek",38,-120,"0",NA,"Consortium of California Herbaria","JEPS","JEPS100669","specimen","Dean Wm. Taylor",NA,NA,"Data from GBIF data index - original values.","2014-07-03",NA,NA,NA,NA,"US","Bennett Juniper, headwaters Eagle Creek, California, Tuolumne, United States, North America",100,FALSE,FALSE
"117","Carex lemmonii","North America","United States","California","Butte","On the sides of a small stream, about 20 yards northwest of the dirt road to the West Branch Campground, about 50 yards southeast of the intersection of Humbug Road and Philbrook Reservoir Road, about 1 3/4 miles (air) west of Philbrook Reservoir Dam, about 3 miles (air) southeast of Butte Meadows",40,-122,"0",NA,"Consortium of California Herbaria","CHSC","CHSC88156","specimen","Lowell Ahart",NA,NA,"Data from GBIF data index - original values.","2014-07-03",NA,NA,NA,NA,"US","On the sides of a small stream, about 20 yards northwest of the dirt road to the West Branch Campground, about 50 yards southeast of the intersection of Humbug Road and Philbrook Reservoir Road, about 1 3/4 miles (air) west of Philbrook Reservoir Dam, about 3 miles (air) southeast of Butte Meadows, California, Butte, United States, North America",100,FALSE,FALSE
"119","Carex lemmonii","North America","United States","California","Butte","5 air mi NE of Stirling City; boggy meadow 0.5 mi E of Bald Mountain summit; Lassen National Forest; Northern Sierra Nevada",40,-121,"5011",NA,"Consortium of California Herbaria","JEPS","JEPS105283","specimen","Dean Wm. Taylor",NA,NA,"Data from GBIF data index - original values.","2014-07-03",NA,NA,NA,NA,"US","5 air mi NE of Stirling City; boggy meadow 0.5 mi E of Bald Mountain summit; Lassen National Forest; Northern Sierra Nevada, California, Butte, United States, North America",100,FALSE,FALSE
"120","Carex lemmonii","North America","United States","California","Tuolumne","3 mi E of Relief (on Emigrant Meadow trail)",38,-120,"2896",NA,"Consortium of California Herbaria","UC","UC766075","specimen","R. F. Hoover",NA,NA,"Data from GBIF data index - original values.","2014-07-03",NA,NA,NA,NA,"US","3 mi E of Relief (on Emigrant Meadow trail), California, Tuolumne, United States, North America",100,FALSE,FALSE
"121","Carex lemmonii","North America","United States","California","Butte","Chico Meadows. On e side of Scout Rd., ca. 1 mi n of its jct with Humboldt Rd. at Butte Meadows",40,-122,"0",NA,"Consortium of California Herbaria","CHSC","CHSC44997","specimen","S. C. Morey",NA,NA,"Data from GBIF data index - original values.","2014-07-03",NA,NA,NA,NA,"US","Chico Meadows. On e side of Scout Rd., ca. 1 mi n of its jct with Humboldt Rd. at Butte Meadows, California, Butte, United States, North America",100,FALSE,FALSE
"122","Carex lemmonii","North America","United States","California","Butte","Keyser Creek; boggy fen with patterned ground [ca. 5 miles NNE of Stirling City]",40,-121,"0",NA,"Consortium of California Herbaria","JEPS","JEPS109921","specimen","Dean Wm. Taylor",NA,NA,"Data from GBIF data index - original values.","2014-07-03",NA,NA,NA,NA,"US","Keyser Creek; boggy fen with patterned ground [ca. 5 miles NNE of Stirling City], California, Butte, United States, North America",100,FALSE,FALSE
"123","Carex lemmonii","North America","United States","California","Butte","Pinkard Creek ca. 1.5 mi n of Lost Creek Reservoir",40,-121,"0",NA,"Consortium of California Herbaria","CHSC","CHSC45081","specimen","V. Oswald, L. Ahart",NA,NA,"Data from GBIF data index - original values.","2014-07-03",NA,NA,NA,NA,"US","Pinkard Creek ca. 1.5 mi n of Lost Creek Reservoir, California, Butte, United States, North America",100,FALSE,FALSE
"126","Carex lemmonii","North America","United States","California","Sierra","headwaters of Rock Creek in vicinity of Union Hill-Scales; fen along Forest Road 35, Plumas National Forest",40,-121,"0",NA,"Consortium of California Herbaria","JEPS","JEPS100365","specimen","Dean Wm. Taylor",NA,NA,"Data from GBIF data index - original values.","2014-07-03",NA,NA,NA,NA,"US","headwaters of Rock Creek in vicinity of Union Hill-Scales; fen along Forest Road 35, Plumas National Forest, California, Sierra, United States, North America",100,FALSE,FALSE
"127","Carex lemmonii","North America","United States","California","Mariposa","Yosemite National Park - Old logging road south of Crane Flat campground, near park boundary",38,-120,"0",NA,"Consortium of California Herbaria","UC","UC1861931","specimen","Alison Colwell, Dena Grossenbacher, Holly Wanamaker",NA,NA,"Data from GBIF data index - original values.","2014-07-03",NA,NA,NA,NA,"US","Yosemite National Park - Old logging road south of Crane Flat campground, near park boundary, California, Mariposa, United States, North America",100,FALSE,FALSE
"128","Carex lemmonii","North America","United States","California","Plumas","E side of Sly Creek, 1 mi N of Schwartz Meadow, 1 mi E of Sly Creek Reservoir",40,-121,"804",NA,"Consortium of California Herbaria","JEPS","JEPS95361","specimen","Lowell Ahart",NA,NA,"Data from GBIF data index - original values.","2014-07-03",NA,NA,NA,NA,"US","E side of Sly Creek, 1 mi N of Schwartz Meadow, 1 mi E of Sly Creek Reservoir, California, Plumas, United States, North America",100,FALSE,FALSE
"129","Carex lemmonii","North America","United States","California","Butte","Jonesville",40,-121,"1299",NA,"Consortium of California Herbaria","UC","UC406292","specimen","E. B. Copeland",NA,NA,"Data from GBIF data index - original values.","2014-07-03",NA,NA,NA,NA,"US","Jonesville, California, Butte, United States, North America",100,FALSE,FALSE
"130","Carex lemmonii","North America","United States","California","Madera","meadow at headwaters Norris Creek; Creek; upper San Joaquin River watershed; Sierra National Forest (ca. 35 air miles E of Oakhurst);",38,-119,"0",NA,"Consortium of California Herbaria","JEPS","JEPS109548","specimen","Dean Wm. Taylor",NA,NA,"Data from GBIF data index - original values.","2014-07-03",NA,NA,NA,NA,"US","meadow at headwaters Norris Creek; Creek; upper San Joaquin River watershed; Sierra National Forest (ca. 35 air miles E of Oakhurst);, California, Madera, United States, North America",100,FALSE,FALSE
"131","Carex lemmonii","North America","United States","California","Tuolumne","Yosemite National Park - Pond west of Pothole Dome",38,-119,"0",NA,"Consortium of California Herbaria","UC","UC1861898","specimen","Alison Colwell, Dena Grossenbacher",NA,NA,"Data from GBIF data index - original values.","2014-07-03",NA,NA,NA,NA,"US","Yosemite National Park - Pond west of Pothole Dome, California, Tuolumne, United States, North America",100,FALSE,FALSE
"133","Carex lemmonii","North America","United States","California","Plumas","Plumas National Forest. East side of Eureka Ridge near headwaters of a southern fork of Bear Cr",40,-121,"0",NA,"Consortium of California Herbaria","CHSC","CHSC46995","specimen","L. P. Janeway",NA,NA,"Data from GBIF data index - original values.","2014-07-03",NA,NA,NA,NA,"US","Plumas National Forest. East side of Eureka Ridge near headwaters of a southern fork of Bear Cr, California, Plumas, United States, North America",100,FALSE,FALSE
"134","Carex lemmonii","North America","United States","California","Butte","Jonesville",40,-121,"1299",NA,"Consortium of California Herbaria","UC","UC532224","specimen","H. F. Copeland",NA,NA,"Data from GBIF data index - original values.","2014-07-03",NA,NA,NA,NA,"US","Jonesville, California, Butte, United States, North America",100,FALSE,FALSE
"136","Carex lemmonii","North America","United States","California","Plumas","Unnamed western fork of Mohawk Cr; vicinity of Clio. Ca 2 mi south (via rd) of the rd to Lakes Basin",40,-121,"0",NA,"Consortium of California Herbaria","CHSC","CHSC43006","specimen","L. P. Janeway, B. Castro",NA,NA,"Data from GBIF data index - original values.","2014-07-03",NA,NA,NA,NA,"US","Unnamed western fork of Mohawk Cr; vicinity of Clio. Ca 2 mi south (via rd) of the rd to Lakes Basin, California, Plumas, United States, North America",100,FALSE,FALSE
"137","Carex lemmonii","North America","United States","California","Butte","On the east side of the West Branch of the Feather River, north of the bridge, about 4 road miles north of Stirling City",40,-122,"0",NA,"Consortium of California Herbaria","CHSC","CHSC44935","specimen","Lowell Ahart",NA,NA,"Data from GBIF data index - original values.","2014-07-03",NA,NA,NA,NA,"US","On the east side of the West Branch of the Feather River, north of the bridge, about 4 road miles north of Stirling City, California, Butte, United States, North America",100,FALSE,FALSE
"138","Carex lemmonii","North America","United States","California","San Bernardino","Transverse Ranges; San Bernardino Mountains region Sugarloaf Meadow at the end of FS Road 1N03.",34,-117,"0",NA,"Consortium of California Herbaria","RSA","RSA740509","specimen","Naomi Fraga, Duncan Bell, Sarah Siedschlag",NA,NA,"Data from GBIF data index - original values.","2014-07-03",NA,NA,NA,NA,"US","Transverse Ranges; San Bernardino Mountains region Sugarloaf Meadow at the end of FS Road 1N03., California, San Bernardino, United States, North America",100,FALSE,FALSE
"139","Carex lemmonii","North America","United States","California","Tuolumne","Matterhorn Canyon, Yosemite Park",38,-119,"1000",NA,"Consortium of California Herbaria","JEPS","JEPS63697","specimen","W. L. Jepson",NA,NA,"Data from GBIF data index - original values.","2014-07-03",NA,NA,NA,NA,"US","Matterhorn Canyon, Yosemite Park, California, Tuolumne, United States, North America",100,FALSE,FALSE
"140","Carex lemmonii","North America","United States","California","Butte","Edge of a large bog, on the north side of the dirt road to Big Kimshew Creek, about 1 1/2 miles south-east of Bald Mountain, north-east of Stirling City",40,-121,"0",NA,"Consortium of California Herbaria","CHSC","CHSC61341","specimen","Lowell Ahart",NA,NA,"Data from GBIF data index - original values.","2014-07-03",NA,NA,NA,NA,"US","Edge of a large bog, on the north side of the dirt road to Big Kimshew Creek, about 1 1/2 miles south-east of Bald Mountain, north-east of Stirling City, California, Butte, United States, North America",100,FALSE,FALSE
"142","Carex lemmonii","North America","United States","California","San Bernardino","San Bernardino Mtns. Dollar Lake Trail",34,-117,"0",NA,"Consortium of California Herbaria","UCR","UCR129867","specimen","P. A. Munz",NA,NA,"Data from GBIF data index - original values.","2014-07-03",NA,NA,NA,NA,"US","San Bernardino Mtns. Dollar Lake Trail, California, San Bernardino, United States, North America",100,FALSE,FALSE
"145","Carex lemmonii","North America","United States","California","Plumas","Northern Sierra Nevada. Butterfly Valley Botanical Area: bog edges",40,-121,"0",NA,"Consortium of California Herbaria","CHSC","CHSC91718","specimen","G. F. Hrusa, S. Gamairi, P. Kerr, M. Epstein, S. Winterton",NA,NA,"Data from GBIF data index - original values.","2014-07-03",NA,NA,NA,NA,"US","Northern Sierra Nevada. Butterfly Valley Botanical Area: bog edges, California, Plumas, United States, North America",100,FALSE,FALSE
"146","Carex lemmonii","North America","United States","California","Butte","Northern High Sierra Nevada Range; Watson Ridge; ca. 1.2 air-miles east of Middle Fork Feather River, ca. 1.7 air-mile north by northwest of Feather Falls Overlook, ca. 5.4 air-miles west by southwest of Cascade",40,-121,"0",NA,"Consortium of California Herbaria","CHSC","CHSC86130","specimen","John Dittes, Josephine Guardino",NA,NA,"Data from GBIF data index - original values.","2014-07-03",NA,NA,NA,NA,"US","Northern High Sierra Nevada Range; Watson Ridge; ca. 1.2 air-miles east of Middle Fork Feather River, ca. 1.7 air-mile north by northwest of Feather Falls Overlook, ca. 5.4 air-miles west by southwest of Cascade, California, Butte, United States, North America",100,FALSE,FALSE
"148","Carex lemmonii","North America","United States","California","Butte","about 1/4 mi w Lost Creek Reservoir (on the s side of the dirt road)",40,-121,"804",NA,"Consortium of California Herbaria","JEPS","JEPS87493","specimen","Lowell Ahart",NA,NA,"Data from GBIF data index - original values.","2014-07-03",NA,NA,NA,NA,"US","about 1/4 mi w Lost Creek Reservoir (on the s side of the dirt road), California, Butte, United States, North America",100,FALSE,FALSE
"150","Carex lemmonii","North America","United States","California","Fresno","Southern High Sierra Nevada.  Converse Basin; narrow lower end of a meadow 2.1 km (air) north-northwest of Cherry Gap.  Along edges of small creek channel",37,-119,"0",NA,"Consortium of California Herbaria","JEPS","JEPS105619","specimen","L. P. Janeway",NA,NA,"Data from GBIF data index - original values.","2014-07-03",NA,NA,NA,NA,"US","Southern High Sierra Nevada.  Converse Basin; narrow lower end of a meadow 2.1 km (air) north-northwest of Cherry Gap.  Along edges of small creek channel, California, Fresno, United States, North America",100,FALSE,FALSE
"152","Carex lemmonii","North America","United States","California","Sierra","Along dirt road n of the Pacific Mine, ca. 5 mi e of LaPorte",40,-121,"0",NA,"Consortium of California Herbaria","CHSC","CHSC37201","specimen","L. Ahart",NA,NA,"Data from GBIF data index - original values.","2014-07-03",NA,NA,NA,NA,"US","Along dirt road n of the Pacific Mine, ca. 5 mi e of LaPorte, California, Sierra, United States, North America",100,FALSE,FALSE
"154","Carex lemmonii","North America","United States","California","Plumas","headwaters Onion Creek about 0.25 air miles SW of American House, along Forest Road 21N01Y",40,-121,"0",NA,"Consortium of California Herbaria","JEPS","JEPS100356","specimen","Dean Wm. Taylor",NA,NA,"Data from GBIF data index - original values.","2014-07-03",NA,NA,NA,NA,"US","headwaters Onion Creek about 0.25 air miles SW of American House, along Forest Road 21N01Y, California, Plumas, United States, North America",100,FALSE,FALSE
"156","Carex lemmonii","North America","United States","California","Yuba","4 mi NE of, E of the logging road, E of Schwartz Meadow, E side of La Porte Road Strawberry Valley",40,-121,"804",NA,"Consortium of California Herbaria","JEPS","JEPS95507","specimen","Lowell Ahart",NA,NA,"Data from GBIF data index - original values.","2014-07-03",NA,NA,NA,NA,"US","4 mi NE of, E of the logging road, E of Schwartz Meadow, E side of La Porte Road Strawberry Valley, California, Yuba, United States, North America",100,FALSE,FALSE
"158","Carex lemmonii","North America","United States","California","Butte","Near Scout Rd. 1.2 mi n of Butte Meadows",40,-122,"0",NA,"Consortium of California Herbaria","CHSC","CHSC45055","specimen","Vernon Oswald",NA,NA,"Data from GBIF data index - original values.","2014-07-03",NA,NA,NA,NA,"US","Near Scout Rd. 1.2 mi n of Butte Meadows, California, Butte, United States, North America",100,FALSE,FALSE
"160","Carex lemmonii","North America","United States","California","Yuba","Along the south side of a small stream, east of the logging road, east of Schwartz Meadow, on the east side of La Porte Road, about 4 miles north-east of Strawberry Valley",40,-121,"0",NA,"Consortium of California Herbaria","CHSC","CHSC63195","specimen","Lowell Ahart",NA,NA,"Data from GBIF data index - original values.","2014-07-03",NA,NA,NA,NA,"US","Along the south side of a small stream, east of the logging road, east of Schwartz Meadow, on the east side of La Porte Road, about 4 miles north-east of Strawberry Valley, California, Yuba, United States, North America",100,FALSE,FALSE
"161","Carex lemmonii","North America","United States","California","Butte","5 air mi NE of Stirling City; boggy meadow 0.5 mi E of Bald Mountain summit; Lassen National Forest; Sierra Nevada",40,-121,"0",NA,"Consortium of California Herbaria","JEPS","JEPS105281","specimen","Dean Wm. Taylor",NA,NA,"Data from GBIF data index - original values.","2014-07-03",NA,NA,NA,NA,"US","5 air mi NE of Stirling City; boggy meadow 0.5 mi E of Bald Mountain summit; Lassen National Forest; Sierra Nevada, California, Butte, United States, North America",100,FALSE,FALSE
"162","Carex lemmonii","North America","United States","California","Plumas","200 yds E of a logging road, near the int. of Lumpkin Ridge Road and the road to Tamarack Flat, 1 air mile W of Little Grass Valley Reservoir",40,-121,"804",NA,"Consortium of California Herbaria","JEPS","JEPS95336","specimen","Lowell Ahart",NA,NA,"Data from GBIF data index - original values.","2014-07-03",NA,NA,NA,NA,"US","200 yds E of a logging road, near the int. of Lumpkin Ridge Road and the road to Tamarack Flat, 1 air mile W of Little Grass Valley Reservoir, California, Plumas, United States, North America",100,FALSE,FALSE
"164","Carex lemmonii","North America","United States","California","Madera","Yuba Pass.",40,-120,"0",NA,"Consortium of California Herbaria","CDA","CDA9665","specimen","D. G. Kelch",NA,NA,"Data from GBIF data index - original values.","2014-07-03",NA,NA,NA,NA,"US","Yuba Pass., California, Madera, United States, North America",100,FALSE,FALSE
"165","Carex lemmonii","North America","United States","California","Plumas","Small bog or wet meadow, below the basalt gravel road, about 2 miles (air) west of Tamarack Flat, about 4 miles (air) northwest of Little Grass Valley Reservoir",40,-121,"0",NA,"Consortium of California Herbaria","JEPS","JEPS110425","specimen","Lowell Ahart",NA,NA,"Data from GBIF data index - original values.","2014-07-03",NA,NA,NA,NA,"US","Small bog or wet meadow, below the basalt gravel road, about 2 miles (air) west of Tamarack Flat, about 4 miles (air) northwest of Little Grass Valley Reservoir, California, Plumas, United States, North America",100,FALSE,FALSE
"166","Carex lemmonii","North America","United States","California","Butte","Marsh/mdw at upper reach of Brush Cr, ca 1.5 mi S of \town\ of Brush Creek",40,-121,"0",NA,"Consortium of California Herbaria","CHSC","CHSC45254","specimen","L. P. Janeway",NA,NA,"Data from GBIF data index - original values.","2014-07-03",NA,NA,NA,NA,"US","Marsh/mdw at upper reach of Brush Cr, ca 1.5 mi S of town of Brush Creek, California, Butte, United States, North America",100,FALSE,FALSE
"171","Carex lemmonii","North America","United States","California","Plumas","Meadow on the east side of Sly Creek, about 1 mile north of Schwartz Meadow, about 1 mile east of Sly Creek Reservoir",40,-121,"0",NA,"Consortium of California Herbaria","CHSC","CHSC63194","specimen","Lowell Ahart",NA,NA,"Data from GBIF data index - original values.","2014-07-03",NA,NA,NA,NA,"US","Meadow on the east side of Sly Creek, about 1 mile north of Schwartz Meadow, about 1 mile east of Sly Creek Reservoir, California, Plumas, United States, North America",100,FALSE,FALSE
"173","Carex lemmonii","North America","United States","California","Tehama","Small meadow, east of the abandoned logging road, about 150 yards northeast of where the dirt road crosses Colby Creek, about 2 miles (air) southeast of Colby Mountain, about 5 1/8 miles (air) northeast of Butte Meadows",40,-121,"0",NA,"Consortium of California Herbaria","CHSC","CHSC94358","specimen","Lowell Ahart",NA,NA,"Data from GBIF data index - original values.","2014-07-03",NA,NA,NA,NA,"US","Small meadow, east of the abandoned logging road, about 150 yards northeast of where the dirt road crosses Colby Creek, about 2 miles (air) southeast of Colby Mountain, about 5 1/8 miles (air) northeast of Butte Meadows, California, Tehama, United States, North America",100,FALSE,FALSE
"174","Carex lemmonii","North America","United States","California","Butte","about 1 1/2 mi se Bald Mountain (on n side of the dirt road to Big Kimshew Creek, ne of Stirling City)",40,-121,"804",NA,"Consortium of California Herbaria","UC","UC1609038","specimen","Lowell Ahart",NA,NA,"Data from GBIF data index - original values.","2014-07-03",NA,NA,NA,NA,"US","about 1 1/2 mi se Bald Mountain (on n side of the dirt road to Big Kimshew Creek, ne of Stirling City), California, Butte, United States, North America",100,FALSE,FALSE
"175","Carex lemmonii","North America","United States","California","Butte","Seeps, on the sides of a dirt road, about 100 yards north of Lumpkin Ridge Road, upper west branch of Know-nothing Creek, about 1 mile southwest of the intersection of Lumpkin Ridge Road, road to Fall River, and the County Road, about 4 miles (air) northeast of Feather Falls",40,-121,"0",NA,"Consortium of California Herbaria","CHSC","CHSC78276","specimen","Lowell Ahart",NA,NA,"Data from GBIF data index - original values.","2014-07-03",NA,NA,NA,NA,"US","Seeps, on the sides of a dirt road, about 100 yards north of Lumpkin Ridge Road, upper west branch of Know-nothing Creek, about 1 mile southwest of the intersection of Lumpkin Ridge Road, road to Fall River, and the County Road, about 4 miles (air) northeast of Feather Falls, California, Butte, United States, North America",100,FALSE,FALSE
"178","Carex lemmonii","North America","United States","California","Mono","Campground at canyon, W base of Glass Mountain, 5 mi east of Owens River",38,-119,"0",NA,"Consortium of California Herbaria","UCR","UCR51463","specimen","G. K. Helmkamp",NA,NA,"Data from GBIF data index - original values.","2014-07-03",NA,NA,NA,NA,"US","Campground at canyon, W base of Glass Mountain, 5 mi east of Owens River, California, Mono, United States, North America",100,FALSE,FALSE
"179","Carex lemmonii","North America","United States","California","Butte","Near some small streamlets of Little Kimshew Creek, in Snow Meadow, about 1/4 mile east of Table Mountain, about 8 miles (air) northeast of Stirling City",40,-121,"0",NA,"Consortium of California Herbaria","CHSC","CHSC69057","specimen","Lowell Ahart",NA,NA,"Data from GBIF data index - original values.","2014-07-03",NA,NA,NA,NA,"US","Near some small streamlets of Little Kimshew Creek, in Snow Meadow, about 1/4 mile east of Table Mountain, about 8 miles (air) northeast of Stirling City, California, Butte, United States, North America",100,FALSE,FALSE
"180","Carex lemmonii","North America","United States","California","San Bernardino","Wildhorse Creek at and above Forest Service campsite, 1.5 miles east southeast of summit of Sugarloaf Mountain; dry meadow campsite; stream margins and wet stream edge meadows above.",34,-117,"0",NA,"Consortium of California Herbaria","SD","SD148285","specimen","A. C. Sanders, P. MacKay",NA,NA,"Data from GBIF data index - original values.","2014-07-03",NA,NA,NA,NA,"US","Wildhorse Creek at and above Forest Service campsite, 1.5 miles east southeast of summit of Sugarloaf Mountain; dry meadow campsite; stream margins and wet stream edge meadows above., California, San Bernardino, United States, North America",100,FALSE,FALSE
"182","Carex lemmonii","North America","United States","California","Butte","0.4 mi E on a spur rd from the Concow Rd, which is 1.0 mi SW of Jones Mdw",40,-121,"0",NA,"Consortium of California Herbaria","CHSC","CHSC42820","specimen","L. P. Janeway",NA,NA,"Data from GBIF data index - original values.","2014-07-03",NA,NA,NA,NA,"US","0.4 mi E on a spur rd from the Concow Rd, which is 1.0 mi SW of Jones Mdw, California, Butte, United States, North America",100,FALSE,FALSE
"183","Carex lemmonii","North America","United States","California","Mariposa","Chowchilla Mountains; wet meadow at head Laurel Creek (ca. 15 air mi East of Mariposa)",37,-120,"0",NA,"Consortium of California Herbaria","JEPS","JEPS109547","specimen","Dean Wm. Taylor",NA,NA,"Data from GBIF data index - original values.","2014-07-03",NA,NA,NA,NA,"US","Chowchilla Mountains; wet meadow at head Laurel Creek (ca. 15 air mi East of Mariposa), California, Mariposa, United States, North America",100,FALSE,FALSE
"184","Carex lemmonii","North America","United States","California","San Bernardino","Transverse Ranges; San Bernardino Mountains region San Gorgonio Wilderness, South Fork Meadow.",34,-117,"0",NA,"Consortium of California Herbaria","RSA","RSA726994","specimen","Naomi Fraga, LeRoy Gross",NA,NA,"Data from GBIF data index - original values.","2014-07-03",NA,NA,NA,NA,"US","Transverse Ranges; San Bernardino Mountains region San Gorgonio Wilderness, South Fork Meadow., California, San Bernardino, United States, North America",100,FALSE,FALSE
"191","Carex lemmonii","North America","United States","California","Butte","Edge of a large bog, on the north side of the dirt road to Big Kimshew Creek, about 1 1/2 miles south-east of Bald Mountain, north-east of Stirling City",40,-121,"0",NA,"Consortium of California Herbaria","CHSC","CHSC61341","specimen","Lowell Ahart",NA,NA,"Data from GBIF data index - original values.","2014-01-16",NA,NA,NA,NA,"US","Edge of a large bog, on the north side of the dirt road to Big Kimshew Creek, about 1 1/2 miles south-east of Bald Mountain, north-east of Stirling City, California, Butte, United States, North America",100,FALSE,TRUE
"291","Carex lemmonii","North America","United States","California","Mariposa","Yosemite National Park - Old logging road south of Crane Flat campground, near park boundary",38,-120,"0",NA,"Consortium of California Herbaria","UC","UC1861931","specimen","Alison Colwell, Dena Grossenbacher, Holly Wanamaker",NA,NA,"Data from GBIF data index - original values.","2014-01-16",NA,NA,NA,NA,"US","Yosemite National Park - Old logging road south of Crane Flat campground, near park boundary, California, Mariposa, United States, North America",100,FALSE,TRUE
"321","Carex lemmonii","North America","United States","California","El Dorado","Slippery Ford Sierra Nevada Mountains",39,-120,"577",NA,"Consortium of California Herbaria","UC","UC598","specimen","Ezra Brainerd",NA,NA,"Data from GBIF data index - original values.","2014-01-16",NA,NA,NA,NA,"US","Slippery Ford Sierra Nevada Mountains, California, El Dorado, United States, North America",100,FALSE,FALSE
"391","Carex lemmonii","North America","United States","California","San Bernardino","San Bernardino Mtns. Lower South Fork Meadow, San Gorgonio Wilderness Area",34,-117,"0",NA,"Consortium of California Herbaria","UCR","UCR129853","specimen","Christopher Davidson, R. F. Thorne",NA,NA,"Data from GBIF data index - original values.","2014-01-16",NA,NA,NA,NA,"US","San Bernardino Mtns. Lower South Fork Meadow, San Gorgonio Wilderness Area, California, San Bernardino, United States, North America",100,FALSE,TRUE
"48","Carex lemmonii","North America","United States","California","Butte","Northern California, Sierra Nevada. NE side of upper end of Paradise Lake. Where last tributaries from E enter. [Lat./Long. on label is \39 52 N; 121 35 W\]",40,-122,"0",NA,"Consortium of California Herbaria","CHSC","CHSC77170","specimen","G. F. Hrusa, T. D. Wilfred",NA,NA,"Data from GBIF data index - original values.","2014-01-16",NA,NA,NA,NA,"US","Northern California, Sierra Nevada. NE side of upper end of Paradise Lake. Where last tributaries from E enter. [Lat./Long. on label is 39 52 N; 121 35 W], California, Butte, United States, North America",100,FALSE,TRUE
"641","Carex lemmonii","North America","United States","California","Butte","Jonesville",40,-121,"0",NA,"Consortium of California Herbaria","CHSC","CHSC11934","specimen","E. B. Copeland",NA,NA,"Data from GBIF data index - original values.","2014-01-16",NA,NA,NA,NA,"US","Jonesville, California, Butte, United States, North America",100,FALSE,FALSE
"691","Carex lemmonii","North America","United States","California","Fresno","Southern High Sierra Nevada.  Converse Basin; narrow lower end of a meadow 2.1 km (air) north-northwest of Cherry Gap.  Along edges of small creek channel",37,-119,"0",NA,"Consortium of California Herbaria","JEPS","JEPS105619","specimen","L. P. Janeway",NA,NA,"Data from GBIF data index - original values.","2014-01-16",NA,NA,NA,NA,"US","Southern High Sierra Nevada.  Converse Basin; narrow lower end of a meadow 2.1 km (air) north-northwest of Cherry Gap.  Along edges of small creek channel, California, Fresno, United States, North America",100,FALSE,TRUE
"105","Carex lemmonii","North America","United States","California","Tuolumne","Bennett Juniper, headwaters Eagle Creek",38,-120,"0",NA,"Consortium of California Herbaria","UC","UC1755083","specimen","Dean Wm. Taylor",NA,NA,"Data from GBIF data index - original values.","2014-01-16",NA,NA,NA,NA,"US","Bennett Juniper, headwaters Eagle Creek, California, Tuolumne, United States, North America",100,FALSE,FALSE
"1301","Carex lemmonii","North America","United States","California","San Bernardino","San Bernardino Mtns: lower South Fk Meadow, San Gorgonio Wilderness Area",34,-117,"1000",NA,"Consortium of California Herbaria","SBBG","SBBG52732","specimen","C. Davidson, R. F. Thorne",NA,NA,"Data from GBIF data index - original values.","2014-01-16",NA,NA,NA,NA,"US","San Bernardino Mtns: lower South Fk Meadow, San Gorgonio Wilderness Area, California, San Bernardino, United States, North America",100,FALSE,FALSE
"1311","Carex lemmonii","North America","United States","California","Fresno","Southern High Sierra Nevada. Converse Basin; narrow lower end of a meadow 2.1 km (air) north-northwest of Cherry Gap. Along edges of small creek channel",37,-119,"0",NA,"Consortium of California Herbaria","CHSC","CHSC86113","specimen","L. P. Janeway",NA,NA,"Data from GBIF data index - original values.","2014-01-16",NA,NA,NA,NA,"US","Southern High Sierra Nevada. Converse Basin; narrow lower end of a meadow 2.1 km (air) north-northwest of Cherry Gap. Along edges of small creek channel, California, Fresno, United States, North America",100,FALSE,FALSE
"1331","Carex lemmonii","North America","United States","California","Butte","High Cascade Range. Meadow along southeast side of Humbug Summit Road, at the Cornelia Lott Sank Memorial Spring",40,-122,"0",NA,"Consortium of California Herbaria","CHSC","CHSC84921","specimen","L. P. Janeway",NA,NA,"Data from GBIF data index - original values.","2014-01-16",NA,NA,NA,NA,"US","High Cascade Range. Meadow along southeast side of Humbug Summit Road, at the Cornelia Lott Sank Memorial Spring, California, Butte, United States, North America",100,FALSE,FALSE
"1561","Carex lemmonii",NA,"United States","California","Butte","Mooreville Ridge Road, 0.4 miles north of dam on Lost Creek Reservoir, northern Sierra Nevada Highlands.",39.578335,-121.136665,NA,"1025","UWBM","Plants","191756","specimen","Peter F. Zika",NA,NA,"Data from GBIF data index - original values.","2014-01-16","1025","1025",NA,NA,"US","Mooreville Ridge Road, 0.4 miles north of dam on Lost Creek Reservoir, northern Sierra Nevada Highlands., California, Butte, United States",1e-04,TRUE,TRUE
"157","Carex lemmonii",NA,"United States","California","San Bernardino","Along South Fork Santa Ana River.  San Gorgonio Wilderness Area, San Bernardino National Forest, San Bernardino Mountains (SnBr).",34.13,-116.84333,NA,"2500","UWBM","Plants","187160","specimen","P. F. Zika",NA,NA,"Data from GBIF data index - original values.","2014-01-16","2500","2500",NA,NA,"US","Along South Fork Santa Ana River.  San Gorgonio Wilderness Area, San Bernardino National Forest, San Bernardino Mountains (SnBr)., California, San Bernardino, United States",0.1,TRUE,TRUE
"1581","Carex lemmonii",NA,"United States","California","Mariposa","Above Glacier Point Road, circa 3.3 road miles northeast of Chinquapin, Yosemite National Park, central Sierra Nevada Highlands.",37.67,-119.683334,NA,"2120","UWBM","Plants","185888","specimen","P. F. Zika",NA,NA,"Data from GBIF data index - original values.","2014-01-16","2120","2120",NA,NA,"US","Above Glacier Point Road, circa 3.3 road miles northeast of Chinquapin, Yosemite National Park, central Sierra Nevada Highlands., California, Mariposa, United States",1,TRUE,TRUE
"1601","Carex lemmonii",NA,"United States","California","Mariposa","Above Glacier Point Road, circa 3.3 road miles northeast of Chinquapin, Yosemite National Park, central Sierra Nevada Highlands.",37.67,-119.683334,NA,"2120","UWBM","Plant","185888","specimen","P. F. Zika",NA,NA,"Data from GBIF data index - original values.","2014-01-16","2120","2120",NA,NA,"US","Above Glacier Point Road, circa 3.3 road miles northeast of Chinquapin, Yosemite National Park, central Sierra Nevada Highlands., California, Mariposa, United States",1,TRUE,FALSE
"1611","Carex lemmonii  W.Boott","North America","United States","California","Sonoma County","Pitkin Marsh, near Forestville. Southern half of Lower Marsh.",38.457672,-122.867744,NA,NA,"CAS","BOT","388480","specimen","Rubtzoff, Peter","1951-07-21","1951-07-21","Data from GBIF data index - original values.","2014-01-16",NA,NA,NA,NA,"US","Pitkin Marsh, near Forestville. Southern half of Lower Marsh., California, Sonoma County, United States, North America",1e-04,TRUE,TRUE
"1621","Carex lemmonii  W.Boott","North America","United States","California","Sonoma County","Pitkin Marsh, near Forestville. Uppermost part of the western branch of the Upper Marsh.",38.457672,-122.867744,NA,NA,"CAS","BOT","388479","specimen","Rubtzoff, Peter","1951-06-16","1951-06-16","Data from GBIF data index - original values.","2014-01-16",NA,NA,NA,NA,"US","Pitkin Marsh, near Forestville. Uppermost part of the western branch of the Upper Marsh., California, Sonoma County, United States, North America",1e-04,TRUE,FALSE
"176","Carex lemmonii  W.Boott","North America","United States","California","San Bernardino County","South Fork Meadows, along South Fork Santa Ana River, San Georgino Wilderness Area, San Bernardino National Forest, San Bernardino Mountains (SnBr)",34.13,-116.84333,NA,"2500","CAS","BOT","1118900","specimen","Zika, Peter F.; Otting, Nick; Gross, LeRoy","2010-08-05","2010-08-05","Data from GBIF data index - original values.","2014-01-16","2500","2500",NA,NA,"US","South Fork Meadows, along South Fork Santa Ana River, San Georgino Wilderness Area, San Bernardino National Forest, San Bernardino Mountains (SnBr), California, San Bernardino County, United States, North America",0.1,TRUE,FALSE
"1801","Carex lemmonii  W.Boott","North America","United States","California","Butte County","Mooreville Ridge Road, 0.4 road miles N of dam on Lost Creek Reservoir, northern Sierra Nevada Highlands (n SNH)",39.578335,-121.136665,NA,"1025","CAS","BOT","1152149","specimen","Zika, Peter F.","2011-07-06","2011-07-06","Data from GBIF data index - original values.","2014-01-16",NA,"1025",NA,NA,"US","Mooreville Ridge Road, 0.4 road miles N of dam on Lost Creek Reservoir, northern Sierra Nevada Highlands (n SNH), California, Butte County, United States, North America",1e-04,TRUE,FALSE
"192","Carex lemmonii","North America","United States","California","Butte","Cherry Hill Meadow. On n side of Humboldt Rd., ca. 3.2 mi e of Butte Meadows",40,-122,"0",NA,"Consortium of California Herbaria","CHSC","CHSC64236","specimen","S. C. Morey",NA,NA,"Data from GBIF data index - original values.","2013-05-23",NA,NA,NA,NA,"US","Cherry Hill Meadow. On n side of Humboldt Rd., ca. 3.2 mi e of Butte Meadows, California, Butte, United States, North America",100,FALSE,TRUE
"201","Carex lemmonii","North America","United States","California","Butte","Keyser Creek; boggy fen with patterned ground [ca. 5 miles NNE of Stirling City]",40,-121,"0",NA,"Consortium of California Herbaria","JEPS","JEPS109921","specimen","Dean Wm. Taylor",NA,NA,"Data from GBIF data index - original values.","2013-05-23",NA,NA,NA,NA,"US","Keyser Creek; boggy fen with patterned ground [ca. 5 miles NNE of Stirling City], California, Butte, United States, North America",100,FALSE,TRUE
"231","Carex lemmonii","North America","United States","California","Mono","Campground at canyon, W base of Glass Mountain, 5 mi east of Owens River",38,-119,"0",NA,"Consortium of California Herbaria","UCR","UCR51463","specimen","G. K. Helmkamp",NA,NA,"Data from GBIF data index - original values.","2013-05-23",NA,NA,NA,NA,"US","Campground at canyon, W base of Glass Mountain, 5 mi east of Owens River, California, Mono, United States, North America",100,FALSE,TRUE
"301","Carex lemmonii","North America","United States","California","El Dorado","near Fallen Leaf Lake (ridge above Fallen Leaf Lodge)",39,-120,"2425",NA,"Consortium of California Herbaria","UC","UC747745","specimen","H. F. Copeland",NA,NA,"Data from GBIF data index - original values.","2013-05-23",NA,NA,NA,NA,"US","near Fallen Leaf Lake (ridge above Fallen Leaf Lodge), California, El Dorado, United States, North America",100,FALSE,TRUE
"1602","Carex lemmonii",NA,"United States","California","San Bernardino","Along South Fork Santa Ana River.  San Gorgonio Wilderness Area, San Bernardino National Forest, San Bernardino Mountains (SnBr).",34.13,-116.84333,NA,"2500","UWBM","Plant","187160","specimen","P. F. Zika",NA,NA,"Data from GBIF data index - original values.","2013-05-23","2500","2500",NA,NA,"US","Along South Fork Santa Ana River.  San Gorgonio Wilderness Area, San Bernardino National Forest, San Bernardino Mountains (SnBr)., California, San Bernardino, United States",0.1,TRUE,TRUE
