"","species","continent","country","adm1","adm2","locality","lat","lon","coordUncertaintyM","alt","institution","collection","catalogNumber","basisOfRecord","collector","earliestDateCollected","latestDateCollected","gbifNotes","downloadDate","maxElevationM","minElevationM","maxDepthM","minDepthM","ISO2","cloc","calc_error","precise_enough","unique_record"
"1","Carex louisianica",NA,"United States","Mississippi","Winston County","Noxubee National Wildlife Refuge, Green Timber Resevoir #4, about 0.4 mi south of Oktoc Creek, about 1 m west of Bluff Lake. Bottomland mixed hardwood forest, seasonally flooded. With: with Cornus florida, Carpinus, Nyssa, Hypericum hypericoides, Desmodiu",33.28283,-88.8215,NA,"72","Herbarium","ARIZ","dbsn212515","specimen","Mark Fishbein",NA,NA,"Data from GBIF data index - original values.","2014-07-03",NA,"72.000",NA,NA,"US","Noxubee National Wildlife Refuge, Green Timber Resevoir #4, about 0.4 mi south of Oktoc Creek, about 1 m west of Bluff Lake. Bottomland mixed hardwood forest, seasonally flooded. With: with Cornus florida, Carpinus, Nyssa, Hypericum hypericoides, Desmodiu, Mississippi, Winston County, United States",1e-04,TRUE,TRUE
"2","Carex louisianica Bailey",NA,"United States","Florida","Duval County","Jacksonville",30.33694,-81.66027,"5000","3","UConn","CONN","CONN00107368","specimen","A.H. Curtiss","1896-05-22","1896-05-22","Data from GBIF data index - original values.","2014-07-03","3","3",NA,NA,"US","Jacksonville, Florida, Duval County, United States",0.001,TRUE,TRUE
"3","Carex louisianica Bailey",NA,"United States","Missouri","Dunklin","Campbell",36.49333,-90.07555,"20000",NA,"UConn","CONN","CONN00107369","specimen","B.F. Bush","1895-08-07","1895-08-07","Data from GBIF data index - original values.","2014-07-03",NA,NA,NA,NA,"US","Campbell, Missouri, Dunklin, United States",0.001,TRUE,TRUE
"19","Carex louisianica Bailey","North America","United States","Mississippi","Winston County","Noxubee NWR",33.282,-88.821,"0.000","18","LSU","Herbarium","69352","unknown","Fishbein, Mark; Husak, Mike",NA,NA,"Data from GBIF data index - original values.","2014-07-03","72.000","0.000","0.000","0.000","US","Noxubee NWR, Mississippi, Winston County, United States, North America",0.1,TRUE,TRUE
"30","Carex louisianica Bailey","North America","United States","Louisiana","Ascension Parish","Gonzales",30.181,-90.927,"0.000",NA,"LSU","Herbarium","55394","unknown","Ferguson, Diane M.; Wiltenmuth, Kathleen S.",NA,NA,"Data from GBIF data index - original values.","2014-07-03","0.000","0.000","0.000","0.000","US","Gonzales, Louisiana, Ascension Parish, United States, North America",0.1,TRUE,TRUE
"34","Carex louisianica Bailey","North America","United States","Mississippi","Jackson County","Blackcreek Swamp",30.632,-88.501,"0.000",NA,"LSU","Herbarium","69350","unknown","Ferguson, Diane M.; Karaman-Castro, Vesna; McCoy, John",NA,NA,"Data from GBIF data index - original values.","2014-07-03","0.000","0.000","0.000","0.000","US","Blackcreek Swamp, Mississippi, Jackson County, United States, North America",0.1,TRUE,TRUE
"39","Carex louisianica Bailey","North America","United States","Louisiana","East Baton Rouge Parish","Baton Rouge",30.36535,-91.1487,"0.000",NA,"LSU","Herbarium","120453","unknown","Ferguson, Diane M.",NA,NA,"Data from GBIF data index - original values.","2014-07-03","0.000","0.000","0.000","0.000","US","Baton Rouge, Louisiana, East Baton Rouge Parish, United States, North America",0.001,TRUE,TRUE
"41","Carex louisianica Bailey","North America","United States","Louisiana","Ascension Parish","Gonzales",30.181,-90.927,"0.000",NA,"LSU","Herbarium","55395","unknown","Ferguson, Diane M.; Wiltenmuth, Kathleen S.",NA,NA,"Data from GBIF data index - original values.","2014-07-03","0.000","0.000","0.000","0.000","US","Gonzales, Louisiana, Ascension Parish, United States, North America",0.1,TRUE,FALSE
"43","Carex louisianica Bailey","North America","United States","Louisiana","East Baton Rouge Parish","Jones Creek",30.414,-90.999,"0.000",NA,"LSU","Herbarium","55396","unknown","Ferguson, Diane M.; Wiltenmuth, Kathleen S.",NA,NA,"Data from GBIF data index - original values.","2014-07-03","0.000","0.000","0.000","0.000","US","Jones Creek, Louisiana, East Baton Rouge Parish, United States, North America",0.1,TRUE,TRUE
"46","Carex louisianica Bailey","North and Central America","United States","Arkansas","Ouachita","S side US Hwy 79 and 0.5 mi E of Ouachita River Bridge T13S R17W S13",33.58,-92.9,"32187",NA,"UA","UNA","UNA00057402","specimen","Philip E. Hyatt","1999-05-01","1999-05-01","Data from GBIF data index - original values.","2014-07-03",NA,NA,NA,NA,"US","S side US Hwy 79 and 0.5 mi E of Ouachita River Bridge T13S R17W S13, Arkansas, Ouachita, United States, North and Central America",1,TRUE,TRUE
"47","Carex louisianica Bailey","North and Central America","United States","Alabama","Madison","0.4 mi SSW of [Byrd Spring], Byrd Spring Rod & Gun Club, Huntsville T.4.S. R.1.W. W1/2 Sec 25",34.65972,-86.58861,"1138",NA,"UA","UNA","UNA00001077","specimen","Russell A. Meigs | Russell A. Meigs #","1980-06-02","1980-06-02","Data from GBIF data index - original values.","2014-07-03",NA,NA,NA,NA,"US","0.4 mi SSW of [Byrd Spring], Byrd Spring Rod & Gun Club, Huntsville T.4.S. R.1.W. W1/2 Sec 25, Alabama, Madison, United States, North and Central America",0.001,TRUE,TRUE
"48","Carex louisianica Bailey","North and Central America","United States","Alabama","Baldwin","Tensas River, Stockton",30.98333,-87.85,"11380",NA,"UA","UNA","UNA00001072","specimen","Charles Mohr",NA,NA,"Data from GBIF data index - original values.","2014-07-03",NA,NA,NA,NA,"US","Tensas River, Stockton, Alabama, Baldwin, United States, North and Central America",0.001,TRUE,TRUE
"49","Carex louisianica Bailey","North and Central America","United States","Alabama","Madison","along Paint Rock Creek near Goose & Horseshoe Ponds, ca 2 mi due S of Nebo Mt.",34.51722,-86.33334,"1138",NA,"UA","UNA","UNA00001087","specimen","John H. Wiersema | John H. Wiersema #","1980-05-08","1980-05-08","Data from GBIF data index - original values.","2014-07-03",NA,NA,NA,NA,"US","along Paint Rock Creek near Goose & Horseshoe Ponds, ca 2 mi due S of Nebo Mt., Alabama, Madison, United States, North and Central America",0.001,TRUE,TRUE
"50","Carex louisianica Bailey","North and Central America","United States","Alabama","Marshall","0.4 mi SW of Guntersville Dam on the Tennessee River. T.7.S. R.2.E. SE1/4 Sec 14",34.41917,-86.3975,"1138",NA,"UA","UNA","UNA00001092","specimen","Russell A. Meigs | Russell A. Meigs #","1980-05-21","1980-05-21","Data from GBIF data index - original values.","2014-07-03",NA,NA,NA,NA,"US","0.4 mi SW of Guntersville Dam on the Tennessee River. T.7.S. R.2.E. SE1/4 Sec 14, Alabama, Marshall, United States, North and Central America",0.001,TRUE,TRUE
"51","Carex louisianica Bailey","North and Central America","United States","Alabama","Morgan","2.4 mi W of Whitesburg bridge (U.S. Hwy 231) on the Tennessee River S of Huntsville,. Wheeler Wildlife Refuge",34.50639,-86.67805,"1138",NA,"UA","UNA","UNA00001097","specimen","Russell A. Meigs | Russell A. Meigs #","1980-06-12","1980-06-12","Data from GBIF data index - original values.","2014-07-03",NA,NA,NA,NA,"US","2.4 mi W of Whitesburg bridge (U.S. Hwy 231) on the Tennessee River S of Huntsville,. Wheeler Wildlife Refuge, Alabama, Morgan, United States, North and Central America",1e-04,TRUE,TRUE
"52","Carex louisianica Bailey","North and Central America","United States","Alabama","Geneva","ca. 8 mi. south of Samson; woods bordering south side of Pea River at junction with Hwy. 87; east side of bridge at ca. 150-200 yards north of Florida State Line",30.99667,-85.99639,"1138",NA,"UA","UNA","UNA00050666","specimen","John R. MacDonald | John R. MacDonald # with James Allison","1997-06-14","1997-06-14","Data from GBIF data index - original values.","2014-07-03",NA,NA,NA,NA,"US","ca. 8 mi. south of Samson; woods bordering south side of Pea River at junction with Hwy. 87; east side of bridge at ca. 150-200 yards north of Florida State Line, Alabama, Geneva, United States, North and Central America",0.001,TRUE,TRUE
"53","Carex louisianica Bailey","North and Central America","United States","Alabama","Greene","Just below Lock 7, Black Warrior River",32.77972,-87.84417,"1138",NA,"UA","UNA","UNA00017121","specimen","Joab L. Thomas | Joab L. Thomas #","1969-08-13","1969-08-13","Data from GBIF data index - original values.","2014-07-03",NA,NA,NA,NA,"US","Just below Lock 7, Black Warrior River, Alabama, Greene, United States, North and Central America",1e-04,TRUE,TRUE
"54","Carex louisianica Bailey","North and Central America","United States","Alabama","Tuscaloosa","Moody swamp",33.15,-87.58334,"11380",NA,"UA","UNA","UNA00001094","specimen","B. C. Williams | B. C. Williams","1951-06-03","1951-06-03","Data from GBIF data index - original values.","2014-07-03",NA,NA,NA,NA,"US","Moody swamp, Alabama, Tuscaloosa, United States, North and Central America",1,TRUE,TRUE
"55","Carex louisianica Bailey","North and Central America","United States","Alabama","Greene","About 5 miles S.E. from Eutaw by picnic area of Lock 7.",32.78583,-87.83694,"1138",NA,"UA","UNA","UNA00001098","specimen","Joab L. Thomas | Thomas, Deramus, Naugle #","1967-07-22","1967-07-22","Data from GBIF data index - original values.","2014-07-03",NA,NA,NA,NA,"US","About 5 miles S.E. from Eutaw by picnic area of Lock 7., Alabama, Greene, United States, North and Central America",1e-04,TRUE,TRUE
"56","Carex louisianica L.H. Bailey","North America","United States","Missouri","Bollinger","Duck Creek Conservation Area, 1 mi NW of area headquarters, NE end of Pool #1 uncommon, growing in bottomland forest",37.06,-90.09,NA,"104","MO","Tropicos","3574090","specimen","N.J. Holmberg","2007-06-02","2007-06-02","Data from GBIF data index - original values.","2014-07-03",NA,"104",NA,NA,"US","Duck Creek Conservation Area, 1 mi NW of area headquarters, NE end of Pool #1 uncommon, growing in bottomland forest, Missouri, Bollinger, United States, North America",1,TRUE,TRUE
"57","Carex louisianica L.H. Bailey","North America","United States","Missouri","Stoddard","Sturdivant Quadrangle. SE corner of Pool #3. Mature bottomland forest. Duck Creek Conservation Area Botanical Survey. Collected with MONPS field trip members.",37.01,-90.09,NA,"104","MO","Tropicos","3297382","specimen","Alan E. Brant","2007-06-02","2007-06-02","Data from GBIF data index - original values.","2014-07-03",NA,"104",NA,NA,"US","Sturdivant Quadrangle. SE corner of Pool #3. Mature bottomland forest. Duck Creek Conservation Area Botanical Survey. Collected with MONPS field trip members., Missouri, Stoddard, United States, North America",1,TRUE,TRUE
"58","Carex louisianica L.H. Bailey","North America","United States","Kentucky","Calloway","Junction Hwy 121 and 280; N on 280 to Crappie Hollow Shores; .6 mi. on dirt road to Blood River; seep area.",36.58,-88.15,NA,NA,"MO","Tropicos","2757904","specimen","Vicki Funk","1974-04-15","1974-04-15","Data from GBIF data index - original values.","2014-07-03",NA,NA,NA,NA,"US","Junction Hwy 121 and 280; N on 280 to Crappie Hollow Shores; .6 mi. on dirt road to Blood River; seep area., Kentucky, Calloway, United States, North America",1,TRUE,TRUE
"59","Carex louisianica L.H. Bailey","North America","United States","Georgia",NA,"Rome.",34.26,-85.16,NA,NA,"MO","Tropicos","2757713","specimen","Anonymous",NA,NA,"Data from GBIF data index - original values.","2014-07-03",NA,NA,NA,NA,"US","Rome., Georgia, United States, North America",1,TRUE,TRUE
"60","Carex louisianica L.H. Bailey","North America","United States","Missouri","New Madrid","Ca. 4 mi E of Interstate 55 on N side of County Road P small strip of bottomland forest on E side of levee, dominated by trees; understory of shrubs and vines; common in large clumpsQuercus, Fraxinus, Populus, and Liquidambar, Ilex, Crataegus, Planera, To",36.68,-89.47,NA,"88","MO","Tropicos","3572517","specimen","G. Yatskievych, T.E. Smith & G. Gremaud","1992-06-05","1992-06-05","Data from GBIF data index - original values.","2014-07-03",NA,"88",NA,NA,"US","Ca. 4 mi E of Interstate 55 on N side of County Road P small strip of bottomland forest on E side of levee, dominated by trees; understory of shrubs and vines; common in large clumpsQuercus, Fraxinus, Populus, and Liquidambar, Ilex, Crataegus, Planera, To, Missouri, New Madrid, United States, North America",1,TRUE,TRUE
"61","Carex louisianica L.H. Bailey","North America","United States","Arkansas","Clay","Low wet woods, Corning.",36.41,-90.58,NA,NA,"MO","Tropicos","2759780","specimen","E.J. Palmer","1914-06-24","1914-06-24","Data from GBIF data index - original values.","2014-07-03",NA,NA,NA,NA,"US","Low wet woods, Corning., Arkansas, Clay, United States, North America",0.1,TRUE,TRUE
"62","Carex louisianica L.H. Bailey","North America","United States","Missouri","Dunklin","Campbell.",36.49,-90.08,NA,NA,"MO","Tropicos","2758099","specimen","John H. Kellogg","1931-08-17","1931-08-17","Data from GBIF data index - original values.","2014-07-03",NA,NA,NA,NA,"US","Campbell., Missouri, Dunklin, United States, North America",1,TRUE,TRUE
"63","Carex louisianica L.H. Bailey","North America","United States","Missouri","New Madrid","S side of County Highway P, ca. 3.5 mi E of junction with Interstate 55, ca. 5 air mi NE of New Madrid oak-maple-cottonwood-dominated bottomland forest; scattered in woods",36.67,-89.47,NA,"88","MO","Tropicos","3572502","specimen","G. Yatskievych & WGNSS Spring Fieldtrip","1992-05-12","1992-05-12","Data from GBIF data index - original values.","2014-07-03",NA,"88",NA,NA,"US","S side of County Highway P, ca. 3.5 mi E of junction with Interstate 55, ca. 5 air mi NE of New Madrid oak-maple-cottonwood-dominated bottomland forest; scattered in woods, Missouri, New Madrid, United States, North America",1,TRUE,TRUE
"64","Carex louisianica L.H. Bailey","North America","United States","Missouri","Butler","T25N, R7E, W2, SW4, Sec.28.  US Rt. 60 W 1.0 miles from intersection of State Rt. T then N 1.25 miles on E side of gravel road.  Drainage ditch and adjacent forest.",36.78,-90.32,NA,"97","MO","Tropicos","828369","specimen","A.E. Brant","1994-07-22","1994-07-22","Data from GBIF data index - original values.","2014-07-03",NA,"97",NA,NA,"US","T25N, R7E, W2, SW4, Sec.28.  US Rt. 60 W 1.0 miles from intersection of State Rt. T then N 1.25 miles on E side of gravel road.  Drainage ditch and adjacent forest., Missouri, Butler, United States, North America",1,TRUE,TRUE
"65","Carex louisianica L.H. Bailey","North America","United States","Missouri","New Madrid","N side of Henderson Mound along ditch running NE-SW disturbed sandy soil; scattered in shadeToxicodendron, Cocculus, Heterotheca, grasses, and sedges",36.71,-89.47,NA,"88","MO","Tropicos","3572501","specimen","G. Yatskievych & WGNSS Botany Fieldtrip","1992-05-12","1992-05-12","Data from GBIF data index - original values.","2014-07-03",NA,"88",NA,NA,"US","N side of Henderson Mound along ditch running NE-SW disturbed sandy soil; scattered in shadeToxicodendron, Cocculus, Heterotheca, grasses, and sedges, Missouri, New Madrid, United States, North America",1,TRUE,TRUE
"66","Carex louisianica L.H. Bailey","North America","United States","Illinois","Union","Union County State Fish and Wildlife Area, on S side of State Highway 3/146 and ca. 0.5 air mi W of Pottsville; along main road running E-W through property; marsh and surrounding sedge-dominated wetland on W side N-S stretch of road; common near edge of",37.41,-89.38,NA,"103","MO","Tropicos","3463651","specimen","P.M. McKenzie, G. Yatskievych, B. Jacobs, M. Currier, D. Drees & A. Bornstein","2003-06-03","2003-06-03","Data from GBIF data index - original values.","2014-07-03",NA,"103",NA,NA,"US","Union County State Fish and Wildlife Area, on S side of State Highway 3/146 and ca. 0.5 air mi W of Pottsville; along main road running E-W through property; marsh and surrounding sedge-dominated wetland on W side N-S stretch of road; common near edge of, Illinois, Union, United States, North America",0.1,TRUE,TRUE
"73","Carex louisianica","North America","United States","District of Columbia",NA,"Bennings",38.895,-76.94917,NA,NA,"US","Botany","363409","specimen","E. Steele","1899-07-15","1899-07-15","Data from GBIF data index - original values.","2014-07-03",NA,NA,NA,NA,"US","Bennings, District of Columbia, United States, North America",0.1,TRUE,TRUE
"74","Carex louisianica","North America","United States","District of Columbia",NA,"Bennings, near eastern Branch",38.895,-76.94917,NA,NA,"US","Botany","785070","specimen","E. Steele","1899-07-15","1899-07-15","Data from GBIF data index - original values.","2014-07-03",NA,NA,NA,NA,"US","Bennings, near eastern Branch, District of Columbia, United States, North America",0.1,TRUE,FALSE
"75","Carex louisianica",NA,"United States","Maryland","Charles","Tompkinsville",38.32167,-76.89278,NA,NA,"US","Botany","1220051","specimen",NA,"1921-07-17","1921-07-17","Data from GBIF data index - original values.","2014-07-03",NA,NA,NA,NA,"US","Tompkinsville, Maryland, Charles, United States",1e-04,TRUE,TRUE
"76","Carex louisianica",NA,"United States","Maryland","Charles","Maryland Route 227 (Pomfret Road) at Mattawoman Creek; 1.5 mi. southeast of Pomonkey.",38.6325,-77.10833,NA,NA,"US","Botany","3451196","specimen","C. Lea","2002-05-23","2002-05-23","Data from GBIF data index - original values.","2014-07-03",NA,NA,NA,NA,"US","Maryland Route 227 (Pomfret Road) at Mattawoman Creek; 1.5 mi. southeast of Pomonkey., Maryland, Charles, United States",0.01,TRUE,TRUE
"77","Carex louisianica L. H. Bailey","North America","United States","Texas",NA,"Jefferson County",30.0333,-94.4167,NA,NA,"UA","ALTA-VP COLLECTION","34897","specimen","Fisher, Geo. L.","1936-04-29","1936-04-29","Data from GBIF data index - original values.","2014-07-03",NA,NA,NA,NA,"US","Jefferson County, Texas, United States, North America",0.01,TRUE,TRUE
"210","Carex louisianica","North America","United States","District of Columbia",NA,"Bennings, near eastern Branch",38.895,-76.94917,NA,NA,"US","Botany","785070","specimen","E. Steele","1899-07-15","1899-07-15","Data from GBIF data index - original values.","2014-01-16",NA,NA,NA,NA,"US","Bennings, near eastern Branch, District of Columbia, United States, North America",0.1,TRUE,TRUE
"36","Carex louisianica","North America","United States","District of Columbia",NA,"Bennings",38.895,-76.94917,NA,NA,"US","Botany","363409","specimen","E. Steele","1899-07-15","1899-07-15","Data from GBIF data index - original values.","2014-01-16",NA,NA,NA,NA,"US","Bennings, District of Columbia, United States, North America",0.1,TRUE,FALSE
