"","species","continent","country","adm1","adm2","locality","lat","lon","coordUncertaintyM","alt","institution","collection","catalogNumber","basisOfRecord","collector","earliestDateCollected","latestDateCollected","gbifNotes","downloadDate","maxElevationM","minElevationM","maxDepthM","minDepthM","ISO2","cloc","calc_error","precise_enough","unique_record"
"1","Carex manhartii Bryson","North America","United States","North Carolina","Macon","Lab entrance sign vicinity. Found at several sites today. Mixed woods streamside in valley near road; common.",35.06,-83.44,NA,"670","MO","Tropicos","2763886","specimen","Philip E. Hyatt","1999-05-28","1999-05-28","Data from GBIF data index - original values.","2014-07-03",NA,"670",NA,NA,"US","Lab entrance sign vicinity. Found at several sites today. Mixed woods streamside in valley near road; common., North Carolina, Macon, United States, North America",1,TRUE,TRUE
"2","Carex manhartii Bryson","North America","United States","North Carolina",NA,NA,35.5,-80,NA,NA,"F","Botany","1952288","specimen","J. R. Manhart","1981-05-17","1981-05-17","Data from GBIF data index - original values.","2014-07-03",NA,NA,NA,NA,"US","North Carolina, United States, North America",10,FALSE,TRUE
