"","species","continent","country","adm1","adm2","locality","lat","lon","coordUncertaintyM","alt","institution","collection","catalogNumber","basisOfRecord","collector","earliestDateCollected","latestDateCollected","gbifNotes","downloadDate","maxElevationM","minElevationM","maxDepthM","minDepthM","ISO2","cloc","calc_error","precise_enough","unique_record"
"2","Carex nelsonii","North America","United States","Colorado","Boulder","Ward, 1.5 mi N, 5 mi W",40.0911,-105.586,NA,NA,"KU","KANU","352991","unknown","Caleb A Morse; Elizabeth F Smith",NA,NA,"Data from GBIF data index - original values.","2014-07-03",NA,NA,NA,NA,"US","Ward, 1.5 mi N, 5 mi W, Colorado, Boulder, United States, North America",0.01,TRUE,TRUE
"3","Carex nelsonii",NA,"United States","Wyoming","Sublette","Eklund Lake, Wind River Range; east of Pinedale, approximately 6 miles from Elkhart Park trail head.",43.020557,-109.67694,NA,"2188","UWBM","Plant","3602","specimen","Richard G. Olmstead",NA,NA,"Data from GBIF data index - original values.","2014-07-03","2188","2188",NA,NA,"US","Eklund Lake, Wind River Range; east of Pinedale, approximately 6 miles from Elkhart Park trail head., Wyoming, Sublette, United States",1e-04,TRUE,TRUE
"4","Carex nelsonii",NA,"United States","Wyoming","Sublette","Eklund Lake, Wind River Range; east of Pinedale, approximately 6 miles from Elkhart Park trail head.",43.020557,-109.67694,NA,"2188","UWBM","Plants","3602","specimen","Richard G. Olmstead",NA,NA,"Data from GBIF data index - original values.","2014-07-03","2188","2188",NA,NA,"US","Eklund Lake, Wind River Range; east of Pinedale, approximately 6 miles from Elkhart Park trail head., Wyoming, Sublette, United States",1e-04,TRUE,FALSE
"5","Carex nelsonii Mack.","North America","United States","Utah",NA,"Duchesne County",40.784393,-110.16016,NA,NA,"UA","ALTA-VP COLLECTION","95350","specimen","Tuhy, J. S.; Warner, N.","1986-08-13","1986-08-13","Data from GBIF data index - original values.","2014-07-03",NA,NA,NA,NA,"US","Duchesne County, Utah, United States, North America",1e-04,TRUE,TRUE
"6","Carex nelsonii Mackenzie",NA,"United States","Colorado","Conejos County",",1 mi SSW of Green lake, 0.5 mi N of Trail Lake",37.1703,-106.5917,NA,NA,"CS","Herbarium","174264","specimen","P Douglas 2048",NA,NA,"Data from GBIF data index - original values.","2014-07-03",NA,NA,NA,NA,"US",",1 mi SSW of Green lake, 0.5 mi N of Trail Lake, Colorado, Conejos County, United States",0.01,TRUE,TRUE
"7","Carex nelsonii Mackenzie",NA,"United States","Colorado","Clear Creek County",",1/4 mi below summit of Mt Evans, Arapahoe NF",39.5886,-105.6428,NA,NA,"CS","Herbarium","174261","specimen","W Johnson 717",NA,NA,"Data from GBIF data index - original values.","2014-07-03",NA,NA,NA,NA,"US",",1/4 mi below summit of Mt Evans, Arapahoe NF, Colorado, Clear Creek County, United States",0.01,TRUE,TRUE
"8","Carex nelsonii Mackenzie",NA,"United States","Colorado","San Juan County",",Balsam Lake.",37.7634,-107.587,NA,NA,"CS","Herbarium","203991","specimen","C Holmes",NA,NA,"Data from GBIF data index - original values.","2014-07-03",NA,NA,NA,NA,"US",",Balsam Lake., Colorado, San Juan County, United States",0.01,TRUE,TRUE
"9","Carex nelsonii Mackenzie",NA,"United States","Colorado","San Juan County",",San Juan National Forest.  Cinnamon Pass Rd. at summit.",38.0084,-107.5314,NA,NA,"CS","Herbarium","201251","specimen","Ken Heil",NA,NA,"Data from GBIF data index - original values.","2014-07-03",NA,NA,NA,NA,"US",",San Juan National Forest.  Cinnamon Pass Rd. at summit., Colorado, San Juan County, United States",0.01,TRUE,TRUE
"10","Carex nelsonii Mackenzie",NA,"United States","Colorado","Boulder County",",Niwot Ridge above CU Sci Camp, ca 8 mi NW of Nederland",40.0381,-105.579,NA,NA,"CS","Herbarium","174260","specimen","F Hermann 17062",NA,NA,"Data from GBIF data index - original values.","2014-07-03",NA,NA,NA,NA,"US",",Niwot Ridge above CU Sci Camp, ca 8 mi NW of Nederland, Colorado, Boulder County, United States",0.01,TRUE,TRUE
"11","Carex nelsonii Mackenzie",NA,"United States","Colorado","La Plata County",",S Fk Hermosa Ck, San Juan Forest",37.4791,-107.9688,NA,NA,"CS","Herbarium","174266","specimen","G Loughridge 32",NA,NA,"Data from GBIF data index - original values.","2014-07-03",NA,NA,NA,NA,"US",",S Fk Hermosa Ck, San Juan Forest, Colorado, La Plata County, United States",0.01,TRUE,TRUE
"12","Carex nelsonii Mackenzie",NA,"United States","Colorado","Larimer County",",meadow N of S Rawah Peak, Medicine Bow Range, Rawah Wilderness",40.66226,-105.95755,NA,NA,"CS","Herbarium","174268","specimen","B Neely 4807",NA,NA,"Data from GBIF data index - original values.","2014-07-03",NA,NA,NA,NA,"US",",meadow N of S Rawah Peak, Medicine Bow Range, Rawah Wilderness, Colorado, Larimer County, United States",1e-04,TRUE,TRUE
"13","Carex nelsonii Mackenzie",NA,"United States","Colorado","Larimer County",",meadow N of S Rawah Peak, Medicine Bow Range, Rawah Wilderness",40.66226,-105.95755,NA,NA,"CS","Herbarium","174267","specimen","B Neely 4805",NA,NA,"Data from GBIF data index - original values.","2014-07-03",NA,NA,NA,NA,"US",",meadow N of S Rawah Peak, Medicine Bow Range, Rawah Wilderness, Colorado, Larimer County, United States",1e-04,TRUE,FALSE
"14","Carex nelsonii Mackenzie",NA,"United States","Colorado","Clear Creek County",",vicinity of Summit Lake, Arapaho Forest",39.6034,-105.6429,NA,NA,"CS","Herbarium","174263","specimen","R Gierisch 2575",NA,NA,"Data from GBIF data index - original values.","2014-07-03",NA,NA,NA,NA,"US",",vicinity of Summit Lake, Arapaho Forest, Colorado, Clear Creek County, United States",0.01,TRUE,TRUE
"15","Carex nelsonii Mackenzie",NA,"United States","Colorado","Clear Creek County",",Em Evans, Arapaho Forest",39.5745,-105.6241,NA,NA,"CS","Herbarium","174262","specimen","R Gierisch 2756",NA,NA,"Data from GBIF data index - original values.","2014-07-03",NA,NA,NA,NA,"US",",Em Evans, Arapaho Forest, Colorado, Clear Creek County, United States",0.01,TRUE,TRUE
"16","Carex nelsonii Mackenzie",NA,"United States","Colorado","Gunnison County",",Pass Ck, Gunnison Forest",38.8335,-106.4334,NA,NA,"CS","Herbarium","174265","specimen","R Gierisch 3070",NA,NA,"Data from GBIF data index - original values.","2014-07-03",NA,NA,NA,NA,"US",",Pass Ck, Gunnison Forest, Colorado, Gunnison County, United States",0.01,TRUE,TRUE
"121","Carex nelsonii Mackenzie",NA,"United States","Colorado","Larimer County",",meadow N of S Rawah Peak, Medicine Bow Range, Rawah Wilderness",40.66226,-105.95755,NA,NA,"CS","Herbarium","174267","specimen","B Neely 4805",NA,NA,"Data from GBIF data index - original values.","2014-01-16",NA,NA,NA,NA,"US",",meadow N of S Rawah Peak, Medicine Bow Range, Rawah Wilderness, Colorado, Larimer County, United States",1e-04,TRUE,TRUE
"151","Carex nelsonii Mackenzie",NA,"United States","Colorado","Larimer County",",meadow N of S Rawah Peak, Medicine Bow Range, Rawah Wilderness",40.66226,-105.95755,NA,NA,"CS","Herbarium","174268","specimen","B Neely 4807",NA,NA,"Data from GBIF data index - original values.","2014-01-16",NA,NA,NA,NA,"US",",meadow N of S Rawah Peak, Medicine Bow Range, Rawah Wilderness, Colorado, Larimer County, United States",1e-04,TRUE,FALSE
