"","species","continent","country","adm1","adm2","locality","lat","lon","coordUncertaintyM","alt","institution","collection","catalogNumber","basisOfRecord","collector","earliestDateCollected","latestDateCollected","gbifNotes","downloadDate","maxElevationM","minElevationM","maxDepthM","minDepthM","ISO2","cloc","calc_error","precise_enough","unique_record"
"1","Carex obispoensis","NORTH AMERICA","United States","CA","San Luis Obispo County","San Luis Obispo; Pick and Shovel Mine; Camp San Luis Obispo; 29S12E34",35.3607,-120.6731,NA,NA,"UCJEPS","JEPS","JEPS97103","fossil","D. A. Young",NA,NA,"Data from GBIF data index - original values.","2014-07-04",NA,NA,NA,NA,"US","San Luis Obispo; Pick and Shovel Mine; Camp San Luis Obispo; 29S12E34, CA, San Luis Obispo County, United States, NORTH AMERICA",0.01,TRUE,TRUE
"2","Carex obispoensis Stacy","North America","United States",NA,NA,NA,38,-98,NA,NA,"F","Botany","866418","specimen","J. T. Howell","1936-05-07","1936-05-07","Data from GBIF data index - original values.","2014-07-04",NA,NA,NA,NA,"US","United States, North America",100,FALSE,TRUE
"3","Carex obispoensis","North America","United States","California","San Luis Obispo","Santa Lucia Mtns: Cuesta Ridge Botanical Area: ca. 0.5 rd mi S of W Cuesta Ridge Rd, along dirt rd leading to Pick and Shovel Mine",35,-121,"1000",NA,"Consortium of California Herbaria","SBBG","SBBG93651","specimen","S. A. Junak",NA,NA,"Data from GBIF data index - original values.","2014-07-04",NA,NA,NA,NA,"US","Santa Lucia Mtns: Cuesta Ridge Botanical Area: ca. 0.5 rd mi S of W Cuesta Ridge Rd, along dirt rd leading to Pick and Shovel Mine, California, San Luis Obispo, United States, North America",100,FALSE,TRUE
"4","Carex obispoensis","North America","United States","California","San Luis Obispo","Santa Lucia Mtns: Burnett Peak",36,-121,"10000",NA,"Consortium of California Herbaria","SBBG","SBBG17091","specimen","C. B. Hardham",NA,NA,"Data from GBIF data index - original values.","2014-07-04",NA,NA,NA,NA,"US","Santa Lucia Mtns: Burnett Peak, California, San Luis Obispo, United States, North America",100,FALSE,TRUE
"8","Carex obispoensis","North America","United States","California","San Luis Obispo","Santa Lucia Mtns: W end of Cuesta Ridge Botanical Area near the end of the reserve",35,-121,"1000",NA,"Consortium of California Herbaria","SBBG","SBBG96884","specimen","D. A. Young, S. A. Junak, M. Carroll",NA,NA,"Data from GBIF data index - original values.","2014-07-04",NA,NA,NA,NA,"US","Santa Lucia Mtns: W end of Cuesta Ridge Botanical Area near the end of the reserve, California, San Luis Obispo, United States, North America",100,FALSE,FALSE
"9","Carex obispoensis","North America","United States","California","San Luis Obispo","Santa Lucia Mtns: flats and swales between E and W fks of Chorro Crk, ca. 0.6 km SSE of La Primera Mine; Camp San Luis Obispo",35,-121,"10",NA,"Consortium of California Herbaria","SBBG","SBBG116208","specimen","D. H. Wilken, E. L. Painter",NA,NA,"Data from GBIF data index - original values.","2014-07-04",NA,NA,NA,NA,"US","Santa Lucia Mtns: flats and swales between E and W fks of Chorro Crk, ca. 0.6 km SSE of La Primera Mine; Camp San Luis Obispo, California, San Luis Obispo, United States, North America",100,FALSE,FALSE
"11","Carex obispoensis","North America","United States","California","San Diego","McGinty Mountain Ecological Reserve (California Fish & Game land), 3 mi SE of city of El Cajon. 0.2 mi NW of McGinty Mountain Summit.",33,-117,"0",NA,"Consortium of California Herbaria","SD","SD160836","specimen","Margaret R. Mulligan, J. Rebman, J. Ekhoff, J. Martin, T. Dillingham",NA,NA,"Data from GBIF data index - original values.","2014-07-04",NA,NA,NA,NA,"US","McGinty Mountain Ecological Reserve (California Fish & Game land), 3 mi SE of city of El Cajon. 0.2 mi NW of McGinty Mountain Summit., California, San Diego, United States, North America",100,FALSE,TRUE
"13","Carex obispoensis","North America","United States","California","San Luis Obispo","Santa Lucia Mtns: Cerro Alto",35,-121,"10000",NA,"Consortium of California Herbaria","SBBG","SBBG18845","specimen","C. B. Hardham",NA,NA,"Data from GBIF data index - original values.","2014-07-04",NA,NA,NA,NA,"US","Santa Lucia Mtns: Cerro Alto, California, San Luis Obispo, United States, North America",100,FALSE,FALSE
"22","Carex obispoensis","North America","United States","California","San Luis Obispo","Pick and Shovel Mine Camp San Luis Obispo",35,-121,"804",NA,"Consortium of California Herbaria","JEPS","JEPS97103","specimen","D. A. Young and F. L. Johnson",NA,NA,"Data from GBIF data index - original values.","2014-07-04",NA,NA,NA,NA,"US","Pick and Shovel Mine Camp San Luis Obispo, California, San Luis Obispo, United States, North America",100,FALSE,FALSE
"23","Carex obispoensis","North America","United States","California","San Luis Obispo","Santa Lucia Mtns: Chorro Crk, 1 km N of Chorro Reservoir; Camp San Luis Obispo",35,-121,"1000",NA,"Consortium of California Herbaria","SBBG","SBBG104786","specimen","F. L. Johnson, E. A. Young",NA,NA,"Data from GBIF data index - original values.","2014-07-04",NA,NA,NA,NA,"US","Santa Lucia Mtns: Chorro Crk, 1 km N of Chorro Reservoir; Camp San Luis Obispo, California, San Luis Obispo, United States, North America",100,FALSE,FALSE
"26","Carex obispoensis","North America","United States","California","San Luis Obispo","South Coast Ranges Scattered colonies high on N-facing slope about midway up Reservoir Cyn immed. E of San Luis Obispo.",35,-121,"0",NA,"Consortium of California Herbaria","CDA","CDA17650","specimen","Austin Griffiths, G. F. Hrusa, M. Mcleod, C. Cunningham",NA,NA,"Data from GBIF data index - original values.","2014-07-04",NA,NA,NA,NA,"US","South Coast Ranges Scattered colonies high on N-facing slope about midway up Reservoir Cyn immed. E of San Luis Obispo., California, San Luis Obispo, United States, North America",100,FALSE,FALSE
"27","Carex obispoensis","North America","United States","California","San Luis Obispo","Reservoir Canyon. Rhizomatous perennial in deep shade on NE facing slope at head of canyon. Base of old track to goatherders shack. Serpentine.",35,-121,"0",NA,"Consortium of California Herbaria","CDA","CDA15608","specimen","G. F. Hrusa",NA,NA,"Data from GBIF data index - original values.","2014-07-04",NA,NA,NA,NA,"US","Reservoir Canyon. Rhizomatous perennial in deep shade on NE facing slope at head of canyon. Base of old track to goatherders shack. Serpentine., California, San Luis Obispo, United States, North America",100,FALSE,FALSE
"32","Carex obispoensis","North America","United States","California","San Luis Obispo","Santa Lucia Mtns: Pick and Shovel Mine; Camp San Luis Obispo",35,-121,"1000",NA,"Consortium of California Herbaria","SBBG","SBBG104945","specimen","D. A. Young and F. L. Johnson",NA,NA,"Data from GBIF data index - original values.","2014-07-04",NA,NA,NA,NA,"US","Santa Lucia Mtns: Pick and Shovel Mine; Camp San Luis Obispo, California, San Luis Obispo, United States, North America",100,FALSE,FALSE
"33","Carex obispoensis","North America","United States","California","San Luis Obispo","Santa Lucia Mtns: below Pick and Shovel Mine; Camp San Luis Obispo",35,-121,"100",NA,"Consortium of California Herbaria","SBBG","SBBG119099","specimen","E. L. Painter, M. Wetherwax",NA,NA,"Data from GBIF data index - original values.","2014-07-04",NA,NA,NA,NA,"US","Santa Lucia Mtns: below Pick and Shovel Mine; Camp San Luis Obispo, California, San Luis Obispo, United States, North America",100,FALSE,FALSE
"38","Carex obispoensis","North America","United States","California","San Luis Obispo","Santa Lucia Mtns: slopes below Rinconada Mine site, ca. 2 km W of confluence of Salsipuedes and Rinconada crks",35,-120,"10",NA,"Consortium of California Herbaria","SBBG","SBBG66357","specimen","D. H. Wilken",NA,NA,"Data from GBIF data index - original values.","2014-07-04",NA,NA,NA,NA,"US","Santa Lucia Mtns: slopes below Rinconada Mine site, ca. 2 km W of confluence of Salsipuedes and Rinconada crks, California, San Luis Obispo, United States, North America",100,FALSE,TRUE
"39","Carex obispoensis","North America","United States","California","San Luis Obispo","Santa Lucia Mtns: W of TV towers on Cerro Alto, along ridge W of Cuesta Summit on US Hwy 101",35,-121,"1000",NA,"Consortium of California Herbaria","SBBG","SBBG96156","specimen","C. F. Smith",NA,NA,"Data from GBIF data index - original values.","2014-07-04",NA,NA,NA,NA,"US","Santa Lucia Mtns: W of TV towers on Cerro Alto, along ridge W of Cuesta Summit on US Hwy 101, California, San Luis Obispo, United States, North America",100,FALSE,FALSE
"47","Carex obispoensis","North America","United States","California","San Diego","Peninsular Range Sycuan Peak Ecological Reserve: top of Sycuan Peak on northeast side; north of Jamul and east of McGinty Mountain",33,-117,"0",NA,"Consortium of California Herbaria","UCR","UCR157561","specimen","Jon P. Rebman, J. Gregory",NA,NA,"Data from GBIF data index - original values.","2014-07-04",NA,NA,NA,NA,"US","Peninsular Range Sycuan Peak Ecological Reserve: top of Sycuan Peak on northeast side; north of Jamul and east of McGinty Mountain, California, San Diego, United States, North America",100,FALSE,FALSE
"50","Carex obispoensis","North America","United States","California","San Diego","Sycuan Ecological Reserve: top of Sycuan Peak on northeast side; north of Jamul and east of McGinty Mountain",33,-117,"0",NA,"Consortium of California Herbaria","SD","SD154685","specimen","Jon P. Rebman, Jeannie Gregory",NA,NA,"Data from GBIF data index - original values.","2014-07-04",NA,NA,NA,NA,"US","Sycuan Ecological Reserve: top of Sycuan Peak on northeast side; north of Jamul and east of McGinty Mountain, California, San Diego, United States, North America",100,FALSE,FALSE
"51","Carex obispoensis","North America","United States","California","San Luis Obispo","Santa Lucia Mtns: Pick and Shovel Mine; Camp San Luis Obispo",35,-121,"1000",NA,"Consortium of California Herbaria","SBBG","SBBG104779","specimen","F. L. Johnson, M. D. Proctor",NA,NA,"Data from GBIF data index - original values.","2014-07-04",NA,NA,NA,NA,"US","Santa Lucia Mtns: Pick and Shovel Mine; Camp San Luis Obispo, California, San Luis Obispo, United States, North America",100,FALSE,FALSE
"6","Carex obispoensis","North America","United States","California","San Luis Obispo","Santa Lucia Mtns: Chorro Crk, 1 km N of Chorro Reservoir; Camp San Luis Obispo",35,-121,"1000",NA,"Consortium of California Herbaria","SBBG","SBBG104786","specimen","F. L. Johnson, E. A. Young",NA,NA,"Data from GBIF data index - original values.","2014-01-16",NA,NA,NA,NA,"US","Santa Lucia Mtns: Chorro Crk, 1 km N of Chorro Reservoir; Camp San Luis Obispo, California, San Luis Obispo, United States, North America",100,FALSE,TRUE
"29","Carex obispoensis","North America","United States","California","San Diego","Peninsular Range Sycuan Peak Ecological Reserve: top of Sycuan Peak on northeast side; north of Jamul and east of McGinty Mountain",33,-117,"0",NA,"Consortium of California Herbaria","UCR","UCR157561","specimen","Jon P. Rebman, J. Gregory",NA,NA,"Data from GBIF data index - original values.","2014-01-16",NA,NA,NA,NA,"US","Peninsular Range Sycuan Peak Ecological Reserve: top of Sycuan Peak on northeast side; north of Jamul and east of McGinty Mountain, California, San Diego, United States, North America",100,FALSE,TRUE
"381","Carex obispoensis","North America","United States","California","San Luis Obispo","Santa Lucia Mtns: Cuesta Ridge Botanical Area: ca. 0.5 rd mi S of W Cuesta Ridge Rd, along dirt rd leading to Pick and Shovel Mine",35,-121,"1000",NA,"Consortium of California Herbaria","SBBG","SBBG93651","specimen","S. A. Junak",NA,NA,"Data from GBIF data index - original values.","2014-01-16",NA,NA,NA,NA,"US","Santa Lucia Mtns: Cuesta Ridge Botanical Area: ca. 0.5 rd mi S of W Cuesta Ridge Rd, along dirt rd leading to Pick and Shovel Mine, California, San Luis Obispo, United States, North America",100,FALSE,FALSE
"49","Carex obispoensis","North America","United States","California","San Diego","McGinty Mountain Ecological Reserve (California Fish & Game land), 3 mi SE of city of El Cajon. 0.2 mi NW of McGinty Mountain Summit.",33,-117,"0",NA,"Consortium of California Herbaria","SD","SD160836","specimen","Margaret R. Mulligan, J. Rebman, J. Ekhoff, J. Martin, T. Dillingham",NA,NA,"Data from GBIF data index - original values.","2014-01-16",NA,NA,NA,NA,"US","McGinty Mountain Ecological Reserve (California Fish & Game land), 3 mi SE of city of El Cajon. 0.2 mi NW of McGinty Mountain Summit., California, San Diego, United States, North America",100,FALSE,FALSE
