"","species","continent","country","adm1","adm2","locality","lat","lon","coordUncertaintyM","alt","institution","collection","catalogNumber","basisOfRecord","collector","earliestDateCollected","latestDateCollected","gbifNotes","downloadDate","maxElevationM","minElevationM","maxDepthM","minDepthM","ISO2","cloc","calc_error","precise_enough","unique_record"
"1","Carex schottii","NORTH AMERICA","United States","CA","San Benito County","San Benito; e slope of Cerro Colorado along Mercy Creek; Diablo Range, Las Agillas Mts., Cerro Colorado, Mercy Creek; 14S10E6",36.739,-120.924,NA,NA,"UCJEPS","JEPS","JEPS87020","fossil","Dean Wm. Taylor",NA,NA,"Data from GBIF data index - original values.","2014-07-04",NA,NA,NA,NA,"US","San Benito; e slope of Cerro Colorado along Mercy Creek; Diablo Range, Las Agillas Mts., Cerro Colorado, Mercy Creek; 14S10E6, CA, San Benito County, United States, NORTH AMERICA",0.1,TRUE,TRUE
"5","Carex schottii","North America","United States","California","Orange","collected 0.3 km W and 2.4 km ENE, in San Juan Canyon of the Santa Ana Mountains Bench Marc 1100 and San Juan Guard Station - San Juan Canyon, State Highway 74, San Juan Guard Station an",34,-118,"12462",NA,"Consortium of California Herbaria","UCSB","UCSB57548","specimen","F. M. Roberts, Jr.",NA,NA,"Data from GBIF data index - original values.","2014-07-04",NA,NA,NA,NA,"US","collected 0.3 km W and 2.4 km ENE, in San Juan Canyon of the Santa Ana Mountains Bench Marc 1100 and San Juan Guard Station - San Juan Canyon, State Highway 74, San Juan Guard Station an, California, Orange, United States, North America",100,FALSE,TRUE
"6","Carex schottii","North America","United States","California","Los Angeles","Oak Knoll",34,-118,"0",NA,"Consortium of California Herbaria","UC","UC56690","specimen","Ernest Braunton",NA,NA,"Data from GBIF data index - original values.","2014-07-04",NA,NA,NA,NA,"US","Oak Knoll, California, Los Angeles, United States, North America",100,FALSE,FALSE
"8","Carex schottii","North America","United States","California","Los Angeles","Bouquet Canyon",34,-119,"0",NA,"Consortium of California Herbaria","UC","UC837149","specimen","I. M. Clokey, C. B. Clokey, B. C. Templeton",NA,NA,"Data from GBIF data index - original values.","2014-07-04",NA,NA,NA,NA,"US","Bouquet Canyon, California, Los Angeles, United States, North America",100,FALSE,TRUE
"14","Carex schottii","North America","United States","California","Los Angeles","San Gabriel Mountains Harrow Canyon above Glendora, c. 0.25 mi. north of Harrow Canyon Debris Basin",34,-118,"0",NA,"Consortium of California Herbaria","UCR","UCR182231","specimen","R. G. Swinney",NA,NA,"Data from GBIF data index - original values.","2014-07-04",NA,NA,NA,NA,"US","San Gabriel Mountains Harrow Canyon above Glendora, c. 0.25 mi. north of Harrow Canyon Debris Basin, California, Los Angeles, United States, North America",100,FALSE,FALSE
"26","Carex schottii","North America","United States","California","Los Angeles","Pasadena Southern California",34,-118,"0",NA,"Consortium of California Herbaria","UC","UC72397","specimen","Geo. B. Grant",NA,NA,"Data from GBIF data index - original values.","2014-07-04",NA,NA,NA,NA,"US","Pasadena Southern California, California, Los Angeles, United States, North America",100,FALSE,FALSE
"29","Carex schottii","North America","United States","California","San Diego","\Richman Ranch, near DeLuz\",33,-117,"804",NA,"Consortium of California Herbaria","SD","SD26868","specimen","Frank F. Gander",NA,NA,"Data from GBIF data index - original values.","2014-07-04",NA,NA,NA,NA,"US","Richman Ranch, near DeLuz, California, San Diego, United States, North America",100,FALSE,TRUE
"32","Carex schottii","North America","United States","California","San Bernardino","San Bernardino Mtns. Mission Springs Camp; USFS Road 1N05, c. 5 road mi SE of Heart Bar Campground",34,-117,"0",NA,"Consortium of California Herbaria","UCR","UCR126281","specimen","Scott D. White",NA,NA,"Data from GBIF data index - original values.","2014-07-04",NA,NA,NA,NA,"US","San Bernardino Mtns. Mission Springs Camp; USFS Road 1N05, c. 5 road mi SE of Heart Bar Campground, California, San Bernardino, United States, North America",100,FALSE,FALSE
"33","Carex schottii","North America","United States","California","Riverside","San Jacinto Mtns./Sonoran (Colorado) Desert Oasis de Los Osos Preserve, off Snow Creek Canyon at the N foot of the San Jacinto Mountains, 1 mi west of Snow Creek Village",34,-117,"0",NA,"Consortium of California Herbaria","UCR","UCR64298","specimen","N. M. Fellows, A. C. Sanders, A. Strickland",NA,NA,"Data from GBIF data index - original values.","2014-07-04",NA,NA,NA,NA,"US","San Jacinto Mtns./Sonoran (Colorado) Desert Oasis de Los Osos Preserve, off Snow Creek Canyon at the N foot of the San Jacinto Mountains, 1 mi west of Snow Creek Village, California, Riverside, United States, North America",100,FALSE,FALSE
"40","Carex schottii","North America","United States","California","Los Angeles","Pasadena",34,-118,"0",NA,"Consortium of California Herbaria","UC","UC167324","specimen","Geo. B. Grant",NA,NA,"Data from GBIF data index - original values.","2014-07-04",NA,NA,NA,NA,"US","Pasadena, California, Los Angeles, United States, North America",100,FALSE,FALSE
"45","Carex schottii","North America","United States","California","Los Angeles","San Gabriel Mtns West Fork of Palmer Canyon",34,-118,"0",NA,"Consortium of California Herbaria","UCR","UCR142889","specimen","L. C. Wheeler",NA,NA,"Data from GBIF data index - original values.","2014-07-04",NA,NA,NA,NA,"US","San Gabriel Mtns West Fork of Palmer Canyon, California, Los Angeles, United States, North America",100,FALSE,FALSE
"52","Carex schottii","North America","United States","California","San Diego","Peninsular Ranges Foothills area near Mesa Grande about Wash Tub Falls in Black Canyon, east of Black Mountain, ca. 6 miles south of junction of Mesa Grande Rd. along Black Canyon Rd.",33,-117,"0",NA,"Consortium of California Herbaria","RSA","RSA726827","specimen","Steve Boyd, Heidi Bigelow",NA,NA,"Data from GBIF data index - original values.","2014-07-04",NA,NA,NA,NA,"US","Peninsular Ranges Foothills area near Mesa Grande about Wash Tub Falls in Black Canyon, east of Black Mountain, ca. 6 miles south of junction of Mesa Grande Rd. along Black Canyon Rd., California, San Diego, United States, North America",100,FALSE,FALSE
"57","Carex schottii","North America","United States","California","Los Angeles","San Gabriel Mtns. foot of Holiday Hill Ski Lift [c. 1 mi. SE of Big Pines]",34,-118,"0",NA,"Consortium of California Herbaria","UCR","UCR101237","specimen","L. C. Wheeler",NA,NA,"Data from GBIF data index - original values.","2014-07-04",NA,NA,NA,NA,"US","San Gabriel Mtns. foot of Holiday Hill Ski Lift [c. 1 mi. SE of Big Pines], California, Los Angeles, United States, North America",100,FALSE,FALSE
"61","Carex schottii","North America","United States","California","San Luis Obispo","Central Coast South end of Morro Bay, SW of Baywood Park",35,-121,"0",NA,"Consortium of California Herbaria","UCR","UCR67411","specimen","G. K. Helmkamp",NA,NA,"Data from GBIF data index - original values.","2014-07-04",NA,NA,NA,NA,"US","Central Coast South end of Morro Bay, SW of Baywood Park, California, San Luis Obispo, United States, North America",100,FALSE,TRUE
"64","Carex schottii","North America","United States","California","Los Angeles","Transverse Ranges; San Gabriel Mountains region San Gabriel Mountains: Spring at Big Cienega, ca. 0.6 mile NE of Deer Flat Campground along South Hawkins Road (FS Road 3N07.2). Near 34&deg; 20' 13'' N 117&deg; 49' 49.4'' W T3N R9W NE/4, NW/4 sec. 21. Elev. 6500 Feet.",34,-118,"0",NA,"Consortium of California Herbaria","RSA","RSA656850","specimen","Valerie L. Soza, Laura Moore",NA,NA,"Data from GBIF data index - original values.","2014-07-04",NA,NA,NA,NA,"US","Transverse Ranges; San Gabriel Mountains region San Gabriel Mountains: Spring at Big Cienega, ca. 0.6 mile NE of Deer Flat Campground along South Hawkins Road (FS Road 3N07.2). Near 34&deg; 20' 13'' N 117&deg; 49' 49.4'' W T3N R9W NE/4, NW/4 sec. 21. Elev. 6500 Feet., California, Los Angeles, United States, North America",100,FALSE,FALSE
"66","Carex schottii","North America","United States","California","Los Angeles","San Gabriel Mtns Graveyard Canyon, second side canyon",34,-118,"0",NA,"Consortium of California Herbaria","UCR","UCR147046","specimen","L. C. Wheeler",NA,NA,"Data from GBIF data index - original values.","2014-07-04",NA,NA,NA,NA,"US","San Gabriel Mtns Graveyard Canyon, second side canyon, California, Los Angeles, United States, North America",100,FALSE,FALSE
"68","Carex schottii","North America","United States","California","San Bernardino","San Gabriel Mtns. Glen Helen Regional Park, boardwalk trail SW of lake",34,-117,"0",NA,"Consortium of California Herbaria","UCR","UCR180462","specimen","R. G. Swinney",NA,NA,"Data from GBIF data index - original values.","2014-07-04",NA,NA,NA,NA,"US","San Gabriel Mtns. Glen Helen Regional Park, boardwalk trail SW of lake, California, San Bernardino, United States, North America",100,FALSE,FALSE
"69","Carex schottii","North America","United States","California","San Benito","e slope of Cerro Colorado along Mercy Creek Diablo Range, Las Agillas Mts., Cerro Colorado, Mercy Creek",37,-121,"804",NA,"Consortium of California Herbaria","JEPS","JEPS87020","specimen","Dean Wm. Taylor",NA,NA,"Data from GBIF data index - original values.","2014-07-04",NA,NA,NA,NA,"US","e slope of Cerro Colorado along Mercy Creek Diablo Range, Las Agillas Mts., Cerro Colorado, Mercy Creek, California, San Benito, United States, North America",100,FALSE,TRUE
"70","Carex schottii","North America","United States","California","Riverside","Santa Ana Mtns., Santa Rosa Plateau De Luz Road, 8.5 mi. west of Rancho California",33,-117,"0",NA,"Consortium of California Herbaria","UCR","UCR40555","specimen","Steve Boyd",NA,NA,"Data from GBIF data index - original values.","2014-07-04",NA,NA,NA,NA,"US","Santa Ana Mtns., Santa Rosa Plateau De Luz Road, 8.5 mi. west of Rancho California, California, Riverside, United States, North America",100,FALSE,FALSE
"74","Carex schottii","North America","United States","California","Los Angeles","San Gabriel Mountains Spring at Big Cienega, c. 0.6 mi NE of Deer Flat Campground along S Hawkins Road (FSR 3N07.2)",34,-118,"0",NA,"Consortium of California Herbaria","UCR","UCR147801","specimen","Valerie Soza, Laura Moore",NA,NA,"Data from GBIF data index - original values.","2014-07-04",NA,NA,NA,NA,"US","San Gabriel Mountains Spring at Big Cienega, c. 0.6 mi NE of Deer Flat Campground along S Hawkins Road (FSR 3N07.2), California, Los Angeles, United States, North America",100,FALSE,FALSE
"76","Carex schottii","North America","United States","California","Riverside","N OF IDYLLWILD FULLER MILL CREEK (FULLER MILL CREEK CAMPGROUND)",34,-117,"0",NA,"Consortium of California Herbaria","UCSB","UCSB18913","specimen","J. Keefe",NA,NA,"Data from GBIF data index - original values.","2014-07-04",NA,NA,NA,NA,"US","N OF IDYLLWILD FULLER MILL CREEK (FULLER MILL CREEK CAMPGROUND), California, Riverside, United States, North America",100,FALSE,FALSE
"80","Carex schottii  Dewey","North America","United States","California","Los Angeles County","Marsh at Cienega.",34.0211,-118.3272,NA,NA,"CAS","BOT","490729","specimen","Hasse, H.E.","1889-05-01","1889-05-01","Data from GBIF data index - original values.","2014-07-04",NA,NA,NA,NA,"US","Marsh at Cienega., California, Los Angeles County, United States, North America",1e-04,TRUE,TRUE
"81","Carex schottii Dewey","North America","United States","Oregon",NA,"Douglas County",43.655396,-123.7501,NA,NA,"UA","ALTA-VP COLLECTION","34652","specimen","Smith, F. H.","1943-06-20","1943-06-20","Data from GBIF data index - original values.","2014-07-04",NA,NA,NA,NA,"US","Douglas County, Oregon, United States, North America",1e-04,TRUE,TRUE
"12","Carex schottii","North America","United States","California","San Bernardino","San Gabriel Mtns. Glen Helen Regional Park, boardwalk trail SW of lake",34,-117,"0",NA,"Consortium of California Herbaria","UCR","UCR180462","specimen","R. G. Swinney",NA,NA,"Data from GBIF data index - original values.","2014-01-14",NA,NA,NA,NA,"US","San Gabriel Mtns. Glen Helen Regional Park, boardwalk trail SW of lake, California, San Bernardino, United States, North America",100,FALSE,TRUE
"141","Carex schottii","North America","United States","California","Los Angeles","Pasadena Southern California",34,-118,"0",NA,"Consortium of California Herbaria","UC","UC72397","specimen","Geo. B. Grant",NA,NA,"Data from GBIF data index - original values.","2014-01-14",NA,NA,NA,NA,"US","Pasadena Southern California, California, Los Angeles, United States, North America",100,FALSE,TRUE
"22","Carex schottii","North America","United States","California","Riverside","Santa Ana Mtns., Santa Rosa Plateau De Luz Road, 8.5 mi. west of Rancho California",33,-117,"0",NA,"Consortium of California Herbaria","UCR","UCR40555","specimen","Steve Boyd",NA,NA,"Data from GBIF data index - original values.","2014-01-14",NA,NA,NA,NA,"US","Santa Ana Mtns., Santa Rosa Plateau De Luz Road, 8.5 mi. west of Rancho California, California, Riverside, United States, North America",100,FALSE,TRUE
"661","Carex schottii","North America","United States","California","Orange","collected 0.3 km W and 2.4 km ENE, in San Juan Canyon of the Santa Ana Mountains Bench Marc 1100 and San Juan Guard Station - San Juan Canyon, State Highway 74, San Juan Guard Station an",34,-118,"12462",NA,"Consortium of California Herbaria","UCSB","UCSB57548","specimen","F. M. Roberts, Jr.",NA,NA,"Data from GBIF data index - original values.","2014-01-14",NA,NA,NA,NA,"US","collected 0.3 km W and 2.4 km ENE, in San Juan Canyon of the Santa Ana Mountains Bench Marc 1100 and San Juan Guard Station - San Juan Canyon, State Highway 74, San Juan Guard Station an, California, Orange, United States, North America",100,FALSE,FALSE
"79","Carex schottii","North America","United States","California","San Diego","\Richman Ranch, near DeLuz\",33,-117,"804",NA,"Consortium of California Herbaria","SD","SD26868","specimen","Frank F. Gander",NA,NA,"Data from GBIF data index - original values.","2014-01-14",NA,NA,NA,NA,"US","Richman Ranch, near DeLuz, California, San Diego, United States, North America",100,FALSE,FALSE
"13","Carex schottii","North America","United States","California","Riverside","N OF IDYLLWILD FULLER MILL CREEK (FULLER MILL CREEK CAMPGROUND)",34,-117,"0",NA,"Consortium of California Herbaria","UCSB","UCSB18913","specimen","J. Keefe",NA,NA,"Data from GBIF data index - original values.","2013-05-28",NA,NA,NA,NA,"US","N OF IDYLLWILD FULLER MILL CREEK (FULLER MILL CREEK CAMPGROUND), California, Riverside, United States, North America",100,FALSE,TRUE
"51","Carex schottii","North America","United States","California","Los Angeles","Oak Knoll",34,-118,"0",NA,"Consortium of California Herbaria","UC","UC56690","specimen","Ernest Braunton",NA,NA,"Data from GBIF data index - original values.","2013-05-28",NA,NA,NA,NA,"US","Oak Knoll, California, Los Angeles, United States, North America",100,FALSE,TRUE
"24","Carex schottii","North America","United States","California","San Diego","Peninsular Ranges Foothills area near Mesa Grande about Wash Tub Falls in Black Canyon, east of Black Mountain, ca. 6 miles south of junction of Mesa Grande Rd. along Black Canyon Rd.",33,-117,"0",NA,"Consortium of California Herbaria","RSA","RSA726827","specimen","Steve Boyd, Heidi Bigelow",NA,NA,"Data from GBIF data index - original values.","2013-05-28",NA,NA,NA,NA,"US","Peninsular Ranges Foothills area near Mesa Grande about Wash Tub Falls in Black Canyon, east of Black Mountain, ca. 6 miles south of junction of Mesa Grande Rd. along Black Canyon Rd., California, San Diego, United States, North America",100,FALSE,TRUE
