"","species","continent","country","adm1","adm2","locality","lat","lon","coordUncertaintyM","alt","institution","collection","catalogNumber","basisOfRecord","collector","earliestDateCollected","latestDateCollected","gbifNotes","downloadDate","maxElevationM","minElevationM","maxDepthM","minDepthM","ISO2","cloc","calc_error","precise_enough","unique_record"
"1","Carex serratodens W. Boott",NA,"United States","California",NA,"Monterey County, 12.8 km south of Arroyo Seco Campground, Los Padres National Forest, t4e, r20s",36.133335,-121.5,NA,NA,"University of British Columbia","UBC","V191083","specimen","William J. Crins, Bruce A. Bohm, Leslie R. Bohm","1986-05-01","1986-05-01","Data from GBIF data index - original values.","2014-07-04",NA,NA,NA,NA,"US","Monterey County, 12.8 km south of Arroyo Seco Campground, Los Padres National Forest, t4e, r20s, California, United States",1e-04,TRUE,TRUE
"5","Carex serratodens","North America","United States","California","Santa Barbara","FLANK OF RANGER PEAK (0.5 MI SSW OF THE FIGUEROA MOUNTAIN ROAD; 2.8 MI E OF FIGUEROA CAMP)",35,-120,"0",NA,"Consortium of California Herbaria","UCSB","UCSB44250","specimen","J. Blakley",NA,NA,"Data from GBIF data index - original values.","2014-07-04",NA,NA,NA,NA,"US","FLANK OF RANGER PEAK (0.5 MI SSW OF THE FIGUEROA MOUNTAIN ROAD; 2.8 MI E OF FIGUEROA CAMP), California, Santa Barbara, United States, North America",100,FALSE,TRUE
"6","Carex serratodens","North America","United States","California","Tehama","Inner North Coast Ranges. Pepperwood Spring; near the top of Raglin Ridge",40,-123,"0",NA,"Consortium of California Herbaria","CHSC","CHSC78917","specimen","L. P. Janeway, B. Castro",NA,NA,"Data from GBIF data index - original values.","2014-07-04",NA,NA,NA,NA,"US","Inner North Coast Ranges. Pepperwood Spring; near the top of Raglin Ridge, California, Tehama, United States, North America",100,FALSE,TRUE
"7","Carex serratodens","North America","United States","California","Colusa","s. side Snow Mt. (Summit Springs, slope below (s. of) area) - Summit Springs",39,-123,"584",NA,"Consortium of California Herbaria","JEPS","JEPS81282","specimen","L. R. Heckard and J. C. Hickman",NA,NA,"Data from GBIF data index - original values.","2014-07-04",NA,NA,NA,NA,"US","s. side Snow Mt. (Summit Springs, slope below (s. of) area) - Summit Springs, California, Colusa, United States, North America",100,FALSE,TRUE
"9","Carex serratodens","North America","United States","California","Kern","vicinity Bisses Station - Tehachapi Mts.",35,-118,"817",NA,"Consortium of California Herbaria","UC","UC204662","specimen","W. R. Dudley",NA,NA,"Data from GBIF data index - original values.","2014-07-04",NA,NA,NA,NA,"US","vicinity Bisses Station - Tehachapi Mts., California, Kern, United States, North America",100,FALSE,TRUE
"10","Carex serratodens","North America","United States","California","Siskiyou","Kangaroo Lake Rd. (USFS 41N08) 3.9 mi southeast of Gazelle-Callahan Rd. at its in-tersection with USFS 41N10",41,-123,"0",NA,"Consortium of California Herbaria","CHSC","CHSC71608","specimen","Vernon H. Oswald, Lowell Ahart",NA,NA,"Data from GBIF data index - original values.","2014-07-04",NA,NA,NA,NA,"US","Kangaroo Lake Rd. (USFS 41N08) 3.9 mi southeast of Gazelle-Callahan Rd. at its in-tersection with USFS 41N10, California, Siskiyou, United States, North America",100,FALSE,TRUE
"12","Carex serratodens","North America","United States","California","Santa Clara","above Smith Creek Dam (just back of Hotel) - Mt. Hamilton Quadrangle",37,-122,"4824",NA,"Consortium of California Herbaria","UC","UC1133330","specimen","Roy Saarni",NA,NA,"Data from GBIF data index - original values.","2014-07-04",NA,NA,NA,NA,"US","above Smith Creek Dam (just back of Hotel) - Mt. Hamilton Quadrangle, California, Santa Clara, United States, North America",100,FALSE,TRUE
"13","Carex serratodens","North America","United States","California","Monterey","Santa Lucia Mtns: 3 km due W of Coleman Reservoir, 1.5 km due NW of Milpitas Reservoir, near Forest Crk; Ft Hunter Liggett",36,-121,"1000",NA,"Consortium of California Herbaria","SBBG","SBBG113310","specimen","P. Douglas, L. Metz, E. Neese",NA,NA,"Data from GBIF data index - original values.","2014-07-04",NA,NA,NA,NA,"US","Santa Lucia Mtns: 3 km due W of Coleman Reservoir, 1.5 km due NW of Milpitas Reservoir, near Forest Crk; Ft Hunter Liggett, California, Monterey, United States, North America",100,FALSE,TRUE
"18","Carex serratodens","North America","United States","California","San Mateo","Woodside -   -",38,-122,"0",NA,"Consortium of California Herbaria","UC","UC823232","specimen","L. R. Abrams",NA,NA,"Data from GBIF data index - original values.","2014-07-04",NA,NA,NA,NA,"US","Woodside -   -, California, San Mateo, United States, North America",100,FALSE,TRUE
"20","Carex serratodens","North America","United States","California","Lake","Kanaka Glade, a spring at the head of \Spanish Creek East Fork\, near top of Pacific Ridge - - - Kanaka Glade, a spring at the head of ''Spanish Creek East Fork''; near top of Pacific Ridge.",39,-123,"0",NA,"Consortium of California Herbaria","UC","UC1730262","specimen","L. P. Janeway",NA,NA,"Data from GBIF data index - original values.","2014-07-04",NA,NA,NA,NA,"US","Kanaka Glade, a spring at the head of Spanish Creek East Fork, near top of Pacific Ridge - - - Kanaka Glade, a spring at the head of ''Spanish Creek East Fork''; near top of Pacific Ridge., California, Lake, United States, North America",100,FALSE,FALSE
"22","Carex serratodens","North America","United States","California","Santa Barbara","San Rafael Mtns: Mission Pine Spring",35,-120,"100",NA,"Consortium of California Herbaria","SBBG","SBBG49539","specimen","E. R. Blakley",NA,NA,"Data from GBIF data index - original values.","2014-07-04",NA,NA,NA,NA,"US","San Rafael Mtns: Mission Pine Spring, California, Santa Barbara, United States, North America",100,FALSE,FALSE
"25","Carex serratodens","North America","United States","California","Trinity","e of Forest Glen (Rattlesnake Road along w side of Post Creek 1.1 mi n of Highway 36) - Rattlesnake Road, Post Creek",40,-123,"576",NA,"Consortium of California Herbaria","JEPS","JEPS94844","specimen","Vernon H. Oswald and Lowell Ahart",NA,NA,"Data from GBIF data index - original values.","2014-07-04",NA,NA,NA,NA,"US","e of Forest Glen (Rattlesnake Road along w side of Post Creek 1.1 mi n of Highway 36) - Rattlesnake Road, Post Creek, California, Trinity, United States, North America",100,FALSE,FALSE
"27","Carex serratodens","North America","United States","California","Butte","Side cyn on N-side N Fk Feather River and along hwy 70 ca 5 mi E of Jarbo Gap. Site of old (probably) mining operation",40,-121,"0",NA,"Consortium of California Herbaria","CHSC","CHSC44964","specimen","L. P. Janeway, C. A. Janeway",NA,NA,"Data from GBIF data index - original values.","2014-07-04",NA,NA,NA,NA,"US","Side cyn on N-side N Fk Feather River and along hwy 70 ca 5 mi E of Jarbo Gap. Site of old (probably) mining operation, California, Butte, United States, North America",100,FALSE,FALSE
"30","Carex serratodens","North America","United States","California","Tuolumne","2 mi s Chinese Camp",38,-120,"0",NA,"Consortium of California Herbaria","UC","UC767028","specimen","R. F. Hoover",NA,NA,"Data from GBIF data index - original values.","2014-07-04",NA,NA,NA,NA,"US","2 mi s Chinese Camp, California, Tuolumne, United States, North America",100,FALSE,FALSE
"33","Carex serratodens","North America","United States","California","Monterey","Santa Lucia Mtns: Hanging Valley, Arroyo Seco Rd",36,-121,"1000",NA,"Consortium of California Herbaria","SBBG","SBBG109352","specimen","C. B. Hardham",NA,NA,"Data from GBIF data index - original values.","2014-07-04",NA,NA,NA,NA,"US","Santa Lucia Mtns: Hanging Valley, Arroyo Seco Rd, California, Monterey, United States, North America",100,FALSE,FALSE
"34","Carex serratodens","North America","United States","California","San Mateo","Woodside",38,-122,"0",NA,"Consortium of California Herbaria","JEPS","JEPS23935","specimen","Le Roy Abrams",NA,NA,"Data from GBIF data index - original values.","2014-07-04",NA,NA,NA,NA,"US","Woodside, California, San Mateo, United States, North America",100,FALSE,FALSE
"35","Carex serratodens","North America","United States","California","Lake","Kanaka Glade, a spring at the head of \Spanish Creek East Fork\; near top of Pacific Ridge",39,-123,"0",NA,"Consortium of California Herbaria","CHSC","CHSC72466","specimen","L. P. Janeway, David Isle",NA,NA,"Data from GBIF data index - original values.","2014-07-04",NA,NA,NA,NA,"US","Kanaka Glade, a spring at the head of Spanish Creek East Fork; near top of Pacific Ridge, California, Lake, United States, North America",100,FALSE,FALSE
"38","Carex serratodens","North America","United States","California","Monterey","Fort Hunter Liggett - Training Area 8, near Stony Cr., ca. 1.5 km NW of Peanut Mtn., 2.5 km N of Nacimiento-Fergusson Rd., 5.7 km NW of N shore of Lower Stony Res.",36,-121,"2973",NA,"Consortium of California Herbaria","JEPS","JEPS98087","specimen","P. Douglas, L. Metz, E. Neese",NA,NA,"Data from GBIF data index - original values.","2014-07-04",NA,NA,NA,NA,"US","Fort Hunter Liggett - Training Area 8, near Stony Cr., ca. 1.5 km NW of Peanut Mtn., 2.5 km N of Nacimiento-Fergusson Rd., 5.7 km NW of N shore of Lower Stony Res., California, Monterey, United States, North America",100,FALSE,FALSE
"40","Carex serratodens","North America","United States","California","Contra Costa","South Road Mount Diablo",38,-122,"5263",NA,"Consortium of California Herbaria","UC","UC692205","specimen","Mary L. Bowerman",NA,NA,"Data from GBIF data index - original values.","2014-07-04",NA,NA,NA,NA,"US","South Road Mount Diablo, California, Contra Costa, United States, North America",100,FALSE,FALSE
"42","Carex serratodens","North America","United States","California","Santa Clara","foothills w Los Gatos",37,-122,"1621",NA,"Consortium of California Herbaria","UC","UC823231","specimen","A. A. Heller",NA,NA,"Data from GBIF data index - original values.","2014-07-04",NA,NA,NA,NA,"US","foothills w Los Gatos, California, Santa Clara, United States, North America",100,FALSE,FALSE
"44","Carex serratodens","North America","United States","California","San Luis Obispo","Red Mountain Road NE of San Simeon.",36,-121,"0",NA,"Consortium of California Herbaria","UC","UC1873091","specimen","David Keil with V. L. Holland",NA,NA,"Data from GBIF data index - original values.","2014-07-04",NA,NA,NA,NA,"US","Red Mountain Road NE of San Simeon., California, San Luis Obispo, United States, North America",100,FALSE,FALSE
"45","Carex serratodens","North America","United States","California","Contra Costa","Elder Spring Mount Diablo",38,-122,"0",NA,"Consortium of California Herbaria","UC","UC692013","specimen","Mary L. Bowerman",NA,NA,"Data from GBIF data index - original values.","2014-07-04",NA,NA,NA,NA,"US","Elder Spring Mount Diablo, California, Contra Costa, United States, North America",100,FALSE,FALSE
"50","Carex serratodens","North America","United States","California","Lake","collected in Kanaka Glade, at the head of Spanish E-Fork near the top of the Pacific Ridge and meadow area Kanaka Glade",39,-123,"0",NA,"Consortium of California Herbaria","UCSB","UCSB63739","specimen","L. P. Janeway and David Lee",NA,NA,"Data from GBIF data index - original values.","2014-07-04",NA,NA,NA,NA,"US","collected in Kanaka Glade, at the head of Spanish E-Fork near the top of the Pacific Ridge and meadow area Kanaka Glade, California, Lake, United States, North America",100,FALSE,FALSE
"51","Carex serratodens","North America","United States","California","Colusa","Near Coyote Peak",39,-122,"0",NA,"Consortium of California Herbaria","CHSC","CHSC55605","specimen","James Jokerst",NA,NA,"Data from GBIF data index - original values.","2014-07-04",NA,NA,NA,NA,"US","Near Coyote Peak, California, Colusa, United States, North America",100,FALSE,FALSE
"53","Carex serratodens","North America","United States","California","Butte","Low in the cyn of N Fk Feather River; in seep area (ditch) along Hwy 70 immediately west of the \Pulga\ bridge over the river",40,-121,"0",NA,"Consortium of California Herbaria","CHSC","CHSC47140","specimen","Joyce Lacey, Dave Wieley",NA,NA,"Data from GBIF data index - original values.","2014-07-04",NA,NA,NA,NA,"US","Low in the cyn of N Fk Feather River; in seep area (ditch) along Hwy 70 immediately west of the Pulga bridge over the river, California, Butte, United States, North America",100,FALSE,FALSE
"56","Carex serratodens","North America","United States","California","Monterey","Santa Lucia Range, Hunter-Liggett Military Reservation, Los Burros Creek, ca. 0.4 miles upstream from the confluence with Little Burros Creek",36,-121,"0",NA,"Consortium of California Herbaria","UC","UC1736050","specimen","Dean Wm. Taylor, Vernal Yadon, Ronald Branson",NA,NA,"Data from GBIF data index - original values.","2014-07-04",NA,NA,NA,NA,"US","Santa Lucia Range, Hunter-Liggett Military Reservation, Los Burros Creek, ca. 0.4 miles upstream from the confluence with Little Burros Creek, California, Monterey, United States, North America",100,FALSE,FALSE
"57","Carex serratodens","North America","United States","California","Colusa","On the east side of an off road trail (Trail 30), about 100 yards south of Fouts Road, about 5 miles (by road) west of Stonyford",39,-123,"0",NA,"Consortium of California Herbaria","CHSC","CHSC94852","specimen","Lowell Ahart",NA,NA,"Data from GBIF data index - original values.","2014-07-04",NA,NA,NA,NA,"US","On the east side of an off road trail (Trail 30), about 100 yards south of Fouts Road, about 5 miles (by road) west of Stonyford, California, Colusa, United States, North America",100,FALSE,FALSE
"58","Carex serratodens","North America","United States","California","Marin","Tiboron Tiburon",38,-122,"1558",NA,"Consortium of California Herbaria","UC","UC835590","specimen","Lewis S. Rose",NA,NA,"Data from GBIF data index - original values.","2014-07-04",NA,NA,NA,NA,"US","Tiboron Tiburon, California, Marin, United States, North America",100,FALSE,FALSE
"59","Carex serratodens","North America","United States","California","San Benito","0.2 miles W of French Ranch, in wet area along unnamed tributary Wildcat Canyon (ca. 8 air mi E of Hollister);",37,-121,"0",NA,"Consortium of California Herbaria","UC","UC1736053","specimen","Dean Wm. Taylor",NA,NA,"Data from GBIF data index - original values.","2014-07-04",NA,NA,NA,NA,"US","0.2 miles W of French Ranch, in wet area along unnamed tributary Wildcat Canyon (ca. 8 air mi E of Hollister);, California, San Benito, United States, North America",100,FALSE,FALSE
"61","Carex serratodens","North America","United States","California","Mariposa","Yosemite National Park, Tamarack Cr., near Tamarack Cr. campground",38,-120,"0",NA,"Consortium of California Herbaria","JEPS","JEPS100608","specimen","Dean Wm. Taylor",NA,NA,"Data from GBIF data index - original values.","2014-07-04",NA,NA,NA,NA,"US","Yosemite National Park, Tamarack Cr., near Tamarack Cr. campground, California, Mariposa, United States, North America",100,FALSE,FALSE
"62","Carex serratodens","North America","United States","California","Contra Costa","Alder Creek Mount Diablo",38,-122,"0",NA,"Consortium of California Herbaria","UC","UC692014","specimen","Mary L. Bowerman",NA,NA,"Data from GBIF data index - original values.","2014-07-04",NA,NA,NA,NA,"US","Alder Creek Mount Diablo, California, Contra Costa, United States, North America",100,FALSE,FALSE
"63","Carex serratodens","North America","United States","California","Contra Costa","canyon s Arroyo del Cerro (hollow in gully near main stream) - Mount Diablo",38,-122,"2047",NA,"Consortium of California Herbaria","UC","UC691959","specimen","Mary L. Bowerman",NA,NA,"Data from GBIF data index - original values.","2014-07-04",NA,NA,NA,NA,"US","canyon s Arroyo del Cerro (hollow in gully near main stream) - Mount Diablo, California, Contra Costa, United States, North America",100,FALSE,FALSE
"64","Carex serratodens","North America","United States","California","Mendocino","5 mi s Pieta Creek - Russian River",39,-123,"1942",NA,"Consortium of California Herbaria","UC","UC1026395","specimen","Lewis S. Rose",NA,NA,"Data from GBIF data index - original values.","2014-07-04",NA,NA,NA,NA,"US","5 mi s Pieta Creek - Russian River, California, Mendocino, United States, North America",100,FALSE,FALSE
"65","Carex serratodens","North America","United States","California","Monterey","Santa Lucia Mtns: Del Venturi Rd ford of San Antonio River, ca. 1.6 km W of Milpitas Reservoir, ca. 4 air km SW of Coleman Reservoir dam; Ft. Hunter Liggett",36,-121,"1000",NA,"Consortium of California Herbaria","SBBG","SBBG113317","specimen","E. L. Painter, E Neese",NA,NA,"Data from GBIF data index - original values.","2014-07-04",NA,NA,NA,NA,"US","Santa Lucia Mtns: Del Venturi Rd ford of San Antonio River, ca. 1.6 km W of Milpitas Reservoir, ca. 4 air km SW of Coleman Reservoir dam; Ft. Hunter Liggett, California, Monterey, United States, North America",100,FALSE,FALSE
"69","Carex serratodens","North America","United States","California","Contra Costa","2 mi <West> entrance (West road, gully w of chaparral) - Mount Diablo",38,-122,"1782",NA,"Consortium of California Herbaria","UC","UC692012","specimen","Mary L. Bowerman",NA,NA,"Data from GBIF data index - original values.","2014-07-04",NA,NA,NA,NA,"US","2 mi <West> entrance (West road, gully w of chaparral) - Mount Diablo, California, Contra Costa, United States, North America",100,FALSE,FALSE
"71","Carex serratodens","North America","United States","California","Sonoma","ca. 2 mi SW of Occidental; at junction of Bittner Road and Joy Road,",38,-123,"0",NA,"Consortium of California Herbaria","JEPS","JEPS100609","specimen","Dean Wm. Taylor",NA,NA,"Data from GBIF data index - original values.","2014-07-04",NA,NA,NA,NA,"US","ca. 2 mi SW of Occidental; at junction of Bittner Road and Joy Road,, California, Sonoma, United States, North America",100,FALSE,FALSE
"73","Carex serratodens","North America","United States","California","Colusa","High North Coast Ranges. At Trough Spring; about 8.9 km southwest of Stonyford",39,-123,"0",NA,"Consortium of California Herbaria","CHSC","CHSC79853","specimen","L. P. Janeway",NA,NA,"Data from GBIF data index - original values.","2014-07-04",NA,NA,NA,NA,"US","High North Coast Ranges. At Trough Spring; about 8.9 km southwest of Stonyford, California, Colusa, United States, North America",100,FALSE,FALSE
"75","Carex serratodens","North America","United States","California","Monterey","Santa Lucia Range, Hunter-Liggett Military Reservation, Los Burros Creek, ca. 0.4 miles upstream from the confluence with Little Burros Creek",36,-121,"0",NA,"Consortium of California Herbaria","UC","UC1736046","specimen","Dean Wm. Taylor, Vernal Yadon, Ronald Branson",NA,NA,"Data from GBIF data index - original values.","2014-07-04",NA,NA,NA,NA,"US","Santa Lucia Range, Hunter-Liggett Military Reservation, Los Burros Creek, ca. 0.4 miles upstream from the confluence with Little Burros Creek, California, Monterey, United States, North America",100,FALSE,FALSE
"76","Carex serratodens","North America","United States","California","Napa","Inner North Coast Ranges. Small meadow/springs along Pocock Creek just upstream of the dirt road from Devilhead Road",39,-122,"0",NA,"Consortium of California Herbaria","CHSC","CHSC83355","specimen","L. P. Janeway, B. Castro",NA,NA,"Data from GBIF data index - original values.","2014-07-04",NA,NA,NA,NA,"US","Inner North Coast Ranges. Small meadow/springs along Pocock Creek just upstream of the dirt road from Devilhead Road, California, Napa, United States, North America",100,FALSE,FALSE
"81","Carex serratodens","North America","United States","California","Colusa","On the east side of an off road trail (Trail 30), about 100 yards south of Fouts Road, about 5 miles (by road) west of Stonyford",39,-123,"0",NA,"Consortium of California Herbaria","JEPS","JEPS110261","specimen","Lowell Ahart",NA,NA,"Data from GBIF data index - original values.","2014-07-04",NA,NA,NA,NA,"US","On the east side of an off road trail (Trail 30), about 100 yards south of Fouts Road, about 5 miles (by road) west of Stonyford, California, Colusa, United States, North America",100,FALSE,FALSE
"84","Carex serratodens","North America","United States","California","Santa Clara","near summit Mount Hamilton (w side)",37,-122,"687",NA,"Consortium of California Herbaria","UC","UC572032","specimen","C. W. and H. K. Sharsmith",NA,NA,"Data from GBIF data index - original values.","2014-07-04",NA,NA,NA,NA,"US","near summit Mount Hamilton (w side), California, Santa Clara, United States, North America",100,FALSE,FALSE
"85","Carex serratodens","North America","United States","California","Glenn","Mendocino National Forest--North Coast Ranges. Black Butte River Watershed. Bottom of Markham Ridge. Pond N of bottom of Markham Ridge. NE corner of the pond. About 1/4 mile N 28 degrees W from end of Markham Ridge; from NE corner above Salix and Alnus. NAD27 10S 0512982E 4387216N",40,-123,"0",NA,"Consortium of California Herbaria","CHSC","CHSC93136","specimen","D. Isle",NA,NA,"Data from GBIF data index - original values.","2014-07-04",NA,NA,NA,NA,"US","Mendocino National Forest--North Coast Ranges. Black Butte River Watershed. Bottom of Markham Ridge. Pond N of bottom of Markham Ridge. NE corner of the pond. About 1/4 mile N 28 degrees W from end of Markham Ridge; from NE corner above Salix and Alnus. NAD27 10S 0512982E 4387216N, California, Glenn, United States, North America",100,FALSE,FALSE
"87","Carex serratodens","North America","United States","California","Santa Barbara","San Rafael Mtns: Mission Pine",35,-120,"1000",NA,"Consortium of California Herbaria","SBBG","SBBG59289","specimen","R. Hoffmann",NA,NA,"Data from GBIF data index - original values.","2014-07-04",NA,NA,NA,NA,"US","San Rafael Mtns: Mission Pine, California, Santa Barbara, United States, North America",100,FALSE,FALSE
"90","Carex serratodens","North America","United States","California","Merced","Cottonwood Creek Wildlife Area, San Luis Reservoir, ca. 3 miles E of Pacheco Pass on Highway 152",37,-121,"804",NA,"Consortium of California Herbaria","UC","UC1736052","specimen","Dean Wm. Taylor",NA,NA,"Data from GBIF data index - original values.","2014-07-04",NA,NA,NA,NA,"US","Cottonwood Creek Wildlife Area, San Luis Reservoir, ca. 3 miles E of Pacheco Pass on Highway 152, California, Merced, United States, North America",100,FALSE,FALSE
"92","Carex serratodens","North America","United States","California","Marin","Summit of Lucas Valley Road.",38,-123,"0",NA,"Consortium of California Herbaria","CDA","CDA9481","specimen","D. G. Kelch",NA,NA,"Data from GBIF data index - original values.","2014-07-04",NA,NA,NA,NA,"US","Summit of Lucas Valley Road., California, Marin, United States, North America",100,FALSE,FALSE
"93","Carex serratodens","North America","United States","California","San Benito","spring at head of Augustine Creek",36,-121,"0",NA,"Consortium of California Herbaria","UC","UC1736048","specimen","Dean Wm. Taylor",NA,NA,"Data from GBIF data index - original values.","2014-07-04",NA,NA,NA,NA,"US","spring at head of Augustine Creek, California, San Benito, United States, North America",100,FALSE,FALSE
"94","Carex serratodens","North America","United States","California","Monterey","Santa Lucia Range, Hunter-Liggett Military Reservation, Los Burros Creek, ca. 0.4 miles upstream from the confluence with Little Burros Creek",36,-121,"0",NA,"Consortium of California Herbaria","UC","UC1736047","specimen","Dean Wm. Taylor, Vernal Yadon, Ronald Branson",NA,NA,"Data from GBIF data index - original values.","2014-07-04",NA,NA,NA,NA,"US","Santa Lucia Range, Hunter-Liggett Military Reservation, Los Burros Creek, ca. 0.4 miles upstream from the confluence with Little Burros Creek, California, Monterey, United States, North America",100,FALSE,FALSE
"98","Carex serratodens","North America","United States","California","Contra Costa","Mt. Diablo State Park. Maple Spring, which is on the North Gate Rd., approx. 1920' elev.",38,-122,"500",NA,"Consortium of California Herbaria","JEPS","JEPS105723","specimen","David Gowen",NA,NA,"Data from GBIF data index - original values.","2014-07-04",NA,NA,NA,NA,"US","Mt. Diablo State Park. Maple Spring, which is on the North Gate Rd., approx. 1920' elev., California, Contra Costa, United States, North America",100,FALSE,FALSE
"102","Carex serratodens","North America","United States","California","Santa Clara","Mt. Hamilton Range San Felipe Ranch. Occasional along creek draining out of Horse Valley immed. below outlet. ? shaded sites. Clumping perennial.",37,-122,"0",NA,"Consortium of California Herbaria","CDA","CDA13661","specimen","G. F. Hrusa, O. Pollak, T. Kan (TNC), R. Stephens",NA,NA,"Data from GBIF data index - original values.","2014-07-04",NA,NA,NA,NA,"US","Mt. Hamilton Range San Felipe Ranch. Occasional along creek draining out of Horse Valley immed. below outlet. ? shaded sites. Clumping perennial., California, Santa Clara, United States, North America",100,FALSE,FALSE
"103","Carex serratodens","North America","United States","California","Contra Costa","Indian Ceremonial Spring Mount Diablo",38,-122,"174",NA,"Consortium of California Herbaria","UC","UC691954","specimen","Mary L. Bowerman",NA,NA,"Data from GBIF data index - original values.","2014-07-04",NA,NA,NA,NA,"US","Indian Ceremonial Spring Mount Diablo, California, Contra Costa, United States, North America",100,FALSE,FALSE
"104","Carex serratodens","North America","United States","California","Lake","Alder Creek drainage Glenbrook (ca. 1.5 mi SSW of)",39,-123,"804",NA,"Consortium of California Herbaria","JEPS","JEPS97579","specimen","R. D. Stone",NA,NA,"Data from GBIF data index - original values.","2014-07-04",NA,NA,NA,NA,"US","Alder Creek drainage Glenbrook (ca. 1.5 mi SSW of), California, Lake, United States, North America",100,FALSE,FALSE
"106","Carex serratodens","North America","United States","California","Kern","vicinity Bisses Station - Tehachapi Mts.",35,-118,"817",NA,"Consortium of California Herbaria","UC","UC203903","specimen","W. R. Dudley",NA,NA,"Data from GBIF data index - original values.","2014-07-04",NA,NA,NA,NA,"US","vicinity Bisses Station - Tehachapi Mts., California, Kern, United States, North America",100,FALSE,FALSE
"109","Carex serratodens","North America","United States","California","Marin","1 mi nw Muir Woods - Tamalpais Quadrangle",38,-123,"3139",NA,"Consortium of California Herbaria","UC","UC1133444","specimen","H. S. Yates",NA,NA,"Data from GBIF data index - original values.","2014-07-04",NA,NA,NA,NA,"US","1 mi nw Muir Woods - Tamalpais Quadrangle, California, Marin, United States, North America",100,FALSE,FALSE
"113","Carex serratodens","North America","United States","California","Monterey","Santa Lucia Mtns: Los Bueyes Crk; Fort Hunter-Liggett Military Reservation",36,-121,"1000",NA,"Consortium of California Herbaria","SBBG","SBBG111249","specimen","G. F. Hrusa, P. Ward, S. Harrison, M. Andrews, S. Schoenig",NA,NA,"Data from GBIF data index - original values.","2014-07-04",NA,NA,NA,NA,"US","Santa Lucia Mtns: Los Bueyes Crk; Fort Hunter-Liggett Military Reservation, California, Monterey, United States, North America",100,FALSE,FALSE
"114","Carex serratodens","North America","United States","California","Lake","Inner North Coast Ranges Wet meadow on open, sunny serpentine, Bartlett Springs Road approx. 1 m. W of intersection of Walker Ridge Road. Clumping perennial, common here.",39,-123,"0",NA,"Consortium of California Herbaria","CDA","CDA11401","specimen","G. F. Hrusa, K. van Katwyk",NA,NA,"Data from GBIF data index - original values.","2014-07-04",NA,NA,NA,NA,"US","Inner North Coast Ranges Wet meadow on open, sunny serpentine, Bartlett Springs Road approx. 1 m. W of intersection of Walker Ridge Road. Clumping perennial, common here., California, Lake, United States, North America",100,FALSE,FALSE
"116","Carex serratodens","North America","United States","California","Napa","North Coast Biodiversity Arena Large perennial clump in dry drainage at Lake Hennessey approximately 1 mile E of Conn Dam. Serpentine area.",38,-122,"0",NA,"Consortium of California Herbaria","CDA","CDA13137","specimen","G. F. Hrusa",NA,NA,"Data from GBIF data index - original values.","2014-07-04",NA,NA,NA,NA,"US","North Coast Biodiversity Arena Large perennial clump in dry drainage at Lake Hennessey approximately 1 mile E of Conn Dam. Serpentine area., California, Napa, United States, North America",100,FALSE,FALSE
"119","Carex serratodens","North America","United States","California","San Luis Obispo","Santa Lucia Mtns: Cypress Mtn",36,-121,"1000",NA,"Consortium of California Herbaria","SBBG","SBBG110362","specimen","C. B. Hardham",NA,NA,"Data from GBIF data index - original values.","2014-07-04",NA,NA,NA,NA,"US","Santa Lucia Mtns: Cypress Mtn, California, San Luis Obispo, United States, North America",100,FALSE,FALSE
"120","Carex serratodens","North America","United States","California","Monterey","Santa Lucia Mtns: Alder Crk; T24S R5E S2",36,-121,"1000",NA,"Consortium of California Herbaria","SBBG","SBBG118717","specimen","L. C. Wheeler",NA,NA,"Data from GBIF data index - original values.","2014-07-04",NA,NA,NA,NA,"US","Santa Lucia Mtns: Alder Crk; T24S R5E S2, California, Monterey, United States, North America",100,FALSE,FALSE
"122","Carex serratodens","North America","United States","California","Colusa","Trout Creek trail, se slope of Snow Mt. Snow Mt., Trout Creek trail",39,-123,"3181",NA,"Consortium of California Herbaria","JEPS","JEPS80863","specimen","L. R. Heckard and J. C. Hickman",NA,NA,"Data from GBIF data index - original values.","2014-07-04",NA,NA,NA,NA,"US","Trout Creek trail, se slope of Snow Mt. Snow Mt., Trout Creek trail, California, Colusa, United States, North America",100,FALSE,FALSE
"123","Carex serratodens","North America","United States","California","Tehama","Patton Mill nw of Paskenta. Near Mill Creek",40,-123,"0",NA,"Consortium of California Herbaria","CHSC","CHSC43953","specimen","V. Oswald, L. Ahart",NA,NA,"Data from GBIF data index - original values.","2014-07-04",NA,NA,NA,NA,"US","Patton Mill nw of Paskenta. Near Mill Creek, California, Tehama, United States, North America",100,FALSE,FALSE
"124","Carex serratodens","North America","United States","California","Tehama","High Cascade Range. On north side of Mill Creek 1.9 km east-northeast of Black Rock and Ponderosa Way.",40,-122,"0",NA,"Consortium of California Herbaria","JEPS","JEPS102253","specimen","L. P. Janeway",NA,NA,"Data from GBIF data index - original values.","2014-07-04",NA,NA,NA,NA,"US","High Cascade Range. On north side of Mill Creek 1.9 km east-northeast of Black Rock and Ponderosa Way., California, Tehama, United States, North America",100,FALSE,FALSE
"125","Carex serratodens","North America","United States","California","Lake","5 mi s Middletown - St. Helena Creek",39,-123,"3377",NA,"Consortium of California Herbaria","UC","UC577169","specimen","Lewis S. Rose",NA,NA,"Data from GBIF data index - original values.","2014-07-04",NA,NA,NA,NA,"US","5 mi s Middletown - St. Helena Creek, California, Lake, United States, North America",100,FALSE,FALSE
"126","Carex serratodens","North America","United States","California","Contra Costa","Mt. Diablo -   -",38,-122,"5409",NA,"Consortium of California Herbaria","UC","UC823230","specimen","Lewis S. Rose",NA,NA,"Data from GBIF data index - original values.","2014-07-04",NA,NA,NA,NA,"US","Mt. Diablo -   -, California, Contra Costa, United States, North America",100,FALSE,FALSE
"129","Carex serratodens","North America","United States","California","Santa Barbara","San Rafael Mtns: Alamo Pintado Crk from 7-8 mi N of Los Olivos; base of Figueroa Mtn, Birabent Cyn",35,-120,"1000",NA,"Consortium of California Herbaria","SBBG","SBBG15527","specimen","D. E. Breedlove",NA,NA,"Data from GBIF data index - original values.","2014-07-04",NA,NA,NA,NA,"US","San Rafael Mtns: Alamo Pintado Crk from 7-8 mi N of Los Olivos; base of Figueroa Mtn, Birabent Cyn, California, Santa Barbara, United States, North America",100,FALSE,FALSE
"130","Carex serratodens","North America","United States","California","Stanislaus","near head Del Puerto Canyon",37,-121,"1037",NA,"Consortium of California Herbaria","UC","UC766936","specimen","R. F. Hoover",NA,NA,"Data from GBIF data index - original values.","2014-07-04",NA,NA,NA,NA,"US","near head Del Puerto Canyon, California, Stanislaus, United States, North America",100,FALSE,FALSE
"133","Carex serratodens","North America","United States","California","Glenn","North Coast Ranges Mendocino National Forest. Rd. 21N06D off 21N06 off Forest Rd. M3. Lower Markham Ridge at small pond site; pooled spring water, appears natural permanent wetland, +/- 2 ft. deep. Pond visible on 7.5' topo. Mixed conifer forest, burned 2003 summer. Few clumping perennials about edge of pond.",40,-123,"0",NA,"Consortium of California Herbaria","CDA","CDA17322","specimen","G. F. Hrusa",NA,NA,"Data from GBIF data index - original values.","2014-07-04",NA,NA,NA,NA,"US","North Coast Ranges Mendocino National Forest. Rd. 21N06D off 21N06 off Forest Rd. M3. Lower Markham Ridge at small pond site; pooled spring water, appears natural permanent wetland, +/- 2 ft. deep. Pond visible on 7.5' topo. Mixed conifer forest, burned 2003 summer. Few clumping perennials about edge of pond., California, Glenn, United States, North America",100,FALSE,FALSE
"136","Carex serratodens","North America","United States","California","Santa Barbara","San Rafael Mtns: Mission Pine",35,-120,"1000",NA,"Consortium of California Herbaria","SBBG","SBBG59290","specimen","R. Hoffmann",NA,NA,"Data from GBIF data index - original values.","2014-07-04",NA,NA,NA,NA,"US","San Rafael Mtns: Mission Pine, California, Santa Barbara, United States, North America",100,FALSE,FALSE
"137","Carex serratodens","North America","United States","California","Glenn","North Coast Ranges. Mendocino National Forest. Rd. 21N06D off 21N06 off Forest Rd. M3. Lower Markham Ridge at small pond site. Pond visible on 7.5' topo",40,-123,"0",NA,"Consortium of California Herbaria","CHSC","CHSC91712","specimen","G. F. Hrusa",NA,NA,"Data from GBIF data index - original values.","2014-07-04",NA,NA,NA,NA,"US","North Coast Ranges. Mendocino National Forest. Rd. 21N06D off 21N06 off Forest Rd. M3. Lower Markham Ridge at small pond site. Pond visible on 7.5' topo, California, Glenn, United States, North America",100,FALSE,FALSE
"138","Carex serratodens","North America","United States","California","Santa Cruz","Aptos Creek drainage, Cusicks Meadow (Nisene Marks State Park), S slope of Santa Rosalia Mountain, near the ridgecrest",37,-122,"0",NA,"Consortium of California Herbaria","UC","UC1736051","specimen","Dean Wm. Taylor",NA,NA,"Data from GBIF data index - original values.","2014-07-04",NA,NA,NA,NA,"US","Aptos Creek drainage, Cusicks Meadow (Nisene Marks State Park), S slope of Santa Rosalia Mountain, near the ridgecrest, California, Santa Cruz, United States, North America",100,FALSE,FALSE
"139","Carex serratodens","North America","United States","California","Nevada","Tahoe Forest -   -",39,-120,"804",NA,"Consortium of California Herbaria","UC","UC1256294","specimen","R. K. Gierisch",NA,NA,"Data from GBIF data index - original values.","2014-07-04",NA,NA,NA,NA,"US","Tahoe Forest -   -, California, Nevada, United States, North America",100,FALSE,FALSE
"140","Carex serratodens","North America","United States","California","Monterey","Santa Lucia Mtns: Alder Crk",36,-121,"1000",NA,"Consortium of California Herbaria","SBBG","SBBG109353","specimen","C. B. Hardham",NA,NA,"Data from GBIF data index - original values.","2014-07-04",NA,NA,NA,NA,"US","Santa Lucia Mtns: Alder Crk, California, Monterey, United States, North America",100,FALSE,FALSE
"141","Carex serratodens","North America","United States","California","Sonoma","Los Guilocos Valley -   -",38,-123,"3427",NA,"Consortium of California Herbaria","UC","UC70608","specimen","Bioletti",NA,NA,"Data from GBIF data index - original values.","2014-07-04",NA,NA,NA,NA,"US","Los Guilocos Valley -   -, California, Sonoma, United States, North America",100,FALSE,FALSE
"144","Carex serratodens","North America","United States","California","Santa Barbara","San Rafael Mtns: Mission Pine",35,-120,"1000",NA,"Consortium of California Herbaria","SBBG","SBBG59291","specimen","R. Hoffmann",NA,NA,"Data from GBIF data index - original values.","2014-07-04",NA,NA,NA,NA,"US","San Rafael Mtns: Mission Pine, California, Santa Barbara, United States, North America",100,FALSE,FALSE
"145","Carex serratodens","North America","United States","California","Monterey","Santa Lucia Mountains Ventana Wilderness, wet area at western end of Pine Valley, approx. 1 mile NW of Church Creek Divide.",36,-122,"0",NA,"Consortium of California Herbaria","CDA","CDA12270","specimen","G. F. Hrusa",NA,NA,"Data from GBIF data index - original values.","2014-07-04",NA,NA,NA,NA,"US","Santa Lucia Mountains Ventana Wilderness, wet area at western end of Pine Valley, approx. 1 mile NW of Church Creek Divide., California, Monterey, United States, North America",100,FALSE,FALSE
"147","Carex serratodens","North America","United States","California","El Dorado","Sierra Nevada Serpentine Flora Eldorado Hills at SE corner of Sweet Valley Rd. and Harlan Rd. Bottom of swale and along dry rocky creekbed, which flows in winter. Mostly in partial shade. Clumping mostly. Serpentine.",39,-121,"0",NA,"Consortium of California Herbaria","CDA","CDA10933","specimen","G. F. Hrusa",NA,NA,"Data from GBIF data index - original values.","2014-07-04",NA,NA,NA,NA,"US","Sierra Nevada Serpentine Flora Eldorado Hills at SE corner of Sweet Valley Rd. and Harlan Rd. Bottom of swale and along dry rocky creekbed, which flows in winter. Mostly in partial shade. Clumping mostly. Serpentine., California, El Dorado, United States, North America",100,FALSE,FALSE
"149","Carex serratodens","North America","United States","California","Lake","Elk Mt. -   -",39,-123,"3866",NA,"Consortium of California Herbaria","UC","UC618543","specimen","Alice Eastwood, John Thomas Howell",NA,NA,"Data from GBIF data index - original values.","2014-07-04",NA,NA,NA,NA,"US","Elk Mt. -   -, California, Lake, United States, North America",100,FALSE,FALSE
"151","Carex serratodens","North America","United States","California","Mendocino","Red Mts. -   -",40,-124,"7537",NA,"Consortium of California Herbaria","UC","UC8043","specimen","H. N. Bolander",NA,NA,"Data from GBIF data index - original values.","2014-07-04",NA,NA,NA,NA,"US","Red Mts. -   -, California, Mendocino, United States, North America",100,FALSE,TRUE
"155","Carex serratodens","North America","United States","California","San Mateo","Crystal Springs Lake -   -",38,-122,"5400",NA,"Consortium of California Herbaria","UC","UC143773","specimen","C. F. Baker",NA,NA,"Data from GBIF data index - original values.","2014-07-04",NA,NA,NA,NA,"US","Crystal Springs Lake -   -, California, San Mateo, United States, North America",100,FALSE,FALSE
"156","Carex serratodens","North America","United States","California","Mendocino","w Hopland (Old Yorkville Road near summit) - Snow Mt.",39,-123,"2425",NA,"Consortium of California Herbaria","JEPS","JEPS83011","specimen","Roger Raiche",NA,NA,"Data from GBIF data index - original values.","2014-07-04",NA,NA,NA,NA,"US","w Hopland (Old Yorkville Road near summit) - Snow Mt., California, Mendocino, United States, North America",100,FALSE,FALSE
"158","Carex serratodens","North America","United States","California","Santa Barbara","San Rafael Mtns: De La Guerra Springs",35,-120,"100",NA,"Consortium of California Herbaria","SBBG","SBBG42110","specimen","H. M. Pollard",NA,NA,"Data from GBIF data index - original values.","2014-07-04",NA,NA,NA,NA,"US","San Rafael Mtns: De La Guerra Springs, California, Santa Barbara, United States, North America",100,FALSE,FALSE
"160","Carex serratodens","North America","United States","California","Lake","Inner North Coast Ranges Three Peaks, 5 mi SE of Middletown near the Napa County line",39,-123,"0",NA,"Consortium of California Herbaria","UCR","UCR48633","specimen","L. F. LaPre",NA,NA,"Data from GBIF data index - original values.","2014-07-04",NA,NA,NA,NA,"US","Inner North Coast Ranges Three Peaks, 5 mi SE of Middletown near the Napa County line, California, Lake, United States, North America",100,FALSE,FALSE
"161","Carex serratodens","North America","United States","California","Tehama","High Cascade Range. On north side of Mill Creek 1.9 km east-northeast of Black Rock and Ponderosa Way",40,-122,"0",NA,"Consortium of California Herbaria","CHSC","CHSC79854","specimen","L. P. Janeway, B. Castro",NA,NA,"Data from GBIF data index - original values.","2014-07-04",NA,NA,NA,NA,"US","High Cascade Range. On north side of Mill Creek 1.9 km east-northeast of Black Rock and Ponderosa Way, California, Tehama, United States, North America",100,FALSE,FALSE
"162","Carex serratodens","North America","United States","California","Trinity","0.8 mi n of West Fork Smoky Creek (7.9 mi s of Highway 36, Forest Route 29 in Trinity National Forest) - Forest Route 29, Trinity National Forest",40,-123,"804",NA,"Consortium of California Herbaria","JEPS","JEPS95011","specimen","Vernon Oswald and Lowell Ahart",NA,NA,"Data from GBIF data index - original values.","2014-07-04",NA,NA,NA,NA,"US","0.8 mi n of West Fork Smoky Creek (7.9 mi s of Highway 36, Forest Route 29 in Trinity National Forest) - Forest Route 29, Trinity National Forest, California, Trinity, United States, North America",100,FALSE,FALSE
"163","Carex serratodens","North America","United States","California","Monterey","Santa Lucia Mtns: within 0.2 km of Nacimiento-Fergusson Rd bridge over Nacimiento River, ca. 2.75 km NNE of Chalk Pk; interface, USFS/Ft Hunter Liggett",36,-121,"1000",NA,"Consortium of California Herbaria","SBBG","SBBG113312","specimen","E. L. Painter, E Neese",NA,NA,"Data from GBIF data index - original values.","2014-07-04",NA,NA,NA,NA,"US","Santa Lucia Mtns: within 0.2 km of Nacimiento-Fergusson Rd bridge over Nacimiento River, ca. 2.75 km NNE of Chalk Pk; interface, USFS/Ft Hunter Liggett, California, Monterey, United States, North America",100,FALSE,FALSE
"164","Carex serratodens","North America","United States","California","Mariposa","ridgetop 0.3 mi w Mariposa Ranger Station (s of Highway 49 crossing of Mariposa Creek, ca. 2 air mi w of Mariposa) - Sierra Nevada, Feliciana Mtn. 7 1/2' USGS quad.(1981 edition",38,-120,"0",NA,"Consortium of California Herbaria","JEPS","JEPS88736","specimen","Dean Wm. Taylor",NA,NA,"Data from GBIF data index - original values.","2014-07-04",NA,NA,NA,NA,"US","ridgetop 0.3 mi w Mariposa Ranger Station (s of Highway 49 crossing of Mariposa Creek, ca. 2 air mi w of Mariposa) - Sierra Nevada, Feliciana Mtn. 7 1/2' USGS quad.(1981 edition, California, Mariposa, United States, North America",100,FALSE,FALSE
"165","Carex serratodens","North America","United States","California","San Bernardino","San Bernardino Mountains South Fork Meadows on the upper Santa Ana River",34,-117,"0",NA,"Consortium of California Herbaria","UCR","UCR26434","specimen","A. C. Sanders, T. P. Krantz",NA,NA,"Data from GBIF data index - original values.","2014-07-04",NA,NA,NA,NA,"US","San Bernardino Mountains South Fork Meadows on the upper Santa Ana River, California, San Bernardino, United States, North America",100,FALSE,TRUE
"166","Carex serratodens","North America","United States","California","Santa Cruz","near summit of Santa Rosalia Mountain (sw edge of Cusick Meadow, on se side of Santa Rosalia Mountain, in upper drainage of small sw-draining canyon, ca. 2.8 air km nw of Buzzard Lagoon) - Nisene Marks State Park, Cusick Meadow",37,-122,"1203",NA,"Consortium of California Herbaria","JEPS","JEPS85215","specimen","Roy E. Buck, Randall A. Morgan, Alice Harper",NA,NA,"Data from GBIF data index - original values.","2014-07-04",NA,NA,NA,NA,"US","near summit of Santa Rosalia Mountain (sw edge of Cusick Meadow, on se side of Santa Rosalia Mountain, in upper drainage of small sw-draining canyon, ca. 2.8 air km nw of Buzzard Lagoon) - Nisene Marks State Park, Cusick Meadow, California, Santa Cruz, United States, North America",100,FALSE,FALSE
"170","Carex serratodens","North America","United States","California","Glenn","High North Coast Ranges. At Valley View Spring; at southern end of Log Spring Ridge",40,-123,"0",NA,"Consortium of California Herbaria","CHSC","CHSC80089","specimen","L. P. Janeway",NA,NA,"Data from GBIF data index - original values.","2014-07-04",NA,NA,NA,NA,"US","High North Coast Ranges. At Valley View Spring; at southern end of Log Spring Ridge, California, Glenn, United States, North America",100,FALSE,FALSE
"171","Carex serratodens","North America","United States","California","Mariposa","ridgetop 0.3 mi w Mariposa Ranger Station (s of Highway 49 crossing of Mariposa Creek, ca. 2 air mi w of Mariposa) - Sierra Nevada, Feliciana Mtn. 7 1/2' USGS quad.(1981 edition",38,-120,"0",NA,"Consortium of California Herbaria","JEPS","JEPS89273","specimen","Dean Wm. Taylor",NA,NA,"Data from GBIF data index - original values.","2014-07-04",NA,NA,NA,NA,"US","ridgetop 0.3 mi w Mariposa Ranger Station (s of Highway 49 crossing of Mariposa Creek, ca. 2 air mi w of Mariposa) - Sierra Nevada, Feliciana Mtn. 7 1/2' USGS quad.(1981 edition, California, Mariposa, United States, North America",100,FALSE,FALSE
"172","Carex serratodens","North America","United States","California","Tehama","On the west side of road M2, about 9 miles west of Paskenta",40,-123,"0",NA,"Consortium of California Herbaria","CHSC","CHSC80703","specimen","Lowell Ahart",NA,NA,"Data from GBIF data index - original values.","2014-07-04",NA,NA,NA,NA,"US","On the west side of road M2, about 9 miles west of Paskenta, California, Tehama, United States, North America",100,FALSE,FALSE
"173","Carex serratodens","North America","United States","California","Colusa","about 1/2 mi ne Summit Springs (e of trail, s side Snow Mt.) - Snow Mt.",39,-123,"1082",NA,"Consortium of California Herbaria","JEPS","JEPS81328","specimen","L. R. Heckard and J. C. Hickman",NA,NA,"Data from GBIF data index - original values.","2014-07-04",NA,NA,NA,NA,"US","about 1/2 mi ne Summit Springs (e of trail, s side Snow Mt.) - Snow Mt., California, Colusa, United States, North America",100,FALSE,FALSE
"175","Carex serratodens","North America","United States","California","Monterey","South Coast Ranges SANTA LUCIA MOUNTAINS. Fort Hunter-Liggett Military Reservation. Wet creekbed of Los Bueyes Creek. Clumping perennial.",36,-121,"0",NA,"Consortium of California Herbaria","CDA","CDA14947","specimen","G. F. Hrusa, P. Ward, S. Harrison, M. Andrews, S. Schoenig",NA,NA,"Data from GBIF data index - original values.","2014-07-04",NA,NA,NA,NA,"US","South Coast Ranges SANTA LUCIA MOUNTAINS. Fort Hunter-Liggett Military Reservation. Wet creekbed of Los Bueyes Creek. Clumping perennial., California, Monterey, United States, North America",100,FALSE,FALSE
"176","Carex serratodens","North America","United States","California","Mendocino","hillslopes north of confluence Edwards Creek and Russian River, west from Highway 101 at Geysers Road exit (ca. 5 air miles N of Cloverdale), on jeep road ascending ridge",39,-123,"0",NA,"Consortium of California Herbaria","JEPS","JEPS112946","specimen","Dean Wm. Taylor, Mey Akasah",NA,NA,"Data from GBIF data index - original values.","2014-07-04",NA,NA,NA,NA,"US","hillslopes north of confluence Edwards Creek and Russian River, west from Highway 101 at Geysers Road exit (ca. 5 air miles N of Cloverdale), on jeep road ascending ridge, California, Mendocino, United States, North America",100,FALSE,FALSE
"177","Carex serratodens","North America","United States","California","San Luis Obispo","Santa Lucia Mtns: Cypress Mtn",36,-121,"1000",NA,"Consortium of California Herbaria","SBBG","SBBG109318","specimen","C. B. Hardham",NA,NA,"Data from GBIF data index - original values.","2014-07-04",NA,NA,NA,NA,"US","Santa Lucia Mtns: Cypress Mtn, California, San Luis Obispo, United States, North America",100,FALSE,FALSE
"180","Carex serratodens","North America","United States","California","Mariposa","3.4 mi n Merced River (on Hwy. 49, 6.7 mi s of Coulterville, serpentine area on tributary of Scotch Gulch)",38,-120,"804",NA,"Consortium of California Herbaria","UC","UC1563914","specimen","Barbara Ertter with Travis Columbus and Holly Forbes",NA,NA,"Data from GBIF data index - original values.","2014-07-04",NA,NA,NA,NA,"US","3.4 mi n Merced River (on Hwy. 49, 6.7 mi s of Coulterville, serpentine area on tributary of Scotch Gulch), California, Mariposa, United States, North America",100,FALSE,FALSE
"182","Carex serratodens","North America","United States","California","Monterey","Santa Lucia Mtns: near Stony Crk, ca. 1.5 km NW of Peanut Mtn, 2.5 km N of Nacimiento-Fergusson Rd; Ft Hunter Liggett",36,-121,"1000",NA,"Consortium of California Herbaria","SBBG","SBBG113315","specimen","P. Douglas, L. Metz, E. Neese",NA,NA,"Data from GBIF data index - original values.","2014-07-04",NA,NA,NA,NA,"US","Santa Lucia Mtns: near Stony Crk, ca. 1.5 km NW of Peanut Mtn, 2.5 km N of Nacimiento-Fergusson Rd; Ft Hunter Liggett, California, Monterey, United States, North America",100,FALSE,FALSE
"183","Carex serratodens","North America","United States","California","Mariposa","ridgetop 0.3 mi W of Mariposa Ranger Station, and south of Highway 49 crossing of Mariposa Creek (ca. 2 air mi W of Mariposa)",38,-120,"0",NA,"Consortium of California Herbaria","UC","UC1736049","specimen","Dean Wm. Taylor",NA,NA,"Data from GBIF data index - original values.","2014-07-04",NA,NA,NA,NA,"US","ridgetop 0.3 mi W of Mariposa Ranger Station, and south of Highway 49 crossing of Mariposa Creek (ca. 2 air mi W of Mariposa), California, Mariposa, United States, North America",100,FALSE,FALSE
"184","Carex serratodens","North America","United States","California","Calaveras","5 mi ne Copperopolis - Black Creek",38,-121,"4308",NA,"Consortium of California Herbaria","UC","UC249555","specimen","Joseph P. Tracy",NA,NA,"Data from GBIF data index - original values.","2014-07-04",NA,NA,NA,NA,"US","5 mi ne Copperopolis - Black Creek, California, Calaveras, United States, North America",100,FALSE,FALSE
"187","Carex serratodens","North America","United States","California","Fresno","Charlotte Creek -   -",37,-118,"0",NA,"Consortium of California Herbaria","UC","UC830133","specimen","Mrs. Joseph Clemens",NA,NA,"Data from GBIF data index - original values.","2014-07-04",NA,NA,NA,NA,"US","Charlotte Creek -   -, California, Fresno, United States, North America",100,FALSE,FALSE
"188","Carex serratodens","North America","United States","California","Trinity","Rattlesnake Rd. along the west side of Post Creek 1.1 mi north of Hwy. 36, east of Forest Glen",40,-123,"0",NA,"Consortium of California Herbaria","CHSC","CHSC71555","specimen","Vernon H. Oswald, Lowell Ahart",NA,NA,"Data from GBIF data index - original values.","2014-07-04",NA,NA,NA,NA,"US","Rattlesnake Rd. along the west side of Post Creek 1.1 mi north of Hwy. 36, east of Forest Glen, California, Trinity, United States, North America",100,FALSE,FALSE
"189","Carex serratodens","North America","United States","California","Tehama","On the west side of road M2, about 9 miles west of Paskenta.",40,-123,"4824",NA,"Consortium of California Herbaria","JEPS","JEPS102680","specimen","Lowell Ahart",NA,NA,"Data from GBIF data index - original values.","2014-07-04",NA,NA,NA,NA,"US","On the west side of road M2, about 9 miles west of Paskenta., California, Tehama, United States, North America",100,FALSE,FALSE
"193","Carex serratodens","North America","United States","California","San Luis Obispo","Paradise Valley, Atascadero",35,-121,"1000",NA,"Consortium of California Herbaria","SBBG","SBBG109317","specimen","C. B. Hardham",NA,NA,"Data from GBIF data index - original values.","2014-07-04",NA,NA,NA,NA,"US","Paradise Valley, Atascadero, California, San Luis Obispo, United States, North America",100,FALSE,FALSE
"194","Carex serratodens","North America","United States","California","Santa Barbara","San Rafael Mtns: Mission Pine Spring",35,-120,"100",NA,"Consortium of California Herbaria","SBBG","SBBG49362","specimen","E. R. Blakley",NA,NA,"Data from GBIF data index - original values.","2014-07-04",NA,NA,NA,NA,"US","San Rafael Mtns: Mission Pine Spring, California, Santa Barbara, United States, North America",100,FALSE,FALSE
"195","Carex serratodens","North America","United States","California","Santa Clara","Loma Prieta Peak -   -",37,-122,"658",NA,"Consortium of California Herbaria","UC","UC204193","specimen","A. D. E. Elmer",NA,NA,"Data from GBIF data index - original values.","2014-07-04",NA,NA,NA,NA,"US","Loma Prieta Peak -   -, California, Santa Clara, United States, North America",100,FALSE,FALSE
"196","Carex serratodens","North America","United States","California","Colusa","along Trout Creek trail, se side Snow Mt. Snow Mt., Trout Creek trail",39,-123,"3181",NA,"Consortium of California Herbaria","JEPS","JEPS80858","specimen","L. R. Heckard and J. C. Hickman",NA,NA,"Data from GBIF data index - original values.","2014-07-04",NA,NA,NA,NA,"US","along Trout Creek trail, se side Snow Mt. Snow Mt., Trout Creek trail, California, Colusa, United States, North America",100,FALSE,FALSE
"197","Carex serratodens","North America","United States","California","Santa Clara","Pacheco Pass -   -",37,-121,"0",NA,"Consortium of California Herbaria","UC","UC660","specimen","Bolander",NA,NA,"Data from GBIF data index - original values.","2014-07-04",NA,NA,NA,NA,"US","Pacheco Pass -   -, California, Santa Clara, United States, North America",100,FALSE,FALSE
"198","Carex serratodens","North America","United States","California","Sonoma","nr. Layton Chromite Mine (headwaters of Big Austin Creek, vicinity of \The Cedars\) - Big Austin Creek",39,-123,"732",NA,"Consortium of California Herbaria","JEPS","JEPS18140","specimen","Rimo Bacigalupi (with G. T. Robbins and Freed Hoffmann)",NA,NA,"Data from GBIF data index - original values.","2014-07-04",NA,NA,NA,NA,"US","nr. Layton Chromite Mine (headwaters of Big Austin Creek, vicinity of The Cedars) - Big Austin Creek, California, Sonoma, United States, North America",100,FALSE,FALSE
"199","Carex serratodens",NA,"United States","Arizona","Gila County","Rock Creek. Creek bottom in chaparrel. Slope: 2% N exposure.",33.7189,-111.3119,"1000.000","1128","Herbarium","ARIZ","dbsn143786","specimen","C.P. Pase",NA,NA,"Data from GBIF data index - original values.","2014-07-04",NA,"1128.000",NA,NA,"US","Rock Creek. Creek bottom in chaparrel. Slope: 2% N exposure., Arizona, Gila County, United States",0.01,TRUE,TRUE
"200","Carex serratodens",NA,"United States","Arizona","Gila County","Rock Creek, Three Bar Game Mgt. Area, Tonto N.F. On course granitic soil. Turbinella oak chaparral.",33.7226,-111.2762,"10000.000","1097","Herbarium","ARIZ","dbsn143785","specimen","C.P. Pase",NA,NA,"Data from GBIF data index - original values.","2014-07-04",NA,"1097.000",NA,NA,"US","Rock Creek, Three Bar Game Mgt. Area, Tonto N.F. On course granitic soil. Turbinella oak chaparral., Arizona, Gila County, United States",0.01,TRUE,TRUE
"201","Carex serratodens W. Boott","North America","United States","California",NA,"Marin County",37.87354,-122.45664,NA,NA,"UA","ALTA-VP COLLECTION","34651","specimen","Rose, Lewis S.","1939-05-17","1939-05-17","Data from GBIF data index - original values.","2014-07-04",NA,NA,NA,NA,"US","Marin County, California, United States, North America",0.001,TRUE,TRUE
"202","Carex serratodens","North America","United States","Oregon","Josephine","N of West Side Rd., BLM Medford Distr.",42.1766,-123.6711,"804.672","402.33","OSC","OSC","OSC178776","specimen","Peter F. Zika, Lang, Brainerd, Newhouse","1992-06-19","1992-06-19","Data from GBIF data index - original values.","2014-07-04","402.33","402.33",NA,NA,"US","N of West Side Rd., BLM Medford Distr., Oregon, Josephine, United States, North America",0.01,TRUE,TRUE
"203","Carex serratodens","North America","United States","Oregon","Jackson","1 mile N of Squaw Lake, Slickear Creek, Applegate Valley",42.0564,-123.0204,"201.168",NA,"OSC","OSC","OSC184959","specimen","R. Brock","1996-06-08","1996-06-08","Data from GBIF data index - original values.","2014-07-04",NA,NA,NA,NA,"US","1 mile N of Squaw Lake, Slickear Creek, Applegate Valley, Oregon, Jackson, United States, North America",0.001,TRUE,TRUE
"204","Carex serratodens","North America","United States","Oregon","Jackson","S. slope of Grizzly Peak.",42.2509,-122.6088,"4828.032",NA,"OSC","WILLU","WILLU6114","specimen","M.E. Peck","1913-07-17","1913-07-17","Data from GBIF data index - original values.","2014-07-04",NA,NA,NA,NA,"US","S. slope of Grizzly Peak., Oregon, Jackson, United States, North America",0.01,TRUE,TRUE
"205","Carex serratodens","North America","United States","Oregon","Douglas","S-facing damp meadow, near BLM 30-7-14 Rd.",42.9787,-123.4952,"804.672","609.6","OSC","OSC","OSC174497","specimen","P.F. Zika","1987-05-12","1987-05-12","Data from GBIF data index - original values.","2014-07-04","609.60","609.60",NA,NA,"US","S-facing damp meadow, near BLM 30-7-14 Rd., Oregon, Douglas, United States, North America",0.001,TRUE,TRUE
"206","Carex serratodens","North America","United States","Oregon","Jackson","E side of Applegate Reservoir",42.0373,-123.1202,"201.168","615","OSC","OSC","OSC185936","specimen","P.F. Zika","1991-06-10","1991-06-10","Data from GBIF data index - original values.","2014-07-04","615.00","615.00",NA,NA,"US","E side of Applegate Reservoir, Oregon, Jackson, United States, North America",0.01,TRUE,TRUE
"207","Carex serratodens","North America","United States","Oregon","Josephine","West of Illinois River, northwest of Kerby.",42.206,-123.6711,"804.672","402.33","OSC","OSC","OSC197247","specimen","Barbara Wilson","2000-06-18","2000-06-18","Data from GBIF data index - original values.","2014-07-04","402.33","402.33",NA,NA,"US","West of Illinois River, northwest of Kerby., Oregon, Josephine, United States, North America",0.1,TRUE,TRUE
"208","Carex serratodens","North America","United States","Oregon","Josephine","near base of Onion Mountain Road; 1/4 mile beyond yellow gate.",42.3304,-123.602,"804.672","496.82","OSC","OSC","OSC223108","specimen","Barbara L. Wilson, Keli Kuykendall, Maria Ulloa","2003-07-02","2003-07-02","Data from GBIF data index - original values.","2014-07-04","496.82","496.82",NA,NA,"US","near base of Onion Mountain Road; 1/4 mile beyond yellow gate., Oregon, Josephine, United States, North America",0.01,TRUE,TRUE
"209","Carex serratodens","North America","United States","Oregon","Douglas","near Roseburg",43.2167,-123.3406,"9656.064",NA,"OSC","WILLU","WILLU7050","specimen","M.E. Peck","1916-06-21","1916-06-21","Data from GBIF data index - original values.","2014-07-04",NA,NA,NA,NA,"US","near Roseburg, Oregon, Douglas, United States, North America",0.001,TRUE,TRUE
"210","Carex serratodens","North America","United States","Oregon","Jackson","Heppsie Mtn; ca. 12 airline mi. e.s.e. fo Brownsboro, s. of Hwy. 140.",42.3783,-122.5472,"402.336","883.92","OSC","OSC","OSC197170","specimen","Richard Brock","2000-06-06","2000-06-06","Data from GBIF data index - original values.","2014-07-04","883.92","883.92",NA,NA,"US","Heppsie Mtn; ca. 12 airline mi. e.s.e. fo Brownsboro, s. of Hwy. 140., Oregon, Jackson, United States, North America",0.001,TRUE,TRUE
"211","Carex serratodens","North America","United States","Oregon","Josephine","W base of Sexton Mt., below the freeway up the hill from the end of Keeta Way, N of Hugo.",42.6008,-123.3962,"804.672",NA,"OSC","ORE","ORE118000","specimen","K.L. Chambers","1974-05-09","1974-05-09","Data from GBIF data index - original values.","2014-07-04",NA,NA,NA,NA,"US","W base of Sexton Mt., below the freeway up the hill from the end of Keeta Way, N of Hugo., Oregon, Josephine, United States, North America",0.01,TRUE,TRUE
"212","Carex serratodens","NORTH AMERICA","United States","CA","Colusa County","Colusa; along Trout Creek trail, se side Snow Mt.; Snow Mt., Trout Creek trail",39.3588,-122.69559,NA,NA,"UCJEPS","JEPS","JEPS80858","fossil","L. R. Heckard",NA,NA,"Data from GBIF data index - original values.","2014-07-04",NA,NA,NA,NA,"US","Colusa; along Trout Creek trail, se side Snow Mt.; Snow Mt., Trout Creek trail, CA, Colusa County, United States, NORTH AMERICA",0.01,TRUE,TRUE
"213","Carex serratodens","NORTH AMERICA","United States","CA","Trinity County","Trinity; West Fork Smoky Creek; 0.8 mi n of; 7.9 mi s of Highway 36, Forest Route 29 in Trinity National Forest; Forest Route 29, Trinity National Forest; 29N12W26",40.3393,-123.1886,NA,NA,"UCJEPS","JEPS","JEPS95011","fossil","Vernon Oswald and Lowell Ahart",NA,NA,"Data from GBIF data index - original values.","2014-07-04",NA,NA,NA,NA,"US","Trinity; West Fork Smoky Creek; 0.8 mi n of; 7.9 mi s of Highway 36, Forest Route 29 in Trinity National Forest; Forest Route 29, Trinity National Forest; 29N12W26, CA, Trinity County, United States, NORTH AMERICA",0.01,TRUE,TRUE
"214","Carex serratodens","NORTH AMERICA","United States","CA","Colusa County","Colusa; 18N07W",39.364166,-122.634445,NA,NA,"UCJEPS","JEPS","JEPS110261","fossil","Lowell Ahart",NA,NA,"Data from GBIF data index - original values.","2014-07-04",NA,NA,NA,NA,"US","Colusa; 18N07W, CA, Colusa County, United States, NORTH AMERICA",1e-04,TRUE,TRUE
"215","Carex serratodens","NORTH AMERICA","United States","CA","Colusa County","Colusa; Summit Springs; about 1/2 mi ne; e of trail, s side Snow Mt.; Snow Mt.",39.350285,-122.74741,NA,NA,"UCJEPS","JEPS","JEPS81328","fossil","L. R. Heckard",NA,NA,"Data from GBIF data index - original values.","2014-07-04",NA,NA,NA,NA,"US","Colusa; Summit Springs; about 1/2 mi ne; e of trail, s side Snow Mt.; Snow Mt., CA, Colusa County, United States, NORTH AMERICA",1e-04,TRUE,TRUE
"216","Carex serratodens","NORTH AMERICA","United States","CA","Mendocino County","Mendocino; Pieta Creek; 5 mi s; Russian River",38.86268,-123.038155,NA,NA,"UCJEPS","UC","UC1026395","fossil","Lewis S. Rose",NA,NA,"Data from GBIF data index - original values.","2014-07-04",NA,NA,NA,NA,"US","Mendocino; Pieta Creek; 5 mi s; Russian River, CA, Mendocino County, United States, NORTH AMERICA",1e-04,TRUE,TRUE
"217","Carex serratodens","NORTH AMERICA","United States","CA","Sonoma County","Sonoma; Layton Chromite Mine; nr.; headwaters of Big Austin Creek, vicinity of \The Cedars\; Big Austin Creek",38.621716,-123.12842,NA,NA,"UCJEPS","JEPS","JEPS18140","fossil","Rimo Bacigalupi",NA,NA,"Data from GBIF data index - original values.","2014-07-04",NA,NA,NA,NA,"US","Sonoma; Layton Chromite Mine; nr.; headwaters of Big Austin Creek, vicinity of The Cedars; Big Austin Creek, CA, Sonoma County, United States, NORTH AMERICA",1e-04,TRUE,TRUE
"218","Carex serratodens","NORTH AMERICA","United States","CA","Marin County","Marin; Muir Woods; 1 mi nw; Tamalpais Quadrangle; 1N6W",37.906437,-122.59073,NA,NA,"UCJEPS","UC","UC1133444","fossil","H. S. Yates",NA,NA,"Data from GBIF data index - original values.","2014-07-04",NA,NA,NA,NA,"US","Marin; Muir Woods; 1 mi nw; Tamalpais Quadrangle; 1N6W, CA, Marin County, United States, NORTH AMERICA",1e-04,TRUE,TRUE
"219","Carex serratodens","NORTH AMERICA","United States","CA","Mendocino County","Mendocino; Hopland; w; Old Yorkville Road near summit; Snow Mt.",38.942566,-123.200134,NA,NA,"UCJEPS","JEPS","JEPS83011","fossil","Roger Raiche",NA,NA,"Data from GBIF data index - original values.","2014-07-04",NA,NA,NA,NA,"US","Mendocino; Hopland; w; Old Yorkville Road near summit; Snow Mt., CA, Mendocino County, United States, NORTH AMERICA",1e-04,TRUE,TRUE
"220","Carex serratodens","NORTH AMERICA","United States","CA","Santa Clara County","Santa Clara; Smith Creek Dam; above; just back of Hotel; Mt. Hamilton Quadrangle; 7S3E",37.3251,-121.6315,NA,NA,"UCJEPS","UC","UC1133330","fossil","Roy Saarni",NA,NA,"Data from GBIF data index - original values.","2014-07-04",NA,NA,NA,NA,"US","Santa Clara; Smith Creek Dam; above; just back of Hotel; Mt. Hamilton Quadrangle; 7S3E, CA, Santa Clara County, United States, NORTH AMERICA",0.01,TRUE,TRUE
"221","Carex serratodens","NORTH AMERICA","United States","CA","Contra Costa County","Contra Costa",37.873,-121.941,NA,NA,"UCJEPS","JEPS","JEPS105723","fossil","David Gowen",NA,NA,"Data from GBIF data index - original values.","2014-07-04",NA,NA,NA,NA,"US","Contra Costa, CA, Contra Costa County, United States, NORTH AMERICA",0.1,TRUE,TRUE
"222","Carex serratodens","NORTH AMERICA","United States","CA","Tehama County","Tehama; 24N07W",39.9374,-122.6274,NA,NA,"UCJEPS","JEPS","JEPS102680","fossil","Lowell Ahart",NA,NA,"Data from GBIF data index - original values.","2014-07-04",NA,NA,NA,NA,"US","Tehama; 24N07W, CA, Tehama County, United States, NORTH AMERICA",1e-04,TRUE,TRUE
"223","Carex serratodens","NORTH AMERICA","United States","CA","Mendocino County","Mendocino; 12N11W",38.869442,-123.06528,NA,NA,"UCJEPS","JEPS","JEPS112946","fossil","Dean Wm. Taylor, Mey Akasah",NA,NA,"Data from GBIF data index - original values.","2014-07-04",NA,NA,NA,NA,"US","Mendocino; 12N11W, CA, Mendocino County, United States, NORTH AMERICA",1e-04,TRUE,TRUE
"224","Carex serratodens","NORTH AMERICA","United States","CA","Mariposa County","Mariposa; Mariposa Ranger Station; ridgetop 0.3 mi w; s of Highway 49 crossing of Mariposa Creek, ca. 2 air mi w of Mariposa; Sierra Nevada, Feliciana Mtn. 7 1/2' USGS quad.(1981 edition",37.5,-119.98444,NA,NA,"UCJEPS","JEPS","JEPS88736","fossil","Dean Wm. Taylor",NA,NA,"Data from GBIF data index - original values.","2014-07-04",NA,NA,NA,NA,"US","Mariposa; Mariposa Ranger Station; ridgetop 0.3 mi w; s of Highway 49 crossing of Mariposa Creek, ca. 2 air mi w of Mariposa; Sierra Nevada, Feliciana Mtn. 7 1/2' USGS quad.(1981 edition, CA, Mariposa County, United States, NORTH AMERICA",10,FALSE,TRUE
"225","Carex serratodens","NORTH AMERICA","United States","CA","Santa Cruz County","Santa Cruz; summit of Santa Rosalia Mountain; near; sw edge of Cusick Meadow, on se side of Santa Rosalia Mountain, in upper drainage of small sw-draining canyon, ca. 2.8 air km nw of Buzzard Lagoon; Nisene Marks State Park, Cusick Meadow",37.064274,-121.85529,NA,NA,"UCJEPS","JEPS","JEPS85215","fossil","Roy E. Buck",NA,NA,"Data from GBIF data index - original values.","2014-07-04",NA,NA,NA,NA,"US","Santa Cruz; summit of Santa Rosalia Mountain; near; sw edge of Cusick Meadow, on se side of Santa Rosalia Mountain, in upper drainage of small sw-draining canyon, ca. 2.8 air km nw of Buzzard Lagoon; Nisene Marks State Park, Cusick Meadow, CA, Santa Cruz County, United States, NORTH AMERICA",1e-04,TRUE,TRUE
"226","Carex serratodens","NORTH AMERICA","United States","CA","Mariposa County","Mariposa; 03S20E23",37.75,-119.73333,NA,NA,"UCJEPS","JEPS","JEPS100608","fossil","Dean Wm. Taylor",NA,NA,"Data from GBIF data index - original values.","2014-07-04",NA,NA,NA,NA,"US","Mariposa; 03S20E23, CA, Mariposa County, United States, NORTH AMERICA",1,TRUE,TRUE
"227","Carex serratodens","NORTH AMERICA","United States","CA","Mariposa County","Mariposa; Mariposa Ranger Station; ridgetop 0.3 mi w; s of Highway 49 crossing of Mariposa Creek, ca. 2 air mi w of Mariposa; Sierra Nevada, Feliciana Mtn. 7 1/2' USGS quad.(1981 edition",37.5,-119.98444,NA,NA,"UCJEPS","JEPS","JEPS89273","fossil","Dean Wm. Taylor",NA,NA,"Data from GBIF data index - original values.","2014-07-04",NA,NA,NA,NA,"US","Mariposa; Mariposa Ranger Station; ridgetop 0.3 mi w; s of Highway 49 crossing of Mariposa Creek, ca. 2 air mi w of Mariposa; Sierra Nevada, Feliciana Mtn. 7 1/2' USGS quad.(1981 edition, CA, Mariposa County, United States, NORTH AMERICA",10,FALSE,FALSE
"228","Carex serratodens","NORTH AMERICA","United States","CA","San Mateo County","San Mateo",37.63056,-122.41,NA,NA,"UCJEPS","JEPS","JEPS23935","fossil","Le Roy Abrams",NA,NA,"Data from GBIF data index - original values.","2014-07-04",NA,NA,NA,NA,"US","San Mateo, CA, San Mateo County, United States, NORTH AMERICA",1e-04,TRUE,TRUE
"229","Carex serratodens","NORTH AMERICA","United States","CA","Marin County","Marin",38.046387,-122.61972,NA,NA,"UCJEPS","JEPS","JEPS113048","fossil","Dean Wm. Taylor",NA,NA,"Data from GBIF data index - original values.","2014-07-04",NA,NA,NA,NA,"US","Marin, CA, Marin County, United States, NORTH AMERICA",1e-04,TRUE,TRUE
"230","Carex serratodens","NORTH AMERICA","United States","CA","Colusa County","Colusa; Snow Mt.; s. side; Summit Springs, slope below (s. of) area; Summit Springs",39.34029,-122.75595,NA,NA,"UCJEPS","JEPS","JEPS81282","fossil","L. R. Heckard",NA,NA,"Data from GBIF data index - original values.","2014-07-04",NA,NA,NA,NA,"US","Colusa; Snow Mt.; s. side; Summit Springs, slope below (s. of) area; Summit Springs, CA, Colusa County, United States, NORTH AMERICA",1e-04,TRUE,TRUE
"231","Carex serratodens","NORTH AMERICA","United States","CA","Sonoma County","Sonoma; 06N10W04",38.3931,-122.9734,NA,NA,"UCJEPS","JEPS","JEPS100609","fossil","Dean Wm. Taylor",NA,NA,"Data from GBIF data index - original values.","2014-07-04",NA,NA,NA,NA,"US","Sonoma; 06N10W04, CA, Sonoma County, United States, NORTH AMERICA",1e-04,TRUE,TRUE
"232","Carex serratodens","NORTH AMERICA","United States","CA","Monterey County","Monterey; Fort Hunter Liggett",35.99758,-121.32358,NA,NA,"UCJEPS","JEPS","JEPS98087","fossil","P. Douglas, L. Metz, E. Neese",NA,NA,"Data from GBIF data index - original values.","2014-07-04",NA,NA,NA,NA,"US","Monterey; Fort Hunter Liggett, CA, Monterey County, United States, NORTH AMERICA",0.001,TRUE,TRUE
"233","Carex serratodens","NORTH AMERICA","United States","CA","Trinity County","Trinity; Forest Glen; e of; Rattlesnake Road along w side of Post Creek 1.1 mi n of Highway 36; Rattlesnake Road, Post Creek; 1S8E9",40.397636,-123.26852,NA,NA,"UCJEPS","JEPS","JEPS94844","fossil","Vernon H. Oswald and Lowell Ahart",NA,NA,"Data from GBIF data index - original values.","2014-07-04",NA,NA,NA,NA,"US","Trinity; Forest Glen; e of; Rattlesnake Road along w side of Post Creek 1.1 mi n of Highway 36; Rattlesnake Road, Post Creek; 1S8E9, CA, Trinity County, United States, NORTH AMERICA",1e-04,TRUE,TRUE
"234","Carex serratodens","NORTH AMERICA","United States","CA","Tehama County","Tehama; 27N02E13",40.191,-121.69,NA,NA,"UCJEPS","JEPS","JEPS102253","fossil","L. P. Janeway",NA,NA,"Data from GBIF data index - original values.","2014-07-04",NA,NA,NA,NA,"US","Tehama; 27N02E13, CA, Tehama County, United States, NORTH AMERICA",0.1,TRUE,TRUE
"235","Carex serratodens","NORTH AMERICA","United States","CA","Colusa County","Colusa; Trout Creek trail, se slope of Snow Mt.; Snow Mt., Trout Creek trail",39.3588,-122.69559,NA,NA,"UCJEPS","JEPS","JEPS80863","fossil","L. R. Heckard",NA,NA,"Data from GBIF data index - original values.","2014-07-04",NA,NA,NA,NA,"US","Colusa; Trout Creek trail, se slope of Snow Mt.; Snow Mt., Trout Creek trail, CA, Colusa County, United States, NORTH AMERICA",0.01,TRUE,FALSE
"236","Carex serratodens","NORTH AMERICA","United States","CA","Lake County","Lake; Glenbrook; Alder Creek drainage; ca. 1.5 mi SSW of; 11N8W5",38.8315,-122.7723,NA,NA,"UCJEPS","JEPS","JEPS97579","fossil","R. D. Stone",NA,NA,"Data from GBIF data index - original values.","2014-07-04",NA,NA,NA,NA,"US","Lake; Glenbrook; Alder Creek drainage; ca. 1.5 mi SSW of; 11N8W5, CA, Lake County, United States, NORTH AMERICA",0.01,TRUE,TRUE
"237","Carex serratodens  S.Watson","North America","United States","California","Lake County","Whispering Pines Quad, near Harbin Springs.",38.788055,-122.6875,NA,NA,"CAS","BOT","868063","specimen","Jokerst, James D.","1985-04-15","1985-04-15","Data from GBIF data index - original values.","2014-07-04",NA,NA,NA,NA,"US","Whispering Pines Quad, near Harbin Springs., California, Lake County, United States, North America",1e-04,TRUE,TRUE
"238","Carex serratodens  S.Watson","North America","United States","California","Marin County","Marin Municipal Water District Lands:  Mount Tamalpais. Old Stage Rd., past MMWD gate to culvert OS-12.",37.914257,-122.60372,NA,NA,"CAS","BOT","1131841","specimen","Friedel, C.; Tyson, E.; Pustova, I.; et al.","2012-05-05","2012-05-05","Data from GBIF data index - original values.","2014-07-04",NA,NA,NA,NA,"US","Marin Municipal Water District Lands:  Mount Tamalpais. Old Stage Rd., past MMWD gate to culvert OS-12., California, Marin County, United States, North America",1e-04,TRUE,TRUE
"239","Carex serratodens  S.Watson","North America","United States","California","Sonoma County","Pepperwood Ranch Natural Preserve, 3500 Franz Valley Rd.",38.566666,-122.7,NA,"250","CAS","BOT","949025","specimen","de Nevers, Gregory Clark","1987-04-25","1987-04-25","Data from GBIF data index - original values.","2014-07-04","400","100",NA,NA,"US","Pepperwood Ranch Natural Preserve, 3500 Franz Valley Rd., California, Sonoma County, United States, North America",1e-04,TRUE,TRUE
"240","Carex serratodens  S.Watson","North America","United States","California","Marin County","Mt. Tamalpais",37.9238,-122.5976,NA,NA,"CAS","BOT","175788","specimen","Eastwood, Alice","1922-06-04","1922-06-04","Data from GBIF data index - original values.","2014-07-04",NA,NA,NA,NA,"US","Mt. Tamalpais, California, Marin County, United States, North America",0.01,TRUE,TRUE
"241","Carex serratodens  S.Watson","North America","United States","California","Marin County","Tiburon.",37.878624,-122.45505,NA,NA,"CAS","BOT","246603","specimen","Howell, John Thomas","1937-07-04","1937-07-04","Data from GBIF data index - original values.","2014-07-04",NA,NA,NA,NA,"US","Tiburon., California, Marin County, United States, North America",1e-04,TRUE,TRUE
"242","Carex serratodens  S.Watson","North America","United States","California","Sonoma County","Pepperwood Ranch Natural Preserve, 3500 Franz Valley Rd.",38.566666,-122.7,NA,"250","CAS","BOT","1036583","specimen","de Nevers, Gregory Clark","1987-04-25","1987-04-25","Data from GBIF data index - original values.","2014-07-04","400","100",NA,NA,"US","Pepperwood Ranch Natural Preserve, 3500 Franz Valley Rd., California, Sonoma County, United States, North America",1e-04,TRUE,FALSE
"243","Carex serratodens  S.Watson","North America","United States","California","Marin County","Marin Municipal Water District Lands:  Mount Tamalpais. Lagunitas Rock-Springs Rd. to junction with Laurel Dell Rd., near edge of slough sedge and Potrero Meadow Trail.",37.92532,-122.60877,NA,NA,"CAS","BOT","1131885","specimen","Wrubel, E.; Castner, A.; Tyson, E.; et al.","2012-06-23","2012-06-23","Data from GBIF data index - original values.","2014-07-04",NA,NA,NA,NA,"US","Marin Municipal Water District Lands:  Mount Tamalpais. Lagunitas Rock-Springs Rd. to junction with Laurel Dell Rd., near edge of slough sedge and Potrero Meadow Trail., California, Marin County, United States, North America",0.001,TRUE,TRUE
"244","Carex serratodens  S.Watson","North America","United States","California","Colusa County","Wilbur Springs Quad, near Coyote Peak.",39.06222,-122.433334,NA,"608.6856","CAS","BOT","855424","specimen","Jokerst, James D.","1985-04-05","1985-04-05","Data from GBIF data index - original values.","2014-07-04","608.6856","608.6856",NA,NA,"US","Wilbur Springs Quad, near Coyote Peak., California, Colusa County, United States, North America",1e-04,TRUE,TRUE
"4","Carex serratodens  S.Watson","North America","United States","California","Sonoma County","Pepperwood Ranch Natural Preserve, 3500 Franz Valley Rd.",38.566666,-122.7,NA,"250","CAS","BOT","1036583","specimen","de Nevers, Gregory Clark","1987-04-25","1987-04-25","Data from GBIF data index - original values.","2014-01-14","400","100",NA,NA,"US","Pepperwood Ranch Natural Preserve, 3500 Franz Valley Rd., California, Sonoma County, United States, North America",1e-04,TRUE,TRUE
"910","Carex serratodens  S.Watson","North America","United States","California","Sonoma County","Pepperwood Ranch Natural Preserve, 3500 Franz Valley Rd.",38.566666,-122.7,NA,"250","CAS","BOT","949025","specimen","de Nevers, Gregory Clark","1987-04-25","1987-04-25","Data from GBIF data index - original values.","2014-01-14","400","100",NA,NA,"US","Pepperwood Ranch Natural Preserve, 3500 Franz Valley Rd., California, Sonoma County, United States, North America",1e-04,TRUE,FALSE
"21","Carex serratodens","North America","United States","California","Mariposa","ridgetop 0.3 mi w Mariposa Ranger Station (s of Highway 49 crossing of Mariposa Creek, ca. 2 air mi w of Mariposa) - Sierra Nevada, Feliciana Mtn. 7 1/2' USGS quad.(1981 edition",38,-120,"0",NA,"Consortium of California Herbaria","JEPS","JEPS88736","specimen","Dean Wm. Taylor",NA,NA,"Data from GBIF data index - original values.","2014-01-14",NA,NA,NA,NA,"US","ridgetop 0.3 mi w Mariposa Ranger Station (s of Highway 49 crossing of Mariposa Creek, ca. 2 air mi w of Mariposa) - Sierra Nevada, Feliciana Mtn. 7 1/2' USGS quad.(1981 edition, California, Mariposa, United States, North America",100,FALSE,TRUE
"26","Carex serratodens","North America","United States","California","Contra Costa","Alder Creek Mount Diablo",38,-122,"0",NA,"Consortium of California Herbaria","UC","UC692014","specimen","Mary L. Bowerman",NA,NA,"Data from GBIF data index - original values.","2014-01-14",NA,NA,NA,NA,"US","Alder Creek Mount Diablo, California, Contra Costa, United States, North America",100,FALSE,TRUE
"331","Carex serratodens","North America","United States","California","Marin","1 mi nw Muir Woods - Tamalpais Quadrangle",38,-123,"3139",NA,"Consortium of California Herbaria","UC","UC1133444","specimen","H. S. Yates",NA,NA,"Data from GBIF data index - original values.","2014-01-14",NA,NA,NA,NA,"US","1 mi nw Muir Woods - Tamalpais Quadrangle, California, Marin, United States, North America",100,FALSE,TRUE
"37","Carex serratodens","North America","United States","California","Monterey","Fort Hunter Liggett - Training Area 8, near Stony Cr., ca. 1.5 km NW of Peanut Mtn., 2.5 km N of Nacimiento-Fergusson Rd., 5.7 km NW of N shore of Lower Stony Res.",36,-121,"2973",NA,"Consortium of California Herbaria","JEPS","JEPS98087","specimen","P. Douglas, L. Metz, E. Neese",NA,NA,"Data from GBIF data index - original values.","2014-01-14",NA,NA,NA,NA,"US","Fort Hunter Liggett - Training Area 8, near Stony Cr., ca. 1.5 km NW of Peanut Mtn., 2.5 km N of Nacimiento-Fergusson Rd., 5.7 km NW of N shore of Lower Stony Res., California, Monterey, United States, North America",100,FALSE,TRUE
"41","Carex serratodens","North America","United States","California","Glenn","High North Coast Ranges. At Valley View Spring; at southern end of Log Spring Ridge",40,-123,"0",NA,"Consortium of California Herbaria","CHSC","CHSC80089","specimen","L. P. Janeway",NA,NA,"Data from GBIF data index - original values.","2014-01-14",NA,NA,NA,NA,"US","High North Coast Ranges. At Valley View Spring; at southern end of Log Spring Ridge, California, Glenn, United States, North America",100,FALSE,TRUE
"441","Carex serratodens","North America","United States","California","Lake","Inner North Coast Ranges Wet meadow on open, sunny serpentine, Bartlett Springs Road approx. 1 m. W of intersection of Walker Ridge Road. Clumping perennial, common here.",39,-123,"0",NA,"Consortium of California Herbaria","CDA","CDA11401","specimen","G. F. Hrusa, K. van Katwyk",NA,NA,"Data from GBIF data index - original values.","2014-01-14",NA,NA,NA,NA,"US","Inner North Coast Ranges Wet meadow on open, sunny serpentine, Bartlett Springs Road approx. 1 m. W of intersection of Walker Ridge Road. Clumping perennial, common here., California, Lake, United States, North America",100,FALSE,TRUE
"871","Carex serratodens","North America","United States","California","San Mateo","Woodside -   -",38,-122,"0",NA,"Consortium of California Herbaria","UC","UC823232","specimen","L. R. Abrams",NA,NA,"Data from GBIF data index - original values.","2014-01-14",NA,NA,NA,NA,"US","Woodside -   -, California, San Mateo, United States, North America",100,FALSE,FALSE
"96","Carex serratodens","North America","United States","California","Santa Clara","foothills w Los Gatos",37,-122,"1621",NA,"Consortium of California Herbaria","UC","UC823231","specimen","A. A. Heller",NA,NA,"Data from GBIF data index - original values.","2014-01-14",NA,NA,NA,NA,"US","foothills w Los Gatos, California, Santa Clara, United States, North America",100,FALSE,TRUE
"1021","Carex serratodens","North America","United States","California","Colusa","s. side Snow Mt. (Summit Springs, slope below (s. of) area) - Summit Springs",39,-123,"584",NA,"Consortium of California Herbaria","JEPS","JEPS81282","specimen","L. R. Heckard and J. C. Hickman",NA,NA,"Data from GBIF data index - original values.","2014-01-14",NA,NA,NA,NA,"US","s. side Snow Mt. (Summit Springs, slope below (s. of) area) - Summit Springs, California, Colusa, United States, North America",100,FALSE,FALSE
"115","Carex serratodens","North America","United States","California","Santa Clara","above Smith Creek Dam (just back of Hotel) - Mt. Hamilton Quadrangle",37,-122,"4824",NA,"Consortium of California Herbaria","UC","UC1133330","specimen","Roy Saarni",NA,NA,"Data from GBIF data index - original values.","2014-01-14",NA,NA,NA,NA,"US","above Smith Creek Dam (just back of Hotel) - Mt. Hamilton Quadrangle, California, Santa Clara, United States, North America",100,FALSE,FALSE
"1191","Carex serratodens","North America","United States","California","Monterey","Santa Lucia Mtns: 3 km due W of Coleman Reservoir, 1.5 km due NW of Milpitas Reservoir, near Forest Crk; Ft Hunter Liggett",36,-121,"1000",NA,"Consortium of California Herbaria","SBBG","SBBG113310","specimen","P. Douglas, L. Metz, E. Neese",NA,NA,"Data from GBIF data index - original values.","2014-01-14",NA,NA,NA,NA,"US","Santa Lucia Mtns: 3 km due W of Coleman Reservoir, 1.5 km due NW of Milpitas Reservoir, near Forest Crk; Ft Hunter Liggett, California, Monterey, United States, North America",100,FALSE,FALSE
"1491","Carex serratodens","North America","United States","California","Tehama","Inner North Coast Ranges. Pepperwood Spring; near the top of Raglin Ridge",40,-123,"0",NA,"Consortium of California Herbaria","CHSC","CHSC78917","specimen","L. P. Janeway, B. Castro",NA,NA,"Data from GBIF data index - original values.","2014-01-14",NA,NA,NA,NA,"US","Inner North Coast Ranges. Pepperwood Spring; near the top of Raglin Ridge, California, Tehama, United States, North America",100,FALSE,FALSE
"185","Carex serratodens","North America","United States","California","Santa Barbara","FLANK OF RANGER PEAK (0.5 MI SSW OF THE FIGUEROA MOUNTAIN ROAD; 2.8 MI E OF FIGUEROA CAMP)",35,-120,"0",NA,"Consortium of California Herbaria","UCSB","UCSB44250","specimen","J. Blakley",NA,NA,"Data from GBIF data index - original values.","2014-01-14",NA,NA,NA,NA,"US","FLANK OF RANGER PEAK (0.5 MI SSW OF THE FIGUEROA MOUNTAIN ROAD; 2.8 MI E OF FIGUEROA CAMP), California, Santa Barbara, United States, North America",100,FALSE,FALSE
"2211","Carex serratodens","NORTH AMERICA","United States","CA","Colusa County","Colusa; Trout Creek trail, se slope of Snow Mt.; Snow Mt., Trout Creek trail",39.3588,-122.69559,NA,NA,"UCJEPS","JEPS","JEPS80863","fossil","L. R. Heckard",NA,NA,"Data from GBIF data index - original values.","2014-01-14",NA,NA,NA,NA,"US","Colusa; Trout Creek trail, se slope of Snow Mt.; Snow Mt., Trout Creek trail, CA, Colusa County, United States, NORTH AMERICA",0.01,TRUE,TRUE
"2371","Carex serratodens","NORTH AMERICA","United States","CA","Colusa County","Colusa; along Trout Creek trail, se side Snow Mt.; Snow Mt., Trout Creek trail",39.3588,-122.69559,NA,NA,"UCJEPS","JEPS","JEPS80858","fossil","L. R. Heckard",NA,NA,"Data from GBIF data index - original values.","2014-01-14",NA,NA,NA,NA,"US","Colusa; along Trout Creek trail, se side Snow Mt.; Snow Mt., Trout Creek trail, CA, Colusa County, United States, NORTH AMERICA",0.01,TRUE,FALSE
"1811","Carex serratodens","North America","United States","California","Tehama","High Cascade Range. On north side of Mill Creek 1.9 km east-northeast of Black Rock and Ponderosa Way",40,-122,"0",NA,"Consortium of California Herbaria","CHSC","CHSC79854","specimen","L. P. Janeway, B. Castro",NA,NA,"Data from GBIF data index - original values.","2013-05-28",NA,NA,NA,NA,"US","High Cascade Range. On north side of Mill Creek 1.9 km east-northeast of Black Rock and Ponderosa Way, California, Tehama, United States, North America",100,FALSE,TRUE
"1910","Carex serratodens","North America","United States","California","Colusa","along Trout Creek trail, se side Snow Mt. Snow Mt., Trout Creek trail",39,-123,"3181",NA,"Consortium of California Herbaria","JEPS","JEPS80858","specimen","L. R. Heckard and J. C. Hickman",NA,NA,"Data from GBIF data index - original values.","2013-05-28",NA,NA,NA,NA,"US","along Trout Creek trail, se side Snow Mt. Snow Mt., Trout Creek trail, California, Colusa, United States, North America",100,FALSE,TRUE
"252","Carex serratodens","North America","United States","California","Santa Barbara","San Rafael Mtns: Mission Pine",35,-120,"1000",NA,"Consortium of California Herbaria","SBBG","SBBG59289","specimen","R. Hoffmann",NA,NA,"Data from GBIF data index - original values.","2013-05-28",NA,NA,NA,NA,"US","San Rafael Mtns: Mission Pine, California, Santa Barbara, United States, North America",100,FALSE,TRUE
"128","Carex serratodens","North America","United States","California","Kern","vicinity Bisses Station - Tehachapi Mts.",35,-118,"817",NA,"Consortium of California Herbaria","UC","UC203903","specimen","W. R. Dudley",NA,NA,"Data from GBIF data index - original values.","2013-05-28",NA,NA,NA,NA,"US","vicinity Bisses Station - Tehachapi Mts., California, Kern, United States, North America",100,FALSE,TRUE
"1831","Carex serratodens","North America","United States","California","Kern","vicinity Bisses Station - Tehachapi Mts.",35,-118,"817",NA,"Consortium of California Herbaria","UC","UC204662","specimen","W. R. Dudley",NA,NA,"Data from GBIF data index - original values.","2013-05-28",NA,NA,NA,NA,"US","vicinity Bisses Station - Tehachapi Mts., California, Kern, United States, North America",100,FALSE,FALSE
"2252","Carex serratodens","NORTH AMERICA","United States","CA","Mariposa County","Mariposa; Mariposa Ranger Station; ridgetop 0.3 mi w; s of Highway 49 crossing of Mariposa Creek, ca. 2 air mi w of Mariposa; Sierra Nevada, Feliciana Mtn. 7 1/2' USGS quad.(1981 edition",37.5,-119.98444,NA,NA,"UCJEPS","JEPS","JEPS89273","fossil","Dean Wm. Taylor",NA,NA,"Data from GBIF data index - original values.","2013-05-28",NA,NA,NA,NA,"US","Mariposa; Mariposa Ranger Station; ridgetop 0.3 mi w; s of Highway 49 crossing of Mariposa Creek, ca. 2 air mi w of Mariposa; Sierra Nevada, Feliciana Mtn. 7 1/2' USGS quad.(1981 edition, CA, Mariposa County, United States, NORTH AMERICA",10,FALSE,TRUE
"2322","Carex serratodens","NORTH AMERICA","United States","CA","Mariposa County","Mariposa; Mariposa Ranger Station; ridgetop 0.3 mi w; s of Highway 49 crossing of Mariposa Creek, ca. 2 air mi w of Mariposa; Sierra Nevada, Feliciana Mtn. 7 1/2' USGS quad.(1981 edition",37.5,-119.98444,NA,NA,"UCJEPS","JEPS","JEPS88736","fossil","Dean Wm. Taylor",NA,NA,"Data from GBIF data index - original values.","2013-05-28",NA,NA,NA,NA,"US","Mariposa; Mariposa Ranger Station; ridgetop 0.3 mi w; s of Highway 49 crossing of Mariposa Creek, ca. 2 air mi w of Mariposa; Sierra Nevada, Feliciana Mtn. 7 1/2' USGS quad.(1981 edition, CA, Mariposa County, United States, NORTH AMERICA",10,FALSE,FALSE
