"","species","continent","country","adm1","adm2","locality","lat","lon","coordUncertaintyM","alt","institution","collection","catalogNumber","basisOfRecord","collector","earliestDateCollected","latestDateCollected","gbifNotes","downloadDate","maxElevationM","minElevationM","maxDepthM","minDepthM","ISO2","cloc","calc_error","precise_enough","unique_record"
"1","Carex verrucosa","North America","United States","Alabama","Baldwin","Bay Minette, ca 4 mi N",30.9606,-87.8125,NA,NA,"KU","KANU","355410","unknown","Bradley D Guhr Cooper",NA,NA,"Data from GBIF data index - original values.","2014-07-04",NA,NA,NA,NA,"US","Bay Minette, ca 4 mi N, Alabama, Baldwin, United States, North America",0.01,TRUE,TRUE
"2","Carex verrucosa","North America","United States","Florida","Sumter",NA,28.458334,-82.03611,NA,NA,"FTG","Herbarium","121725","specimen","S. L. Orzell","1994-03-29","1994-03-29","Data from GBIF data index - original values.","2014-07-04",NA,NA,NA,NA,"US","Florida, Sumter, United States, North America",1e-04,TRUE,TRUE
"3","Carex verrucosa","North America","United States","Florida","Collier","Picayune Strand State Forest",26.05434,-81.57398,NA,NA,"FTG","Herbarium","138669","specimen","S. W. Woodmansee","2005-09-03","2005-09-03","Data from GBIF data index - original values.","2014-07-04",NA,NA,NA,NA,"US","Picayune Strand State Forest, Florida, Collier, United States, North America",0.001,TRUE,TRUE
"4","Carex verrucosa Muhl.","North America","United States","Mississippi","Jackson","Ocean Springs.",30.41,-88.78,NA,NA,"MO","Tropicos","2808383","specimen","Charles Louis Pollard","1896-07-30","1896-07-30","Data from GBIF data index - original values.","2014-07-04",NA,NA,NA,NA,"US","Ocean Springs., Mississippi, Jackson, United States, North America",1,TRUE,TRUE
"5","Carex verrucosa Muhl.","North America","United States","Texas","Hardin","Large graminoid dominated flatwoods pond, 0.3 mi S of dirt rd, 2.1 mi E of end of FR 420, 5.8 mi E of US 69, Kountze North 7.5' Quad., Hut Pond. Geology-Bentley Formation (Quaternary).",30.45,-94.31,NA,"27.5","MO","Tropicos","2810313","specimen","Steve L. Orzell & Edwin L. Bridges","1987-04-16","1987-04-16","Data from GBIF data index - original values.","2014-07-04","28","27",NA,NA,"US","Large graminoid dominated flatwoods pond, 0.3 mi S of dirt rd, 2.1 mi E of end of FR 420, 5.8 mi E of US 69, Kountze North 7.5' Quad., Hut Pond. Geology-Bentley Formation (Quaternary)., Texas, Hardin, United States, North America",1,TRUE,TRUE
"6","Carex verrucosa Muhl.","North America","United States","Florida","Columbia","Lake City.",30.19,-82.64,NA,NA,"MO","Tropicos","2810402","specimen","Geo. V. Nash","1895-07-11","1895-07-11","Data from GBIF data index - original values.","2014-07-04",NA,NA,NA,NA,"US","Lake City., Florida, Columbia, United States, North America",1,TRUE,TRUE
"7","Carex verrucosa Muhl.","North America","United States","South Carolina","Barnwell","Savannah River Site; Sarrencia Bay. Edge of Carolina Bay wetland.",33.29,-81.41,NA,NA,"MO","Tropicos","2808169","specimen","Philip E. Hyatt","1993-09-16","1993-09-16","Data from GBIF data index - original values.","2014-07-04",NA,NA,NA,NA,"US","Savannah River Site; Sarrencia Bay. Edge of Carolina Bay wetland., South Carolina, Barnwell, United States, North America",1,TRUE,TRUE
"8","Carex verrucosa Muhl.","North America","United States","Mississippi",NA,"Ocean Springs.",30.41,-88.78,NA,NA,"MO","Tropicos","2808410","specimen","F.S. Earle",NA,NA,"Data from GBIF data index - original values.","2014-07-04",NA,NA,NA,NA,"US","Ocean Springs., Mississippi, United States, North America",1,TRUE,FALSE
"12","Carex verrucosa Muhl.",NA,"United States","Virginia","Virginia Beach City","Munden",36.57805,-76.03583,"5000",NA,"UConn","CONN","CONN00098456","specimen","Kenneth K. MacKenzie","1905-09-03","1905-09-03","Data from GBIF data index - original values.","2014-07-04",NA,NA,NA,NA,"US","Munden, Virginia, Virginia Beach City, United States",1e-04,TRUE,TRUE
"13","Carex verrucosa Muhl.",NA,"United States","Florida","Duval County","Jacksonville",30.33694,-81.66027,"5000","10","UConn","CONN","CONN00098455","specimen","A.H. Curtiss","1898-10-27","1898-10-27","Data from GBIF data index - original values.","2014-07-04","10","10",NA,NA,"US","Jacksonville, Florida, Duval County, United States",0.001,TRUE,TRUE
"61","Carex verrucosa Muhl.","North America","United States","Mississippi",NA,"Ocean Springs.",30.41,-88.78,NA,NA,"MO","Tropicos","2808410","specimen","F.S. Earle",NA,NA,"Data from GBIF data index - original values.","2014-01-14",NA,NA,NA,NA,"US","Ocean Springs., Mississippi, United States, North America",1,TRUE,TRUE
"9","Carex verrucosa Muhl.","North America","United States","Mississippi","Jackson","Ocean Springs.",30.41,-88.78,NA,NA,"MO","Tropicos","2808383","specimen","Charles Louis Pollard","1896-07-30","1896-07-30","Data from GBIF data index - original values.","2014-01-14",NA,NA,NA,NA,"US","Ocean Springs., Mississippi, Jackson, United States, North America",1,TRUE,FALSE
