"","catalogNumber","lat","lon","bio1","bio2","bio3","bio4","bio5","bio6","bio7","bio8","bio9","bio10","bio11","bio12","bio13","bio14","bio15","bio16","bio17","bio18","bio19"
"1","321986",37.8895,-119.3398,26,128,44,5682,191,-96,287,-24,102,103,-36,714,121,17,65,327,54,62,314
"2","292221",37.4201,-118.7617,2,116,42,5441,159,-113,272,-52,75,77,-57,661,108,18,57,289,65,77,279
"3","332922",37.4149,-118.7708,-8,111,41,5324,145,-122,267,-58,63,66,-66,749,122,20,58,327,73,86,318
"4","322126",37.845108,-119.371254,26,128,44,5682,191,-96,287,-24,102,103,-36,714,121,17,65,327,54,62,314
"5","315084",37.4355,-118.7468,10,120,43,5581,172,-107,279,-47,85,87,-51,578,95,17,56,251,61,71,242
"6","342343",37.130726,-118.50939,-5,111,41,5369,149,-119,268,-57,38,69,-63,710,116,18,57,309,71,87,302
"7","859199",37.5285,-118.8864,6,119,43,5490,165,-110,275,-50,80,81,-54,648,107,18,58,284,63,74,274
"8","342342",37.13719,-118.51639,-5,111,41,5369,149,-119,268,-57,38,69,-63,710,116,18,57,309,71,87,302
"10","281450",36.7236,-118.4454,2,109,41,5320,154,-111,265,-49,45,75,-56,749,125,16,61,336,66,83,331
"11","459026",33.8058,-116.7789,128,160,49,5912,312,-10,322,65,180,208,61,592,102,3,73,295,33,54,286
"13","38054",44.56714,-64.30933,65,92,28,8010,227,-93,320,-9,138,165,-39,1332,146,87,18,422,273,275,394
"14","16818",44.27444,-65.13639,62,82,28,7257,207,-83,290,-3,126,151,-32,1342,150,85,19,435,268,277,408
"15","25073",46.396946,-61.074722,51,86,25,8246,225,-109,334,-17,126,157,-53,1336,151,85,19,429,273,284,336
"16","25394",46.338764,-60.528492,50,82,25,8127,220,-104,324,-17,121,155,-51,1420,158,89,18,453,289,301,368
"17","ECS022748",46.733334,-71.28333,47,100,24,10710,255,-161,416,180,-32,180,-98,1107,116,71,18,338,215,338,260
"18","41940",45.42904,-64.27286,54,101,28,8920,240,-119,359,-30,91,167,-62,1225,127,88,13,370,269,276,348
"21","25165",47.000916,-60.493256,47,71,23,7763,204,-96,300,-15,110,150,-49,1326,146,85,17,418,274,290,335
"22","15065",45.11074,-64.43293,64,103,28,8749,250,-107,357,-19,149,175,-50,1190,126,84,15,366,257,263,345
"23","50339",45.94528,-66.666664,53,109,27,9917,252,-146,398,8,-23,177,-81,1089,111,79,11,312,239,266,282
"24","35093",46.88284,-60.50103,47,74,23,7925,210,-100,310,-17,114,151,-51,1337,148,85,18,424,274,290,340
"26","ECS016526",45.14083,-63.381287,62,102,29,8540,241,-109,350,-18,141,169,-49,1289,139,88,16,401,276,283,373
"27","ECS021737",44.871937,-64.73053,59,98,28,8590,239,-108,347,-22,142,168,-53,1310,140,90,16,408,276,282,382
"28","CBU4043",46.15,-60.25,57,82,25,7967,222,-95,317,-9,124,160,-42,1448,157,89,17,456,291,302,386
"29","59239",46.76959,-60.813293,42,76,23,8082,209,-110,319,-24,113,147,-59,1353,151,86,18,430,277,293,343
"30","19149",47.163315,-67.924614,33,113,26,10650,240,-187,427,153,-47,165,-112,976,105,59,18,299,187,292,209
"32","35092",46.766262,-60.6863,39,75,23,8072,205,-112,317,-27,109,144,-62,1392,155,89,18,440,286,302,352
"33","28211",46.666668,-60.949165,46,79,24,8148,216,-109,325,-20,118,151,-56,1319,147,84,18,420,270,286,333
"35","54199",47.4333,-68.3833,30,109,25,10608,236,-186,422,149,-51,161,-114,1031,106,67,14,304,210,298,237
"36","ECS015625",46.74325,-60.917755,46,79,24,8148,216,-109,325,-20,118,151,-56,1319,147,84,18,420,270,286,333
"37","71436",45.416668,-74.03333,62,104,25,10666,264,-149,413,181,-70,192,-83,931,96,61,13,268,195,265,211
"38","ECS015626",46.716667,-60.915833,38,76,23,8166,206,-116,322,-29,110,143,-64,1391,155,89,18,441,285,296,351
"39","28208",46.67221,-60.9606,46,79,24,8148,216,-109,325,-20,118,151,-56,1319,147,84,18,420,270,286,333
"40","ECS015624",46.725613,-60.92581,46,79,24,8148,216,-109,325,-20,118,151,-56,1319,147,84,18,420,270,286,333
"41","ECS012713",43.544537,-65.50802,63,61,26,5730,170,-57,227,17,103,133,-13,1274,140,75,20,414,249,257,362
"42","ECS016397",45.875538,-60.043533,55,76,25,7675,212,-91,303,-8,116,156,-40,1522,161,96,15,463,316,322,398
"43","41936",46.52212,-60.417152,45,79,24,8070,213,-107,320,-21,114,149,-56,1439,159,91,18,456,293,308,372
"44","ECS016834",45.378162,-63.91279,59,101,28,8818,243,-114,357,-24,143,170,-56,1231,130,86,15,379,266,272,355
"45","ECS024788",45.706112,-63.930557,56,98,27,8905,238,-118,356,-28,91,168,-60,1168,120,85,13,351,258,267,328
"48","V225008",49.008335,-118.33833,57,122,34,8118,261,-97,358,-40,116,162,-46,509,61,29,23,164,99,122,150
"49","V145966",52.75,-125.25,-12,121,36,7279,162,-174,336,-97,-22,80,-105,517,60,24,24,169,88,136,153
"50","V206980",49.083332,-119.583336,66,120,33,8259,266,-96,362,-34,127,171,-41,304,37,17,22,94,62,81,89
"51","V174522",48.45,-90.7,20,125,26,11603,242,-226,468,160,-140,160,-140,718,98,24,44,283,87,283,87
"52","V90254",62.083332,-127.583336,-81,104,23,11899,148,-297,445,72,-158,72,-229,568,87,30,37,223,96,223,99
"53","V158457",63.466667,-40.866665,-1,66,31,5255,117,-94,211,-51,53,69,-61,1203,121,70,17,355,225,233,332
"54","V215725",49.283333,-119.51667,83,116,33,8098,280,-70,350,166,39,188,-21,294,32,16,21,86,60,83,81
"55","V122231",60.133335,-44.75,-7,59,29,4885,102,-97,199,-3,43,58,-64,1550,159,106,12,446,327,349,408
"56","V149205",53.016666,-121.86667,15,119,34,7874,197,-153,350,-81,11,114,-87,877,89,49,15,253,173,244,240
"57","V122230",60.116665,-44.333332,6,60,31,4616,111,-80,191,12,52,67,-48,1611,165,108,13,458,330,349,438
"60","V230839",49.149445,-121.59472,50,90,33,6155,200,-66,266,-21,129,129,-26,1453,220,46,50,638,157,157,583
"61","V170444",51.733334,-120.01667,45,114,30,8317,239,-132,371,-56,1,149,-65,586,62,31,19,173,106,166,159
"63","V159065",63.383335,-41.4,-6,65,30,5356,114,-100,214,-57,50,66,-67,1237,125,73,17,362,235,244,336
"65","V210598",59.966667,-128.5,-34,120,22,13996,209,-318,527,129,-98,129,-228,445,60,18,32,158,65,158,92
"66","V129743",62.066666,-49.333332,-24,58,28,5083,82,-120,202,-18,-38,43,-83,1045,108,65,16,310,211,270,235
"67","V127735",60.333332,-44.283333,14,63,32,4713,121,-75,196,20,61,76,-41,1469,153,100,13,418,304,325,396
"71","41076",66.06,-137.3,-72,104,21,13972,192,-299,491,115,-171,115,-233,320,50,12,49,140,41,140,51
"72","45047",62.45,-144.9,-30,124,26,12395,209,-259,468,124,-90,124,-189,307,55,7,58,144,31,144,50
"73","84569",62.87,-150.37,-31,93,25,10042,172,-200,372,86,-39,104,-150,630,102,26,47,275,88,248,111
"74","41082",62.55,-131.35,-58,133,25,13647,197,-330,527,109,-125,109,-237,354,59,15,42,144,51,144,64
"75","18057",60.78,-133.08,-29,121,25,11650,197,-271,468,96,-87,111,-187,319,50,9,42,129,40,123,61
"76","50097",67.25,-155.04,-98,104,20,14603,164,-336,500,70,-116,93,-277,321,70,12,60,152,48,146,49
"77","84976",63.38,-145.74,-51,119,25,12898,195,-278,473,113,-120,113,-213,263,61,5,85,158,20,158,28
"80","41083",63.91,-138.38,-50,109,21,13953,209,-300,509,122,-127,122,-234,344,52,14,41,140,47,140,62
"81","MT00013865",48.54451,-88.75997,22,117,25,11177,239,-216,455,148,-58,157,-132,739,86,31,29,249,118,245,125
"82","MT00106356",53.783333,-65.4,-41,105,22,12279,186,-281,467,101,-134,112,-207,808,106,40,31,291,136,284,147
"83","MT00013867",48.77022,-87.11295,14,103,25,10493,200,-210,410,100,-63,137,-131,801,95,39,27,262,131,249,155
"84","MT00172974",48.183334,-79.23333,14,114,24,12002,236,-232,468,146,-76,159,-150,883,105,43,28,303,147,295,158
"85","MT00173100",59.366665,-97.76667,-80,96,18,14728,182,-340,522,96,-258,104,-270,414,67,14,50,181,46,171,49
"89","MT00173059",48.45,-90.48333,19,126,27,11395,238,-225,463,157,-137,157,-137,722,96,25,42,279,91,279,91
"90","MT00173045",49.75,-88.916664,5,131,26,12330,244,-259,503,153,-148,153,-165,732,88,31,32,258,112,258,115
"91","MT00173005",48.666668,-79.416664,11,115,24,12287,239,-238,477,148,-83,161,-156,845,105,37,32,299,132,289,142
"94","MT00028146",49.78472,-57.70139,16,77,23,8301,181,-147,328,-12,-12,122,-88,1199,124,66,17,352,231,312,284
"96","MT00173109",57.083332,-103.76667,-26,106,21,13866,216,-288,504,143,-187,143,-214,510,83,19,48,218,65,218,68
"97","MT00006534",46.733334,-71.416664,47,100,24,10725,254,-162,416,179,-33,179,-99,1107,116,71,17,337,215,337,259
"99","MT00173105",58.216667,-101.25,-55,97,18,14826,201,-328,529,115,-233,129,-251,435,71,14,50,188,50,182,55
"100","MT00172936",48.816666,-78.5,8,114,24,12079,231,-238,469,140,-81,153,-158,884,109,37,33,318,134,310,147
"101","MT00013864",48.78767,-86.62834,12,103,25,10438,195,-213,408,99,-65,134,-132,820,95,44,22,257,146,247,164
"102","MT00172880",63.916668,-138.38333,-49,108,21,13994,211,-299,510,124,-127,124,-233,350,52,14,40,140,47,140,64
"105","MT00173104",59.716667,-100.13333,-77,96,18,15147,188,-345,533,102,-261,114,-272,367,64,10,56,168,37,157,40
"106","MT00172937",48.816666,-78.333336,7,113,24,12065,231,-238,469,140,-81,152,-159,889,110,38,33,320,135,311,149
"107","MT00173054",48.366665,-90.65,22,126,27,11407,242,-221,463,160,-134,160,-134,715,97,24,44,280,86,280,86
"108","MT00173082",48.75,-87.25,18,102,25,10390,204,-203,407,103,-59,140,-125,791,93,38,26,257,130,245,152
"110","MT00173052",48.366665,-89.583336,23,125,26,11313,246,-218,464,151,-115,161,-131,721,87,29,31,250,113,248,113
"114","MT00173040",48.883335,-89.916664,6,129,26,11949,238,-246,484,151,-158,151,-158,757,92,32,34,273,113,273,113
"118","MT00173066",49.766666,-87.76667,0,125,25,12283,234,-265,499,147,-87,147,-170,796,94,33,32,267,113,267,143
"119","MT00172904",46.333332,-74.5,27,107,25,10854,231,-194,425,160,-52,160,-121,1111,108,71,14,319,222,319,255
"121","MT00172881",63.55,-115.916664,-66,102,18,16025,213,-347,560,116,-187,137,-272,266,43,10,43,108,35,103,49
"122","MT00013866",45.57162,-78.44968,36,113,26,10639,241,-180,421,154,-44,164,-110,945,94,60,15,272,187,266,206
"123","MT00172959",51.15,-63,-22,96,23,10452,176,-230,406,61,-102,110,-162,1065,110,56,20,321,191,311,219
"124","MT00106128",53.425,-59.25,-30,86,22,9977,163,-225,388,92,-161,95,-161,1127,116,73,16,345,244,330,244
"127","MT00173049",48.616665,-86.316666,16,103,25,10251,198,-206,404,103,-61,136,-125,820,94,47,20,252,154,239,169
"128","MT00020561",47.450554,-72.76639,33,116,25,11365,250,-200,450,159,-48,171,-124,983,116,60,21,318,186,312,213
"130","MT00173050",48.85,-89.916664,6,129,26,11949,238,-246,484,151,-158,151,-158,757,92,32,34,273,113,273,113
"131","MT00106066",53.366665,-60.45,-3,103,23,10857,211,-219,430,133,-88,133,-148,945,109,59,19,299,191,299,204
"132","MT00039396",46.65,-73.88333,26,116,26,10946,236,-201,437,158,-55,158,-125,1092,107,71,15,318,216,318,252
"134","MT00173106",57.816666,-101.46667,-48,99,18,14758,205,-324,529,119,-226,134,-245,446,71,14,49,190,52,185,58
"136","MT00173044",49.333332,-88.933334,8,126,25,12091,243,-250,493,155,-141,155,-158,749,87,32,30,256,119,256,120
"142","MT00173108",58.208332,-103.708336,-39,94,19,13915,202,-289,491,132,-225,132,-225,520,91,17,50,225,63,225,63
"143","MT00099336",49.433334,-57.933334,26,79,24,8271,193,-136,329,-2,-2,132,-78,1192,125,65,18,360,225,300,286
"146","QFA0456569",46.998333,-70.90639,45,98,23,10666,251,-160,411,177,-35,177,-99,1060,113,67,18,328,204,328,245
"147","QFA0101042",51.583332,-67.416664,-34,106,23,11850,185,-273,458,102,-120,114,-195,1078,126,55,24,355,192,345,214
"148","QFA0456567",46.933056,-70.91167,45,98,23,10666,251,-160,411,177,-35,177,-99,1060,113,67,18,328,204,328,245
"150","QFA0257883",51.88333,-61.533333,-21,98,23,10539,180,-234,414,104,-103,111,-162,1092,112,64,18,327,210,320,228
"151","QFA0187043",46.783333,-71.275,47,99,23,10716,256,-160,416,180,-32,180,-97,1114,117,72,18,339,216,339,264
"152","QFA0183265",46.783054,-71.26806,47,99,23,10716,256,-160,416,180,-32,180,-97,1114,117,72,18,339,216,339,264
"153","QFA0187519",46.779446,-71.27278,47,99,23,10716,256,-160,416,180,-32,180,-97,1114,117,72,18,339,216,339,264
"154","QFA0450777",52.783333,-67.083336,-40,102,22,12170,180,-279,459,99,-131,111,-205,934,118,46,27,323,162,312,177
"156","QFA0393400",53.166668,-78.166664,-30,101,21,12469,185,-279,464,109,-134,116,-201,654,93,20,44,252,77,224,92
"158","QFA0418037",48.14722,-69.245834,32,92,23,10207,229,-166,395,149,-46,159,-106,942,94,63,12,270,197,261,221
"159","QFA0097657",48.142223,-69.25,32,92,23,10207,229,-166,395,149,-46,159,-106,942,94,63,12,270,197,261,221
"162","QFA0536884",48.359722,-70.943054,26,108,24,11430,242,-204,446,153,-58,166,-131,942,119,52,26,321,157,315,195
"163","QFA0237600",51.74389,-67.5825,-31,105,22,11891,188,-270,458,105,-174,118,-192,1052,126,53,25,352,187,341,204
"164","QFA0456566",46.971943,-70.874725,45,98,23,10666,251,-160,411,177,-35,177,-99,1060,113,67,18,328,204,328,245
"166","QFA0329514",50.28889,-64.022224,13,89,24,9329,188,-178,366,89,-62,129,-112,985,101,48,20,298,173,278,204
"167","QFA0417722",47.697224,-70.59028,3,94,22,10924,208,-207,415,126,-80,139,-145,1229,132,72,19,384,230,378,259
"169","QFA0186630",46.775,-71.27611,47,99,23,10716,256,-160,416,180,-32,180,-97,1114,117,72,18,339,216,339,264
"171","QFA0187046",46.78361,-71.26861,47,99,23,10716,256,-160,416,180,-32,180,-97,1114,117,72,18,339,216,339,264
"172","QFA0456565",46.966946,-70.86667,45,98,23,10666,251,-160,411,177,-35,177,-99,1060,113,67,18,328,204,328,245
"173","QFA0533642",48.59722,-70.842224,3,105,23,11456,218,-226,444,130,-81,144,-154,1076,130,58,25,360,182,352,214
"174","QFA0466547",52.533333,-67.433334,-39,101,22,12150,181,-278,459,100,-186,112,-204,983,124,49,27,340,172,328,185
"175","QFA0237857",46.775276,-71.27556,47,99,23,10716,256,-160,416,180,-32,180,-97,1114,117,72,18,339,216,339,264
"176","QFA0112875",50.083332,-68.71667,-4,118,25,11300,214,-243,457,123,-87,135,-160,955,106,56,21,307,170,299,208
"177","QFA0456568",46.92278,-70.99834,45,98,23,10687,251,-160,411,177,-35,177,-100,1075,115,68,18,333,207,333,249
"178","QFA0547569",48.493107,-64.16871,36,82,23,9216,213,-142,355,1,-41,152,-85,1068,110,70,11,305,245,265,273
"180","75546",35.806244,-106.6252,63,163,43,7268,258,-113,371,151,98,158,-29,522,85,28,42,213,87,195,105
"181","TRTE0008280",52.153,-93.447,-8,110,21,13421,231,-275,506,154,-168,154,-193,622,88,21,46,259,79,259,80
"182","207991",45.2989,-113.611,-3,161,41,7726,215,-172,387,30,-86,98,-99,431,56,23,26,144,85,130,86
"183","22300",54.948334,-95.26556,-25,106,20,14176,223,-294,517,147,-192,147,-219,505,79,16,48,214,58,214,62
"187","55700",56.249443,-101.00806,-31,114,21,14150,220,-305,525,141,-127,141,-222,501,74,16,49,214,59,214,74
"188","26000",53.82611,-101.16583,0,111,21,13501,243,-262,505,164,-160,164,-184,456,70,15,50,198,54,198,54
"189","22298",58.883335,-96.583336,-75,98,18,14515,184,-334,518,97,-251,105,-264,428,65,15,48,181,49,174,51
"190","22311",57.95,-101.6,-49,97,18,14785,204,-325,529,119,-227,133,-246,438,70,14,49,186,51,181,58
"191","56470",54.91111,-100.73917,-13,106,20,13748,230,-276,506,155,-176,155,-199,487,74,17,51,211,58,211,63
"194","69098",49.76611,-95.228615,20,106,21,12946,251,-236,487,176,-158,176,-158,565,89,18,51,247,65,247,65
"195","33194",53.825,-101.253334,1,111,21,13494,243,-262,505,165,-159,165,-183,454,71,15,51,198,54,198,54
"197","70818",50.439445,-95.22305,16,106,21,13064,249,-243,492,173,-164,173,-164,564,87,19,48,240,69,240,69
"198","57363",54.914165,-100.56695,-13,107,21,13800,230,-278,508,155,-177,155,-200,485,74,17,52,212,57,212,62
"200","55002",51.135,-96.024,13,113,22,13245,249,-254,503,171,-170,171,-170,544,83,18,47,227,69,227,69
"201","22305",56.35,-94.71667,-44,109,20,14317,213,-309,522,117,-214,131,-237,471,74,16,50,202,51,200,57
"202","52783",54.266666,-93.7,-22,104,20,13989,221,-289,510,148,-188,148,-214,549,84,17,49,230,63,230,66
"203","22302",54.7675,-99.87139,-13,108,21,13862,232,-280,512,156,-177,156,-201,476,73,16,52,208,54,208,59
"204","67597",49.190834,-95.395,20,117,23,12864,252,-242,494,174,-158,174,-158,563,92,17,56,254,58,254,58
"205","22304",53.990276,-97.81555,-8,103,20,13987,235,-274,509,162,-172,162,-199,491,73,19,46,205,66,205,69
"207","56469",54.976665,-100.34361,-14,108,21,13841,230,-280,510,154,-179,154,-202,483,74,16,51,211,56,211,61
"208","72811",49.626026,-95.609726,20,111,22,12881,251,-237,488,175,-158,175,-158,544,87,17,53,241,61,241,61
"209","52784",54.883335,-94.23333,-27,105,20,14150,220,-294,514,146,-194,146,-220,522,81,16,49,220,59,220,63
"210","ORE16563",44.257,-121.813,40,119,40,5972,219,-77,296,-23,120,120,-29,1573,266,25,63,752,120,120,699
"211","ORE16571",43.9331,-120.5538,62,164,45,6619,273,-84,357,-14,146,150,-19,305,41,15,32,114,50,62,94
"213","ORE16562",45.2825,-121.7338,49,96,37,5528,201,-54,255,-9,122,124,-15,2062,337,27,61,956,147,154,903
"214","OSC184820",44.7935,-122.2232,62,102,40,5312,217,-37,254,6,133,134,1,2371,393,29,63,1118,155,164,1044
"215","OSC209742",44.4325,-121.9682,56,118,40,5929,234,-58,292,-9,135,135,-14,1817,309,25,64,874,125,125,813
"216","ORE17766",45.4537,-121.668,53,96,37,5589,206,-51,257,-7,126,128,-12,2063,339,26,62,967,142,152,914
"217","ORE49063",45.2021,-117.2786,-8,141,39,6930,195,-158,353,-81,82,83,-92,769,101,27,34,286,106,125,272
"218","V-148210",54.5038,-84.6616,-38,104,21,13272,197,-298,495,114,-207,122,-217,552,83,20,46,226,66,223,73
"219","V-148188",54.4205,-84.6949,-37,104,20,13272,199,-297,496,115,-205,124,-216,553,83,20,46,226,66,223,73
"222","185499",45.759857,-78.376465,32,116,26,10823,242,-188,430,153,-102,163,-116,934,96,58,17,281,181,273,197
"223","110992",45.55385,-78.71927,37,112,26,10586,242,-178,420,117,-42,165,-107,972,97,61,14,279,192,267,218
"224","262327",44.9162,-78.05093,48,107,26,10208,247,-156,403,70,-78,173,-90,889,85,59,11,245,186,237,200
"226","2721948",53.37,-104.03,6,117,23,13209,242,-250,492,163,-174,163,-174,452,72,14,56,207,51,207,51
"227","2721828",53.95,-108.07,4,125,25,12614,235,-251,486,154,-147,154,-167,444,82,14,59,217,56,217,59
"230","2721475",60.17,-44.28,8,61,31,4687,114,-80,194,13,55,70,-47,1565,161,106,13,445,322,342,424
"233","CONN00102943",53.27277,-2.76916,95,68,36,4276,194,7,187,73,58,150,42,811,83,48,18,245,152,207,204
"234","CONN00102950",48.42805,-71.23055,27,108,24,11519,242,-207,449,154,-58,167,-132,917,119,49,29,321,147,311,184
"235","CONN00102947",58.78333,-63.06666,-63,71,19,9697,114,-246,360,54,-93,55,-190,617,73,32,27,216,109,194,129
"236","CONN00102948",48.78444,-56.53527,35,102,28,8261,221,-134,355,6,62,141,-69,1099,109,67,14,320,224,277,292
"237","CONN00102942",48.91666,-66.18333,-1,83,21,10055,189,-193,382,117,-81,127,-134,1188,114,71,13,338,243,331,267
"239","CONN00102946",45.91388,-68.91194,30,118,27,10411,238,-185,423,160,-98,160,-110,1100,113,68,15,313,218,313,235
"240","CONN00102945",43.96944,-74.16472,48,123,31,9530,242,-154,396,156,-70,164,-81,1060,115,63,16,314,208,307,215
"241","CONN00102944",43.98166,-73.01555,54,118,29,9747,253,-148,401,175,-65,175,-77,1105,121,63,17,326,208,326,219
"243","CONN00102941",44.88305,-68.67194,63,114,28,9654,262,-136,398,18,-10,184,-67,1052,112,78,11,305,240,249,265
"244","73997",50.603256,-101.68608,19,117,24,12788,254,-233,487,172,-156,172,-156,436,70,17,50,192,59,192,59
"245","121785",52.16462,-116.4813,-5,122,32,8179,189,-188,377,97,-56,97,-111,607,83,28,37,236,98,236,115
"246","3170",62.08333,-127.5833,-67,106,23,12314,166,-293,459,89,-143,89,-223,562,83,29,36,216,93,216,98
"247","27517",49.33333,-88.93333,8,126,25,12091,243,-250,493,155,-141,155,-158,749,87,32,30,256,119,256,120
"248","116470",48.9167,-111.5167,36,136,34,8794,243,-151,394,125,-76,149,-76,384,71,12,58,174,42,156,42
"249","35826",51.045834,-114.0575,33,132,33,9039,231,-167,398,146,-71,146,-84,427,82,14,61,200,47,200,49
"251","118186",52.04893,-116.4116,4,126,32,8336,202,-185,387,108,-46,108,-105,592,82,27,37,230,94,230,113
"252","36191",51.177776,-115.57361,4,127,33,8312,203,-179,382,88,-49,109,-102,550,78,28,31,196,101,189,114
"254","3167",53.9903,-97.8156,-8,103,20,13987,235,-274,509,162,-172,162,-199,491,73,19,46,205,66,205,69
"255","131009",53.53333,-114.95,19,142,32,10225,227,-210,437,141,-96,141,-120,526,102,18,67,271,62,271,65
"256","102570",63.91667,-138.3833,-49,108,21,13994,211,-299,510,124,-127,124,-233,350,52,14,40,140,47,140,64
"258","73995",53.83338,-105.30047,-3,122,24,13146,234,-268,502,154,-159,154,-182,463,76,16,52,209,60,209,60
"259","81780",54.38333,-119.75,6,107,30,8336,184,-163,347,110,-46,110,-102,637,81,31,30,234,111,234,132
"260","109586",59.104443,-110.420555,-25,110,20,14373,222,-303,525,148,-195,148,-220,368,60,14,45,153,50,153,54
"261","73996",53.48522,-104.16629,4,117,23,13230,241,-254,495,162,-176,162,-176,455,72,15,54,205,54,205,54
"264","125894",44.5167,-67.5833,64,105,29,8580,238,-115,353,-21,170,170,-52,1252,137,78,17,384,248,248,339
"265","43962",49.0667,-120.7833,21,109,33,7328,200,-122,322,-65,114,114,-72,734,112,34,43,313,113,113,287
"266","103120",54.93555,-113.5223,12,115,25,11395,222,-224,446,147,-51,147,-143,492,93,21,60,244,64,244,74
"268","96137",54.75,-116,-2,125,29,10027,199,-218,417,119,-63,119,-136,588,105,22,61,293,76,293,81
"269","35823",45.783333,-72.01667,47,109,25,10612,252,-170,422,166,-30,177,-98,1060,116,55,19,324,197,323,223
"271","CAN 268385",62.083,-127.583,-67,106,23,12314,166,-293,459,89,-143,89,-223,562,83,29,36,216,93,216,98
"272","CAN 584957",50.289,-64.022,13,89,24,9329,188,-178,366,89,-62,129,-112,985,101,48,20,298,173,278,204
"273","CAN 275140",61.95,-110.367,-65,95,18,15063,191,-334,525,107,-180,121,-262,302,44,13,41,121,41,118,48
"276","CAN 447375",55.067,-84.833,-40,102,20,13306,196,-298,494,114,-209,121,-218,515,79,18,49,215,58,211,66
"277","CAN 199987",65.717,-118.9,-73,81,16,14589,173,-319,492,94,-190,110,-261,248,42,9,47,104,33,95,40
"278","CAN 261216",60.233,-123.567,-18,109,22,14060,228,-261,489,150,-202,150,-202,445,83,14,54,207,55,207,55
"280","CAN 429685",53.367,-104.033,6,117,23,13209,242,-250,492,163,-174,163,-174,452,72,14,56,207,51,207,51
"281","CAN 410171",58.983,-109.333,-26,107,20,14460,218,-306,524,149,-199,149,-223,370,60,15,46,155,51,155,55
"283","CAN 534567",48.717,-92.85,23,120,24,12223,252,-231,483,170,-146,170,-146,694,105,21,49,289,80,289,80
"284","CAN 585415",47.64,-70.732,5,94,22,10900,210,-203,413,128,-77,141,-142,1228,132,72,19,384,229,379,259
"285","CAN 537250",62.55,-114,-57,93,17,15324,204,-324,528,117,-172,135,-256,273,40,10,44,109,34,100,44
"286","CAN 298056",60.933,-117.717,-36,115,21,14813,228,-306,534,143,-133,143,-234,310,47,16,35,117,51,117,57
"288","CAN 447335",51.75,-85.833,-11,116,23,13035,227,-275,502,147,-174,147,-188,702,92,31,35,259,103,259,107
"289","CAN 21016",60.967,-97,-98,93,17,15218,171,-359,530,88,-285,93,-291,342,53,10,52,152,35,139,37
"291","CAN 429697",53.95,-106.067,-2,122,24,12888,232,-258,490,153,-154,153,-176,458,78,16,53,211,59,211,60
"292","CAN 429710",53.583,-106.483,7,124,25,12670,240,-242,482,159,-143,159,-163,423,74,14,55,199,54,199,55
"293","641",59.62677,-151.0515,10,74,30,6148,144,-100,244,59,34,93,-61,776,106,39,34,286,119,170,198
"294","191289",45.916668,-121.71333,61,104,38,5909,224,-49,273,-5,138,139,-10,1994,339,24,67,977,125,140,920
"295","178014",48.283333,-117.34,72,129,35,8089,284,-81,365,-24,170,177,-31,621,87,25,38,245,85,102,220
"296","52135",44.84042,-114.25575,2,168,41,7926,227,-177,404,37,-52,104,-99,449,52,28,18,136,99,119,113
"298","185322",47.416668,-121.55666,49,80,33,5611,190,-49,239,-12,122,124,-17,2354,366,47,56,1061,206,220,982
"301","WILLU6128",44.257,-121.813,40,119,40,5972,219,-77,296,-23,120,120,-29,1573,266,25,63,752,120,120,699
"304","2720982",53.37,-60.45,-3,103,23,10857,211,-219,430,133,-88,133,-148,945,109,59,19,299,191,299,204
"306","QFA0450922",52.783333,-67.083336,-40,102,22,12170,180,-279,459,99,-131,111,-205,934,118,46,27,323,162,312,177
"308","33193",53.825,-101.253334,1,111,21,13494,243,-262,505,165,-159,165,-183,454,71,15,51,198,54,198,54
"311","22308",58.216667,-101.25,-55,97,18,14826,201,-328,529,115,-233,129,-251,435,71,14,50,188,50,182,55
"313","22307",59.716667,-100.13333,-77,96,18,15147,188,-345,533,102,-261,114,-272,367,64,10,56,168,37,157,40
"314","22301",59.366665,-97.76667,-80,96,18,14728,182,-340,522,96,-258,104,-270,414,67,14,50,181,46,171,49
"315","281461",36.7236,-118.4454,2,109,41,5320,154,-111,265,-49,45,75,-56,749,125,16,61,336,66,83,331
"316","332921",37.4355,-118.7468,10,120,43,5581,172,-107,279,-47,85,87,-51,578,95,17,56,251,61,71,242
"319","V-148233",54.5038,-84.6616,-38,104,21,13272,197,-298,495,114,-207,122,-217,552,83,20,46,226,66,223,73
"325","MT00173000",48.666668,-79.416664,11,115,24,12287,239,-238,477,148,-83,161,-156,845,105,37,32,299,132,289,142
"336","CONN00102951",48.91666,-66.18333,-1,83,21,10055,189,-193,382,117,-81,127,-134,1188,114,71,13,338,243,331,267
"338","CADE7-27031",47.725697,-90.44216,44,121,28,10183,241,-179,420,167,-95,167,-95,697,90,20,42,261,82,261,82
"339","CADE7-36041",43.655197,-74.5012,36,116,30,9481,225,-161,386,144,-81,152,-91,1317,127,84,11,358,281,349,295
"340","CADE7-55031",46.450848,-91.906265,39,126,27,11246,265,-199,464,176,-116,176,-116,734,99,18,48,293,70,293,70
"341","CADE7-55075",45.342922,-88.00104,56,128,29,10619,273,-165,438,175,-88,187,-88,777,94,25,37,270,97,268,97
"342","CADE7-23023",43.907646,-69.837585,77,105,28,9144,260,-111,371,35,186,192,-44,1145,122,76,13,335,242,244,294
"343","CADE7-55003",46.708332,-90.558464,49,117,27,10465,258,-167,425,170,-94,177,-94,818,103,27,35,289,112,288,112
"344","CADE7-33005",42.92054,-72.25326,69,132,32,9429,271,-134,405,186,-46,186,-59,1053,99,72,9,286,231,286,238
"345","CADE7-26053",46.4844,-89.79064,38,121,27,10785,250,-183,433,169,-93,169,-109,876,107,32,32,300,127,300,132
"346","CADE7-23027",44.482487,-69.1217,69,115,29,9456,263,-128,391,25,187,187,-58,1157,127,81,14,345,257,257,282
"347","CADE7-55053",44.315224,-90.80837,63,131,28,11070,282,-172,454,184,-91,196,-91,822,106,23,46,314,79,313,79
"348","CADE7-26103",46.664356,-87.60419,36,115,28,10248,245,-165,410,115,-100,163,-100,840,97,39,23,264,146,248,146
"349","CADE7-27115",46.139515,-92.73616,46,131,27,11591,272,-200,472,185,-116,185,-116,770,108,19,48,312,74,312,74
"350","CADE7-55107",45.475094,-91.13546,55,131,28,11140,276,-182,458,177,-100,189,-100,828,112,21,47,325,80,323,80
"351","CADE7-50021",43.574203,-73.03505,66,124,30,9760,271,-138,409,188,-53,188,-65,1072,116,63,16,313,208,313,217
"352","CADE7-33011",42.92425,-71.71687,75,123,31,9385,272,-121,393,28,-38,192,-51,1110,112,83,8,308,255,274,267
"353","CADE7-23015",43.99977,-69.52556,76,107,28,9101,261,-110,371,35,191,191,-45,1157,126,78,14,342,246,246,292
"354","CADE7-26033",46.317753,-84.51852,46,106,26,9875,247,-146,393,126,-78,167,-85,842,101,41,22,265,149,241,163
"355","CADE7-36005",40.84895,-73.85262,117,93,27,8739,291,-49,340,102,3,228,3,1149,107,79,9,309,259,296,259
"356","CADE7-23003",46.648384,-68.59081,30,124,28,10702,244,-194,438,151,-101,163,-115,978,104,54,19,299,182,295,198
"357","CADE7-50027",43.57062,-72.570175,55,125,30,9627,256,-150,406,174,-62,174,-75,1133,110,75,10,305,240,305,251
"358","CADE7-50019",44.829185,-72.25093,51,116,27,10293,255,-160,415,177,-75,177,-89,1055,118,59,19,329,196,329,212
"359","CADE7-50001",44.03057,-73.14255,69,120,29,9966,274,-137,411,193,-53,193,-65,931,106,51,20,284,166,284,174
"360","CADE7-26119",45.026707,-84.12895,59,121,29,9891,270,-139,409,173,-64,181,-73,737,89,32,28,254,121,238,125
"361","CADE7-23011",44.41344,-69.76643,71,117,29,9677,269,-130,399,25,-46,192,-59,1089,114,73,11,309,247,261,251
"362","CADE7-23021",45.842636,-69.29503,38,120,28,10428,245,-179,424,168,-90,168,-102,1008,102,58,16,300,192,300,207
"363","CADE7-26061",46.983574,-88.64662,46,112,27,10327,254,-155,409,165,-33,174,-91,806,87,40,22,252,141,249,160
"364","CADE7-27017",46.59019,-92.68017,38,131,28,11378,265,-202,467,176,-119,176,-119,749,107,17,50,308,69,308,69
"365","CADE7-36019",44.740265,-73.67945,54,110,27,10128,255,-149,404,180,-70,180,-82,907,107,50,21,285,160,285,170
"366","CADE7-23025",45.50589,-69.95405,31,117,27,10320,235,-183,418,159,-95,159,-108,1036,104,59,16,306,196,306,214
"367","CADE7-50017",44.00823,-72.38161,44,118,29,9648,242,-156,398,164,-73,164,-85,1110,116,68,14,321,221,321,234
"368","CADE7-55069",45.329845,-89.73242,47,123,27,11106,265,-183,448,170,-105,182,-105,812,110,23,44,311,84,301,84
"369","CADE7-23013",44.032257,-69.03465,77,109,29,9014,261,-109,370,37,190,190,-44,1186,132,78,16,359,243,243,305
"370","CADE7-23005",43.80825,-70.331345,74,111,29,9262,263,-118,381,31,184,192,-49,1156,126,81,13,339,247,251,292
"371","CADE7-55119",45.21148,-90.50453,47,122,27,11093,263,-184,447,181,-106,181,-106,823,111,21,48,325,79,325,79
"372","CADE7-55041",45.667572,-88.77712,42,129,29,10665,257,-180,437,160,-104,171,-104,796,104,24,41,293,93,286,93
"373","CADE7-33015",42.986122,-71.086975,83,123,31,9159,279,-108,387,38,-26,199,-39,1107,118,82,10,316,256,259,269
"374","CADE7-27001",46.60659,-93.413734,41,127,26,11741,265,-209,474,182,-122,182,-122,718,108,15,55,311,59,311,59
"375","CADE7-23019",45.402946,-68.63237,53,125,29,10068,260,-162,422,6,-70,179,-83,1049,115,73,13,301,222,272,246
"376","CADE7-36119",41.1536,-73.75399,104,105,29,8802,285,-69,354,93,-12,216,-12,1230,114,85,8,328,279,310,279
"377","CADE7-23031",43.41245,-70.674324,79,123,31,9231,277,-115,392,35,187,196,-44,1161,131,82,14,345,252,255,292
"378","CADE7-23017",44.48621,-70.76014,55,126,30,9960,260,-158,418,8,-66,179,-79,1076,111,69,12,299,225,289,237
"379","CADE7-55085",45.704914,-89.524254,43,124,27,11041,260,-186,446,164,-109,177,-109,794,109,21,45,309,84,300,84
"380","CADE7-27075",47.525906,-91.38785,28,109,25,10900,237,-196,433,161,-121,161,-121,765,104,19,46,299,81,299,81
"381","CADE7-33017",43.2927,-71.032845,75,128,32,9288,276,-123,399,29,-37,192,-50,1128,123,84,11,326,259,264,272
"382","CADE7-55037",45.851097,-88.39933,42,132,29,10660,260,-182,442,160,-104,172,-104,776,98,24,40,281,93,277,93
"383","CADE7-36089",44.496563,-75.07295,56,116,28,10126,255,-152,407,170,-69,181,-81,999,107,58,17,301,188,288,203
"384","CADE7-23007",44.976818,-70.44363,27,112,28,9931,222,-178,400,151,-94,151,-106,1163,116,72,13,327,238,327,251
"385","CADE7-50009",44.73185,-71.720604,38,121,29,10115,242,-173,415,163,-85,163,-99,1101,124,62,20,348,202,348,221
"386","CADE7-26039",44.679676,-84.61149,58,123,30,9917,269,-141,410,170,-75,181,-75,778,95,30,31,270,115,257,115
"387","CADE7-23009",44.566124,-68.36845,67,110,29,9245,256,-123,379,26,183,183,-57,1193,135,78,16,361,244,244,315
"388","CADE7-36043",43.411568,-74.95857,55,117,29,9674,250,-145,395,75,-65,173,-76,1272,124,80,11,347,268,335,284
"389","CADE7-26131",46.979168,-89.27129,47,122,28,10428,258,-165,423,175,-81,175,-94,792,92,33,27,257,130,257,139
"390","CADE7-33003",43.8696,-71.21055,62,135,32,9653,269,-150,419,15,-55,182,-69,1209,124,88,10,341,272,300,292
"391","CADE7-36049",43.786335,-75.44938,63,115,29,9771,257,-138,395,83,-58,183,-69,1089,109,68,13,307,228,285,250
"392","CADE7-55125",46.053337,-89.51264,38,123,27,10954,253,-187,440,159,-112,171,-112,816,110,24,41,305,96,301,96
"393","CADE7-33007",44.687084,-71.30172,37,122,29,9993,238,-174,412,160,-86,160,-98,1124,120,67,16,337,216,337,234
"394","CADE7-25003",42.36514,-73.210686,65,114,30,9178,255,-121,376,159,-46,180,-58,1171,109,80,10,322,255,321,260
"395","CADE7-27137",47.57836,-92.46223,28,125,26,11522,250,-216,466,167,-131,167,-131,717,109,17,54,308,64,308,64
"396","CADE7-25011",42.583298,-72.591286,79,129,32,9408,279,-122,401,129,-34,196,-48,1138,104,80,8,303,255,297,262
"397","CADE7-55057",43.923264,-90.11216,68,131,29,10893,288,-161,449,188,-82,201,-82,820,107,24,43,309,84,298,84
"398","CADE7-27007",48.018032,-94.92345,33,125,25,12483,264,-228,492,183,-140,183,-140,590,97,11,62,274,43,274,43
"399","CADE7-55081",43.945114,-90.61958,65,125,27,11027,282,-165,447,186,-88,198,-88,837,108,23,45,320,82,312,82
"400","CADE7-54093",39.103554,-79.56694,78,121,35,7994,249,-95,344,160,91,177,-30,1349,132,94,11,385,301,376,307
"401","CADE7-55115",44.789692,-88.75637,58,123,28,10775,272,-165,437,177,-90,189,-90,796,100,24,40,291,89,285,89
"402","CADE7-55099",45.68028,-90.36148,43,120,26,11101,257,-189,446,164,-111,176,-111,812,110,20,46,316,82,312,82
"403","CADE7-26013",46.715397,-88.342,41,120,28,10434,255,-165,420,160,-86,170,-99,827,94,36,27,270,136,265,137
"404","CADE7-26083",47.47726,-88.15507,37,105,26,10233,237,-163,400,156,-41,163,-99,811,87,44,19,243,146,237,177
"405","CADE7-23001",44.1658,-70.2079,72,112,28,9605,267,-126,393,27,184,193,-56,1140,121,83,11,327,252,259,282
"406","CADE7-33009",43.933,-71.843445,51,121,30,9700,251,-152,403,171,-67,171,-80,1076,110,68,15,312,212,312,225
"407","CADE7-55007",46.631233,-91.182816,38,119,26,10868,256,-188,444,162,-111,170,-111,796,105,20,43,303,86,299,86
"408","CADE7-50005",44.459934,-72.09881,47,118,28,10086,250,-162,412,171,-76,171,-90,1056,117,60,19,328,197,328,215
"409","CADE7-36031",44.113106,-73.76796,35,114,29,9616,228,-163,391,145,-83,154,-93,1170,127,69,16,345,227,343,236
"410","CADE7-25021",42.17393,-71.18549,95,114,31,8764,282,-83,365,6,183,207,-20,1163,118,84,10,326,259,264,303
"411","CADE7-33001",43.51888,-71.424965,64,133,32,9569,270,-144,414,17,-51,184,-65,1069,108,74,10,292,230,281,242
"412","45047",62.45,-144.9,-30,124,26,12395,209,-259,468,124,-90,124,-189,307,55,7,58,144,31,144,50
"413","50097",67.25,-155.04,-98,104,20,14603,164,-336,500,70,-116,93,-277,321,70,12,60,152,48,146,49
"414","41082",62.55,-131.35,-58,133,25,13647,197,-330,527,109,-125,109,-237,354,59,15,42,144,51,144,64
"415","84976",63.38,-145.74,-51,119,25,12898,195,-278,473,113,-120,113,-213,263,61,5,85,158,20,158,28
"416","41083",63.91,-138.38,-50,109,21,13953,209,-300,509,122,-127,122,-234,344,52,14,41,140,47,140,62
"419","18057",60.78,-133.08,-29,121,25,11650,197,-271,468,96,-87,111,-187,319,50,9,42,129,40,123,61
"420","41076",66.06,-137.3,-72,104,21,13972,192,-299,491,115,-171,115,-233,320,50,12,49,140,41,140,51
"421","84569",62.87,-150.37,-31,93,25,10042,172,-200,372,86,-39,104,-150,630,102,26,47,275,88,248,111
"422","178014",48.283333,-117.34,72,129,35,8089,284,-81,365,-24,170,177,-31,621,87,25,38,245,85,102,220
