"","catalogNumber","lat","lon","bio1","bio2","bio3","bio4","bio5","bio6","bio7","bio8","bio9","bio10","bio11","bio12","bio13","bio14","bio15","bio16","bio17","bio18","bio19"
"1","3297386",37.01,-90.09,137,129,33,8986,326,-59,385,137,200,248,14,1199,131,75,17,368,260,282,270
"2","3568862",36.98,-90.13,139,127,33,9000,328,-55,383,140,203,251,17,1212,134,75,17,375,258,278,278
"3","3535469",36.51,-90.19,146,122,32,8926,332,-44,376,147,209,257,25,1206,130,74,18,374,251,257,291
"4","2804894",33.22,-81.77,175,141,42,6944,334,6,328,262,130,262,82,1159,122,63,19,354,220,354,296
"5","UNA00001482",34.75806,-87.5725,155,132,38,7768,325,-18,343,68,211,252,52,1387,158,80,19,407,262,300,391
"6","UNA00001406",34.70611,-87.40583,155,132,38,7740,324,-19,343,155,211,252,52,1404,161,83,18,412,268,302,392
"7","UNA00000769",33.68195,-87.80778,160,142,41,7508,329,-17,346,76,215,253,59,1500,172,87,20,451,279,322,432
"10","UNA00001487",32.86778,-88.1525,172,133,40,7273,332,2,330,128,225,263,75,1398,162,79,21,435,263,313,402
"12","UNA00001472",32.85,-87.98,172,132,40,7284,331,3,328,128,225,262,75,1395,161,80,21,436,261,310,405
"13","55354",30.414,-90.999,195,121,42,6208,329,42,287,270,201,270,111,1567,164,85,15,442,321,442,421
"14","118490",32.2175,-93.73028,181,129,39,7211,340,14,326,221,234,271,85,1240,138,68,16,345,248,267,337
"16","R. J. O'Kennon 18622",33.1364,-97.4954,175,131,36,8028,351,-11,362,219,68,276,68,889,127,43,33,303,143,202,143
