"","catalogNumber","lat","lon","bio1","bio2","bio3","bio4","bio5","bio6","bio7","bio8","bio9","bio10","bio11","bio12","bio13","bio14","bio15","bio16","bio17","bio18","bio19"
"9","V227255",50.674583,-121.9525,63,101,30,7870,244,-91,335,-32,60,164,-38,427,56,22,30,157,73,95,145
"10","V234407",49.481945,-120.479164,52,127,34,8329,253,-115,368,-49,56,155,-61,365,49,19,30,135,66,88,124
"14","V57011",51.433334,-122.1,35,111,29,8363,223,-149,372,138,-13,138,-73,383,51,17,28,128,65,128,102
"17","V225908",49.2665,-119.49633,53,117,33,7995,249,-102,351,133,8,155,-50,318,36,17,21,93,64,91,86
"18","V233904",49.01472,-118.76444,57,124,34,8047,259,-98,357,-40,13,160,-47,406,45,25,21,119,84,109,109
"19","V230718",49.022778,-117.37556,58,109,31,7945,256,-87,343,-35,155,161,-41,763,100,38,32,284,119,142,259
"20","V233856",49.18778,-119.723335,51,116,32,8085,247,-107,354,-46,6,154,-53,311,37,17,21,94,63,87,88
"21","V225763",49.808334,-121.35083,65,97,31,7400,237,-73,310,-24,159,159,-30,821,125,32,48,358,104,104,328
"22","162788",48.861668,-117.36667,64,115,32,8055,268,-84,352,-31,162,169,-37,717,94,35,32,268,110,132,243
"23","50402",48.69889,-119.69055,57,125,33,8348,259,-110,369,-45,157,162,-52,350,45,19,26,121,65,78,113
"24","28741",47.42611,-117.27111,81,120,35,7514,280,-59,339,-7,175,179,-13,508,70,18,38,199,65,78,183
"27","189150",43.983604,-118.762955,42,164,42,7336,261,-125,386,-43,133,138,-52,384,50,15,31,139,56,66,128
"28","159575",48.67596,-119.85179,12,112,33,7615,199,-137,336,-78,108,109,-84,489,66,28,29,179,90,101,165
"32","28646",48.81361,-120.33889,12,111,33,7499,197,-134,331,-75,107,108,-82,620,92,31,39,253,101,107,233
"35","05021",40.644165,-111.61639,26,128,36,7645,223,-124,347,-57,129,129,-63,913,111,39,34,316,125,125,310
"36","128015",54.09555,-124.6272,21,124,33,8667,211,-161,372,127,-26,127,-96,497,55,20,25,152,80,152,134
"37","3884",49.466667,-114.316666,28,129,34,7854,224,-147,371,67,-17,127,-72,639,79,39,20,202,137,177,151
"38","3883",49.628056,-114.67528,19,129,34,7856,215,-158,373,-71,113,118,-81,738,82,47,17,212,153,181,207
"39","112612",41.83587,-111.5947,25,148,38,8253,243,-145,388,-62,128,133,-77,514,50,29,15,146,101,102,144
"43","28202",47.42611,-117.27111,81,120,35,7514,280,-59,339,-7,175,179,-13,508,70,18,38,199,65,78,183
"44","159575",48.67596,-119.85179,12,112,33,7615,199,-137,336,-78,108,109,-84,489,66,28,29,179,90,101,165
"47","50402",48.69889,-119.69055,57,125,33,8348,259,-110,369,-45,157,162,-52,350,45,19,26,121,65,78,113
"48","28741",47.42611,-117.27111,81,120,35,7514,280,-59,339,-7,175,179,-13,508,70,18,38,199,65,78,183
