"","catalogNumber","lat","lon","bio1","bio2","bio3","bio4","bio5","bio6","bio7","bio8","bio9","bio10","bio11","bio12","bio13","bio14","bio15","bio16","bio17","bio18","bio19"
"1","CAN 466027",44.533,-80.35,62,100,27,9505,253,-116,369,-32,-15,179,-63,914,98,62,15,269,190,225,246
"2","CAN 450707",43.583,-79.617,81,94,26,9408,270,-91,361,192,-34,200,-42,790,82,49,13,227,163,221,171
"3","CONN00107564",38.71666,-90.48777,127,120,30,9475,318,-72,390,224,-2,245,-2,968,103,48,19,293,178,269,178
"4","CONN00107566",42.02277,-93.62,88,121,28,10943,296,-136,432,201,-63,220,-63,837,127,19,50,336,71,335,71
"5","CONN00107562",38.85138,-77.715,119,120,33,8476,298,-59,357,205,6,226,6,1048,105,70,12,294,217,292,217
"6","CONN00107561",41.95805,-73.49305,77,122,32,9070,269,-112,381,191,-32,191,-44,1159,107,77,9,315,250,315,254
"7","CONN00107565",43.34992,-94.68773,73,118,26,11267,287,-153,440,210,-81,210,-81,738,109,18,52,302,60,302,60
"8","CONN00107563",42.29861,-71.12833,96,110,30,8758,281,-80,361,7,184,208,-19,1146,116,81,10,323,255,257,302
"9","272786",38.58,-89.27,126,116,30,9390,315,-68,383,126,-1,242,-1,1005,106,50,19,302,195,265,195
"11","3555260",40.08,-95.36,114,129,30,10345,320,-104,424,221,-27,241,-27,875,115,22,49,334,75,329,75
"12","3545366",39.45,-92.88,117,120,29,9835,313,-92,405,217,-18,237,-18,1008,121,38,33,341,129,317,129
"13","2763942",39.16,-94.39,124,117,29,9728,316,-79,395,223,-7,244,-7,971,126,32,42,357,103,334,103
"14","2763295",39.09,-94.42,126,116,29,9745,318,-75,393,225,-5,247,-5,964,127,31,42,357,101,334,101
"15","263408",38.13,-90.68,125,137,34,9047,318,-77,395,126,1,237,1,1026,111,54,19,305,193,271,193
"17","2762645",42.03,-93.62,88,121,28,10943,296,-136,432,201,-63,220,-63,837,127,19,50,336,71,335,71
"18","1200342",38.63,-90.28,131,118,30,9414,320,-65,385,227,4,248,4,968,102,50,19,292,179,269,179
"20","272822",38.12,-91.22,123,141,35,9021,319,-81,400,175,0,235,0,1034,116,50,20,310,183,280,183
"21","3548248",39.11,-92.33,120,117,29,9642,314,-80,394,218,-11,240,-11,985,121,37,32,334,132,304,132
"22","3551882",39.01,-93.22,122,121,29,9795,319,-85,404,222,-12,243,-12,987,121,36,34,336,120,305,120
"24","2761958",37.93,-94.37,130,132,32,9473,328,-78,406,183,1,247,1,1066,139,38,35,362,133,329,133
"26","269848",40.55,-88.93,106,117,29,10055,302,-97,399,209,-32,229,-32,943,103,39,27,302,148,287,148
"28","2763133",39.84,-88.95,113,121,30,9739,306,-87,393,213,-20,232,-20,983,106,48,23,312,168,298,168
"29","3517529",37.36,-90.92,130,139,35,8696,320,-69,389,131,11,237,11,1139,113,62,17,336,230,284,230
"30","1326641",37.22,-90.2,130,135,34,8921,322,-67,389,132,9,241,9,1175,124,74,16,355,257,288,257
"33","3569005",40.39,-94.22,105,123,29,10303,311,-109,420,221,-36,232,-36,896,114,23,45,330,80,323,80
"34","273403",38.73,-91.75,123,131,32,9493,320,-83,403,177,-7,240,-7,988,119,41,25,314,159,279,159
"35","3518029",40.16,-92.92,109,123,30,9899,308,-98,406,210,-26,230,-26,1082,119,53,24,339,179,321,179
"36","3535060",36.76,-92.14,132,141,35,8756,324,-69,393,132,14,241,14,1081,116,55,18,328,211,265,211
"37","MT00053439",45.404167,-73.625,65,104,25,10682,269,-145,414,185,-66,197,-80,949,99,60,14,277,194,273,212
"38","177210",41.4333,-87.9667,96,112,28,10105,291,-108,399,198,-43,219,-43,947,105,36,29,306,139,302,139
"39","92648",41.95,-88.4333,86,115,28,10294,287,-121,408,213,-54,213,-54,934,109,33,32,318,128,318,128
"40","1591684",41.85,-87.65,100,98,25,9848,288,-91,379,222,-32,222,-32,919,100,38,27,298,146,298,146
"41","1595276",41.8333,-87.85,98,106,27,10005,291,-99,390,221,-37,221,-37,927,103,36,28,302,142,302,142
"43","2098688",42.1333,-87.75,94,98,26,9737,280,-96,376,215,-36,215,-36,897,99,36,27,292,141,292,141
"51","107311",38.85,-92.8,123,120,30,9680,318,-82,400,177,-10,242,-10,1014,127,35,32,340,134,301,134
"53","UNA00001364",34.80722,-87.70111,156,134,39,7721,325,-18,343,69,211,252,53,1384,159,78,19,411,258,299,393
"54","1812920",38.94139,-77.65722,123,123,34,8528,305,-55,360,210,10,231,10,1020,101,68,12,285,214,285,214
"55","2345836",39.13667,-77.715,121,123,34,8555,304,-57,361,208,7,229,7,1014,101,66,12,289,210,286,210
"56","2618933",39.05361,-77.28917,125,121,33,8535,305,-52,357,211,11,232,11,1009,99,68,12,284,214,283,214
"57","2134777",39.16389,-77.52056,123,123,33,8561,307,-55,362,210,10,231,10,996,98,67,12,281,210,280,210
"58","3099842",38.895,-77.03667,133,115,32,8546,311,-42,353,241,20,241,20,1021,104,70,12,292,223,292,223
"60","3099748",38.765,-76.89861,128,111,32,8389,301,-41,342,234,18,234,18,1051,108,71,12,303,229,303,229
"61","3484004",39.00444,-76.87583,127,118,33,8501,307,-48,355,213,15,235,15,1074,105,71,12,300,232,300,232
"63","321347",42.6772,-96.6735,88,133,29,11134,307,-143,450,204,-63,225,-63,656,103,12,54,278,48,263,48
"64","51645",38.1385,-96.587,127,131,31,9700,330,-84,414,225,-4,248,-4,863,136,21,49,340,73,320,73
"65","102868",37.6952,-95.6789,137,129,32,9414,333,-69,402,231,9,253,9,986,134,30,41,355,101,331,101
"66","321309",44.1919,-96.7875,63,126,26,11681,288,-179,467,183,-98,206,-98,579,99,10,59,254,36,252,36
"67","51451",38.6078,-95.1922,129,123,30,9588,324,-75,399,226,0,248,0,977,144,31,43,361,100,340,100
"68","336642",39.0839,-94.88,127,115,29,9620,320,-71,391,225,-2,246,-2,970,133,29,45,363,95,341,95
"69","51460",38.8031,-95.1861,126,118,29,9597,319,-75,394,224,-2,246,-2,970,145,29,45,365,94,344,94
"70","51434",39.1449,-95.274,125,119,29,9733,321,-78,399,224,-6,246,-6,967,143,26,46,373,90,348,90
"71","342889",39.1592,-94.7936,127,113,29,9670,319,-70,389,226,-2,247,-2,967,132,29,44,362,96,340,96
"72","343068",42.375,-87.8247,87,98,25,9677,271,-106,377,206,-44,206,-44,869,98,32,30,288,130,288,130
"73","341712",38.905,-95.4947,126,119,29,9718,321,-78,399,225,-4,247,-4,931,141,26,45,355,89,335,89
"74","342017",38.9061,-95.1564,128,118,29,9631,321,-73,394,226,-1,248,-1,965,143,29,45,364,94,343,94
"75","342596",39.0519,-95.1975,127,118,29,9670,321,-75,396,225,-3,247,-3,965,142,27,45,369,92,346,92
"76","50837",38.9109,-98.4301,123,143,33,10040,339,-92,431,225,-9,251,-9,675,99,14,51,281,54,261,54
"77","356261",38.1735,-95.2783,132,124,31,9518,327,-73,400,227,2,249,2,1009,144,31,41,358,105,344,105
"78","272057",41.478,-96.1372,99,119,28,10574,303,-117,420,208,-45,229,-45,768,109,16,51,304,58,288,58
"79","51433",39.6806,-95.5162,116,128,30,10072,319,-97,416,220,-20,241,-20,921,130,23,49,357,80,344,80
"80","327990",38.7958,-94.6917,125,115,29,9628,316,-76,392,222,-5,244,-5,978,141,31,44,364,98,340,98
"82","51456",38.9365,-95.2239,128,118,29,9640,322,-73,395,226,-1,248,-1,960,143,28,45,366,93,344,93
"83","51419",39.4139,-94.9781,125,122,30,9672,320,-77,397,224,-6,244,-6,938,134,25,48,367,88,350,88
"84","326679",38.9181,-94.9792,128,117,29,9643,321,-72,393,227,-1,248,-1,961,139,29,44,361,94,340,94
"85","337865",38.9911,-94.5186,125,114,29,9696,315,-75,390,223,-5,245,-5,964,133,31,43,358,100,336,100
"86","51430",37.1221,-96.6261,140,133,33,9172,336,-60,396,232,17,255,17,911,126,27,40,320,97,285,97
"87","51452",39.171,-94.7813,128,115,29,9708,321,-70,391,228,-2,248,-2,962,130,29,44,363,95,341,95
"88","51424",39.2382,-96.0005,123,127,30,9892,324,-86,410,224,-10,247,-10,889,137,23,48,349,78,326,78
"89","51443",38.4998,-95.5637,127,125,30,9702,324,-81,405,224,-6,246,-6,951,142,26,45,355,89,334,89
"90","51469",37.8347,-94.7242,136,126,31,9449,331,-67,398,188,9,254,9,1061,141,37,36,365,128,336,128
"91","50261",38.7604,-95.149,127,118,29,9588,320,-74,394,224,-2,246,-2,974,145,29,44,366,95,345,95
"92","324967",38.4167,-97.1333,125,131,31,9967,332,-87,419,226,-10,250,-10,840,128,21,46,329,79,297,79
"93","51447",37.5704,-95.2794,137,124,31,9426,331,-68,399,189,9,254,9,1026,132,35,38,355,115,321,115
"94","51449",37.1044,-94.6302,141,124,32,8866,327,-49,376,189,23,253,23,1081,129,41,31,358,151,306,151
"95","366758",38.989,-94.7829,126,114,29,9640,317,-72,389,225,-3,246,-3,967,137,29,45,363,95,340,95
"96","348303",38.1944,-94.6131,130,128,31,9595,328,-78,406,184,0,249,0,1039,143,36,38,361,118,337,118
"97","343863",38.3747,-94.6608,128,125,31,9601,324,-79,403,181,-3,246,-3,1027,145,34,40,361,113,339,113
"99","51644",37.4238,-95.2005,137,124,31,9401,331,-68,399,189,10,254,10,1041,133,35,37,359,119,315,119
"100","51647",37.4269,-95.5734,137,128,32,9350,332,-67,399,231,11,254,11,1012,132,34,38,353,112,319,112
"101","51429",38.3008,-96.5164,129,131,31,9705,331,-81,412,226,-3,249,-3,864,136,21,48,339,74,317,74
"102","51435",39.3428,-95.4224,123,125,30,9880,322,-86,408,223,-11,245,-11,936,138,25,48,364,84,342,84
"104","349511",38.4411,-96.5633,126,129,31,9753,327,-84,411,224,-7,247,-7,865,135,21,48,339,74,313,74
"105","359180",39.1659,-96.0082,125,128,31,9857,325,-85,410,225,-8,247,-8,888,135,24,47,346,81,322,81
"106","51654",38.9768,-94.9668,128,117,29,9643,321,-72,393,227,-1,248,-1,961,139,29,44,361,94,340,94
"108","272056",41.7176,-96.6898,95,129,29,10840,310,-129,439,208,-53,229,-53,737,113,15,52,304,60,279,60
"110","341975",37.5019,-96.0439,135,134,33,9392,332,-73,405,229,8,252,8,953,131,27,42,347,96,311,96
"111","51642",37.9136,-95.3446,136,123,30,9456,330,-67,397,231,8,253,8,1011,139,32,40,357,104,340,104
"112","272060",38.1127,-98.7943,134,139,33,9642,344,-73,417,232,7,256,7,641,99,13,50,267,55,253,55
"114","51463",39.0438,-95.3443,126,119,29,9746,321,-77,398,226,-4,248,-4,953,144,26,46,367,89,345,89
"115","51466",38.4202,-94.7908,129,124,30,9609,325,-78,403,183,-2,247,-2,1014,147,33,41,360,109,339,109
"117","51648",38.5089,-95.5769,127,125,30,9769,324,-82,406,225,-7,247,-7,940,141,25,45,353,86,330,86
"118","327970",38.8083,-95.1528,127,118,29,9588,320,-74,394,224,-2,246,-2,974,145,29,44,366,95,345,95
"119","317807",41.1144,-98.549,94,138,31,10524,306,-134,440,203,-48,226,-48,634,102,10,59,283,43,254,43
"120","209813",40.0672,-95.716,114,131,30,10291,323,-103,426,221,-25,242,-25,867,116,22,48,334,74,330,74
"121","331283",38.6622,-96.4897,123,128,30,9880,325,-89,414,222,-11,245,-11,865,132,21,48,337,74,309,74
"122","51442",39.7613,-95.7651,115,128,30,10114,320,-98,418,219,-22,240,-22,899,128,22,49,348,76,340,76
"123","50614",38.5564,-94.7099,126,121,30,9622,321,-78,399,223,-5,244,-5,1014,146,33,41,362,109,341,109
"124","51425",37.2894,-98.5801,136,146,34,9528,344,-75,419,232,9,256,9,681,101,15,48,271,60,251,60
"125","328382",38.9208,-95.3167,127,117,29,9668,320,-75,395,225,-2,247,-2,959,144,27,45,367,92,345,92
"126","51473",38.3671,-94.7977,129,126,31,9618,327,-78,405,183,-2,248,-2,1020,146,33,40,361,111,338,111
"127","51457",38.8764,-95.2479,128,118,29,9646,321,-74,395,226,-1,248,-1,962,144,28,45,365,93,343,93
"129","326534",38.9333,-95.4333,125,118,29,9730,320,-78,398,224,-5,247,-5,932,142,26,46,358,88,338,88
"130","51436",39.9424,-95.2384,114,126,30,10277,317,-102,419,220,-27,240,-27,891,118,22,48,339,78,332,78
"131","51423",37.4547,-94.7047,137,124,31,9214,328,-61,389,188,13,252,13,1091,138,39,34,371,139,322,139
"132","359063",39.3548,-95.4969,123,125,30,9880,322,-86,408,223,-11,245,-11,936,138,25,48,364,84,342,84
"133","51440",38.1282,-95.347,133,124,31,9517,328,-72,400,228,3,250,3,1004,144,30,42,359,101,344,101
"134","107424",38.9891,-95.2465,128,118,29,9640,322,-73,395,226,-1,248,-1,960,143,28,45,366,93,344,93
"135","351586",40.0938,-95.2493,110,127,30,10347,314,-108,422,217,-32,237,-32,881,113,22,48,333,76,330,76
"136","324614",38.8131,-95.1822,126,118,29,9597,319,-75,394,224,-2,246,-2,970,145,29,45,365,94,344,94
"137","51428",39.8201,-96.6424,114,132,30,10411,325,-106,431,221,-27,244,-27,809,122,16,53,327,60,319,60
"138","51639",39.0044,-95.6228,125,121,30,9787,320,-81,401,224,-6,247,-6,892,135,25,45,344,88,328,88
"139","51446",38.957,-95.2502,127,117,29,9668,320,-75,395,225,-2,247,-2,959,144,27,45,367,92,345,92
"140","321389",46.6083,-97.0405,53,126,25,12403,288,-197,485,204,-116,204,-116,508,84,10,60,228,36,228,36
"143","51455",38.8176,-95.1861,126,118,29,9597,319,-75,394,224,-2,246,-2,970,145,29,45,365,94,344,94
"144","51444",39.4631,-95.3317,121,123,30,9860,320,-86,406,222,-12,243,-12,944,135,25,48,365,85,345,85
"145","51468",39.7794,-95.0881,117,122,29,10059,316,-93,409,221,-21,240,-21,921,125,23,49,353,80,342,80
"147","50773",39.7613,-95.7558,115,128,30,10114,320,-98,418,219,-22,240,-22,899,128,22,49,348,76,340,76
"148","328016",38.7417,-94.9667,127,119,30,9621,321,-74,395,225,-2,247,-2,981,146,31,44,363,99,343,99
"149","51470",39.0153,-94.8242,128,114,29,9670,320,-70,390,227,-1,248,-1,962,134,29,44,360,95,337,95
"150","272058",41.9209,-96.7986,91,131,29,10889,308,-134,442,205,-56,226,-56,713,110,14,53,301,57,273,57
"153","326328",38.1042,-95.025,132,124,30,9540,327,-74,401,185,2,250,2,1033,144,35,39,360,112,342,112
"155","343413",38.2044,-94.645,130,128,31,9595,328,-78,406,184,0,249,0,1039,143,36,38,361,118,337,118
"156","115876",38.396,-94.6508,128,125,31,9601,324,-79,403,181,-3,246,-3,1027,145,34,40,361,113,339,113
"157","51418",39.8989,-95.2384,116,125,30,10175,317,-98,415,220,-24,241,-24,904,121,22,48,345,78,336,78
"158","51437",39.9672,-95.2985,114,127,30,10261,318,-102,420,220,-26,240,-26,893,118,22,48,340,77,333,77
"159","321078",43.224,-96.5805,79,130,28,11259,298,-153,451,196,-74,217,-74,652,103,12,54,270,49,269,49
"160","343672",42.926,-85.731,85,109,29,9430,280,-93,373,194,-29,203,-40,891,100,38,22,267,155,253,162
"164","51427",39.7882,-96.4558,114,131,30,10338,324,-104,428,220,-26,243,-26,828,125,18,52,333,64,323,64
"165","272059",41.9209,-96.7985,91,131,29,10889,308,-134,442,205,-56,226,-56,713,110,14,53,301,57,273,57
"167","51441",38.6029,-95.4527,126,123,30,9712,323,-81,404,224,-5,246,-5,944,141,26,45,354,88,331,88
"168","327997",38.8389,-95.075,128,117,29,9642,321,-73,394,226,-1,247,-1,967,142,29,45,364,95,343,95
"169","51638",39.6921,-95.143,119,123,30,9987,318,-90,408,222,-17,242,-17,926,127,23,48,357,82,343,82
"170","209812",40.0502,-95.4318,114,129,30,10326,320,-104,424,221,-27,241,-27,876,116,22,48,335,75,330,75
"172","272054",41.0024,-96.1739,102,125,29,10461,308,-116,424,210,-39,232,-39,780,111,17,52,314,60,303,60
"173","342003",39.0178,-95.2094,127,118,29,9670,321,-75,396,225,-3,247,-3,965,142,27,45,369,92,346,92
"174","321293",42.8624,-97.5488,87,128,28,11133,309,-141,450,202,-63,225,-63,552,84,11,52,234,43,222,43
"176","374121",38.416,-94.6549,128,125,31,9601,324,-79,403,181,-3,246,-3,1027,145,34,40,361,113,339,113
"179","321305",47.2879,-101.293,52,136,28,11754,290,-185,475,172,-107,198,-107,425,84,9,66,203,32,194,32
"181","343887",38.3747,-94.6472,128,125,31,9601,324,-79,403,181,-3,246,-3,1027,145,34,40,361,113,339,113
"182","51641",37.7835,-95.4534,137,125,31,9414,331,-66,397,231,9,254,9,1001,137,32,40,356,104,337,104
"184","51467",39.4437,-95.1276,122,122,30,9799,320,-83,403,223,-10,243,-10,941,133,25,48,366,86,348,86
"185","342834",39.3658,-94.935,125,122,30,9672,320,-77,397,224,-6,244,-6,938,134,25,48,367,88,350,88
"186","326355",38.9431,-95.0381,128,118,29,9642,322,-72,394,227,-1,248,-1,960,140,28,45,362,93,340,93
"187","50580",38.6601,-95.685,126,125,30,9736,325,-82,407,225,-6,247,-6,927,138,25,45,350,86,325,86
"188","342014",38.9858,-95.1078,128,118,29,9636,322,-73,395,227,0,248,0,961,141,28,45,364,93,342,93
"189","311310",39.2722,-95.0169,124,120,30,9637,320,-76,396,223,-5,243,-5,965,136,26,47,372,90,350,90
"190","272055",40.6757,-95.859,105,128,29,10509,313,-114,427,214,-38,235,-38,833,110,20,48,325,72,318,72
"193","326623",38.5628,-94.8481,129,124,30,9601,325,-76,401,226,-2,247,-2,1003,148,32,42,361,106,340,106
"194","51471",38.349,-94.7977,129,126,31,9618,327,-78,405,183,-2,248,-2,1020,146,33,40,361,111,338,111
"196","51649",39.0831,-95.5222,125,120,30,9762,320,-80,400,224,-6,247,-6,910,138,25,46,352,88,333,88
"197","733834",41.95,-88.4333,86,115,28,10294,287,-121,408,213,-54,213,-54,934,109,33,32,318,128,318,128
"198","2098799",42.1333,-87.75,94,98,26,9737,280,-96,376,215,-36,215,-36,897,99,36,27,292,141,292,141
"199","127603",41.8333,-87.85,98,106,27,10005,291,-99,390,221,-37,221,-37,927,103,36,28,302,142,302,142
"203","343881",38.3747,-94.6608,128,125,31,9601,324,-79,403,181,-3,246,-3,1027,145,34,40,361,113,339,113
"204","342886",39.1592,-94.7936,127,113,29,9670,319,-70,389,226,-2,247,-2,967,132,29,44,362,96,340,96
"205","51464",38.8031,-95.1861,126,118,29,9597,319,-75,394,224,-2,246,-2,970,145,29,45,365,94,344,94
"206","51453",39.171,-94.7813,128,115,29,9708,321,-70,391,228,-2,248,-2,962,130,29,44,363,95,341,95
"208","51458",38.957,-95.2502,127,117,29,9668,320,-75,395,225,-2,247,-2,959,144,27,45,367,92,345,92
"209","321300",42.6772,-96.6735,88,133,29,11134,307,-143,450,204,-63,225,-63,656,103,12,54,278,48,263,48
"214","51660",37.4238,-95.2005,137,124,31,9401,331,-68,399,189,10,254,10,1041,133,35,37,359,119,315,119
"217","343862",38.3747,-94.6608,128,125,31,9601,324,-79,403,181,-3,246,-3,1027,145,34,40,361,113,339,113
"218","51417",39.9424,-95.2384,114,126,30,10277,317,-102,419,220,-27,240,-27,891,118,22,48,339,78,332,78
"219","51654",38.9768,-94.9668,128,117,29,9643,321,-72,393,227,-1,248,-1,961,139,29,44,361,94,340,94
"222","51432",39.6806,-95.5162,116,128,30,10072,319,-97,416,220,-20,241,-20,921,130,23,49,357,80,344,80
"223","326679",38.9181,-94.9792,128,117,29,9643,321,-72,393,227,-1,248,-1,961,139,29,44,361,94,340,94
