"","catalogNumber","lat","lon","bio1","bio2","bio3","bio4","bio5","bio6","bio7","bio8","bio9","bio10","bio11","bio12","bio13","bio14","bio15","bio16","bio17","bio18","bio19"
"1","7755",45.71528,-121.4575,98,122,40,6517,277,-28,305,22,182,182,16,865,159,8,73,449,47,47,422
"2","30289",45.64611,-122.4575,111,107,41,5242,263,6,257,51,179,179,46,1373,216,23,55,610,119,125,567
"4","30276",46.82528,-122.98278,103,111,44,4955,251,2,249,47,168,168,43,1281,200,22,59,593,102,102,543
"5","30287",46.794167,-123.016945,105,112,45,4913,252,4,248,49,169,169,45,1306,206,22,60,605,102,102,556
"8","185471",46.465,-122.88333,106,114,44,4968,258,2,256,48,170,170,44,1279,210,23,59,599,110,112,538
"9","30280",47.056667,-123,103,111,44,4967,251,3,248,47,168,168,43,1335,216,22,63,637,95,95,588
"10","7753",48.079723,-123.13556,88,87,40,4561,213,-2,215,36,147,147,33,913,149,23,55,413,89,95,380
"11","30290",45.68667,-122.46694,107,109,42,5149,258,1,257,48,172,173,42,1573,249,25,56,706,130,136,656
"14","30281",46.776943,-123.016945,105,112,45,4913,252,4,248,49,169,169,45,1306,206,22,60,605,102,102,556
"17","162872",46.53528,-123.1325,101,110,44,4808,246,1,245,46,163,164,42,1501,234,25,59,692,118,129,634
"18","181870",46.51,-122.816666,103,113,44,5000,255,1,254,46,168,168,42,1302,216,23,59,613,113,113,549
"19","7754",47.641388,-120.47444,46,116,34,7641,238,-99,337,-44,142,144,-50,730,127,16,62,357,70,72,327
"31","7756",46.795,-123.016945,105,112,45,4913,252,4,248,49,169,169,45,1306,206,22,60,605,102,102,556
"55","V233540",49.137222,-122.57861,95,91,37,5248,230,-11,241,33,162,162,29,1520,220,46,47,629,169,169,578
"56","V211970",48.77722,-123.68056,94,88,39,4817,222,-1,223,39,156,156,35,1220,207,24,66,600,87,87,538
"57","V214951",48.783333,-123.7,94,88,39,4817,222,-1,223,39,156,156,35,1220,207,24,66,600,87,87,538
"58","V215828",48.466667,-123.666664,79,81,39,4499,201,-6,207,30,137,139,26,1340,234,26,66,660,93,114,602
"59","V209120",49.116665,-122.75,96,89,37,5158,228,-8,236,35,162,162,31,1324,194,40,48,557,147,147,511
"60","V230685",49.65222,-124.470276,101,74,33,5170,228,9,219,45,170,170,39,1206,179,40,50,514,136,136,459
"61","36186",49.6833,-124.9833,94,83,36,5232,226,-3,229,36,164,164,32,1318,214,38,58,604,126,126,533
"62","WILLU24965",43.7467,-122.4606,96,134,44,5714,276,-22,298,31,171,171,27,1338,215,18,61,622,95,95,557
"63","OSC1854-1",45.5231,-122.9886,111,115,43,5335,268,3,265,49,180,180,45,1008,174,15,63,484,77,77,447
"64","ORE111844",43.9828,-124.0986,112,96,51,3381,215,29,186,74,152,156,70,1935,318,19,66,912,108,111,857
"65","ORE66785",44.0878,-123.1575,116,114,43,5171,276,15,261,58,184,186,54,1201,206,12,67,595,72,74,536
"66","WILLU19935",44.7833,-123.1083,113,122,45,5191,277,7,270,54,180,181,50,1100,186,12,67,532,65,67,503
"68","OSC74031",44.583,-123.2411,113,117,44,5143,274,9,265,54,179,181,50,1083,184,11,67,525,64,66,492
"69","OSC47837",44.5402,-123.3014,111,117,44,5136,272,8,264,52,177,179,48,1114,198,12,68,552,65,70,513
"70","ORE111732",44.0198,-123.2546,114,118,44,5134,274,9,265,55,180,182,51,1180,207,12,68,583,68,72,535
"71","OSC205090",42.1012,-122.4592,64,146,44,6305,258,-71,329,-6,146,146,-12,741,129,10,62,351,54,57,316
"72","WILLU32034",44.9358,-122.9989,113,119,44,5269,274,5,269,53,182,183,49,1050,173,13,62,494,71,74,462
"73","OSC142218",44.4076,-123.2975,113,116,43,5166,273,9,264,54,180,181,50,1119,198,12,68,554,66,71,511
"75","OSC171359",44.0522,-123.0856,113,116,44,5108,273,10,263,55,180,182,52,1226,207,13,66,598,75,78,540
"76","WILLU591",44.9431,-123.0339,113,122,45,5231,277,6,271,53,181,182,49,1044,176,12,65,502,65,69,471
"77","ORE110555",44.1411,-123.2976,114,117,43,5180,274,8,266,55,181,183,51,1153,203,12,68,572,66,70,525
"78","ORE17999",45.3514,-122.6208,116,109,42,5336,270,11,259,55,186,186,51,1177,191,19,57,540,96,96,496
"80","WILLU23479",44.9675,-124.0156,105,87,48,3353,205,27,178,68,145,149,64,2279,368,34,62,1056,159,162,985
"81","WILLU26465",45.0903,-123.0431,113,123,45,5251,277,5,272,52,181,181,48,1018,177,12,66,492,62,72,462
"82","ORE16524",45.4392,-122.6564,118,107,41,5383,270,11,259,56,188,188,52,1097,177,18,57,503,92,92,461
"83","OSC160374",44.8759,-123.2249,112,124,45,5195,279,6,273,52,179,180,49,1148,206,12,70,573,62,68,539
"84","WILLU2415",44.8514,-123.1856,112,124,45,5195,279,6,273,52,179,180,49,1148,206,12,70,573,62,68,539
"85","OSC171002",44.6286,-123.0996,113,118,44,5121,275,8,267,55,181,181,52,1089,178,11,65,509,65,65,488
"86","ORE66780",44.0058,-122.9633,114,115,43,5051,273,11,262,57,180,182,53,1237,199,15,62,580,85,86,522
"87","ORE16507",44.0631,-123.395,111,117,44,5046,269,7,262,54,176,179,50,1267,224,12,69,627,70,76,577
"88","OSC167864",45.2954,-123.4118,88,113,46,4594,235,-8,243,38,147,150,34,2257,398,24,70,1117,118,135,1042
"89","ORE16506",44.0581,-123.7981,106,108,47,4252,240,12,228,59,160,163,55,1890,329,17,70,927,95,104,863
"91","OSC165662",44.6107,-123.2359,111,118,44,5144,274,8,266,53,177,179,49,1116,191,11,67,543,64,66,512
"93","OSC215369",44.0508,-123.2491,113,117,44,5132,274,10,264,55,180,182,52,1194,206,12,67,588,71,73,536
"94","OSC171039",44.9632,-123.0447,113,122,45,5231,277,6,271,53,181,182,49,1044,176,12,65,502,65,69,471
"95","ORE111891",44.0649,-123.3556,111,117,44,5046,269,7,262,54,176,179,50,1267,224,12,69,627,70,76,577
"96","JEPS75129",39.36281,-122.744,99,145,47,5674,282,-21,303,44,175,176,38,1181,219,3,82,606,24,37,593
"97","OSC142228",44.4076,-123.2975,113,116,43,5166,273,9,264,54,180,181,50,1119,198,12,68,554,66,71,511
"98","WILLU32033",44.9431,-123.0339,113,122,45,5231,277,6,271,53,181,182,49,1044,176,12,65,502,65,69,471
"101","30285",46.794167,-123.016945,105,112,45,4913,252,4,248,49,169,169,45,1306,206,22,60,605,102,102,556
"102","30288",45.64611,-122.4575,111,107,41,5242,263,6,257,51,179,179,46,1373,216,23,55,610,119,125,567
"103","7754",47.641388,-120.47444,46,116,34,7641,238,-99,337,-44,142,144,-50,730,127,16,62,357,70,72,327
"105","30278",46.82528,-122.98278,103,111,44,4955,251,2,249,47,168,168,43,1281,200,22,59,593,102,102,543
"107","7756",46.795,-123.016945,105,112,45,4913,252,4,248,49,169,169,45,1306,206,22,60,605,102,102,556
"111","30279",47.056667,-123,103,111,44,4967,251,3,248,47,168,168,43,1335,216,22,63,637,95,95,588
"112","30286",46.82528,-122.98278,103,111,44,4955,251,2,249,47,168,168,43,1281,200,22,59,593,102,102,543
"113","30282",46.776943,-123.016945,105,112,45,4913,252,4,248,49,169,169,45,1306,206,22,60,605,102,102,556
"115","185471",46.465,-122.88333,106,114,44,4968,258,2,256,48,170,170,44,1279,210,23,59,599,110,112,538
"116","7753",48.079723,-123.13556,88,87,40,4561,213,-2,215,36,147,147,33,913,149,23,55,413,89,95,380
"120","ORE16522",45.5231,-122.9886,111,115,43,5335,268,3,265,49,180,180,45,1008,174,15,63,484,77,77,447
