"","catalogNumber","lat","lon","bio1","bio2","bio3","bio4","bio5","bio6","bio7","bio8","bio9","bio10","bio11","bio12","bio13","bio14","bio15","bio16","bio17","bio18","bio19"
"1","3420783",3.4308333,-95.60306,NA,NA,NA,NA,NA,NA,NA,NA,NA,NA,NA,NA,NA,NA,NA,NA,NA,NA,NA
"2","338590",34.4769,-97.0308,163,133,35,8440,345,-30,375,208,51,270,51,933,139,38,37,334,130,231,130
"3","359806",37.7992,-96.8445,133,130,32,9519,331,-73,404,229,7,253,7,875,131,21,46,343,83,319,83
"4","342504",33.4308,-95.6031,172,127,35,8055,346,-12,358,171,63,272,63,1130,142,58,24,349,225,239,225
"5","348432",37.2539,-94.825,139,123,32,9070,328,-54,382,189,18,253,18,1078,135,38,34,367,138,314,138
"6","359804",38.4646,-97.1509,125,131,31,9967,332,-87,419,226,-10,250,-10,840,128,21,46,329,79,297,79
"7","325652",38.3667,-97.15,126,131,31,9976,333,-87,420,226,-10,250,-10,829,127,19,47,330,73,299,73
"8","342560",38.1694,-95.4308,131,126,31,9579,327,-75,402,227,0,249,0,987,144,28,43,359,97,343,97
"9","342814",38.1442,-97.3525,128,129,31,9902,336,-79,415,228,-4,253,-4,810,121,18,48,322,71,292,71
"10","351672",37.7784,-93.8083,128,136,33,9263,325,-78,403,179,2,243,2,1062,126,38,31,353,147,304,147
"14","342567",38.1694,-95.4311,131,126,31,9579,327,-75,402,227,0,249,0,987,144,28,43,359,97,343,97
"15","65791",38.3879,-97.1551,126,131,31,9976,333,-87,420,226,-10,250,-10,829,127,19,47,330,73,299,73
"16","331152",38.3139,-96.9889,128,132,31,9813,334,-83,417,227,-4,251,-4,841,131,19,49,336,70,305,70
"17","359800",38.4079,-96.3733,127,130,31,9714,328,-83,411,225,-4,248,-4,877,138,21,49,346,74,322,74
"18","363857",38.3819,-96.5758,129,131,31,9715,331,-81,412,226,-3,249,-3,861,135,21,49,338,74,313,74
"19","342497",32.7875,-96.3431,179,126,35,7941,352,-3,355,221,72,278,72,1001,135,49,28,327,196,201,196
"20","359839",36.8119,-97.2651,147,131,32,9478,350,-55,405,242,21,267,21,839,117,25,41,307,89,273,89
"21","50266",37.7128,-97.4508,135,125,30,9759,338,-67,405,234,7,259,7,779,114,19,47,309,72,285,72
"25","325653",38.4333,-96.15,126,128,31,9738,326,-83,409,224,-6,247,-6,913,144,24,48,358,80,336,80
"26","51431",38.7054,-97.4496,129,131,31,10002,338,-80,418,231,-3,256,-3,793,116,23,44,311,84,278,84
"27","2228151",33.3833,-95.7,172,128,35,8027,346,-12,358,170,64,272,64,1121,142,56,24,348,225,234,225
"28","2794779",32.79,-96.35,179,126,35,7941,352,-3,355,221,72,278,72,1001,135,49,28,327,196,201,196
"29","1800737",32.43,-95.6,181,130,37,7458,350,6,344,221,274,274,80,1054,128,48,24,328,198,198,240
"31","2795346",32.79,-96.34,179,126,35,7941,352,-3,355,221,72,278,72,1001,135,49,28,327,196,201,196
"32","2794944",38.37,-97.15,126,131,31,9976,333,-87,420,226,-10,250,-10,829,127,19,47,330,73,299,73
"34","548023",33.431,-95.603,172,127,35,8055,346,-12,358,171,63,272,63,1130,142,58,24,349,225,239,225
"35","barcode-00112763",33.42361,-95.61,172,127,35,8055,346,-12,358,171,63,272,63,1130,142,58,24,349,225,239,225
"36","359803",38.4646,-97.1509,125,131,31,9967,332,-87,419,226,-10,250,-10,840,128,21,46,329,79,297,79
"37","331130",38.3139,-96.9889,128,132,31,9813,334,-83,417,227,-4,251,-4,841,131,19,49,336,70,305,70
"39","359798",38.4079,-96.3733,127,130,31,9714,328,-83,411,225,-4,248,-4,877,138,21,49,346,74,322,74
"43","barcode-00112763",33.42361,-95.61,172,127,35,8055,346,-12,358,171,63,272,63,1130,142,58,24,349,225,239,225
"44","363857",38.3819,-96.5758,129,131,31,9715,331,-81,412,226,-3,249,-3,861,135,21,49,338,74,313,74
