"","catalogNumber","lat","lon","bio1","bio2","bio3","bio4","bio5","bio6","bio7","bio8","bio9","bio10","bio11","bio12","bio13","bio14","bio15","bio16","bio17","bio18","bio19"
"1","28434",46.855337,-121.856092,37,82,35,5324,175,-57,232,-19,106,110,-23,2731,425,48,59,1254,215,235,1165
"3","28434",46.855337,-121.856092,37,82,35,5324,175,-57,232,-19,106,110,-23,2731,425,48,59,1254,215,235,1165
"5","CAGE2-42027",40.914265,-77.8185,95,114,31,8913,284,-81,365,187,-24,207,-24,991,107,62,15,301,198,291,198
"6","CAGE2-08035",39.346424,-104.93045,85,173,42,8042,298,-110,408,167,-15,192,-15,437,64,12,46,174,44,163,44
"7","173893",39.4394,-105.081,89,169,41,8105,300,-104,404,171,-11,197,-11,438,66,12,44,170,46,153,46
"8","CAGE2-08013",40.08847,-105.35729,53,158,43,7295,253,-114,367,126,-36,150,-36,443,59,17,39,165,57,157,57
"9","CAGE2-08069",40.648766,-105.45632,33,149,41,7369,233,-125,358,107,-55,131,-55,471,61,21,36,173,66,165,66
"10","CAGE2-08047",39.858814,-105.51952,14,151,42,7277,209,-149,358,-5,24,111,-73,608,64,37,19,181,126,173,128
"11","CAGE2-08093",39.11674,-105.71356,17,168,40,8244,227,-183,410,123,-89,123,-89,384,64,13,50,166,46,166,46
"12","CAGE2-56001",41.64932,-105.74358,52,152,39,8194,269,-115,384,135,-49,161,-49,321,48,12,44,131,37,114,37
"14","173904",40.5988,-105.8502,0,143,40,7542,198,-158,356,-20,10,99,-91,633,63,41,14,182,138,175,138
"15","173895",39.9136,-105.8762,-1,144,39,7657,194,-169,363,-20,10,99,-95,659,68,40,14,191,139,165,164
"16","173906",40.6191,-105.9626,-9,137,39,7495,185,-163,348,-31,1,90,-99,677,68,43,13,195,147,180,155
"18","CAGE2-08117",39.618526,-106.10784,1,149,39,7797,199,-174,373,98,12,102,-95,560,58,34,15,157,119,154,135
"19","273467",39.9222,-106.2402,26,169,40,8474,245,-170,415,127,-84,134,-84,418,45,26,17,128,89,125,89
"20","173916",38.3931,-106.2486,-3,155,40,8034,192,-195,387,95,31,100,-105,576,73,36,23,191,118,178,130
"21","101449",36.498,-106.254,39,166,43,7377,237,-145,382,129,73,135,-55,573,86,32,32,207,105,192,127
"22","CAGE2-08109",38.079468,-106.29879,20,166,40,8252,222,-183,405,119,59,124,-87,441,62,27,29,160,87,146,90
"23","CAGE2-08057",40.662437,-106.338974,25,167,41,8266,247,-155,402,109,-67,132,-80,597,57,39,10,166,131,161,133
"24","CAGE2-35039",36.509144,-106.69709,68,185,42,8250,287,-147,434,168,106,174,-40,381,64,20,40,155,66,135,72
"25","CAGE2-08037",39.624386,-106.703545,27,173,41,8420,247,-172,419,129,-34,134,-82,411,43,26,14,124,92,118,94
"26","173909",39.0203,-106.7556,-15,150,39,8010,181,-201,382,84,16,89,-113,636,64,37,16,176,133,163,169
"27","CAGE2-56025",42.965153,-106.80461,67,148,35,9197,298,-120,418,108,-48,189,-48,290,52,11,47,125,36,81,36
"28","173901",38.682,-106.8114,11,183,40,9183,234,-222,456,119,55,124,-113,463,50,27,18,138,90,125,126
"29","CAGE2-56033",44.79411,-106.88206,69,162,36,9408,303,-137,440,115,-52,192,-52,367,63,13,52,166,45,114,45
"30","173891",37.3706,-106.8859,30,179,43,7975,237,-174,411,127,66,132,-73,582,73,27,25,189,97,161,136
"31","173910",39.2408,-106.8884,24,178,41,8616,246,-188,434,127,63,133,-89,430,44,29,13,126,93,116,109
"32","173896",38.99335,-106.90752,-18,149,39,7951,175,-203,378,80,12,84,-116,677,69,38,17,186,139,171,181
"33","CAGE2-08097",39.220673,-106.921364,11,169,40,8400,225,-191,416,113,48,118,-96,485,49,31,13,138,104,127,125
"34","CAGE2-56007",41.691254,-106.93049,59,146,36,8862,285,-114,399,100,-50,177,-50,265,38,13,31,94,40,72,40
"35","dbsn301445",38.89702,-106.97916,5,173,40,8750,220,-211,431,-109,44,115,-109,548,58,30,18,158,106,134,158
"36","CAGE2-08107",40.48419,-106.98738,47,181,40,9198,287,-160,447,-59,162,162,-76,498,49,35,10,139,111,111,135
"37","173902",38.95702,-107.00205,-7,159,39,8195,195,-204,399,93,26,98,-110,592,59,33,16,165,121,149,158
"38","CAGE2-08051",38.668938,-107.013565,13,181,40,8997,234,-213,447,119,55,124,-107,485,51,27,17,141,94,126,133
"39","CAGE2-08007",37.18671,-107.052345,54,194,43,8304,275,-167,442,154,92,159,-55,491,64,21,27,162,80,134,117
"40","103627",39.998318,-107.09866,-9,141,39,7700,185,-174,359,-33,4,92,-101,638,64,42,11,171,147,156,164
"41","173900",38.86515,-107.13324,-3,163,40,8258,201,-204,405,97,31,102,-108,577,59,32,16,164,116,148,153
"42","205833",38.7039,-107.1381,-9,161,40,8167,192,-208,400,90,24,95,-112,638,65,34,17,181,126,162,169
"43","173894",39.6587,-107.174,20,163,40,8173,232,-170,402,121,55,126,-82,477,46,33,11,133,111,125,114
"44","207796",37.4285,-107.1954,37,188,43,8201,253,-179,432,135,74,140,-71,534,70,24,27,181,90,152,120
"45","56698",36.99,-107.28,66,183,42,8255,285,-145,430,166,103,172,-42,465,62,19,28,155,73,128,111
"46","209439",38.4958,-107.4918,27,183,41,8503,245,-191,436,128,66,134,-85,468,54,26,19,150,96,131,106
"47","173903",37.9767,-107.5502,-24,146,41,7109,159,-192,351,65,2,69,-108,941,101,43,21,268,164,233,252
"48","CAGE2-08111",37.770294,-107.6672,-5,161,42,7327,187,-188,375,85,24,89,-96,818,90,37,21,249,142,213,208
"49","CAGE2-56043",43.90722,-107.68429,71,172,35,10108,320,-163,483,124,-62,202,-62,254,44,9,49,113,30,72,30
"50","207251",37.3441,-107.7321,35,173,43,7682,241,-161,402,128,68,133,-63,660,79,28,24,210,108,177,163
"51","173911",39.8736,-107.7528,37,165,40,8208,254,-153,407,21,119,143,-66,499,50,33,11,138,117,120,117
"52","CAGE2-08091",38.156773,-107.76579,54,181,43,7926,269,-147,416,151,90,157,-46,510,58,27,20,163,107,140,109
"53","CAGE2-08045",39.60325,-107.89693,52,170,40,8352,273,-145,418,40,-55,160,-55,456,44,30,11,126,103,110,103
"54","173892",39.0403,-107.9492,10,151,40,7739,208,-169,377,-53,86,111,-85,724,85,34,19,207,146,153,192
"55","173912",39.7751,-108.0019,51,173,40,8385,275,-147,422,39,-56,160,-56,444,43,30,12,125,97,109,97
"56","173915",39.8042,-108.096,53,175,41,8478,279,-147,426,42,-55,163,-55,433,42,28,13,123,92,107,92
"57","173913",39.9497,-108.1148,52,180,41,8551,283,-153,436,42,-58,163,-58,414,40,26,14,118,85,105,85
"58","CAGE2-08103",39.97526,-108.199104,54,183,41,8693,287,-156,443,46,-58,167,-58,395,39,24,16,114,78,101,78
"59","CAGE2-08081",40.608315,-108.202446,51,182,40,9189,292,-163,455,45,-70,169,-70,331,34,19,17,95,63,83,63
"60","CAGE2-08085",38.405804,-108.26907,34,159,41,7729,238,-148,386,130,66,135,-62,606,62,29,17,179,121,152,144
"61","CAGE2-08077",39.021885,-108.468155,115,150,34,9546,339,-93,432,184,-11,237,-11,235,26,13,22,74,43,57,43
"62","CAGE2-08033",37.754723,-108.5218,63,160,40,8084,276,-124,400,163,99,169,-39,487,54,20,22,153,86,125,113
"63","173914",39.7314,-108.5287,41,153,38,8352,256,-143,399,24,-63,151,-63,493,52,31,12,138,111,117,111
"64","173907",38.7331,-108.5941,52,148,38,8139,260,-127,387,153,87,159,-49,509,51,25,17,147,104,125,117
"65","CAGE2-08083",37.33574,-108.59552,91,164,39,8689,312,-108,420,158,131,204,-21,348,39,12,25,112,58,84,80
"66","CAGE2-56013",43.028427,-108.62899,68,163,35,9853,307,-147,454,119,-60,195,-60,231,47,6,60,112,21,65,21
"67","201504",37.7704,-108.6726,56,153,39,7990,264,-125,389,154,90,160,-45,517,57,20,23,161,89,131,123
"68","CAGE2-56037",41.65759,-108.8941,50,155,37,9140,283,-134,417,94,-65,170,-65,217,32,11,31,77,35,63,35
"69","CAGE2-49009",40.889908,-109.50504,50,146,36,8590,268,-128,396,87,-57,163,-57,314,35,17,21,98,55,86,55
"70","CAGE2-49047",40.12558,-109.51832,83,178,35,10893,339,-164,503,161,-68,217,-68,194,24,10,23,62,34,49,34
"71","CAGE2-49019",38.99357,-109.55904,114,160,36,9700,347,-97,444,184,-14,238,-14,233,27,12,21,74,46,57,46
"72","CAGE2-56029",44.493416,-109.56323,38,153,40,7778,250,-131,381,70,-57,142,-57,423,58,20,32,156,67,125,67
"73","CAGE2-49037",37.63116,-109.80502,85,138,36,8522,292,-91,383,189,122,197,-22,363,43,12,27,116,54,93,93
"74","CAGE2-56035",42.761066,-109.91962,15,179,39,9264,254,-195,449,109,-88,133,-106,279,37,15,27,95,51,84,52
"75","CAGE2-49013",40.281647,-110.4353,63,159,37,9118,287,-142,429,132,-36,179,-58,273,28,19,14,82,58,73,59
"76","CAGE2-56039",43.922546,-110.573555,1,161,38,8656,228,-185,413,-94,107,113,-109,626,76,37,22,208,119,129,201
"77","CAGE2-49007",39.643913,-110.58279,74,152,35,9190,298,-125,423,144,-32,193,-45,273,31,18,19,87,54,76,55
"78","CAGE2-56023",42.260036,-110.70266,0,155,38,8458,222,-176,398,35,68,111,-104,435,42,30,9,116,102,105,113
"79","CAGE2-30059",46.591534,-110.86367,41,144,37,7955,253,-127,380,120,-58,146,-58,435,70,17,46,182,62,155,62
"80","4774",40.699722,-110.89361,-1,127,36,7631,194,-151,345,-86,101,101,-89,700,77,40,20,216,133,133,211
"81","CAGE2-49043",40.88364,-110.96586,11,134,37,7776,212,-146,358,-75,115,115,-80,632,68,38,19,191,119,119,187
"83","CAGE2-49051",40.332733,-111.15879,19,136,36,7937,221,-148,369,-69,124,124,-77,659,71,35,21,206,121,121,203
"84","CAGE2-30031",45.55805,-111.173515,50,139,35,8338,265,-122,387,87,-54,159,-54,534,80,23,37,206,80,153,80
"85","CAGE2-16081",43.75495,-111.21255,42,153,36,8910,270,-145,415,84,-16,157,-72,455,57,31,20,140,98,111,114
"86","50905",43.10306,-111.26389,28,148,37,8470,249,-146,395,64,133,138,-79,494,52,30,15,138,104,110,134
"88","50905",43.10306,-111.26389,28,148,37,8470,249,-146,395,64,133,138,-79,494,52,30,15,138,104,110,134
"90","CAGE2-16043",44.217247,-111.48447,31,153,36,9057,260,-157,417,-71,141,147,-85,555,65,29,25,181,94,112,180
"91","CAGE2-16029",42.75907,-111.550804,45,149,37,8599,269,-131,400,83,150,156,-65,427,48,26,15,126,90,96,109
"92","229129",41.83,-111.57,30,152,38,8342,251,-144,395,14,139,139,-74,468,45,26,14,132,93,93,126
"93","CAGE2-49039",39.373352,-111.57516,73,160,38,8722,299,-118,417,63,186,186,-40,320,32,19,12,87,69,69,79
"94","CAGE2-49029",41.08132,-111.57914,61,167,40,8445,292,-124,416,51,171,171,-48,503,55,24,22,155,85,85,130
"95","CAGE2-16019",43.379543,-111.6016,43,140,35,8600,262,-134,396,82,149,154,-67,401,47,25,17,123,85,95,99
"96","CAGE2-49049",40.117393,-111.66971,102,151,36,8972,331,-82,413,94,219,219,-13,428,45,20,22,131,70,70,115
"97","CAGE2-49005",41.690983,-111.74895,25,145,37,8131,241,-142,383,-61,132,132,-75,569,57,30,19,167,105,105,165
"98","CAGE2-49035",40.67071,-111.92549,107,134,33,9097,331,-71,402,97,227,227,-9,408,52,20,26,142,70,70,94
"99","6970",40.2725,-111.937225,81,142,36,8590,301,-93,394,68,194,194,-28,501,54,26,21,151,86,86,136
"100","218511",40.43,-111.98,92,142,35,8821,316,-85,401,83,209,209,-20,444,51,22,22,143,76,76,112
"101","CAGE2-30043",46.177483,-112.10538,51,153,38,8333,271,-129,400,135,-53,161,-53,335,56,11,50,143,44,126,44
"102","CAGE2-16005",42.667572,-112.22191,69,148,36,8761,299,-108,407,110,176,182,-45,355,41,20,18,106,68,75,91
"103","50900",42.78266,-112.40142,67,147,36,8738,296,-108,404,58,174,180,-46,354,40,20,18,105,66,73,93
"105","50900",42.78266,-112.40142,67,147,36,8738,296,-108,404,58,174,180,-46,354,40,20,18,105,66,73,93
"107","166352",40.48,-112.58,73,136,35,8504,290,-97,387,55,187,187,-30,495,57,27,21,156,88,88,129
"108","CAGE2-30093",45.895954,-112.65761,29,148,38,8068,244,-143,387,109,-72,135,-72,376,61,14,43,150,53,135,53
"109","CAGE2-49023",39.7114,-112.795944,100,162,37,9368,339,-98,437,89,223,223,-19,206,25,14,19,68,44,44,44
"110","CAGE2-30001",45.11615,-112.89569,41,156,38,8303,264,-138,402,124,-64,149,-64,280,50,7,55,124,28,109,28
"111","CAGE2-30035",48.7001,-113.018616,41,129,34,8309,242,-135,377,124,-9,148,-65,447,75,23,41,174,72,158,77
"112","50592",42.14732,-113.08665,39,145,37,8239,259,-132,391,69,106,147,-63,462,50,30,16,130,92,106,127
"114","50592",42.14732,-113.08665,39,145,37,8239,259,-132,391,69,106,147,-63,462,50,30,16,130,92,106,127
"116","CAGE2-49027",39.04659,-113.104744,104,179,39,9259,349,-101,450,98,-15,226,-15,190,21,11,23,62,33,44,33
"117","CAGE2-49045",40.445423,-113.18215,108,141,33,9513,339,-82,421,151,-12,233,-12,195,25,12,22,66,38,48,38
"118","CAGE2-49001",38.34078,-113.22875,81,177,41,8466,312,-111,423,67,-25,193,-25,298,34,15,23,89,58,77,58
"119","CAGE2-49053",37.278484,-113.51674,90,156,41,7662,296,-77,373,8,119,192,-3,428,54,13,29,141,68,93,125
"120","CAGE2-16031",42.27151,-113.61088,39,148,38,8050,257,-131,388,69,105,145,-60,429,47,27,18,123,83,100,119
"121","3343",49.094444,-113.861664,33,133,36,7813,233,-136,369,112,-14,134,-67,572,78,34,26,191,115,172,122
"122","36094",49.044445,-113.9125,28,133,36,7768,228,-139,367,67,-24,129,-70,599,79,36,24,193,127,173,135
"124","36095",49.044445,-113.9125,28,133,36,7768,228,-139,367,67,-24,129,-70,599,79,36,24,193,127,173,135
"126","CAGE2-30063",47.040997,-113.925446,13,140,38,7424,223,-140,363,-69,107,111,-77,630,68,36,20,188,126,146,180
"127","CAGE2-16059",44.955654,-113.94938,45,168,39,8566,280,-143,423,130,-44,154,-67,292,43,14,34,108,50,94,56
"128","V133581",49.033333,-113.95,10,128,35,7586,205,-154,359,44,-33,108,-85,662,83,40,20,208,145,181,159
"131","CAGE2-16013",43.394276,-113.97844,52,160,37,9055,286,-140,426,-52,161,168,-67,365,47,16,33,133,55,67,129
"137","V133608",49.033333,-114.01667,5,127,35,7528,200,-158,358,38,66,103,-88,685,84,42,19,212,153,183,170
"138","3344",49.136665,-114.021385,6,126,35,7560,200,-158,358,40,-35,104,-88,673,84,41,20,212,147,184,162
"139","25267",49.094166,-114.035,6,126,35,7560,200,-158,358,40,-35,104,-88,673,84,41,20,212,147,184,162
"140","2728105",49.12,-114.05,6,126,35,7560,200,-158,358,40,-35,104,-88,673,84,41,20,212,147,184,162
"141","V133568",49.116665,-114.05,6,126,35,7560,200,-158,358,40,-35,104,-88,673,84,41,20,212,147,184,162
"145","V133559",49.116665,-114.05,6,126,35,7560,200,-158,358,40,-35,104,-88,673,84,41,20,212,147,184,162
"147","3342",49.009445,-114.05055,5,127,35,7528,200,-158,358,38,66,103,-88,685,84,42,19,212,153,183,170
"149","3341",49.009445,-114.05055,5,127,35,7528,200,-158,358,38,66,103,-88,685,84,42,19,212,153,183,170
"151","V133627",49.05,-114.066666,5,127,35,7528,200,-158,358,38,66,103,-88,685,84,42,19,212,153,183,170
"154","V133490",49.05,-114.066666,5,127,35,7528,200,-158,358,38,66,103,-88,685,84,42,19,212,153,183,170
"156","MT00107597",49.033333,-114.2,7,128,35,7554,203,-156,359,41,68,105,-87,704,83,44,18,211,152,180,184
"157","CAGE2-16037",44.231747,-114.29396,32,168,39,8564,264,-158,422,73,99,141,-79,322,39,18,22,98,67,86,86
"160","158765",47.55753,-115.09502,51,144,38,7658,270,-103,373,-37,147,152,-44,661,85,29,29,236,110,125,222
"162","158765",47.55753,-115.09502,51,144,38,7658,270,-103,373,-37,147,152,-44,661,85,29,29,236,110,125,222
"164","162640",47.55826,-115.10851,51,144,38,7658,270,-103,373,-37,147,152,-44,661,85,29,29,236,110,125,222
"166","162640",47.55826,-115.10851,51,144,38,7658,270,-103,373,-37,147,152,-44,661,85,29,29,236,110,125,222
"168","50902",43.806137,-115.132065,26,173,40,8464,261,-163,424,-70,128,133,-85,491,69,19,39,192,69,79,188
"170","50902",43.806137,-115.132065,26,173,40,8464,261,-163,424,-70,128,133,-85,491,69,19,39,192,69,79,188
"172","159570",47.443512,-115.31218,34,140,37,7564,252,-119,371,-49,132,133,-57,809,109,30,33,301,122,136,282
"174","159570",47.443512,-115.31218,34,140,37,7564,252,-119,371,-49,132,133,-57,809,109,30,33,301,122,136,282
"176","CAGE2-16049",45.846912,-115.45927,45,162,41,7456,264,-122,386,-41,137,143,-50,727,85,32,26,230,115,137,222
"177","CAGE2-16039",43.3427,-115.46549,57,160,38,8574,291,-120,411,-39,163,168,-53,485,75,14,49,211,53,62,199
"178","50894",46.230705,-115.49093,58,152,40,7462,277,-97,374,-29,151,157,-35,713,80,30,25,225,111,131,211
"180","50894",46.230705,-115.49093,58,152,40,7462,277,-97,374,-29,151,157,-35,713,80,30,25,225,111,131,211
"182","CAGE2-16085",44.744186,-115.55959,12,170,42,7699,238,-163,401,-74,107,112,-86,628,80,26,30,221,96,112,213
"183","CAGE2-16035",46.668015,-115.65764,49,147,40,7354,265,-102,367,-34,141,146,-42,880,118,30,34,324,119,133,309
"184","CAGE2-16015",44.006325,-115.73923,36,167,41,8055,269,-138,407,-55,135,140,-67,574,81,19,40,227,74,84,218
"185","V214686",49.25,-115.76667,21,117,32,7828,219,-137,356,-70,117,122,-77,777,94,40,26,272,137,157,251
"186","50886",44.67194,-115.83667,22,162,41,7680,246,-147,393,-63,117,122,-75,658,86,23,34,240,92,107,231
"190","50886",44.67194,-115.83667,22,162,41,7680,246,-147,393,-63,117,122,-75,658,86,23,34,240,92,107,231
"192","50887",44.67194,-115.83667,22,162,41,7680,246,-147,393,-63,117,122,-75,658,86,23,34,240,92,107,231
"193","CAGE2-16079",47.3477,-115.88509,48,132,37,7332,260,-96,356,-33,143,145,-40,1011,144,29,41,405,127,138,373
"194","162639",47.535995,-116.0524,67,129,37,7366,274,-73,347,-17,160,164,-24,947,132,29,41,378,118,131,350
"196","162639",47.535995,-116.0524,67,129,37,7366,274,-73,347,-17,160,164,-24,947,132,29,41,378,118,131,350
"198","CAGE2-16073",42.563374,-116.16835,55,168,42,7635,283,-114,397,-30,152,156,-40,371,44,13,33,132,50,62,121
"199","CAGE2-16001",43.448193,-116.2431,102,140,36,8307,322,-59,381,5,205,212,-3,313,39,8,36,114,37,43,103
"201","CAGE2-16021",48.79273,-116.44886,40,116,33,7628,239,-105,344,-48,135,139,-55,821,108,35,35,317,123,140,286
"202","CAGE2-16003",44.895847,-116.45468,61,159,39,8357,292,-113,405,-36,163,169,-48,625,87,17,41,245,70,86,236
"203","50893",47.03167,-116.57083,55,129,37,7066,256,-85,341,-26,144,147,-33,859,117,27,39,334,108,122,315
"205","50893",47.03167,-116.57083,55,129,37,7066,256,-85,341,-26,144,147,-33,859,117,27,39,334,108,122,315
"207","CAGE2-16017",48.294716,-116.59752,60,122,35,7480,260,-79,339,-27,152,157,-34,831,116,30,40,337,107,125,307
"208","191815",44.94082,-116.65463,43,155,39,7877,265,-125,390,-47,140,145,-59,625,83,19,36,234,79,96,225
"209","CAGE2-16009",47.222153,-116.65542,71,129,37,7196,274,-67,341,-13,161,166,-18,782,107,25,40,307,97,111,290
"210","CAGE2-16055",47.67714,-116.6968,73,123,36,7373,274,-66,340,-12,165,170,-18,734,100,25,39,292,94,111,269
"211","CAGE2-16057",46.816364,-116.70586,73,129,37,7030,275,-65,340,-10,161,165,-15,705,89,25,35,261,92,106,245
"212","50885",43.01694,-116.73222,46,160,41,7545,269,-116,385,-37,143,147,-46,442,54,15,34,160,57,71,150
"216","50892",43.01694,-116.73222,46,160,41,7545,269,-116,385,-37,143,147,-46,442,54,15,34,160,57,71,150
"218","CAGE2-16069",46.33121,-116.74628,78,128,37,7162,278,-62,340,-6,169,172,-11,565,60,24,24,174,88,104,159
"219","CAGE2-16087",44.44899,-116.77904,80,156,37,8962,315,-101,416,-27,187,195,-39,478,72,11,49,204,48,58,194
"220","50897",48.200172,-116.90305,69,128,36,7661,276,-73,349,-21,162,169,-27,754,107,28,41,306,97,114,278
"222","50897",48.200172,-116.90305,69,128,36,7661,276,-73,349,-21,162,169,-27,754,107,28,41,306,97,114,278
"224","50599",46.732468,-116.91468,77,127,37,7013,278,-59,337,-6,166,168,-11,640,79,23,34,235,84,98,217
"228","50890",46.732468,-116.91468,77,127,37,7013,278,-59,337,-6,166,168,-11,640,79,23,34,235,84,98,217
"230","OSC95257",45.101,-116.9327,32,151,40,7520,247,-129,376,-53,126,129,-64,596,74,21,31,211,84,103,201
"231","52350",46.761456,-116.99917,72,126,37,6930,271,-64,335,-10,159,162,-15,656,83,23,36,247,84,98,227
"233","52350",46.761456,-116.99917,72,126,37,6930,271,-64,335,-10,159,162,-15,656,83,23,36,247,84,98,227
"235","7206",47.921112,-117.10167,59,119,34,7643,261,-84,345,-30,154,159,-36,707,98,25,40,284,91,108,259
"237","7206",47.921112,-117.10167,59,119,34,7643,261,-84,345,-30,154,159,-36,707,98,25,40,284,91,108,259
"239","7208",46.716667,-117.1525,83,122,36,6980,280,-50,330,1,171,174,-4,555,71,19,36,210,70,83,193
"241","28432",46.731388,-117.16944,83,123,37,6960,279,-50,329,1,171,174,-4,541,70,18,37,206,67,80,189
"243","28432",46.731388,-117.16944,83,123,37,6960,279,-50,329,1,171,174,-4,541,70,18,37,206,67,80,189
"245","CAGE2-41063",45.57748,-117.17291,49,149,40,7258,260,-105,365,-36,139,142,-45,498,53,22,24,154,82,102,142
"246","ORE16918",45.2441,-117.1965,-5,143,40,6991,200,-156,356,-80,86,86,-91,753,98,27,34,278,104,124,265
"247","WILLU12851",45.2661,-117.2092,28,148,40,7243,238,-128,366,-54,119,121,-64,589,71,23,28,202,88,107,191
"248","OSC97178",45.0298,-117.274,13,147,40,7236,222,-143,365,-68,105,106,-78,655,85,24,33,240,92,111,228
"249","CAGE2-53051",48.53484,-117.282486,68,125,34,8083,277,-84,361,-29,165,173,-35,681,92,29,36,263,97,116,237
"250","ORE49081",45.3146,-117.3021,5,143,40,7013,209,-147,356,-72,95,96,-82,715,92,26,33,261,101,120,248
"251","WILLU17248",45.236,-117.3788,-5,141,39,6950,198,-155,353,-79,85,86,-90,756,100,27,35,283,104,123,269
"252","CAGE2-53063",47.61955,-117.403,84,119,34,7807,286,-59,345,-8,182,186,-14,486,67,18,39,193,63,75,176
"253","OSC216582",45.2881,-117.4107,1,141,39,6952,204,-149,353,-74,91,91,-85,732,95,26,34,270,101,120,257
"254","5204",45.28815,-117.41075,1,141,39,6952,204,-149,353,-74,91,91,-85,732,95,26,34,270,101,120,257
"256","5204",45.28815,-117.41075,1,141,39,6952,204,-149,353,-74,91,91,-85,732,95,26,34,270,101,120,257
"258","ORE16919",45.221,-117.4286,8,143,40,7046,213,-144,357,-69,99,99,-80,695,91,25,34,257,97,116,244
"259","CAGE2-53075",46.886677,-117.51906,90,132,39,7050,291,-47,338,6,178,183,2,449,63,15,39,175,55,65,161
"260","CAGE2-53023",46.43395,-117.53476,87,130,38,7011,288,-49,337,5,176,179,0,515,66,16,37,195,63,74,180
"261","7203",46.281113,-117.593056,63,131,38,6916,264,-74,338,-17,151,153,-23,646,85,19,39,250,76,89,232
"263","OSC157015",45.2086,-117.6598,18,143,39,7087,224,-134,358,-61,108,110,-71,660,88,23,35,248,90,109,233
"264","CAGE2-41001",44.71178,-117.67352,59,152,39,7820,278,-105,383,-33,156,160,-41,384,49,16,30,136,60,76,125
"265","28415",46.15836,-117.76244,41,130,38,6834,239,-97,336,-37,128,129,-44,746,102,21,41,296,86,99,276
"266","28415",46.13861,-117.76861,41,130,38,6834,239,-97,336,-37,128,129,-44,746,102,21,41,296,86,99,276
"267","362876",45.8442,-117.79,41,135,39,6888,242,-101,343,-38,129,130,-45,734,100,21,40,288,86,100,270
"268","CAGE2-53065",48.397022,-117.852806,77,134,35,8425,292,-87,379,-26,177,186,-32,484,66,24,32,178,76,91,159
"269","CAGE2-53013",46.301582,-117.91537,82,130,38,6958,284,-52,336,1,170,174,-4,628,84,16,44,252,66,75,231
"270","CAGE2-41061",45.315044,-118.01127,87,138,39,7225,297,-55,352,5,179,183,-2,490,60,16,33,171,63,78,158
"271","CAGE2-32013",41.411068,-118.1169,100,173,41,8114,336,-77,413,4,201,208,-1,219,26,7,30,73,30,39,66
"272","OSC206541",45.3037,-118.1269,64,135,38,7060,268,-79,347,-16,154,156,-24,608,84,17,39,235,70,86,220
"273","OSC210692",45.0781,-118.329,33,142,40,6975,238,-117,355,-46,122,124,-54,649,94,20,41,260,79,96,243
"274","OSC202083",44.6541,-118.4136,40,160,41,7302,258,-124,382,-45,131,135,-54,512,73,18,38,201,70,85,185
"275","366623",44.6542,-118.414,40,160,41,7302,258,-124,382,-45,131,135,-54,512,73,18,38,201,70,85,185
"276","CAGE2-53071",46.22599,-118.47836,110,128,37,7460,314,-31,345,22,204,209,17,373,49,10,39,143,43,48,128
"277","WILLU2699",42.618,-118.4791,89,168,43,7377,311,-74,385,120,181,188,-2,236,26,8,26,72,38,47,61
"278","WILLU23625",43.9603,-118.4982,48,164,41,7634,271,-122,393,-41,143,148,-50,380,50,15,33,140,56,67,128
"279","WILLU23527",43.9167,-118.5181,57,165,41,7699,281,-114,395,-34,151,157,-42,349,46,14,31,127,52,63,116
"280","WILLU28251",44.585,-118.626,49,164,43,7088,267,-113,380,-33,137,142,-41,490,68,17,37,189,66,80,172
"282","WILLU30888",44.585,-118.626,49,164,43,7088,267,-113,380,-33,137,142,-41,490,68,17,37,189,66,80,172
"284","189143",44.68338,-118.66312,21,151,41,6858,228,-134,362,-56,108,110,-65,616,87,21,38,242,81,95,223
"285","WILLU10534",44.2991,-118.6792,11,152,41,6868,218,-145,363,-65,98,101,-75,578,80,21,36,222,79,92,205
"286","CAGE2-41059",45.59362,-118.73371,108,137,39,7162,315,-32,347,24,199,204,20,367,45,10,36,133,44,50,120
"287","OSC184936",44.3289,-118.7975,20,156,42,6953,231,-139,370,-58,108,112,-67,527,72,20,35,200,74,86,183
"288","363252",45.2475,-118.898,57,149,42,6752,263,-91,354,-21,142,145,-28,535,71,16,38,206,65,77,186
"289","WILLU28302",44.3426,-118.9413,71,165,43,7029,292,-86,378,-10,159,165,-16,361,43,15,27,121,57,69,106
"290","CAGE2-41025",43.070633,-118.970856,66,161,43,7004,279,-88,367,-14,155,159,-20,291,33,11,26,93,46,56,81
"291","CAGE2-41023",44.497814,-119.00301,81,163,43,6895,299,-72,371,2,168,173,-4,350,40,14,27,115,54,67,99
"292","WILLU5475",43.918,-119.1177,35,160,42,7056,249,-126,375,-46,124,128,-55,410,53,17,31,149,62,71,135
"293","ORE16916",44.4117,-119.1545,78,165,44,6935,297,-76,373,-2,165,171,-8,342,40,14,27,113,53,66,99
"294","ORE16920",43.8403,-119.3063,49,161,42,7191,265,-112,377,-35,139,143,-43,351,44,15,30,126,54,62,113
"295","OSC181030",45.0896,-119.361,47,143,42,6477,246,-93,339,-26,131,133,-33,540,70,18,36,206,68,80,184
"296","OSC164104",44.159,-119.4423,56,163,43,6996,273,-102,375,-25,144,149,-32,357,44,15,29,126,55,65,111
"297","CAGE2-41049",45.421673,-119.56655,93,135,40,6711,288,-43,331,15,179,182,11,352,44,10,35,126,42,51,112
"298","CAGE2-41069",44.725727,-120.02321,81,153,44,6593,286,-60,346,5,165,169,0,369,46,14,31,129,52,64,111
"299","161507",47.145367,-120.25204,47,113,34,7516,235,-96,331,-42,143,144,-47,573,94,13,55,265,58,63,241
"301","27082",44.406834,-120.276665,49,155,44,6627,256,-96,352,-27,134,136,-33,472,66,18,37,187,65,76,162
"303","26911",44.504684,-120.33105,70,157,44,6675,277,-75,352,-8,154,158,-13,403,54,15,34,151,56,68,130
"305","OSC102041",44.4846,-120.336,47,152,43,6523,252,-95,347,-27,131,133,-33,503,71,18,40,202,66,77,176
"306","34912",47.57611,-120.34889,66,123,34,8066,267,-89,356,-32,165,169,-38,493,86,11,59,240,49,53,219
"308","34912",47.57611,-120.34889,66,123,34,8066,267,-89,356,-32,165,169,-38,493,86,11,59,240,49,53,219
"310","28419",47.753056,-120.355835,70,129,35,8233,276,-88,364,-29,170,175,-36,491,90,11,65,249,48,50,227
"311","28420",47.551666,-120.355835,66,123,34,8066,267,-89,356,-32,165,169,-38,493,86,11,59,240,49,53,219
"314","28419",47.753056,-120.355835,70,129,35,8233,276,-88,364,-29,170,175,-36,491,90,11,65,249,48,50,227
"316","28420",47.551666,-120.355835,66,123,34,8066,267,-89,356,-32,165,169,-38,493,86,11,59,240,49,53,219
"318","CAGE2-41013",44.131687,-120.35894,72,167,45,6782,287,-79,366,-8,157,162,-12,314,42,15,31,115,49,62,97
"319","CAGE2-41037",42.792236,-120.385895,71,153,43,6799,279,-72,351,-4,160,163,-10,319,39,13,29,109,46,60,100
"320","28429",47.78389,-120.423615,53,122,34,7822,251,-98,349,-40,150,153,-47,688,123,15,63,344,66,67,315
"322","7202",47.77722,-120.423615,53,122,34,7822,251,-98,349,-40,150,153,-47,688,123,15,63,344,66,67,315
"324","7202",47.77722,-120.423615,53,122,34,7822,251,-98,349,-40,150,153,-47,688,123,15,63,344,66,67,315
"325","28429",47.78389,-120.423615,53,122,34,7822,251,-98,349,-40,150,153,-47,688,123,15,63,344,66,67,315
"328","CAGE2-06091",39.59074,-120.49915,66,159,45,6442,265,-82,347,-2,151,151,-11,917,157,10,70,433,47,47,429
"329","28433",46.48245,-120.51294,104,141,38,7906,310,-54,364,7,200,207,3,218,37,5,52,101,24,28,92
"330","7205",45.859444,-120.54222,90,129,38,7154,286,-47,333,5,181,184,1,348,60,7,59,170,32,34,152
"332","7205",45.859444,-120.54222,90,129,38,7154,286,-47,333,5,181,184,1,348,60,7,59,170,32,34,152
"334","ORE16917",43.9331,-120.5538,62,164,45,6619,273,-84,357,-14,146,150,-19,305,41,15,32,114,50,62,94
"335","28428",47.377777,-120.559166,51,114,34,7486,239,-92,331,-38,146,147,-43,728,126,15,61,355,68,70,326
"337","28428",47.377777,-120.559166,51,114,34,7486,239,-92,331,-38,146,147,-43,728,126,15,61,355,68,70,326
"339","163775",47.378056,-120.56333,51,114,34,7486,239,-92,331,-38,146,147,-43,728,126,15,61,355,68,70,326
"341","163775",47.378056,-120.56333,51,114,34,7486,239,-92,331,-38,146,147,-43,728,126,15,61,355,68,70,326
"343","163841",47.2523,-120.58563,41,105,33,7148,219,-93,312,-42,133,133,-47,913,156,18,61,441,83,84,406
"345","163841",47.2523,-120.58563,41,105,33,7148,219,-93,312,-42,133,133,-47,913,156,18,61,441,83,84,406
"347","163807",47.18765,-120.59045,43,107,34,7163,222,-91,313,-40,136,136,-45,855,146,17,60,412,78,80,379
"349","163807",47.18765,-120.59045,43,107,34,7163,222,-91,313,-40,136,136,-45,855,146,17,60,412,78,80,379
"351","CAGE2-53007",47.876957,-120.64136,33,110,34,7203,215,-104,319,-51,126,126,-57,1037,180,23,62,507,98,98,466
"352","28418",47.558613,-120.660835,79,137,37,7912,285,-78,363,-17,180,180,-24,594,115,10,73,318,46,46,292
"354","28418",47.558613,-120.660835,79,137,37,7912,285,-78,363,-17,180,180,-24,594,115,10,73,318,46,46,292
"356","JEPS101184",40.13361,-120.66805,59,155,44,6559,263,-84,347,-9,145,146,-18,770,126,10,64,348,49,50,345
"357","CAGE2-53037",47.124405,-120.67556,73,130,37,7552,269,-76,345,-18,167,170,-23,453,79,10,62,222,43,45,203
"358","28421",47.595554,-120.67778,62,124,36,7417,255,-82,337,-27,157,157,-32,882,163,15,70,459,69,69,422
"360","28416",47.613056,-120.694725,62,124,36,7417,255,-82,337,-27,157,157,-32,882,163,15,70,459,69,69,422
"366","28426",47.613056,-120.694725,62,124,36,7417,255,-82,337,-27,157,157,-32,882,163,15,70,459,69,69,422
"368","28431",47.119167,-120.728615,73,130,37,7552,269,-76,345,-18,167,170,-23,453,79,10,62,222,43,45,203
"369","28430",47.64639,-120.728615,62,124,36,7417,255,-82,337,-27,157,157,-32,882,163,15,70,459,69,69,422
"370","28425",47.496387,-120.728615,39,103,33,7031,215,-93,308,-43,129,129,-48,1087,187,21,62,530,96,96,488
"374","28430",47.64639,-120.728615,62,124,36,7417,255,-82,337,-27,157,157,-32,882,163,15,70,459,69,69,422
"375","28425",47.496387,-120.728615,39,103,33,7031,215,-93,308,-43,129,129,-48,1087,187,21,62,530,96,96,488
"376","28431",47.119167,-120.728615,73,130,37,7552,269,-76,345,-18,167,170,-23,453,79,10,62,222,43,45,203
"380","CAGE2-53077",46.45564,-120.7389,95,140,39,7545,297,-56,353,4,188,193,-1,288,50,6,58,140,28,31,129
"381","108248",46.871517,-120.784966,65,122,37,7189,253,-74,327,-20,156,158,-25,517,89,11,61,252,47,51,232
"383","108248",46.871517,-120.784966,65,122,37,7189,253,-74,327,-20,156,158,-25,517,89,11,61,252,47,51,232
"385","191322",47.708332,-120.78667,40,105,34,6966,216,-90,306,-40,130,130,-46,1244,219,23,65,622,102,102,573
"386","CAGE2-53039",45.87375,-120.789116,82,134,40,6867,279,-52,331,1,172,172,-4,455,82,8,66,230,38,38,211
"387","165739",47.08815,-120.80064,69,126,37,7342,260,-75,335,-19,161,164,-24,558,98,11,63,276,50,51,253
"389","165739",47.08815,-120.80064,69,126,37,7342,260,-75,335,-19,161,164,-24,558,98,11,63,276,50,51,253
"391","189457",46.983334,-120.816666,54,111,35,7056,233,-79,312,-28,145,145,-34,743,128,14,63,363,65,68,335
"392","CAGE2-06063",40.01079,-120.83414,75,160,46,6484,281,-66,347,-2,161,161,-2,943,167,7,72,451,42,42,451
"393","MT00107599",47.216667,-120.916664,70,125,37,7200,258,-72,330,-15,163,163,-21,678,120,13,65,339,58,58,310
"394","108246",47.19556,-120.93806,68,120,37,6998,250,-69,319,-15,158,158,-20,823,144,15,65,408,67,67,375
"396","28424",47.203056,-120.98278,68,120,37,6998,250,-69,319,-15,158,158,-20,823,144,15,65,408,67,67,375
"400","7204",47.203056,-120.98278,68,120,37,6998,250,-69,319,-15,158,158,-20,823,144,15,65,408,67,67,375
"402","7204",47.203056,-120.98278,68,120,37,6998,250,-69,319,-15,158,158,-20,823,144,15,65,408,67,67,375
"414","28423",47.199444,-121,68,120,37,6998,250,-69,319,-15,158,158,-20,823,144,15,65,408,67,67,375
"419","179982",45.94635,-121.11401,86,129,39,6923,278,-49,327,4,176,176,-1,613,116,7,73,326,38,38,304
"421","191162",46.90679,-121.15223,38,91,33,6342,196,-76,272,-33,120,122,-38,1537,258,26,62,739,123,129,686
"422","CAGE2-41065",45.16326,-121.163155,101,147,42,6812,305,-38,343,21,188,191,17,369,57,8,51,164,38,40,150
"423","181946",45.78,-121.27333,78,119,38,6709,261,-50,311,-1,165,165,-6,846,156,9,73,442,49,49,414
"425","181946",45.78,-121.27333,78,119,38,6709,261,-50,311,-1,165,165,-6,846,156,9,73,442,49,49,414
"427","OSC175333",45.1592,-121.3152,91,141,42,6541,287,-41,328,15,177,177,10,578,92,11,56,265,53,53,245
"428","ORE16923",45.6836,-121.3961,103,124,39,6710,285,-28,313,23,189,189,19,686,129,7,73,361,38,38,338
"429","28422",45.71528,-121.4575,98,122,40,6517,277,-28,305,22,182,182,16,865,159,8,73,449,47,47,422
"431","188571",46.476665,-121.50166,45,95,36,5887,201,-62,263,-20,122,124,-24,2065,343,31,64,995,147,162,927
"432","7207",46.873055,-121.50833,35,83,33,5717,179,-67,246,-27,109,112,-31,2379,382,40,60,1115,184,201,1036
"434","7207",46.873055,-121.50833,35,83,33,5717,179,-67,246,-27,109,112,-31,2379,382,40,60,1115,184,201,1036
"436","WILLU2184",45.7056,-121.5203,104,119,40,6360,276,-19,295,30,186,186,24,948,171,9,72,489,50,50,459
"437","158195",46.867867,-121.59037,25,79,33,5527,164,-73,237,-33,97,101,-37,2616,416,45,60,1217,201,221,1134
"439","158195",46.867867,-121.59037,25,79,33,5527,164,-73,237,-33,97,101,-37,2616,416,45,60,1217,201,221,1134
"441","6093",46.93,-121.595,26,78,33,5538,164,-71,235,-32,98,102,-36,2620,416,46,60,1215,204,223,1131
"443","6093",46.93,-121.595,26,78,33,5538,164,-71,235,-32,98,102,-36,2620,416,46,60,1215,204,223,1131
"445","CAGE2-06007",39.662376,-121.59606,162,145,43,6497,351,21,330,81,245,245,81,811,165,1,83,418,16,16,418
"446","CAGE2-41027",45.52262,-121.639725,88,118,40,6117,260,-31,291,17,167,167,12,1361,238,14,68,672,78,78,636
"447","CAGE2-53059",46.02629,-121.913536,63,102,38,5689,222,-43,265,0,138,138,-5,2312,388,28,66,1122,146,163,1054
"451","27146",44.435665,-122.016,57,116,40,5834,232,-54,286,-6,135,135,-11,1932,329,26,65,930,129,129,865
"453","CAGE2-41005",45.192753,-122.20962,90,103,41,5099,240,-6,246,34,156,158,29,2130,335,26,60,969,149,150,908
"454","CAGE2-41043",44.49168,-122.526535,92,116,44,5065,251,-10,261,35,159,159,31,1977,315,23,60,903,135,135,828
"455","CAGE2-06093",41.589207,-122.533066,105,168,46,6779,321,-41,362,26,192,195,23,569,99,8,65,277,39,43,265
"456","JEPS101096",41.4675,-122.55111,76,153,46,6230,272,-60,332,6,157,158,2,713,114,9,63,330,47,49,312
"457","CAGE2-53015",46.190773,-122.68216,94,108,43,4982,244,-5,249,38,159,160,34,1896,299,30,60,883,148,153,811
"458","WILLU6133",42.0768,-122.7069,63,145,45,6065,254,-65,319,-3,144,144,-8,782,135,10,62,371,57,57,337
"459","CAGE2-41029",42.420586,-122.73658,112,151,46,6098,309,-13,322,41,193,193,40,626,103,9,57,288,49,49,254
"460","OSC184858",42.0349,-122.8265,54,139,45,5862,238,-69,307,-8,132,133,-13,881,151,11,64,420,61,61,383
"469","CAGE2-06105",40.657295,-123.11823,94,160,49,5899,291,-35,326,30,172,172,26,1090,188,6,77,549,39,50,527
"470","V190947",42.833332,-123.61667,99,133,48,4983,267,-6,273,44,165,166,41,1215,218,8,73,620,50,63,567
"471","253964",40.8739,-123.7336,90,140,50,4900,257,-20,277,38,154,156,34,1466,256,6,76,736,47,62,691
"472","CAGE2-06023",40.700417,-123.91197,108,125,51,4253,252,9,243,62,163,165,58,1518,263,4,78,763,38,55,726
