"","catalogNumber","lat","lon","bio1","bio2","bio3","bio4","bio5","bio6","bio7","bio8","bio9","bio10","bio11","bio12","bio13","bio14","bio15","bio16","bio17","bio18","bio19"
"1","CAN 470350",48.35,-83.667,12,129,27,11603,238,-236,474,139,-72,152,-147,787,94,41,23,252,135,237,157
"2","CAN 498227",45.56,-76.692,53,110,25,10984,265,-167,432,176,-83,188,-96,831,80,55,12,234,170,233,185
"5","CAN 456402",45.483,-75.85,54,101,24,10967,258,-161,419,187,-82,187,-96,870,83,55,13,247,174,247,193
"6","CAN 430138",46.667,-84.267,35,107,26,10102,232,-165,397,117,-45,157,-101,960,100,58,17,286,179,256,227
"7","CAN 584552",48.504,-53.954,45,79,26,7296,201,-95,296,-17,107,141,-45,1125,111,74,13,317,236,266,306
"8","CAN 410138",59.033,-108.967,-28,106,20,14554,218,-307,525,149,-201,149,-226,367,59,15,45,153,51,153,55
"9","CAN 470333",48.35,-83.8,11,129,27,11598,238,-236,474,139,-72,152,-148,795,95,41,23,254,137,238,160
"10","CAN 366593",54.617,-107.383,1,121,24,12929,232,-258,490,155,-153,155,-175,449,82,14,57,214,54,214,57
"12","CAN 470328",48.383,-83.8,11,129,27,11598,238,-236,474,139,-72,152,-148,795,95,41,23,254,137,238,160
"14","CAN 440184",46.85,-66.7,24,108,26,10465,231,-183,414,-24,-55,156,-116,1150,111,76,11,319,243,308,278
"15","CAN 502294",45.183,-75.5,61,98,23,10808,262,-150,412,182,-73,193,-87,884,87,57,13,255,177,249,196
"16","CAN 439636",47.367,-66.517,22,106,25,10484,229,-185,414,-25,-58,154,-118,1129,110,70,12,311,236,307,268
"18","CAN 498563",45.414,-76.513,54,108,25,10896,262,-164,426,176,-81,187,-94,830,79,55,12,232,171,229,187
"19","CAN 436637",50.167,-83.017,4,123,24,12620,241,-254,495,145,-88,157,-169,782,94,40,24,254,134,250,156
"20","CAN 540792",46.996,-65.826,45,112,27,10254,253,-160,413,0,-35,175,-92,1056,103,73,10,295,237,269,266
"24","CAN 545796",43.983,-79.617,67,99,26,9620,260,-113,373,178,-53,186,-61,816,85,53,13,237,168,234,184
"28","CAN 439756",45.15,-67.35,60,111,29,9202,250,-129,379,20,175,175,-64,1141,126,80,14,343,244,244,298
"29","CAN 440164",46.783,-66.267,37,111,26,10350,244,-170,414,-11,-42,167,-102,1099,107,75,10,307,240,285,273
"30","CAN 532893",44.167,-81.317,66,89,25,9192,243,-103,346,-24,-11,179,-54,973,103,62,15,289,201,237,268
"31","CAN 452600",47.583,-59.25,42,61,22,7027,181,-92,273,-14,10,136,-46,1424,151,100,15,434,311,328,346
"33","CAN 470604",45.55,-75.217,58,100,23,10887,261,-157,418,179,-77,190,-91,900,90,58,14,260,181,259,200
"34","CAN 490009",58.967,-108.5,-30,105,20,14549,215,-309,524,146,-125,146,-228,376,61,15,45,158,52,158,56
"35","CAN 452247",48.55,-89.233,15,121,25,11437,239,-227,466,143,-142,154,-142,762,89,32,29,258,123,256,123
"36","CAN 448262",45.133,-78.267,41,109,26,10353,241,-168,409,118,-37,167,-100,935,89,62,13,260,192,255,210
"37","CAN 439299",46.517,-67.333,34,112,26,10449,241,-176,417,-14,-44,165,-107,1072,105,71,12,296,221,292,256
"40","CAN 516719",49.833,-91.067,3,119,24,12628,237,-257,494,156,-169,156,-169,775,104,32,37,285,109,285,109
"42","CAN 447582",50.117,-80.2,-7,121,24,12437,225,-262,487,132,-101,143,-177,828,101,35,31,288,127,280,137
"43","CAN 457533",49.583,-57.817,12,77,23,8350,180,-149,329,-16,-16,120,-92,1255,132,70,17,375,242,318,300
"44","CAN 540726",47.55,-66.461,24,105,25,10451,230,-182,412,-23,-56,156,-115,1106,108,68,12,303,232,302,262
"45","93346",39.08094,-79.46332,76,120,35,7947,245,-97,342,156,-32,173,-32,1326,128,93,10,375,299,366,299
"46","124803",44.55229,-71.774376,44,123,29,10125,250,-167,417,169,-79,169,-93,1043,118,58,20,331,190,331,208
"47","38227",50.267,-95.667,21,103,21,12975,250,-234,484,177,-135,177,-158,525,83,17,51,228,64,228,64
"48","38758",49.75,-95.2,20,107,21,12947,251,-236,487,176,-158,176,-158,568,90,18,52,249,65,249,65
"49","61267",51.333332,-95.833336,9,114,22,13268,247,-259,506,168,-174,168,-174,552,84,19,47,230,70,230,70
"50","70969",-40.730354,-179.48735,NA,NA,NA,NA,NA,NA,NA,NA,NA,NA,NA,NA,NA,NA,NA,NA,NA,NA,NA
"51","62262",53.4774,-99.106995,-1,97,19,13550,234,-256,490,165,-162,165,-185,472,68,15,50,202,55,202,55
"52","55627",50.390835,-96.567,19,111,22,13098,251,-240,491,176,-139,176,-162,519,81,17,50,224,64,224,65
"53","36043",51.033333,-95.333336,10,114,22,13218,247,-257,504,168,-173,168,-173,563,87,19,48,237,69,237,69
"55","55684B",56.34778,-101.03833,-33,112,21,14261,218,-308,526,140,-206,140,-226,497,73,16,49,212,60,212,71
"56","61420",50.234,-99.843,11,125,25,12725,248,-248,496,164,-134,164,-164,478,76,17,55,220,57,220,57
"57","61222",51.333332,-95.13333,6,113,22,13295,244,-262,506,166,-178,166,-178,571,86,19,47,239,71,239,71
"58","56741",51.166668,-96.833336,9,120,23,13271,249,-259,508,168,-77,168,-175,553,81,20,44,225,74,225,78
"59","48593",50.567,-96.217,21,105,21,13039,250,-235,485,178,-136,178,-158,512,80,17,50,220,63,220,65
"60","56491",54.91111,-100.73917,-13,106,20,13748,230,-276,506,155,-176,155,-199,487,74,17,51,211,58,211,63
"62","69120",49.76611,-95.228615,20,106,21,12946,251,-236,487,176,-158,176,-158,565,89,18,51,247,65,247,65
"63","61265",51.333,-95.833,9,115,22,13303,247,-260,507,168,-175,168,-175,555,84,19,47,230,70,230,70
"64","55687",56.348057,-101.03833,-33,112,21,14261,218,-308,526,140,-206,140,-226,497,73,16,49,212,60,212,71
"65","31880",50.617,-96.3,20,107,21,13083,250,-239,489,177,-138,177,-160,519,81,17,49,222,65,222,66
"66","54884",50.668,-95.412,14,109,22,13112,247,-248,495,171,-167,171,-167,559,87,18,49,238,68,238,68
"67","54923",51.02861,-95.48944,11,115,22,13211,248,-257,505,168,-173,168,-173,561,87,19,48,236,69,236,69
"70","100191702",40.12,-79.17,75,116,32,8572,252,-103,355,161,-41,181,-41,1171,116,78,13,341,250,334,250
"71","3080870",43.62,-71.4,65,135,32,9587,272,-145,417,18,-50,185,-65,1085,110,77,10,300,236,280,250
"72","2807175",45.48,-87.37,59,109,26,10080,261,-144,405,176,-77,183,-77,774,90,27,32,261,109,258,109
"73","272957",45.67,-90.25,41,120,26,11127,255,-191,446,162,-113,175,-113,817,110,21,45,316,84,311,84
"75","2808991",53.28,-60.5,-2,103,23,10872,212,-219,431,133,-87,133,-148,953,109,59,19,301,192,301,206
"76","2810409",45.57,-88.31,48,128,29,10653,265,-175,440,166,-97,178,-97,778,98,24,39,278,92,274,92
"77","2807871",42.29,-71.43,91,120,31,8974,281,-95,376,-2,182,204,-29,1151,117,87,9,319,264,268,293
"80","MT00171514",46.308334,-72.475,51,107,24,10934,260,-169,429,173,-28,185,-98,1017,102,61,15,297,201,296,229
"81","MT00030282",47.283333,-55.9,52,75,27,6698,196,-79,275,-3,103,141,-32,1400,146,94,15,424,296,316,360
"82","MT00037734",51.843056,-56.529167,-4,71,22,8002,146,-164,310,-75,-28,97,-108,1156,106,74,10,314,257,300,292
"83","MT00171539",48.183334,-79.23333,14,114,24,12002,236,-232,468,146,-76,159,-150,883,105,43,28,303,147,295,158
"85","MT00171542",51.15,-63,-22,96,23,10452,176,-230,406,61,-102,110,-162,1065,110,56,20,321,191,311,219
"86","MT00171469",48.843056,-78.559166,7,114,24,12125,232,-240,472,140,-82,153,-159,879,109,36,33,317,133,308,145
"87","MT00171570",45.283333,-76.166664,55,104,24,10843,259,-160,419,176,-79,187,-93,826,79,53,13,236,167,232,185
"88","MT00020271",45.646946,-75.05805,55,101,24,10867,258,-160,418,188,-79,188,-93,920,92,60,13,265,187,265,206
"89","MT00171473",48.833332,-78.57,7,113,24,12108,231,-239,470,140,-82,153,-159,887,110,37,33,319,135,310,147
"90","MT00099560",49.75,-57.883335,27,79,24,8233,191,-136,327,0,0,132,-77,1143,118,61,18,339,216,296,271
"93","MT00028097",49.916668,-57.75,33,78,24,8115,191,-130,321,8,6,136,-70,1061,108,56,18,307,200,290,249
"94","MT00171579",48.55,-89.23333,15,121,25,11437,239,-227,466,143,-142,154,-142,762,89,32,29,258,123,256,123
"95","MT00171466",48.841667,-78.53333,7,114,24,12125,232,-240,472,140,-82,153,-159,879,109,36,33,317,133,308,145
"96","MT00171580",48.333332,-90.71667,25,125,27,11396,244,-217,461,163,-132,163,-132,712,97,23,44,281,83,281,83
"98","MT00014371",54.983334,-73.21667,-51,87,19,12624,160,-290,450,94,-159,100,-221,691,97,28,42,277,95,255,103
"99","MT00171578",48.466667,-89.3,20,121,26,11353,244,-219,463,149,-135,159,-135,736,87,30,30,252,116,249,116
"102","MT00171468",48.84528,-78.5575,7,114,24,12125,232,-240,472,140,-82,153,-159,879,109,36,33,317,133,308,145
"103","MT00171436",46.333332,-74.5,27,107,25,10854,231,-194,425,160,-52,160,-121,1111,108,71,14,319,222,319,255
"104","MT00021051",45.216667,-66.13333,60,85,26,8180,215,-104,319,-19,159,159,-50,1290,142,91,16,406,281,281,378
"105","MT00020586",47.426945,-72.757225,33,116,25,11365,250,-200,450,159,-48,171,-124,983,116,60,21,318,186,312,213
"108","MT00171482",46.75,-72.916664,36,108,24,11089,246,-188,434,159,-45,172,-116,1074,106,70,14,313,217,311,246
"110","MT00171477",48.816666,-78.333336,7,113,24,12065,231,-238,469,140,-81,152,-159,889,110,38,33,320,135,311,149
"114","MT00171475",48.863056,-78.57,7,114,24,12125,232,-240,472,140,-82,153,-159,879,109,36,33,317,133,308,145
"116","MT00171471",48.831665,-78.559166,7,113,24,12108,231,-239,470,140,-82,153,-159,887,110,37,33,319,135,310,147
"117","MT00171408",49.833332,-77.53333,-4,119,24,12303,228,-256,484,132,-155,144,-174,888,109,32,35,324,130,313,138
"118","MT00171568",48.75,-87.25,18,102,25,10390,204,-203,407,103,-59,140,-125,791,93,38,26,257,130,245,152
"121","MT00030732",46.983334,-55.966667,51,69,26,6400,190,-71,261,37,95,138,-28,1351,139,91,13,402,294,312,335
"122","MT00171515",45.333332,-72.21667,46,112,26,10465,250,-168,418,174,-83,174,-97,1098,122,59,19,338,207,338,225
"123","MT00020521",46.26361,-74.7325,36,106,24,10965,239,-188,427,169,-44,169,-115,1038,102,66,14,302,208,302,235
"124","MT00014167",51.233334,-77.11667,-15,111,23,12493,210,-268,478,124,-112,134,-188,806,105,28,38,303,110,282,121
"127","MT00171576",47.883335,-84.86667,24,111,26,10423,219,-200,419,109,-54,147,-119,949,108,55,21,297,171,259,212
"128","MT00037781",51.634724,-56.971943,-1,71,22,8137,148,-164,312,-74,-25,101,-107,1175,107,76,11,318,255,312,294
"130","MT00039457",46.65,-73.88333,26,116,26,10946,236,-201,437,158,-55,158,-125,1092,107,71,15,318,216,318,252
"133","MT00171470",48.83389,-78.559166,7,114,24,12125,232,-240,472,140,-82,153,-159,879,109,36,33,317,133,308,145
"134","MT00171567",48.333332,-88.833336,27,115,25,10972,241,-204,445,152,-52,160,-123,738,85,32,28,245,121,241,129
"135","MT00171486",51.483334,-78.76667,-11,116,24,12354,212,-265,477,127,-110,135,-181,706,93,23,40,264,91,246,103
"136","MT00020570",47.448334,-72.76639,33,116,25,11365,250,-200,450,159,-48,171,-124,983,116,60,21,318,186,312,213
"139","MT00171474",48.83475,-78.514084,7,114,24,12125,232,-240,472,140,-82,153,-159,879,109,36,33,317,133,308,145
"141","MT00099559",49.75,-57.916668,34,80,24,8184,197,-129,326,8,7,138,-69,1101,114,58,18,328,206,286,260
"145","MT00171489",48.61111,-68.15278,26,96,24,9745,218,-169,387,137,-51,147,-106,916,86,61,10,249,194,240,232
"146","MT00173914",48.569305,-77.818115,6,114,24,11844,226,-238,464,136,-79,148,-157,914,111,41,31,321,143,312,160
"149","MT00171490",48.544445,-68.369446,28,90,23,9698,215,-164,379,139,-48,148,-104,901,86,59,11,249,189,240,227
"151","MT00099558",49.733334,-57.916668,34,80,24,8184,197,-129,326,8,7,138,-69,1101,114,58,18,328,206,286,260
"153","MT00171588",48.883335,-89.916664,6,129,26,11949,238,-246,484,151,-158,151,-158,757,92,32,34,273,113,273,113
"156","MT00171433",50.81486,-73.41167,-15,105,22,12530,205,-270,475,125,-110,137,-188,896,112,44,30,322,150,312,176
"157","51803",45.966667,-74.333336,34,103,24,10662,233,-181,414,164,-45,164,-111,1092,105,72,12,304,227,304,254
"158","ECS025097",45.140556,-63.921944,63,101,28,8743,246,-108,354,-20,146,173,-51,1287,138,88,16,404,272,276,379
"159","ECS007448",44.67751,-76.40218,59,101,25,10321,256,-145,401,14,-69,186,-80,882,86,59,11,245,189,222,209
"160","15138",45.05293,-64.41276,60,100,28,8742,244,-110,354,-23,144,170,-54,1271,135,88,15,394,270,275,371
"161","38005",45.87579,-63.91257,57,96,26,8965,239,-117,356,-27,91,170,-60,1134,116,83,12,339,253,262,315
"162","67489",46.735447,-60.61585,35,74,23,8076,200,-116,316,-31,104,139,-66,1461,162,93,17,460,300,315,372
"163","38003",45.42425,-64.37533,56,102,28,8912,242,-118,360,-28,93,169,-60,1200,124,87,13,362,264,271,341
"164","ECS019490",45.10371,-64.30565,65,102,28,8752,250,-106,356,-18,149,175,-49,1219,130,85,15,378,261,265,356
"165","22575",44.78633,-63.15197,62,93,28,8112,226,-99,325,-12,135,164,-42,1372,148,91,16,429,293,296,397
"166","22578",45.55767,-61.89169,58,94,27,8405,235,-106,341,-16,133,164,-48,1355,150,89,18,430,282,293,383
"167","59127",46.76959,-60.813293,42,76,23,8082,209,-110,319,-24,113,147,-59,1353,151,86,18,430,277,293,343
"168","CBU1573",45.883335,-60,57,76,25,7627,213,-89,302,-6,117,157,-38,1508,159,95,15,458,313,319,395
"169","28166",45.95787,-59.8632,57,76,25,7615,213,-88,301,-5,116,157,-38,1500,158,95,15,457,311,317,395
"170","25973",46.82079,-60.32397,55,76,24,7824,217,-91,308,-8,119,158,-42,1330,146,84,18,422,272,286,342
"171","16737",44.12782,-65.22685,61,77,28,6870,198,-77,275,1,119,146,-28,1337,150,82,20,435,265,272,409
"172","ECS022357",44.485443,-66.1013,62,76,27,7061,199,-79,278,-2,146,148,-31,1241,139,84,16,392,262,263,361
"173","CBU2500",46.12859,-60.56094,58,84,26,8114,225,-98,323,-10,128,162,-44,1409,156,88,18,451,287,298,365
"174","14240",44.98835,-64.12861,63,100,28,8676,246,-105,351,-19,146,173,-49,1308,140,89,16,411,275,278,386
"175","ECS012778",45.742218,-60.94074,56,84,26,8097,221,-101,322,-11,125,160,-46,1461,167,95,18,465,303,311,370
"176","ECS024027",44.69947,-65.61047,62,87,27,7735,225,-88,313,-8,134,159,-38,1295,143,89,18,417,274,275,390
"177","22584",44.61163,-63.61771,62,88,27,8190,223,-97,320,-13,164,165,-43,1433,158,93,18,455,296,300,423
"178","22596",53.17,-60.3,-2,102,23,10738,209,-217,426,131,-86,131,-146,961,109,59,18,302,193,302,206
"179","69674",46.999424,-70.812035,47,99,24,10660,253,-158,411,179,-33,179,-97,1029,110,65,18,319,199,319,237
"181","24984",46.18185,-61.28806,56,86,25,8328,229,-106,335,-14,130,162,-49,1306,148,83,19,420,266,277,326
"182","ECS007207",44.266666,-66.36584,62,70,26,6664,188,-72,260,2,139,143,-26,1232,137,81,17,389,255,257,357
"183","67645",46.375908,-62.111774,57,82,24,8650,233,-106,339,29,135,167,-52,1128,125,76,17,356,237,249,269
"184","25052",46.44269,-60.93752,43,82,24,8256,215,-115,330,-25,117,149,-61,1397,157,89,18,446,285,296,353
"185","16887",44.5919,-64.1628,64,93,28,8184,229,-97,326,-12,139,166,-42,1359,148,91,17,430,283,283,401
"186","32681",43.40008,-66.0161,67,63,27,5896,179,-54,233,18,110,139,-11,1260,137,76,19,407,252,256,353
"187","22936",46.883335,-60.5325,47,74,23,7925,210,-100,310,-17,114,151,-51,1337,148,85,18,424,274,290,340
"188","ECS014643",44.05,-66.032,64,74,28,6693,195,-69,264,5,143,145,-24,1258,139,81,18,403,260,260,374
"189","18881",44.634583,-65.11331,60,90,27,8008,227,-95,322,-14,136,161,-43,1346,147,91,17,429,278,282,402
"190","ECS014657",44.733334,-63.665833,63,91,27,8322,229,-99,328,-14,166,168,-44,1420,157,92,18,451,294,298,420
"191","ECS024022",47.20288,-60.14989,51,63,22,7358,199,-83,282,-5,105,151,-40,1311,143,86,17,410,275,290,329
"192","15596",45.07399,-67.05209,61,95,28,8481,231,-108,339,-21,165,165,-53,1166,126,77,15,354,243,243,318
"194","38004",45.46312,-64.82908,60,106,28,8951,250,-117,367,-26,98,173,-58,1157,119,84,13,349,254,265,327
"195","63899",45.72724,-64.55185,58,103,28,8983,243,-119,362,-28,95,171,-60,1138,115,82,12,339,253,265,318
"196","65784",45.54415,-63.55461,49,98,27,8872,233,-124,357,-34,133,161,-66,1284,134,90,14,390,281,287,362
"197","55140",43.79688,-65.02141,63,70,27,6292,184,-68,252,10,110,140,-20,1329,149,76,21,433,256,265,371
"201","ECS024030",45.597393,-76.09951,48,106,24,10991,254,-173,427,181,-88,181,-103,880,84,57,13,250,179,250,198
"202","20117",45.37798,-61.97503,57,94,27,8266,230,-106,336,-16,130,161,-48,1390,153,92,17,440,292,300,394
"203","48905",44.046,-66.09798,65,73,27,6674,195,-69,264,6,144,146,-23,1245,138,81,17,398,258,258,369
"205","28168",46.883335,-60.46583,50,74,24,7857,212,-96,308,-13,115,154,-47,1332,147,85,17,422,273,289,340
"206","20382",43.79784,-65.85238,66,71,28,6343,190,-62,252,11,117,143,-17,1257,138,78,19,407,255,257,383
"207","ECS014506",43.772694,-65.81847,64,69,27,6290,187,-63,250,11,114,141,-18,1269,139,78,19,411,256,259,351
"208","ECS025107",46.564724,-60.732777,37,78,24,8180,206,-117,323,-30,109,142,-65,1464,163,93,18,463,300,309,374
"209","ECS011092",45.01703,-61.91474,60,88,27,7757,220,-95,315,-7,124,159,-38,1440,158,98,16,454,309,312,410
"210","ECS020300",44.065876,-65.561966,61,73,27,6663,192,-72,264,3,117,143,-26,1311,146,82,19,425,265,269,399
"211","28164",44.91801,-62.38645,59,90,28,7754,217,-98,315,-10,123,157,-41,1417,152,96,16,443,309,313,402
"212","CBU3125",45.98355,-60.16547,55,79,25,7819,215,-94,309,-9,118,157,-42,1504,161,94,16,464,309,316,396
"213","28163",45.030067,-61.99729,60,88,28,7734,219,-95,314,-8,123,159,-38,1437,157,97,17,453,309,312,409
"214","CBU1574",46.01358,-61.33621,57,87,25,8368,230,-106,336,-14,131,163,-49,1334,151,85,19,428,272,283,332
"215","ECS011344",44.871937,-64.73053,59,98,28,8590,239,-108,347,-22,142,168,-53,1310,140,90,16,408,276,282,382
"216","55837",44.61332,-63.75862,62,90,27,8200,225,-98,323,-14,164,165,-44,1416,155,93,17,448,293,296,417
"217","68806",61.55,49.18,7,86,20,11206,226,-201,427,151,-63,151,-141,605,74,28,28,202,94,202,116
"219","ECS025261",46.406387,-63.896946,55,87,24,9266,236,-120,356,-31,-25,172,-65,1079,110,79,12,322,243,252,298
"220","ECS010697",43.466667,-65.74917,64,60,26,5686,170,-54,224,19,104,134,-11,1260,139,75,20,408,248,256,358
"221","44324",47.6833,-68.3167,22,107,25,10551,228,-190,418,141,-58,153,-121,1042,105,69,14,305,212,299,241
"222","ECS022892",44.833023,-66.93044,62,91,27,8104,224,-102,326,-16,160,160,-47,1181,127,79,15,361,245,245,325
"224","65597",48.370033,-68.71296,27,92,23,10052,220,-169,389,142,-51,152,-109,928,91,62,12,264,193,256,224
"225","69675",45.62027,-71.606766,39,111,26,10396,241,-174,415,166,-38,166,-103,1079,123,59,20,338,203,338,225
"226","CBU2501",46.15465,-61.27498,54,86,25,8336,227,-108,335,-16,129,160,-51,1344,152,86,19,431,275,286,335
"227","45093",44.839474,-65.02739,62,99,28,8461,242,-102,344,-17,97,169,-48,1265,135,88,15,394,270,276,368
"228","20443",46.816666,-60.8325,42,76,23,8082,209,-110,319,-24,113,147,-59,1353,151,86,18,430,277,293,343
"230","62840",45.33549,-61.00746,61,83,26,7856,222,-92,314,-4,125,163,-37,1462,168,97,17,462,307,311,373
"231","48097",49.190536,-85.63792,4,128,26,11852,233,-251,484,134,-157,148,-157,798,94,45,25,254,143,252,143
"233","17130",45.18483,-61.64502,60,88,27,7927,222,-97,319,-8,126,161,-40,1447,162,97,17,458,305,311,371
"234","ECS014344",46.13281,-61.31936,54,86,25,8336,227,-108,335,-16,129,160,-51,1344,152,86,19,431,275,286,335
"236","54824",45.4246,-63.25274,55,103,28,8725,239,-118,357,-27,87,164,-59,1229,129,86,14,374,268,278,344
"237","38002",45.42904,-64.27286,54,101,28,8920,240,-119,359,-30,91,167,-62,1225,127,88,13,370,269,276,348
"238","ECS008658",45.199722,-63.431667,59,102,28,8623,241,-112,353,-21,140,168,-53,1285,138,88,15,398,276,283,371
"239","26159",46.40043,-75.033875,36,106,24,11121,239,-193,432,170,-44,170,-118,1002,102,63,16,301,199,301,221
"240","20334",46.82111,-60.321945,55,76,24,7824,217,-91,308,-8,119,158,-42,1330,146,84,18,422,272,286,342
"241","19653",44.259136,-66.36223,62,70,26,6664,188,-72,260,2,139,143,-26,1232,137,81,17,389,255,257,357
"242","45052",46.32165,-60.6472,54,84,25,8164,224,-103,327,-14,125,158,-49,1400,157,88,18,449,285,296,360
"243","67202",45.101433,-73.7622,65,108,26,10471,269,-143,412,183,-63,194,-77,894,98,54,16,270,174,266,188
"244","70677",55.283333,-77.76667,-45,90,20,12138,153,-284,437,94,-210,94,-210,613,88,21,47,251,68,251,68
"245","48470",43.84564,-66.1162,66,74,28,6614,197,-65,262,8,145,147,-20,1254,137,80,18,404,257,258,376
"246","28167",45.856667,-61.12583,60,87,26,8222,228,-101,329,-9,131,164,-44,1384,158,89,19,444,284,295,348
"247","ECS014789",44.05,-66.03,64,74,28,6693,195,-69,264,5,143,145,-24,1258,139,81,18,403,260,260,374
"249","22577",45.6239,-61.99622,59,95,27,8494,239,-106,345,-16,136,167,-48,1312,146,86,18,416,273,284,370
"250","40087",44.251827,-65.87983,61,76,27,6957,199,-77,276,-1,145,146,-30,1277,143,84,17,408,267,268,379
"253","ECS012075",45.15494,-61.59229,61,88,27,7844,222,-94,316,-6,126,162,-37,1440,161,96,17,456,304,309,370
"254","16908",45.261,-63.16156,55,103,29,8598,237,-116,353,-25,86,163,-57,1273,133,88,14,389,277,287,357
"255","35026",43.87812,-64.89128,62,73,28,6443,188,-72,260,7,135,141,-22,1348,152,76,21,438,258,268,410
"256","13749",45.13795,-64.30809,65,102,28,8752,250,-106,356,-18,149,175,-49,1219,130,85,15,378,261,265,356
"257","35027",45.81674,-61.08259,56,85,26,8195,222,-103,325,-13,127,160,-48,1437,164,93,18,459,297,306,363
"258","53886",43.7427,-65.98418,67,71,28,6327,191,-61,252,12,118,144,-16,1256,137,78,19,406,255,257,382
"259","15135",44.775833,-65.056946,60,96,28,8346,237,-102,339,-18,141,166,-48,1311,142,90,16,413,276,281,386
"261","61808",44.07731,-64.58103,63,80,28,6910,200,-80,280,2,143,148,-27,1353,154,77,21,436,261,270,404
"262","69159",47.53,-84.52,21,110,26,10415,220,-196,416,105,-57,146,-121,981,108,57,20,300,177,266,229
"263","ECS025304",46.34139,-62.651943,57,83,24,8877,235,-108,343,28,139,170,-55,1097,119,77,16,341,237,247,296
"264","10033",45.35823,-61.51002,58,88,27,8097,223,-101,324,-12,127,161,-44,1449,164,96,17,459,303,310,368
"265","ECS022051",46.001,-62.4324,60,89,25,8812,241,-107,348,29,141,171,-52,1131,126,79,17,356,243,255,302
"267","23169",46.62978,-61.00782,57,83,25,8160,227,-101,328,-11,129,160,-47,1241,140,78,19,399,252,264,312
"268","28165",46.02682,-59.69907,56,74,25,7504,210,-86,296,-5,114,155,-37,1498,157,95,15,457,310,318,394
"271","15206",45.20404,-64.3853,61,102,28,8817,247,-111,358,-23,146,172,-54,1213,128,85,14,372,262,268,351
"274","1421274",41.95,-88.4333,86,115,28,10294,287,-121,408,213,-54,213,-54,934,109,33,32,318,128,318,128
"275","YPM CBS 030155",41.9219,-73.1028,73,114,30,9133,261,-114,375,121,-37,187,-49,1250,114,90,7,330,283,325,289
"276","YPM CBS 030156",41.6992,-71.8987,91,115,31,8640,274,-89,363,51,177,201,-23,1228,120,91,8,333,285,285,306
"277","QFA0313543",51.766666,-60.2,-10,94,23,9998,181,-213,394,111,-88,115,-144,1119,114,63,19,336,211,326,231
"278","QFA0495472",51.454445,-57.128334,8,72,23,8030,154,-156,310,81,-16,108,-98,1134,105,72,12,308,241,305,283
"279","QFA0417780",46.552776,-71.16944,44,101,24,10673,250,-165,415,176,-36,176,-100,1088,115,68,18,338,208,338,249
"280","QFA0456773",46.998055,-70.90583,45,98,23,10666,251,-160,411,177,-35,177,-99,1060,113,67,18,328,204,328,245
"281","QFA0384355",47.72028,-69.74416,35,99,24,10493,237,-170,407,155,-45,166,-107,946,96,65,12,272,202,261,230
"282","QFA0429561",48.45,-68.583336,30,91,23,9903,219,-164,383,142,-47,152,-105,906,88,60,11,256,189,247,222
"283","QFA0282394",50.31861,-63.99917,12,88,24,9340,187,-179,366,88,-63,128,-113,989,101,48,20,298,173,278,206
"284","QFA0183242",46.78361,-71.26861,47,99,23,10716,256,-160,416,180,-32,180,-97,1114,117,72,18,339,216,339,264
"285","QFA0417781",46.779167,-71.05972,46,98,23,10677,253,-160,413,178,-34,178,-98,1088,116,69,18,337,210,337,254
"287","QFA0313549",50.408054,-62.728333,10,90,24,9499,191,-182,373,35,-64,129,-117,977,102,45,23,298,158,281,199
"289","QFA0456775",46.886112,-71.09695,46,98,23,10699,254,-160,414,179,-34,179,-99,1102,118,70,18,340,212,340,260
"290","QFA0112869",50.083332,-68.71667,-4,118,25,11300,214,-243,457,123,-87,135,-160,955,106,56,21,307,170,299,208
"291","QFA0456774",46.88333,-71.03361,45,97,23,10678,252,-160,412,177,-35,177,-99,1095,117,69,18,339,210,339,256
"292","QFA0466580",52.55,-67.433334,-39,101,22,12150,181,-278,459,100,-186,112,-204,983,124,49,27,340,172,328,185
"294","QFA0545699",47.933334,-69.416664,32,96,24,10276,230,-169,399,149,-47,160,-107,942,95,63,12,269,200,258,224
"296","QFA0313542",50.783333,-63.333332,-9,93,23,10065,180,-212,392,71,-87,117,-144,1031,106,50,21,313,176,299,210
"299","QFA0202108",50.256943,-63.49167,12,86,23,9323,184,-179,363,37,-62,128,-113,994,101,48,21,298,167,279,211
"300","QFA0361165",51.583332,-67.416664,-34,106,23,11850,185,-273,458,102,-120,114,-195,1078,126,55,24,355,192,345,214
"301","QFA0361164",50.07639,-67.11278,5,104,24,10602,206,-215,421,87,-124,137,-139,1061,108,60,14,305,215,289,236
"302","QFA0313535",51.266666,-62.5,-12,98,24,10368,185,-222,407,71,-92,118,-151,1021,106,55,19,306,185,299,211
"303","QFA0313538",50.716667,-63.45,-8,92,23,9962,179,-209,388,71,-86,117,-142,1037,106,50,21,316,177,299,211
"305","QFA0417782",46.775,-71.041664,46,98,23,10677,253,-160,413,178,-34,178,-98,1088,116,69,18,337,210,337,254
"306","QFA0536872",48.36111,-70.94583,26,108,24,11430,242,-204,446,153,-58,166,-131,942,119,52,26,321,157,315,195
"307","QFA0183208",46.77778,-71.27111,47,99,23,10716,256,-160,416,180,-32,180,-97,1114,117,72,18,339,216,339,264
"308","QFA0313550",50.516666,-60.433334,6,84,24,9005,169,-181,350,36,-67,117,-114,1086,118,61,22,340,197,298,225
"309","QFA0579293",52.36667,-64.01667,-31,110,24,11679,190,-266,456,105,-118,115,-189,913,106,46,25,306,161,298,177
"310","QFA0313539",50.301945,-63.03278,13,88,23,9413,190,-178,368,37,-61,130,-114,967,100,44,23,295,155,277,198
"312","QFA0313534",51.216667,-62,-9,96,24,10142,183,-215,398,73,-89,117,-146,1056,107,59,18,313,196,302,222
"314","QFA0466579",52.533333,-67.433334,-39,101,22,12150,181,-278,459,100,-186,112,-204,983,124,49,27,340,172,328,185
"316","QFA0346319",48.142223,-69.25,32,92,23,10207,229,-166,395,149,-46,159,-106,942,94,63,12,270,197,261,221
"317","QFA0450933",52.783333,-67.083336,-40,102,22,12170,180,-279,459,99,-131,111,-205,934,118,46,27,323,162,312,177
"318","QFA0419040",48.4875,-68.48333,26,90,23,9814,214,-167,381,138,-50,148,-107,918,88,60,11,257,192,248,227
"319","QFA0596387",47.966946,-69.42861,33,96,24,10283,231,-169,400,150,-46,161,-106,934,95,62,12,268,198,256,221
"320","QFA0477822",53.566666,-74.45,-39,94,20,12673,176,-284,460,105,-143,112,-211,748,101,31,40,295,103,271,115
"322","QFA0313533",50.830833,-67.13333,-15,108,24,11276,196,-249,445,115,-98,125,-169,1087,110,58,18,326,206,321,231
"325","QFA0459776",50.28278,-63.691666,12,86,23,9300,185,-179,364,88,-62,128,-113,994,102,48,20,298,170,278,210
"326","QFA0313548",51.6225,-60.39611,-13,92,23,9966,175,-216,391,69,-92,111,-147,1144,116,65,19,343,216,329,237
"327","QFA0579306",52.267223,-63.83611,-31,109,24,11613,189,-264,453,105,-117,115,-187,923,105,48,24,305,165,298,181
"328","QFA0533686",50.262222,-63.537224,12,86,23,9322,184,-179,363,37,-62,128,-113,995,102,48,21,299,167,278,212
"331","QFA0333177",50.24139,-62.21639,13,90,24,9248,189,-176,365,39,-61,128,-111,1028,107,57,17,302,189,278,229
"332","QFA0533489",50.294167,-64.351944,11,91,24,9428,190,-182,372,87,-64,128,-115,993,103,48,20,305,178,282,199
"335","QFA0313546",50.88333,-59.233334,11,91,25,9027,185,-175,360,39,-62,122,-110,1136,118,58,21,348,198,333,240
"336","QFA0596386",47.95,-69.433334,33,96,24,10283,231,-169,400,150,-46,161,-106,934,95,62,12,268,198,256,221
"337","QFA0547560",48.498985,-64.16217,34,81,22,9196,211,-144,355,0,-43,150,-86,1076,111,71,11,307,246,267,276
"339","QFA0313540",50.533333,-65.1,-1,96,24,10111,190,-208,398,78,-123,125,-138,1014,108,50,21,313,182,298,203
"341","QFA0536902",47.96111,-69.45,33,96,24,10283,231,-169,400,150,-46,161,-106,934,95,62,12,268,198,256,221
"342","QFA0498865",52.916668,-78.78333,-24,105,22,12289,189,-276,465,113,-128,118,-193,617,81,19,43,234,72,213,88
"347","112574",53.48333,-112.95,19,120,28,10937,227,-201,428,150,-44,150,-128,453,87,16,67,236,53,236,58
"348","4005",54.7506,-116.0332,1,126,29,10191,204,-218,422,124,-60,124,-135,574,102,22,61,285,75,285,81
"349","36192",53.71111,-113.21778,25,120,27,11012,234,-195,429,157,-41,157,-124,447,88,16,67,235,53,235,59
"350","96170",54.75,-116,-2,125,29,10027,199,-218,417,119,-63,119,-136,588,105,22,61,293,76,293,81
"351","114966",53.46856,-112.98245,19,120,28,10937,227,-201,428,150,-44,150,-128,453,87,16,67,236,53,236,58
"352","121666",52.55325,-113.6278,20,129,30,10330,223,-202,425,144,-39,144,-119,454,84,14,66,230,51,230,56
"354","107409",44.25,-60.33333,NA,NA,NA,NA,NA,NA,NA,NA,NA,NA,NA,NA,NA,NA,NA,NA,NA,NA,NA
"355","125868",44.5167,-67.5833,64,105,29,8580,238,-115,353,-21,170,170,-52,1252,137,78,17,384,248,248,339
"357","88832",49.65,-93.73333,23,93,19,12759,245,-224,469,178,-152,178,-152,670,99,22,46,274,80,274,80
"358","88782",49.66667,-93.71667,22,93,19,12748,244,-225,469,177,-153,177,-153,671,99,23,46,274,81,274,81
"359","121168",51.044445,-95.344444,10,114,22,13218,247,-257,504,168,-173,168,-173,563,87,19,48,237,69,237,69
"361","121667",52.55569,-113.6279,20,129,30,10330,223,-202,425,144,-39,144,-119,454,84,14,66,230,51,230,56
"362","102494",53.53916,-113.0036,19,120,28,10925,227,-200,427,150,-47,150,-128,454,88,16,68,237,54,237,60
"365","115145",55.05,-117,14,128,28,10818,226,-219,445,142,-46,142,-133,512,85,22,53,240,68,240,86
"367","V-157708",46.104,-77.4962,43,114,25,11186,258,-185,443,167,-95,179,-110,855,88,50,18,257,160,256,171
"368","V-148329",53.1373,-85.2952,-23,109,21,13228,215,-286,501,138,-189,138,-202,618,89,24,42,242,81,242,87
"370","V-148156",43.1213,-85.2632,81,116,29,9723,285,-105,390,153,-36,202,-49,877,102,37,24,272,146,254,151
"372","V103296",52.083332,-119.316666,23,107,30,8235,212,-142,354,-77,24,128,-84,818,93,43,19,260,153,204,240
"374","V193380",45.566666,-78.6,36,112,26,10614,241,-180,421,115,-44,164,-109,968,97,61,14,278,191,268,216
"377","V183606",52.233334,-131.38333,80,50,33,3538,169,18,151,67,123,130,41,2319,309,81,38,860,287,363,686
"378","V181271",49.883335,-88.08,1,127,25,12363,238,-265,503,150,-86,150,-169,772,92,31,33,264,109,264,135
"380","V150043",54.283333,-122.53333,29,117,30,8791,221,-162,383,-78,31,137,-88,735,75,30,20,214,129,202,203
"381","V15139",48.75,-86.25,13,106,25,10492,199,-215,414,99,-66,136,-131,830,96,47,20,255,156,245,166
"384","052714",46.960484,-80.125435,31,108,24,11342,242,-201,443,157,-54,169,-124,865,98,51,19,268,166,256,175
"385","254152",43.98695,-79.360596,68,96,25,9654,259,-112,371,180,-52,188,-60,799,83,50,14,232,164,231,179
"386","110633",46.9209,-80.04253,32,108,24,11321,243,-199,442,158,-52,170,-122,861,97,50,19,267,164,256,174
"387","120619",43.996395,-79.62461,67,99,26,9620,260,-113,373,178,-53,186,-61,816,85,53,13,237,168,234,184
"388","129191",46.98312,-80.0681,32,108,24,11321,243,-199,442,158,-52,170,-122,861,97,50,19,267,164,256,174
"389","254995",44.193653,-79.50256,66,103,27,9664,260,-117,377,177,-11,185,-63,815,83,49,14,233,164,230,191
"390","110999",45.58329,-78.71584,37,112,26,10586,242,-178,420,117,-42,165,-107,972,97,61,14,279,192,267,218
"393","221696",43.984722,-79.397224,68,96,25,9654,259,-112,371,180,-52,188,-60,799,83,50,14,232,164,231,179
"394","254243",44.218018,-79.34171,66,101,26,9703,259,-118,377,177,-11,186,-63,807,82,48,14,231,162,229,188
"395","052713",46.998066,-80.07951,32,108,24,11321,243,-199,442,158,-52,170,-122,861,97,50,19,267,164,256,174
"396","099910",45.540802,-78.58469,36,112,26,10614,241,-180,421,115,-44,164,-109,968,97,61,14,278,191,268,216
"397","120641",44.014793,-79.62856,68,100,26,9638,262,-112,374,179,-8,188,-60,804,83,51,13,232,166,229,185
"398","CONN00098257",41.47722,-72.51194,97,106,30,8634,276,-75,351,57,207,207,-16,1242,118,91,7,331,294,294,302
"399","CONN00098241",41.88527,-72.26138,85,118,31,8838,272,-100,372,43,-22,196,-33,1210,114,85,7,321,279,300,285
"400","CONN00098236",42.02027,-73.46638,67,113,30,9057,253,-118,371,160,-42,180,-54,1212,112,82,9,328,264,327,268
"401","CONN00098253",41.77527,-72.52472,95,118,31,8944,285,-87,372,140,-12,208,-24,1162,107,81,7,304,267,290,270
"402","CONN00098331",44.13111,-73.11138,68,119,29,9982,272,-138,410,192,-54,192,-66,928,106,50,21,285,163,285,171
"403","CONN00098265",41.84361,-73.32916,75,114,30,9044,260,-112,372,122,-35,187,-47,1238,112,87,7,327,276,326,281
"404","CONN00098319",42.57777,-70.76888,94,105,29,8708,275,-81,356,54,205,205,-20,1172,124,81,12,337,253,253,310
"405","CONN00098334",41.47,-71.55777,98,99,30,8144,265,-65,330,18,175,201,-8,1178,119,79,12,332,254,258,307
"406","CONN00098252",41.79055,-72.44277,88,116,31,8855,274,-94,368,46,-18,200,-30,1212,113,85,7,318,279,300,283
"407","CONN00098347",40.72916,-77.7625,88,110,30,8847,273,-86,359,179,-30,199,-30,1025,109,65,15,309,205,296,205
"408","CONN00098239",41.96166,-73.30833,73,116,30,9090,261,-114,375,121,-37,187,-49,1220,111,85,8,324,270,324,276
"409","CONN00098267",41.44638,-72.99611,95,108,30,8770,276,-80,356,81,-11,205,-21,1241,114,89,7,332,290,299,292
"410","CONN00151189",41.48027,-71.5225,98,99,30,8144,265,-65,330,18,175,201,-8,1178,119,79,12,332,254,258,307
"411","CONN00098273",41.58388,-71.92138,95,115,31,8612,276,-84,360,7,204,204,-19,1220,120,88,9,334,280,280,306
"412","CONN00098247",41.98166,-72.65055,96,121,31,9185,292,-90,382,144,-13,213,-26,1131,103,79,7,297,259,285,262
"413","CONN00098323",43.15666,-73.36972,76,129,31,9668,281,-129,410,196,-41,196,-54,995,108,56,17,290,193,290,196
"414","CONN00135058",44.46444,-68.71111,70,110,28,9277,260,-121,381,28,187,187,-54,1168,130,80,15,352,246,246,302
"415","CONN00098248",41.29638,-73.14666,101,104,29,8660,277,-70,347,86,-13,210,-13,1194,110,86,8,325,282,285,282
"417","CONN00098238",41.99444,-73.46916,77,122,32,9070,269,-112,381,191,-32,191,-44,1159,107,77,9,315,250,315,254
"418","CONN00135957",41.81444,-73.29111,77,114,30,9002,262,-108,370,124,-32,190,-43,1240,113,87,7,327,277,324,281
"419","CONN00124727",42.65,-71.91666,71,118,30,9159,262,-119,381,27,-39,186,-52,1168,114,87,7,314,275,292,282
"420","CONN00151181",41.94611,-72.99138,80,118,31,9156,271,-109,380,127,-31,195,-43,1240,113,89,7,326,282,316,287
"421","CONN00098242",42.025,-72.75694,90,123,31,9270,287,-101,388,139,-21,207,-34,1172,106,82,7,310,266,298,271
"422","CONN00142520",43.43916,-70.77416,74,127,31,9350,275,-124,399,29,183,192,-51,1187,132,86,13,350,262,267,294
"423","CONN00098251",41.78222,-72.61194,98,118,31,9000,290,-84,374,143,-9,212,-21,1142,104,80,6,300,263,285,265
"424","CONN00098336",42.33166,-71.12111,96,110,30,8758,281,-80,361,7,184,208,-19,1146,116,81,10,323,255,257,302
"427","CONN00098333",44.95361,-67.16194,61,97,28,8469,232,-110,342,-22,165,165,-53,1172,127,78,15,356,243,243,318
"428","CONN00169373",41.94861,-73.19861,71,111,29,9116,256,-115,371,118,-40,184,-52,1256,114,90,7,332,283,329,289
"429","CONN00098318",48.08583,-53.00222,50,74,26,6886,200,-80,280,-6,105,142,-35,1245,123,71,17,369,238,274,349
"430","CONN00098271",41.99388,-73.20194,71,111,29,9116,256,-115,371,118,-40,184,-52,1256,114,90,7,332,283,329,289
"431","CONN00098340",42.86111,-72.10916,61,119,30,9281,254,-131,385,177,-51,177,-63,1182,112,86,8,311,268,311,276
"432","CONN00124730",42.47361,-72.00611,72,121,31,9146,264,-120,384,120,-38,187,-51,1129,105,79,7,295,256,294,261
"433","CONN00098264",41.60138,-71.88638,92,111,31,8541,270,-85,355,5,176,200,-21,1240,122,89,9,339,284,284,312
"434","CONN00098324",41.41666,-71.54944,100,95,29,8067,262,-60,322,21,176,202,-5,1158,117,77,12,326,248,252,301
"436","CONN00137452",41.96888,-73.16222,73,114,30,9133,261,-114,375,121,-37,187,-49,1250,114,90,7,330,283,325,289
"438","CONN00098343",39.8175,-74.53527,117,113,32,8357,294,-52,346,217,132,223,8,1126,118,79,13,318,261,313,262
"440","CONN00098328",43.225,-72.17833,62,121,30,9519,260,-136,396,181,-53,181,-66,1099,105,77,10,297,237,297,245
"441","CONN00124725",42.31111,-71.92805,76,115,30,9077,264,-112,376,32,-34,190,-45,1192,112,86,6,314,278,298,281
"443","CONN00098244",42.01916,-72.11083,80,120,31,9048,271,-109,380,37,-29,194,-41,1226,114,89,6,326,287,302,295
"444","CONN00098341",43.43416,-72.01888,58,121,30,9550,257,-140,397,178,-57,178,-70,1106,107,74,11,297,231,297,244
"446","CONN00142172",43.83498,-66.04413,66,74,28,6579,197,-65,262,8,144,146,-20,1263,138,80,18,407,259,260,379
"448","CONN00074276",41.905,-72.70194,97,119,31,9136,291,-88,379,144,-13,212,-25,1158,105,81,7,305,265,290,268
"449","CONN00124726",42.13333,-71.65,89,120,31,8925,278,-98,376,46,179,202,-30,1181,116,90,7,320,279,282,294
"450","CONN00124723",42.45555,-71.67305,84,120,31,9112,274,-106,380,40,190,199,-37,1154,114,88,7,314,274,275,287
"451","CONN00098260",45.69972,-69.73444,36,119,28,10407,242,-181,423,166,-91,166,-104,1009,103,57,17,301,189,301,206
"452","CONN00098246",41.51166,-72.66805,99,109,30,8806,283,-76,359,85,-7,211,-17,1222,113,88,7,324,285,293,290
"453","CONN00124733",42.68611,-72.04388,68,123,31,9246,264,-126,390,184,-43,184,-56,1125,106,82,7,296,258,296,266
"454","CONN00098249",41.42555,-72.99305,95,108,30,8770,276,-80,356,81,-11,205,-21,1241,114,89,7,332,290,299,292
"455","CONN00098325",42.05833,-70.17861,96,83,26,8092,258,-60,318,20,172,200,-8,1109,116,68,13,322,227,234,299
"456","CONN00098327",42.97444,-86.82388,87,91,26,9119,263,-84,347,195,-24,200,-34,854,94,37,21,259,150,244,154
"458","CONN00098348",44.28944,-70.36527,64,119,29,9742,264,-140,404,18,-54,186,-66,1138,120,79,11,324,261,276,269
"459","CONN00136181",41.59638,-72.94777,89,112,30,8896,274,-91,365,78,-18,201,-29,1261,115,90,7,332,291,309,295
"460","CONN00144292",41.81027,-73.29722,77,114,30,9002,262,-108,370,124,-32,190,-43,1240,113,87,7,327,277,324,281
"461","CONN00098329",44.15888,-71.36166,39,117,29,9579,232,-162,394,-7,-78,158,-90,1365,137,96,10,376,296,360,316
"462","CONN00098335",42.15,-71.25833,94,116,31,8797,281,-86,367,4,182,206,-22,1183,120,86,9,329,265,272,304
"463","CONN00098311",43.86666,-73.10777,71,123,29,9935,277,-136,413,184,-50,195,-63,949,107,53,19,287,173,285,182
"467","CONN00098315",46.99,-68.00333,36,111,26,10612,242,-180,422,156,-44,167,-108,958,104,58,18,295,184,289,203
"468","CONN00098312",44.49111,-68.31916,69,109,28,9141,257,-120,377,-22,184,184,-53,1217,138,77,17,372,242,242,327
"469","CONN00098275",41.67638,-71.915,91,115,31,8640,274,-89,363,51,177,201,-23,1228,120,91,8,333,285,285,306
"471","CONN00098235",41.71166,-72.85305,96,117,31,8977,286,-87,373,84,-12,209,-24,1215,111,86,7,321,280,297,284
"472","CONN00098344",43.64055,-72.14388,61,126,30,9670,263,-145,408,181,-56,181,-70,1007,98,65,13,278,204,278,216
"474","CONN00098316",49.11666,-66.5,24,80,21,9566,206,-160,366,137,-52,146,-102,947,96,53,16,283,184,274,206
"475","CONN00129630",44.80166,-70.30583,48,123,29,9923,250,-163,413,3,-73,171,-86,1092,111,69,11,301,230,293,242
"476","CONN00098326",45.51333,-84.66666,60,111,28,9645,259,-133,392,172,-61,179,-68,785,98,34,24,253,133,225,140
"477","CONN00098258",41.98472,-73.28194,73,116,30,9090,261,-114,375,121,-37,187,-49,1220,111,85,8,324,270,324,276
"478","CONN00098254",41.43388,-73.11666,93,110,30,8774,275,-84,359,81,-12,204,-23,1239,115,88,7,332,288,302,289
"479","CONN00098317",48.81694,-56.53277,35,102,28,8261,221,-134,355,6,62,141,-69,1099,109,67,14,320,224,277,292
"481","CONN00069152",41.9275,-72.16722,80,117,31,8917,267,-106,373,37,-28,192,-39,1243,117,89,6,330,289,307,295
"482","CONN00098322",43.43361,-72.05722,58,121,30,9550,257,-140,397,178,-57,178,-70,1106,107,74,11,297,231,297,244
"483","CONN00098266",41.72472,-73.47694,85,120,31,8992,273,-103,376,175,-24,197,-36,1178,108,80,9,316,257,314,260
"484","CONN00098330",58.78333,-63.06666,-63,71,19,9697,114,-246,360,54,-93,55,-190,617,73,32,27,216,109,194,129
"485","CONN00098263",41.57555,-71.86166,94,108,30,8437,270,-79,349,10,177,201,-17,1231,122,87,10,339,278,278,312
"486","CONN00098345",44.51666,-70.69944,51,123,29,9948,254,-160,414,5,-70,175,-83,1085,112,68,13,300,224,295,236
"487","CONN00098262",41.78833,-72.22888,88,120,32,8761,274,-97,371,46,-18,198,-29,1211,115,86,7,324,283,296,289
"488","CONN00139272",41.82138,-73.29638,77,114,30,9002,262,-108,370,124,-32,190,-43,1240,113,87,7,327,277,324,281
"490","CONN00098339",44.17527,-71.69222,47,122,29,9850,250,-159,409,170,-72,170,-86,1096,115,66,16,328,210,328,226
"491","CONN00152712",43.55277,-70.47027,80,117,30,9217,274,-112,386,37,189,197,-43,1152,131,80,15,344,243,249,289
"492","CONN00098338",44.89416,-71.49666,38,124,29,10092,242,-176,418,162,-86,162,-99,1073,122,60,20,340,196,340,214
"494","CONN00098320",43.76472,-69.31305,NA,NA,NA,NA,NA,NA,NA,NA,NA,NA,NA,NA,NA,NA,NA,NA,NA,NA,NA
"496","CONN00098245",41.93611,-72.81305,93,122,31,9213,289,-96,385,141,-17,209,-30,1172,106,82,7,309,267,296,271
"497","CONN00098255",41.81166,-72.79916,93,117,31,9038,285,-90,375,139,-15,208,-27,1215,111,86,7,321,279,299,283
"498","CONN00098243",41.29083,-73.27472,98,108,30,8670,276,-77,353,84,-7,207,-17,1230,115,87,8,334,288,296,288
"500","CONN00098240",41.51972,-72.54361,96,109,30,8708,279,-78,357,55,-8,207,-18,1226,116,89,7,325,290,293,295
"501","CONN00098313",44.33055,-68.04888,NA,NA,NA,NA,NA,NA,NA,NA,NA,NA,NA,NA,NA,NA,NA,NA,NA,NA,NA
"502","CONN00098234",41.98888,-73.345,80,125,32,9106,274,-110,384,194,-30,194,-42,1155,107,76,9,313,249,313,253
"503","CONN00128222",41.89244,-72.29544,85,118,31,8838,272,-100,372,43,-22,196,-33,1210,114,85,7,321,279,300,285
"506","CONN00098314",45.15638,-71.17083,29,115,28,10070,225,-180,405,153,-96,153,-107,1106,123,63,18,346,210,346,225
"507","CONN00098337",42.45833,-71.06611,96,108,29,8783,280,-81,361,7,208,208,-19,1122,113,82,9,311,255,255,288
"508","E00639417",61.916668,49.3,6,87,20,11218,226,-204,430,150,-65,150,-143,603,71,29,27,198,95,198,118
"509","V136703",47.883335,-84.86667,24,111,26,10423,219,-200,419,109,-54,147,-119,949,108,55,21,297,171,259,212
"510","V172165",48.55,-89.23333,15,121,25,11437,239,-227,466,143,-142,154,-142,762,89,32,29,258,123,256,123
"511","V174163",48.333332,-90.71667,25,125,27,11396,244,-217,461,163,-132,163,-132,712,97,23,44,281,83,281,83
"513","V-149919",53.1373,-85.2952,-23,109,21,13228,215,-286,501,138,-189,138,-202,618,89,24,42,242,81,242,87
"515","MT00171467",48.84528,-78.5575,7,114,24,12125,232,-240,472,140,-82,153,-159,879,109,36,33,317,133,308,145
"516","MT00171540",48.183334,-79.23333,14,114,24,12002,236,-232,468,146,-76,159,-150,883,105,43,28,303,147,295,158
"517","MT00020967",46.26361,-74.7325,36,106,24,10965,239,-188,427,169,-44,169,-115,1038,102,66,14,302,208,302,235
"519","MT00171476",48.816666,-78.333336,7,113,24,12065,231,-238,469,140,-81,152,-159,889,110,38,33,320,135,311,149
"523","MT00171472",48.833332,-78.53333,7,113,24,12108,231,-239,470,140,-82,153,-159,887,110,37,33,319,135,310,147
"524","MT00171440",46.333332,-74.5,27,107,25,10854,231,-194,425,160,-52,160,-121,1111,108,71,14,319,222,319,255
"526","MT00171513",46.308334,-72.475,51,107,24,10934,260,-169,429,173,-28,185,-98,1017,102,61,15,297,201,296,229
"535","14260",44.98835,-64.12861,63,100,28,8676,246,-105,351,-19,146,173,-49,1308,140,89,16,411,275,278,386
"536","51805",45.966667,-74.333336,34,103,24,10662,233,-181,414,164,-45,164,-111,1092,105,72,12,304,227,304,254
"537","45986",45.742218,-60.94074,56,84,26,8097,221,-101,322,-11,125,160,-46,1461,167,95,18,465,303,311,370
"539","ECS014669",44.733334,-63.665833,63,91,27,8322,229,-99,328,-14,166,168,-44,1420,157,92,18,451,294,298,420
"543","CONN00166740",42.65,-71.91666,71,118,30,9159,262,-119,381,27,-39,186,-52,1168,114,87,7,314,275,292,282
"544","CONN00098250",41.84361,-73.32916,75,114,30,9044,260,-112,372,122,-35,187,-47,1238,112,87,7,327,276,326,281
"545","CONN00098237",42.02027,-73.46638,67,113,30,9057,253,-118,371,160,-42,180,-54,1212,112,82,9,328,264,327,268
"546","CONN00098332",42.33166,-71.12111,96,110,30,8758,281,-80,361,7,184,208,-19,1146,116,81,10,323,255,257,302
"548","CONN00098259",41.99444,-73.46916,77,122,32,9070,269,-112,381,191,-32,191,-44,1159,107,77,9,315,250,315,254
"549","CONN00098349",45.69972,-69.73444,36,119,28,10407,242,-181,423,166,-91,166,-104,1009,103,57,17,301,189,301,206
"553","CONN00098268",41.88527,-72.26138,85,118,31,8838,272,-100,372,43,-22,196,-33,1210,114,85,7,321,279,300,285
"555","CONN00098321",48.81694,-56.53277,35,102,28,8261,221,-134,355,6,62,141,-69,1099,109,67,14,320,224,277,292
"556","CONN00098261",41.78222,-72.61194,98,118,31,9000,290,-84,374,143,-9,212,-21,1142,104,80,6,300,263,285,265
"563","CAN 498226",45.56,-76.692,53,110,25,10984,265,-167,432,176,-83,188,-96,831,80,55,12,234,170,233,185
"565","CAN 440166",46.783,-66.267,37,111,26,10350,244,-170,414,-11,-42,167,-102,1099,107,75,10,307,240,285,273
"569","CAN 439635",47.367,-66.517,22,106,25,10484,229,-185,414,-25,-58,154,-118,1129,110,70,12,311,236,307,268
"570","CAN 545795",43.983,-79.617,67,99,26,9620,260,-113,373,178,-53,186,-61,816,85,53,13,237,168,234,184
"576","36193",53.71111,-113.21778,25,120,27,11012,234,-195,429,157,-41,157,-124,447,88,16,67,235,53,235,59
"578","QFA0450836",52.783333,-67.083336,-40,102,22,12170,180,-279,459,99,-131,111,-205,934,118,46,27,323,162,312,177
"580","QFA0187889",46.78361,-71.26861,47,99,23,10716,256,-160,416,180,-32,180,-97,1114,117,72,18,339,216,339,264
"581","QFA0313544",50.408054,-62.728333,10,90,24,9499,191,-182,373,35,-64,129,-117,977,102,45,23,298,158,281,199
"584","QFA0213602",48.45,-68.583336,30,91,23,9903,219,-164,383,142,-47,152,-105,906,88,60,11,256,189,247,222
"588","254999",44.193653,-79.50256,66,103,27,9664,260,-117,377,177,-11,185,-63,815,83,49,14,233,164,230,191
