"","catalogNumber","lat","lon","bio1","bio2","bio3","bio4","bio5","bio6","bio7","bio8","bio9","bio10","bio11","bio12","bio13","bio14","bio15","bio16","bio17","bio18","bio19"
"1","UNA00057499",31.20667,-89.16167,185,134,42,6590,335,23,312,112,189,266,97,1563,161,80,17,451,311,397,440
"2","UNA00027350",35.35,-79.9,154,130,38,7523,319,-17,336,249,108,249,54,1180,125,77,14,347,256,347,287
