"","catalogNumber","lat","lon","bio1","bio2","bio3","bio4","bio5","bio6","bio7","bio8","bio9","bio10","bio11","bio12","bio13","bio14","bio15","bio16","bio17","bio18","bio19"
"1","QFA0361110",46.966667,-70.8,47,99,24,10660,253,-158,411,179,-33,179,-97,1029,110,65,18,319,199,319,237
"2","QFA0440395",47.35,-70,36,96,23,10529,237,-167,404,156,-45,167,-106,975,100,65,14,288,201,285,226
"4","QFA0417785",46.716667,-71.2875,47,100,24,10710,255,-161,416,180,-32,180,-98,1107,116,71,18,338,215,338,260
"5","UNA00001665",34.82722,-86.16139,141,127,37,7633,306,-30,336,55,197,236,39,1508,170,89,17,445,296,327,421
"6","UNA00001734",34.32278,-87.4725,152,133,38,7662,318,-24,342,151,208,247,49,1497,167,88,18,440,289,319,420
"7","UNA00055263",34.53,-93.65,151,141,38,8031,332,-39,371,150,43,251,43,1404,158,78,19,433,302,311,302
"8","UNA00065836",34.20139,-87.58833,150,136,39,7636,317,-27,344,150,207,245,48,1520,169,89,18,449,292,321,427
"9","UNA00061223",34.30139,-87.31861,153,133,39,7657,319,-22,341,152,209,248,50,1479,166,87,18,432,286,318,415
"10","UNA00066554",33.18195,-86.17,164,140,42,7077,323,-7,330,85,216,251,68,1436,170,77,20,444,280,337,409
"12","CAN 439292",45.633,-64.867,54,107,28,9122,246,-126,372,-34,94,169,-66,1186,121,86,13,356,263,273,334
"14","CAN 25279",43.733,-79.817,71,99,26,9497,263,-105,368,181,-47,189,-54,821,85,52,13,239,168,233,179
"15","CAN 439501",45.867,-64.667,51,106,28,9239,243,-130,373,-38,92,168,-70,1190,120,85,12,355,266,275,334
"16","CAN 439459",45.617,-64.95,51,106,28,9151,243,-129,372,-38,91,166,-70,1216,124,89,12,365,270,280,342
"17","3572089",37.16,-91.17,131,144,36,8728,324,-72,396,133,12,239,12,1132,116,59,18,337,230,283,230
"18","1898945",37.75,-90.11,124,131,33,8992,315,-71,386,124,2,236,2,1114,117,62,17,331,223,290,223
"20","1386385",35.03,-83.47,107,127,40,6872,260,-55,315,29,158,192,15,1915,197,133,9,531,431,463,504
"21","2159367",37.64,-91.35,130,137,35,8682,319,-68,387,130,11,237,11,1067,114,51,20,318,189,283,189
"23","2809888",34.87,-93.12,154,135,36,8088,334,-33,367,154,248,254,45,1317,146,73,19,408,283,285,285
"24","1380715",35.87,-82.82,124,135,40,7381,290,-46,336,199,79,217,26,1123,118,70,15,318,230,318,258
"25","263873",37.78,-90.27,123,129,33,8978,312,-70,382,122,2,236,2,1105,117,61,18,329,216,290,216
"26","3165981",38.33,-91.61,124,131,32,9187,318,-79,397,176,-1,238,-1,1012,121,45,24,319,166,282,166
"27","1748546",37.72,-90.93,126,136,35,8686,314,-70,384,126,7,233,7,1090,114,54,19,324,201,286,201
"28","2808374",37.71,-91.03,127,138,35,8704,316,-71,387,127,8,234,8,1083,113,54,19,321,199,284,199
"29","3501323",37.25,-93,128,124,32,8906,314,-67,381,177,7,238,7,1102,123,48,23,336,181,290,181
"31","3543996",37.03,-90.3,134,131,33,8988,324,-64,388,135,197,245,11,1196,129,75,16,363,261,283,270
"32","263157",38.13,-90.68,125,137,34,9047,318,-77,395,126,1,237,1,1026,111,54,19,305,193,271,193
"33","952254",37.07,-91.12,130,147,36,8777,324,-75,399,132,10,238,10,1153,117,63,17,341,244,285,244
"34","1748523",37.68,-90.97,126,136,35,8686,314,-70,384,126,7,233,7,1090,114,54,19,324,201,286,201
"35","MT00011203",45.657307,-74.88203,57,102,24,10821,260,-158,418,189,-76,189,-91,918,92,60,13,263,187,263,207
"36","MT00006587",46.766666,-71.691666,42,102,24,10847,249,-172,421,175,-38,175,-106,1108,116,69,17,335,214,335,253
"37","MT00023487",45.283333,-72.833336,61,110,26,10562,265,-153,418,190,-69,190,-83,991,107,54,18,298,185,298,199
"38","2134784",39.10111,-77.4775,123,123,34,8545,306,-54,360,210,10,231,10,996,98,67,12,281,210,279,210
"39","222747",38.895,-77.03667,133,115,32,8546,311,-42,353,241,20,241,20,1021,104,70,12,292,223,292,223
"41","3200140",38.9725,-77.14917,128,119,33,8549,307,-48,355,236,14,236,14,1034,102,70,11,291,223,291,223
"42","258195",38.92528,-77.05278,128,117,33,8529,306,-47,353,236,15,236,15,1053,104,71,12,297,227,297,227
"43","3453485",39.23194,-76.70083,130,116,32,8635,312,-44,356,240,17,240,17,1082,105,75,11,298,241,298,241
"44","2618946",38.97222,-77.16861,126,119,33,8523,305,-50,355,234,13,234,13,1025,101,69,12,288,219,288,219
"46","3410228",39.29778,-77.40806,118,120,33,8560,299,-59,358,205,4,226,4,1000,99,67,12,285,209,280,209
"49","786741",38.89944,-77.0575,133,115,32,8546,311,-42,353,241,20,241,20,1021,104,70,12,292,223,292,223
"50","363443",38.93944,-77.11083,128,119,33,8549,307,-48,355,236,14,236,14,1034,102,70,11,291,223,291,223
"53","120555",35.921665,-81.80361,123,133,39,7303,288,-46,334,197,41,215,26,1340,129,96,9,364,295,359,298
"54","CONN00098121",41.88111,-72.3025,85,118,31,8838,272,-100,372,43,-22,196,-33,1210,114,85,7,321,279,300,285
"55","CONN00098138",42.62805,-72.87027,68,121,30,9408,265,-128,393,118,-46,185,-58,1217,114,87,8,327,271,319,280
"56","CONN00124715",42.45,-71.88333,74,116,30,9106,262,-115,377,30,-36,189,-48,1184,114,87,6,316,279,294,283
"57","CONN00098117",41.84361,-73.32916,75,114,30,9044,260,-112,372,122,-35,187,-47,1238,112,87,7,327,276,326,281
"58","CONN00098109",42.005,-72.94222,75,117,30,9182,266,-114,380,123,-36,190,-48,1244,115,90,7,329,282,320,288
"59","CONN00098124",41.94611,-72.99138,80,118,31,9156,271,-109,380,127,-31,195,-43,1240,113,89,7,326,282,316,287
"60","CONN00098116",41.91805,-72.69305,95,120,31,9222,291,-92,383,143,-16,211,-28,1153,105,80,7,303,263,291,266
"61","CONN00098111",41.92916,-72.97277,80,118,31,9156,271,-109,380,127,-31,195,-43,1240,113,89,7,326,282,316,287
"63","CONN00098142",43.56638,-72.43472,59,127,30,9706,263,-148,411,180,-58,180,-72,1066,102,70,10,286,225,286,236
"64","CONN00098108",41.92166,-72.26027,83,119,31,8967,272,-103,375,40,-25,196,-37,1211,113,86,6,319,279,302,284
"65","CONN00053704",42.05361,-76.59583,79,123,32,8979,275,-102,377,170,-30,191,-40,864,96,46,19,265,157,258,157
"68","CONN00098110",41.77583,-73.40972,79,117,31,9006,265,-108,373,170,-30,191,-42,1215,111,84,8,323,268,322,272
"69","CONN00098140",42.02444,-80.37222,92,99,28,9042,272,-81,353,205,-20,205,-28,1019,99,56,16,287,191,287,203
"70","CONN00098113",41.56222,-72.65055,99,109,30,8762,282,-76,358,85,-7,210,-17,1213,113,87,7,321,285,291,289
"71","CONN00117738",41.43388,-73.11666,93,110,30,8774,275,-84,359,81,-12,204,-23,1239,115,88,7,332,288,302,289
"72","CONN00098115",41.48166,-72.68111,98,106,29,8716,280,-74,354,84,-6,209,-16,1225,114,89,7,326,289,292,293
"73","CONN00098120",41.30805,-72.92805,104,102,29,8586,278,-65,343,88,212,212,-9,1141,108,84,8,307,271,271,272
"74","CONN00098119",41.44277,-73.0625,95,110,30,8764,277,-81,358,82,-10,206,-21,1231,113,88,7,330,287,297,289
"75","CONN00098112",41.67583,-73.50944,85,120,31,9008,274,-102,376,176,-23,198,-35,1154,106,78,9,312,250,311,253
"76","CONN00124716",42.33333,-71.83277,83,118,31,9077,272,-106,378,39,-26,198,-38,1178,114,88,6,316,282,286,286
"77","CONN00098125",41.66694,-72.59666,99,115,31,8924,288,-80,368,143,-8,212,-19,1153,105,81,6,303,266,286,269
"78","CONN00149543",44.765,-69.71916,61,127,30,9997,267,-154,421,14,-61,185,-75,1052,107,66,12,294,218,274,233
"79","CONN00124713",42.35166,-71.85777,78,116,30,9099,266,-111,377,34,-32,193,-44,1176,112,86,6,313,277,291,281
"80","CONN00098141",39.98972,-75.46888,116,106,30,8746,295,-57,352,205,0,227,0,1142,114,76,11,318,253,314,253
"83","CONN00124712",42.65,-71.91666,71,118,30,9159,262,-119,381,27,-39,186,-52,1168,114,87,7,314,275,292,282
"85","CONN00098118",41.66555,-73.50694,88,119,31,8964,276,-99,375,178,-20,200,-32,1163,107,79,9,312,253,310,256
"87","CONN00098137",42.67777,-71.82083,75,121,31,9224,268,-117,385,30,-36,191,-48,1142,113,86,7,311,269,282,277
"88","18788",47.000916,-60.493256,47,71,23,7763,204,-96,300,-15,110,150,-49,1326,146,85,17,418,274,290,335
"89","CBU732",46.09964,-60.75111,57,85,25,8199,226,-102,328,-11,130,161,-46,1386,157,87,19,447,284,294,352
"90","ECS004750",45.64034,-63.03886,54,98,27,8797,238,-116,354,-28,86,164,-60,1213,128,86,14,369,266,276,334
"91","ECS024018",45.09271,-64.36132,65,103,28,8728,250,-106,356,-18,149,175,-49,1201,127,84,15,371,258,264,349
"93","28327",45.396408,-62.294525,54,94,27,8369,226,-110,336,-22,128,159,-54,1367,150,94,16,428,293,302,383
"94","21838",45.116665,-64.2825,65,102,28,8752,250,-106,356,-18,149,175,-49,1219,130,85,15,378,261,265,356
"95","19104",47.50577,-65.67755,44,103,25,10068,245,-152,397,2,-37,171,-90,1010,97,66,11,281,221,266,247
"96","25098",46.407494,-61.078007,51,86,25,8246,225,-109,334,-17,126,157,-53,1336,151,85,19,429,273,284,336
"97","ECS024657",45.004208,-64.03345,64,101,28,8720,248,-106,354,-18,147,174,-49,1288,138,88,16,405,271,275,380
"98","ECS004748",45.376072,-63.53945,60,103,28,8733,243,-113,356,-22,142,169,-54,1219,129,85,14,373,266,273,347
"99","ECS015604",46.666668,-60.949165,46,79,24,8148,216,-109,325,-20,118,151,-56,1319,147,84,18,420,270,286,333
"100","22643",46.1268,-61.13509,53,86,25,8271,225,-109,334,-17,127,158,-52,1376,155,88,19,442,282,292,345
"101","ECS017236",44.96389,-63.352222,60,97,28,8467,233,-107,340,-19,137,166,-50,1377,150,92,16,432,291,296,403
"102","12958",45.42561,-63.1981,54,102,28,8688,238,-118,356,-27,87,163,-59,1234,129,86,14,375,269,280,344
"103","16972",45.44199,-62.01287,57,96,27,8422,235,-108,343,-18,133,163,-50,1356,150,90,17,429,285,295,384
"104","ECS014112",44.94762,-64.00739,63,100,28,8671,245,-106,351,-19,145,172,-50,1324,143,90,17,418,278,280,392
"105","40114",46.35,-65.15,50,112,27,9768,255,-146,401,-47,126,174,-79,1157,116,82,12,345,261,272,325
"107","60791",45.22727,-63.60534,59,101,28,8703,241,-113,354,-22,141,169,-54,1303,140,89,16,406,277,283,380
"108","ECS017249",45.01781,-63.3842,62,100,28,8504,238,-107,345,-17,140,168,-48,1323,143,89,16,413,281,288,385
"110","ECS024021",46.186733,-60.770782,48,83,25,8211,219,-110,329,-20,121,153,-55,1435,161,91,18,459,294,304,366
"111","30600",45.36468,-63.27865,59,105,29,8642,242,-115,357,-23,91,166,-54,1212,127,84,14,368,264,275,340
"112","CBU1572",45.952164,-59.79,57,75,25,7538,212,-86,298,-5,115,157,-37,1501,158,95,15,457,311,318,395
"113","38041",45.41814,-64.1774,53,100,27,8911,238,-120,358,-31,90,166,-63,1239,129,89,13,376,272,278,353
"114","17405",46.903934,-60.5173,47,74,23,7925,210,-100,310,-17,114,151,-51,1337,148,85,18,424,274,290,340
"115","35069",46.711006,-60.365227,52,78,24,7948,218,-96,314,-12,119,157,-46,1360,150,86,18,432,278,292,351
"116","ECS016509",45.787014,-64.194954,56,98,27,8890,237,-117,354,-28,92,168,-60,1133,115,83,12,336,251,265,314
"117","25145",46.95337,-60.552753,40,71,23,7897,201,-106,307,-23,106,144,-58,1375,152,88,17,433,283,300,348
"118","24631",45.037437,-64.502464,60,101,28,8719,245,-109,354,-22,145,171,-53,1242,132,86,15,383,265,270,361
"119","ECS030998",45.0036,-64.27723,60,100,28,8737,244,-110,354,-23,143,170,-54,1287,137,89,16,400,273,277,377
"121","YPM YU 037924",41.3644,-72.7767,101,104,29,8643,279,-69,348,86,210,210,-13,1188,111,88,7,318,282,282,285
"122","YPM YU 037926",41.9093,-71.8712,89,121,32,8842,277,-98,375,47,200,200,-29,1211,117,90,7,327,289,289,297
"123","YPM YU 037922",41.3964,-72.3439,101,105,30,8490,277,-70,347,16,208,208,-11,1208,117,91,8,327,281,281,301
"124","YPM YU 037921",41.3114,-72.9247,104,102,29,8586,278,-65,343,88,212,212,-9,1141,108,84,8,307,271,271,272
"126","YPM YU 037928",41.4389,-73.0568,95,110,30,8764,277,-81,358,82,-10,206,-21,1231,113,88,7,330,287,297,289
"127","YPM YU 037929",41.5161,-72.759,99,110,30,8833,284,-77,361,86,-7,211,-18,1219,112,88,7,324,284,293,288
"128","YPM YU 037927",41.0811,-73.4825,107,106,30,8560,285,-63,348,93,-5,216,-5,1177,108,81,8,320,275,288,275
"129","YPM YU 037920",42.0015,-73.0808,75,118,30,9200,266,-115,381,123,-37,190,-49,1233,114,88,7,326,277,321,284
"130","YPM YU 037923",41.4389,-73.0567,95,110,30,8764,277,-81,358,82,-10,206,-21,1231,113,88,7,330,287,297,289
"131","241002",38.895,-77.03667,133,115,32,8546,311,-42,353,241,20,241,20,1021,104,70,12,292,223,292,223
"133","QFA0100985",46.966667,-70.8,47,99,24,10660,253,-158,411,179,-33,179,-97,1029,110,65,18,319,199,319,237
"135","ECS004749",45.376072,-63.53945,60,103,28,8733,243,-113,356,-22,142,169,-54,1219,129,85,14,373,266,273,347
"136","ECS020056",45.22727,-63.60534,59,101,28,8703,241,-113,354,-22,141,169,-54,1303,140,89,16,406,277,283,380
"139","CONN00124714",42.45,-71.88333,74,116,30,9106,262,-115,377,30,-36,189,-48,1184,114,87,6,316,279,294,283
"141","CONN00098123",41.84361,-73.32916,75,114,30,9044,260,-112,372,122,-35,187,-47,1238,112,87,7,327,276,326,281
"142","CONN00098139",42.62805,-72.87027,68,121,30,9408,265,-128,393,118,-46,185,-58,1217,114,87,8,327,271,319,280
"143","CONN00098122",41.44277,-73.0625,95,110,30,8764,277,-81,358,82,-10,206,-21,1231,113,88,7,330,287,297,289
"144","CONN00098114",41.91805,-72.69305,95,120,31,9222,291,-92,383,143,-16,211,-28,1153,105,80,7,303,263,291,266
"149","2134782",39.10111,-77.4775,123,123,34,8545,306,-54,360,210,10,231,10,996,98,67,12,281,210,279,210
