"","catalogNumber","lat","lon","bio1","bio2","bio3","bio4","bio5","bio6","bio7","bio8","bio9","bio10","bio11","bio12","bio13","bio14","bio15","bio16","bio17","bio18","bio19"
"11","28332",47.78389,-120.423615,53,122,34,7822,251,-98,349,-40,150,153,-47,688,123,15,63,344,66,67,315
"12","28331",47.425835,-120.728615,39,103,33,7031,215,-93,308,-43,129,129,-48,1087,187,21,62,530,96,96,488
"13","28329",45.87434,-120.779,82,134,40,6867,279,-52,331,1,172,172,-4,455,82,8,66,230,38,38,211
"14","50423",46.78366,-116.92449,72,126,37,6930,271,-64,335,-10,159,162,-15,656,83,23,36,247,84,98,227
"15","50416",48.200172,-116.90305,69,128,36,7661,276,-73,349,-21,162,169,-27,754,107,28,41,306,97,114,278
"16","7152",47.70139,-117.37278,86,121,34,7862,290,-59,349,-7,183,188,-13,490,68,18,39,195,64,77,177
"17","28333",47.45028,-120.71167,39,103,33,7031,215,-93,308,-43,129,129,-48,1087,187,21,62,530,96,96,488
"18","28334",48.67889,-119.915,12,112,33,7615,199,-137,336,-78,108,109,-84,489,66,28,29,179,90,101,165
"19","33529",48.692017,-119.941,4,108,32,7457,188,-140,328,-83,99,99,-89,539,74,30,31,202,97,107,186
"21","38984",42.299168,-123.84639,83,127,49,4664,240,-16,256,34,145,147,31,1511,268,9,74,765,58,74,704
"22","185706",48.766666,-117.29833,50,111,32,7907,250,-96,346,-42,147,153,-49,765,101,35,34,290,114,137,264
"23","50429",48.60778,-116.73472,21,110,32,7480,217,-119,336,-62,117,119,-69,874,115,36,35,336,128,148,307
"24","185707",48.663334,-117.386665,67,123,34,8131,276,-85,361,-29,165,173,-36,669,89,30,34,254,99,119,229
"25","172343",48.835,-117.23333,34,106,31,7697,228,-109,337,-54,130,134,-61,802,105,37,33,303,123,145,277
"26","50426",47.67778,-116.77944,82,124,36,7465,285,-58,343,-4,175,181,-10,666,92,23,39,265,86,102,243
"28","28330",47.551666,-120.355835,66,123,34,8066,267,-89,356,-32,165,169,-38,493,86,11,59,240,49,53,219
"29","160748",47.637417,-120.4405,46,116,34,7641,238,-99,337,-44,142,144,-50,730,127,16,62,357,70,72,327
"30","28328",48.826946,-118.83028,39,120,34,7889,238,-114,352,-55,99,140,-61,420,49,25,22,130,84,107,118
"34","28335",48.546562,-119.75015,54,128,34,8431,258,-115,373,-48,156,160,-55,373,50,19,30,136,63,76,127
"36","50436",42.59389,-114.70472,97,149,38,8385,323,-69,392,0,201,207,-9,234,31,6,38,85,26,35,79
"37","172409",48.691666,-119.94,4,108,32,7457,188,-140,328,-83,99,99,-89,539,74,30,31,202,97,107,186
"39","29365",47.364445,-120.915,40,98,33,6778,209,-84,293,-37,128,129,-42,1287,221,23,63,626,107,111,579
"44","50420",46.071747,-115.186325,52,157,40,7570,273,-110,383,-36,145,152,-43,614,67,30,22,185,106,125,174
"59","100077",51.29972,-115.9225,-6,120,32,8046,188,-183,371,74,-57,96,-108,604,78,33,24,200,112,197,138
"61","3150",52.470554,-116.07528,4,134,33,8366,203,-198,401,107,-39,107,-104,585,98,20,56,267,78,267,79
"62","118740",50.65,-114.65,10,129,33,8375,204,-183,387,93,-33,114,-97,583,88,31,32,210,102,197,121
"63","41729",51.66667,-116.475,-31,107,30,7641,152,-194,346,66,-83,66,-127,682,84,41,23,227,129,227,155
"64","3810",51.200554,-115.63472,-5,123,32,8155,190,-185,375,76,-58,98,-108,583,80,32,28,202,110,194,125
"65","121254",51.26667,-115.85,-11,119,32,8009,182,-187,369,69,-63,91,-112,611,80,34,25,205,115,201,136
"66","121256",51.25,-116.0333,-21,112,31,7782,167,-189,356,56,-73,78,-118,652,81,39,21,207,127,204,155
"67","V11-172-48",50.0667,-114.8,4,125,33,7917,196,-176,372,40,15,103,-96,692,85,43,19,215,149,188,177
"68","41023",51.45,-116.2667,-12,114,31,7930,179,-184,363,88,-62,88,-113,653,79,38,22,209,122,209,156
"69","3151",50.101665,-114.442276,-2,125,33,7876,189,-183,372,34,-40,97,-100,638,88,36,26,216,122,196,139
"71","100013",51.26361,-116.093056,-31,108,31,7639,154,-194,348,44,-84,67,-125,677,83,42,21,215,134,212,159
"72","100080",51.15972,-115.96667,-24,112,31,7739,163,-191,354,52,-77,74,-120,662,82,41,20,209,133,203,158
"73","46268",49.051666,-113.91417,28,133,36,7768,228,-139,367,67,-24,129,-70,599,79,36,24,193,127,173,135
"74","41019",51.41667,-115.7,-21,118,32,7980,168,-199,367,58,-75,79,-122,618,87,34,31,222,115,217,125
"75","54929",49.0667,-120.1833,-9,102,32,7154,167,-146,313,-90,83,83,-96,567,75,35,27,205,109,119,190
"76","128388",49.02139,-113.785835,17,130,35,7645,213,-149,362,52,-27,116,-79,620,83,37,24,204,128,180,138
"77","128685",50.065556,-114.66278,-8,122,33,7755,181,-184,365,26,-46,90,-104,676,88,40,22,220,140,195,160
"78","41736",51.29167,-115.5333,-10,122,32,8171,183,-192,375,71,-54,93,-114,590,84,33,30,211,111,203,121
"79","121252",51.21667,-115.8167,-3,122,32,8115,193,-181,374,78,-55,100,-106,587,78,32,26,198,110,192,131
"80","41024",52.71667,-117.9167,10,115,31,8500,198,-167,365,116,-38,116,-102,544,69,28,30,199,86,199,119
"83","84547",49.080276,-113.52861,36,135,36,7876,235,-137,372,115,-10,137,-64,512,81,27,39,193,87,174,89
"86","84660",49.9625,-114.175835,17,135,34,8013,214,-173,387,57,-23,117,-85,579,83,32,30,202,103,188,114
"87","45370",53.06667,-118.0833,12,118,31,8477,199,-171,370,117,-37,117,-100,524,72,26,36,206,80,206,103
"89","108073",49.892776,-114.0125,18,134,34,7984,214,-169,383,98,-22,118,-83,561,82,30,33,201,94,187,103
"90","121253",51.51667,-116.25,-24,112,31,7787,163,-193,356,75,-76,75,-122,659,83,39,24,219,124,219,148
"91","53540",48.95,-119.7833,8,109,32,7560,195,-138,333,-80,71,105,-86,436,55,26,23,147,88,104,135
"92","CAN 403002",52.433,-122.367,43,123,32,8650,234,-141,375,149,0,149,-73,456,55,20,31,164,64,164,102
"95","UC1103601",39.909805,-123.66679,111,140,51,4626,275,4,271,61,171,173,57,1680,304,4,83,878,29,50,849
"96","UC1103600",41.84555,-123.91017,99,132,50,4627,255,-5,260,49,159,161,45,1725,307,8,77,880,56,73,820
"97","JEPS63595",41.84556,-123.96833,103,123,51,4176,243,6,237,58,157,159,54,1912,336,9,76,964,62,79,898
"98","ORE16654",43.7023,-122.281,77,136,44,6008,264,-45,309,10,157,157,5,1377,231,19,64,659,95,95,598
"99","WILLU6325",45.1538,-117.1917,2,145,40,7082,208,-152,360,-75,92,94,-86,720,94,26,34,265,100,119,253
"100","OSC95765",42.6282,-122.5888,96,151,47,5923,290,-28,318,29,174,174,26,915,154,10,62,433,60,61,384
"101","ORE16655",44.585,-118.626,49,164,43,7088,267,-113,380,-33,137,142,-41,490,68,17,37,189,66,80,172
"102","OSC171212",42.4353,-124.2472,99,109,52,3637,222,13,209,63,146,149,58,1854,320,11,72,913,72,89,850
"103","WILLU8408",42.0163,-123.7672,88,135,49,4930,255,-19,274,35,153,154,31,1459,262,8,76,747,53,69,690
"104","ORE3499",43.3073,-122.667,86,133,45,5717,267,-28,295,21,161,161,18,1406,232,16,64,672,86,86,599
"105","OSC170773",42.4543,-123.5927,86,135,48,5138,259,-20,279,31,154,155,27,1184,212,8,73,603,50,64,552
"106","OSC210697",45.0781,-118.329,33,142,40,6975,238,-117,355,-46,122,124,-54,649,94,20,41,260,79,96,243
"107","OSC179979",45.1883,-118.1468,44,137,39,7045,248,-102,350,-35,134,136,-44,646,92,19,41,256,77,94,240
"108","OSC197323",42.2964,-123.839,83,127,49,4664,240,-16,256,34,145,147,31,1511,268,9,74,765,58,74,704
"109","ORE59281",43.285,-122.5242,88,137,44,5985,277,-30,307,21,168,168,17,1308,215,15,64,623,83,83,556
"110","ORE16651",42.1633,-123.3376,70,139,47,5438,249,-44,293,12,142,144,8,1045,185,9,70,521,55,63,476
"111","OSC188805",42.4069,-124.3056,90,105,52,3498,209,8,201,56,135,138,52,1922,330,12,72,945,75,93,878
"112","OSC199628",43.4901,-122.3533,77,138,44,6065,266,-45,311,9,157,157,4,1316,220,17,64,632,88,88,571
"113","OSC176874",44.3418,-118.7785,51,164,43,7107,269,-111,380,-31,139,144,-40,429,56,17,32,156,63,76,140
"114","ORE16657",43.9635,-122.1453,63,131,42,6039,248,-59,307,-3,143,143,-9,1490,255,22,65,720,104,104,664
"115","ORE16650",43.9331,-120.5538,62,164,45,6619,273,-84,357,-14,146,150,-19,305,41,15,32,114,50,62,94
"116","OSC185800",42.4316,-124.252,97,104,52,3425,213,14,199,63,141,144,59,1912,328,12,72,937,76,93,872
"117","WILLU7998",42.7884,-123.6884,88,127,48,4797,249,-12,261,37,152,153,34,1333,237,9,72,675,56,71,615
"118","OSC158307",42.6856,-124.1433,82,111,50,3963,215,-6,221,42,133,136,38,1748,303,12,72,867,73,90,799
"119","ORE16649",45.3146,-117.3021,5,143,40,7013,209,-147,356,-72,95,96,-82,715,92,26,33,261,101,120,248
"120","OSC184819",45.0896,-119.361,47,143,42,6477,246,-93,339,-26,131,133,-33,540,70,18,36,206,68,80,184
"121","OSC184382",45.3189,-117.4052,1,141,39,6952,204,-149,353,-74,91,91,-85,732,95,26,34,270,101,120,257
"123","OSC168714",42.4011,-124.3088,90,105,52,3498,209,8,201,56,135,138,52,1922,330,12,72,945,75,93,878
"124","OSC165803",43.0802,-122.9505,87,135,46,5536,267,-24,291,26,161,161,23,1243,209,13,66,602,72,79,537
"126","ORE49596B",43.9167,-122.8333,108,115,43,5043,266,4,262,52,174,175,47,1345,210,18,58,605,101,102,543
"127","WILLU27653",42.8275,-123.7169,88,127,48,4797,249,-12,261,37,152,153,34,1333,237,9,72,675,56,71,615
"128","WILLU25006",43.7467,-122.4606,96,134,44,5714,276,-22,298,31,171,171,27,1338,215,18,61,622,95,95,557
"129","OSC178790",42.0613,-123.1629,98,161,48,6118,301,-33,334,28,179,179,25,746,138,8,69,377,45,45,346
"130","OSC39997",43.0061,-123.8914,107,123,49,4394,254,7,247,59,164,166,55,1464,262,9,74,743,57,71,681
"132","OSC205091",42.5168,-123.7642,79,125,48,4727,237,-20,257,30,141,143,26,1386,244,10,72,697,60,75,639
"133","OSC184865",42.7854,-123.7486,88,127,48,4797,249,-12,261,37,152,153,34,1333,237,9,72,675,56,71,615
"134","ORE16656",43.7418,-122.4657,96,134,44,5714,276,-22,298,31,171,171,27,1338,215,18,61,622,95,95,557
"135","ORE36023",43.2345,-122.4493,70,138,44,5943,258,-50,308,5,148,148,-1,1323,224,16,66,642,83,83,581
"136","OSC174840",42.4033,-124.2914,90,105,52,3498,209,8,201,56,135,138,52,1922,330,12,72,945,75,93,878
"138","V208381",49.35,-120.066666,35,116,33,7930,228,-120,348,-60,-11,136,-67,332,38,19,22,101,62,95,92
"139","V215516",50.65,-120.183334,57,111,31,8228,249,-103,352,162,12,162,-50,347,38,17,24,108,57,108,91
"141","V57033",51.483334,-121.35,36,118,33,8061,222,-131,353,137,-6,137,-70,428,50,20,27,140,69,140,112
"143","V42645",49.683334,-116.9,67,108,32,7668,256,-74,330,-22,160,167,-30,751,101,43,31,283,134,150,259
"144","V228542",51.166668,-115.4,-17,120,32,8120,173,-198,371,63,-58,85,-120,608,87,34,30,217,113,206,127
"146","V42651",49.883335,-119.48333,81,120,33,8091,279,-74,353,164,37,185,-25,350,38,20,20,104,66,101,91
"148","V133475",49.15,-113.083336,47,135,34,8440,250,-137,387,133,-62,155,-62,408,77,15,55,178,50,163,50
"149","V141404",51.766666,-122.566666,40,125,32,8758,235,-150,385,147,-4,147,-76,345,48,15,36,132,48,132,75
"150","V84456",49.45,-120.5,52,127,34,8329,253,-115,368,-49,56,155,-61,365,49,19,30,135,66,88,124
"151","V228524",52.033333,-121.833336,50,117,31,8525,240,-128,368,155,4,155,-64,431,55,19,31,154,63,154,100
"153","V215528",49.233334,-119.816666,71,114,32,8199,268,-88,356,-28,26,175,-35,294,35,16,23,93,58,81,87
"155","V75676",50.366665,-121.566666,34,100,31,7312,204,-109,313,-53,26,128,-58,510,65,29,26,183,100,112,169
"156","V169305",51.133335,-123,-14,117,34,7079,159,-180,339,76,-61,76,-100,477,51,26,22,143,87,143,135
"158","V42606",50.433334,-119.183334,72,111,31,8310,268,-88,356,-27,26,178,-37,524,63,30,20,163,99,138,153
"159","V147965",49.366665,-115.9,38,117,32,8223,238,-125,363,-61,137,143,-68,653,77,38,24,221,126,144,200
"162","V193118",49.583332,-119.75,64,116,33,8028,261,-90,351,167,19,167,-40,297,33,16,23,90,56,90,78
"164","V227280",50.802223,-120.12722,33,106,31,7850,217,-120,337,134,-12,134,-67,412,43,22,21,124,71,124,108
"167","V196401",50.716667,-121.3,81,107,30,8355,269,-80,349,-21,83,187,-28,318,40,15,28,112,52,80,102
"169","V231054",49.223057,-118.06861,34,101,30,7787,224,-109,333,-56,131,135,-62,669,82,38,25,228,124,149,210
"173","OSC199627",43.4901,-122.3533,77,138,44,6065,266,-45,311,9,157,157,4,1316,220,17,64,632,88,88,571
"174","ORE120741",42.4353,-124.2472,99,109,52,3637,222,13,209,63,146,149,58,1854,320,11,72,913,72,89,850
"177","185706",48.766666,-117.29833,50,111,32,7907,250,-96,346,-42,147,153,-49,765,101,35,34,290,114,137,264
"178","28335",48.546562,-119.75015,54,128,34,8431,258,-115,373,-48,156,160,-55,373,50,19,30,136,63,76,127
"179","28333",47.45028,-120.71167,39,103,33,7031,215,-93,308,-43,129,129,-48,1087,187,21,62,530,96,96,488
"180","50426",47.67778,-116.77944,82,124,36,7465,285,-58,343,-4,175,181,-10,666,92,23,39,265,86,102,243
"181","172343",48.835,-117.23333,34,106,31,7697,228,-109,337,-54,130,134,-61,802,105,37,33,303,123,145,277
"183","26807",48.826946,-118.83028,39,120,34,7889,238,-114,352,-55,99,140,-61,420,49,25,22,130,84,107,118
"184","38984",42.299168,-123.84639,83,127,49,4664,240,-16,256,34,145,147,31,1511,268,9,74,765,58,74,704
"185","50436",42.59389,-114.70472,97,149,38,8385,323,-69,392,0,201,207,-9,234,31,6,38,85,26,35,79
"186","28332",47.78389,-120.423615,53,122,34,7822,251,-98,349,-40,150,153,-47,688,123,15,63,344,66,67,315
"187","28330",47.551666,-120.355835,66,123,34,8066,267,-89,356,-32,165,169,-38,493,86,11,59,240,49,53,219
"189","28334",48.67889,-119.915,12,112,33,7615,199,-137,336,-78,108,109,-84,489,66,28,29,179,90,101,165
"191","28331",47.425835,-120.728615,39,103,33,7031,215,-93,308,-43,129,129,-48,1087,187,21,62,530,96,96,488
"194","29365",47.364445,-120.915,40,98,33,6778,209,-84,293,-37,128,129,-42,1287,221,23,63,626,107,111,579
"201","172409",48.691666,-119.94,4,108,32,7457,188,-140,328,-83,99,99,-89,539,74,30,31,202,97,107,186
"207","V13678",49.35,-115.85,38,117,32,8223,238,-125,363,-61,137,143,-68,653,77,38,24,221,126,144,200
"208","128387",49.02139,-113.785835,17,130,35,7645,213,-149,362,52,-27,116,-79,620,83,37,24,204,128,180,138
"219","26807",48.826946,-118.83028,39,120,34,7889,238,-114,352,-55,99,140,-61,420,49,25,22,130,84,107,118
"220","50423",46.78366,-116.92449,72,126,37,6930,271,-64,335,-10,159,162,-15,656,83,23,36,247,84,98,227
"222","50416",48.200172,-116.90305,69,128,36,7661,276,-73,349,-21,162,169,-27,754,107,28,41,306,97,114,278
"223","50420",46.071747,-115.186325,52,157,40,7570,273,-110,383,-36,145,152,-43,614,67,30,22,185,106,125,174
"224","185707",48.663334,-117.386665,67,123,34,8131,276,-85,361,-29,165,173,-36,669,89,30,34,254,99,119,229
"228","CACO11-16085",44.744186,-115.55959,12,170,42,7699,238,-163,401,-74,107,112,-86,628,80,26,30,221,96,112,213
"229","CACO11-41063",45.57748,-117.17291,49,149,40,7258,260,-105,365,-36,139,142,-45,498,53,22,24,154,82,102,142
"230","CACO11-53007",47.876957,-120.64136,33,110,34,7203,215,-104,319,-51,126,126,-57,1037,180,23,62,507,98,98,466
"231","CACO11-53023",46.43395,-117.53476,87,130,38,7011,288,-49,337,5,176,179,0,515,66,16,37,195,63,74,180
"232","CACO11-06045",39.431152,-123.431625,117,151,54,4376,279,4,275,69,173,175,65,1297,246,3,85,683,20,36,668
"233","CACO11-41029",42.420586,-122.73658,112,151,46,6098,309,-13,322,41,193,193,40,626,103,9,57,288,49,49,254
"234","CACO11-53019",48.46956,-118.50865,37,119,33,7876,237,-114,351,-56,135,139,-62,468,58,26,25,159,84,102,143
"235","CACO11-53037",47.124405,-120.67556,73,130,37,7552,269,-76,345,-18,167,170,-23,453,79,10,62,222,43,45,203
"236","CACO11-30063",47.040997,-113.925446,13,140,38,7424,223,-140,363,-69,107,111,-77,630,68,36,20,188,126,146,180
"237","CACO11-16021",48.79273,-116.44886,40,116,33,7628,239,-105,344,-48,135,139,-55,821,108,35,35,317,123,140,286
"238","CACO11-30081",46.08485,-114.123055,56,156,41,7549,275,-105,380,92,11,155,-39,393,51,24,26,130,78,107,92
"239","CACO11-16055",47.67714,-116.6968,73,123,36,7373,274,-66,340,-12,165,170,-18,734,100,25,39,292,94,111,269
"240","CACO11-53003",46.182484,-117.18502,76,132,38,7089,278,-64,342,-7,166,168,-13,537,62,20,29,183,76,91,167
"241","CACO11-53039",45.87375,-120.789116,82,134,40,6867,279,-52,331,1,172,172,-4,455,82,8,66,230,38,38,211
"242","CACO11-41011",43.18447,-124.09231,110,104,51,3518,224,23,201,73,155,158,69,1563,269,10,71,771,66,77,718
"243","CACO11-41049",45.421673,-119.56655,93,135,40,6711,288,-43,331,15,179,182,11,352,44,10,35,126,42,51,112
"244","CACO11-41019",43.28716,-123.18113,116,135,47,5238,289,6,283,56,184,185,53,1118,189,11,67,545,61,68,487
"245","CACO11-16059",44.955654,-113.94938,45,168,39,8566,280,-143,423,130,-44,154,-67,292,43,14,34,108,50,94,56
"246","CACO11-41001",44.71178,-117.67352,59,152,39,7820,278,-105,383,-33,156,160,-41,384,49,16,30,136,60,76,125
"247","CACO11-16035",46.668015,-115.65764,49,147,40,7354,265,-102,367,-34,141,146,-42,880,118,30,34,324,119,133,309
"248","CACO11-41059",45.59362,-118.73371,108,137,39,7162,315,-32,347,24,199,204,20,367,45,10,36,133,44,50,120
"249","CACO11-16079",47.3477,-115.88509,48,132,37,7332,260,-96,356,-33,143,145,-40,1011,144,29,41,405,127,138,373
"250","CACO11-41023",44.497814,-119.00301,81,163,43,6895,299,-72,371,2,168,173,-4,350,40,14,27,115,54,67,99
"251","CACO11-53051",48.53484,-117.282486,68,125,34,8083,277,-84,361,-29,165,173,-35,681,92,29,36,263,97,116,237
"252","CACO11-16017",48.294716,-116.59752,60,122,35,7480,260,-79,339,-27,152,157,-34,831,116,30,40,337,107,125,307
"253","CACO11-41061",45.315044,-118.01127,87,138,39,7225,297,-55,352,5,179,183,-2,490,60,16,33,171,63,78,158
"254","CACO11-53075",46.886677,-117.51906,90,132,39,7050,291,-47,338,6,178,183,2,449,63,15,39,175,55,65,161
"255","CACO11-16003",44.895847,-116.45468,61,159,39,8357,292,-113,405,-36,163,169,-48,625,87,17,41,245,70,86,236
"256","CACO11-53063",47.61955,-117.403,84,119,34,7807,286,-59,345,-8,182,186,-14,486,67,18,39,193,63,75,176
"257","CACO11-41015",42.47259,-124.229904,99,109,52,3637,222,13,209,63,146,149,58,1854,320,11,72,913,72,89,850
"258","CACO11-16057",46.816364,-116.70586,73,129,37,7030,275,-65,340,-10,161,165,-15,705,89,25,35,261,92,106,245
"259","CACO11-53047",48.549908,-119.74613,69,130,34,8553,275,-102,377,-35,172,177,-42,348,44,17,27,122,58,72,114
"260","CACO11-16049",45.846912,-115.45927,45,162,41,7456,264,-122,386,-41,137,143,-50,727,85,32,26,230,115,137,222
"261","CACO11-06015",41.73732,-123.95696,102,123,52,4107,240,4,236,58,155,158,54,1865,327,8,76,939,60,76,876
"262","CACO11-41033",42.36201,-123.56104,108,147,48,5563,298,-5,303,45,182,182,43,1125,207,7,77,589,40,40,546
"263","CACO11-41039",43.948124,-122.87606,112,115,43,5005,269,7,262,55,177,178,51,1256,197,16,59,569,92,93,511
"264","OSC126446",45.3146,-117.3021,5,143,40,7013,209,-147,356,-72,95,96,-82,715,92,26,33,261,101,120,248
