"","catalogNumber","lat","lon","bio1","bio2","bio3","bio4","bio5","bio6","bio7","bio8","bio9","bio10","bio11","bio12","bio13","bio14","bio15","bio16","bio17","bio18","bio19"
"1","36199",46.9167,-70.9,45,98,23,10666,251,-160,411,177,-35,177,-99,1060,113,67,18,328,204,328,245
"2","3409614",38.565,-77.21639,133,115,33,8325,306,-38,344,232,24,239,24,1006,106,71,11,285,226,284,226
"3","3303292",38.67778,-77.2025,130,116,33,8427,303,-44,347,229,18,236,18,994,103,70,11,283,223,280,223
"4","3409613",38.75111,-76.84306,128,111,32,8389,301,-41,342,234,18,234,18,1051,108,71,12,303,229,303,229
"6","3383166",39.50944,-76.16444,122,114,32,8628,300,-53,353,230,20,230,8,1117,106,72,11,316,243,316,246
"7","222740",38.895,-77.03667,133,115,32,8546,311,-42,353,241,20,241,20,1021,104,70,12,292,223,292,223
"8","492846",39.05472,-76.73639,129,115,32,8479,306,-44,350,236,17,236,17,1078,108,72,12,305,236,305,236
"10","3410158",38.91806,-77.10056,128,119,33,8549,307,-48,355,236,14,236,14,1034,102,70,11,291,223,291,223
"11","3406851",38.985,-77.24361,126,119,33,8523,305,-50,355,234,13,234,13,1025,101,69,12,288,219,288,219
"12","3099837",38.765,-76.89861,128,111,32,8389,301,-41,342,234,18,234,18,1051,108,71,12,303,229,303,229
"13","1898075",38.82361,-77.71333,124,124,34,8460,303,-56,359,209,11,230,11,1031,102,70,12,286,216,286,216
"14","351595",39.612,-93.1977,118,122,30,9797,314,-89,403,218,-16,238,-16,974,117,32,35,330,118,311,118
"15","364766",39.2889,-75.7914,125,115,33,8375,302,-45,347,224,15,231,15,1082,105,73,11,305,240,301,240
"16","MT00009179",45.451946,-75.702774,59,99,23,10977,264,-154,418,193,-76,193,-91,863,84,54,14,248,170,248,188
"17","MT00009189",45.523888,-76.160835,54,105,24,10947,260,-165,425,187,-81,187,-96,840,80,54,13,238,170,238,188
"18","MT00051950",46.308334,-72.475,51,107,24,10934,260,-169,429,173,-28,185,-98,1017,102,61,15,297,201,296,229
"21","MT00009947",45.466667,-73.933334,62,104,25,10654,266,-148,414,182,-69,193,-82,930,96,61,13,268,195,264,211
"24","MT00009188",45.516666,-76.25278,54,107,25,10982,261,-166,427,188,-82,188,-96,832,79,54,13,235,170,235,187
"26","MT00009178",45.455555,-75.72611,59,99,23,10977,264,-154,418,193,-76,193,-91,863,84,54,14,248,170,248,188
"27","MT00050531",45.391666,-73.89167,64,104,25,10627,267,-146,413,183,-67,195,-80,927,97,60,13,270,193,266,208
"30","3297384",37.01,-90.09,137,129,33,8986,326,-59,385,137,200,248,14,1199,131,75,17,368,260,282,270
"31","3523332",40.23,-92.71,109,124,30,9927,309,-100,409,210,-27,230,-27,970,111,38,34,326,126,318,126
"34","3528952",39.72,-93.36,117,123,30,9886,316,-91,407,218,-19,238,-19,959,115,31,36,326,114,310,114
"35","2807798",36.41,-90.58,148,124,33,8664,332,-37,369,147,210,257,32,1214,130,75,17,372,254,259,294
"36","270033",37.98,-90.3,125,130,33,9075,315,-72,387,124,1,238,1,1066,112,57,18,315,206,280,206
"39","3511455",39.49,-92.69,117,119,29,9839,313,-90,403,217,-18,238,-18,1013,122,38,33,344,129,319,129
"41","3574666",39.22,-90.74,121,126,31,9526,317,-82,399,218,-10,238,-10,953,105,41,24,295,156,275,156
"43","828364",36.77,-90.28,142,126,32,9011,330,-53,383,143,205,253,19,1199,130,75,17,368,255,268,281
"44","3518924",39.91,-92.82,113,121,30,9847,310,-93,403,213,-22,233,-22,1014,117,39,32,336,136,320,136
"45","3524758",36.56,-89.97,147,120,32,8971,333,-41,374,148,210,258,25,1210,131,74,18,378,248,260,291
"46","2810703",35.91,-79.06,149,132,38,7568,317,-22,339,245,103,245,49,1153,115,81,12,329,250,329,277
"47","3556745",36.68,-89.47,143,117,31,8917,325,-45,370,144,206,254,22,1243,133,77,17,384,254,280,297
"48","2810968",33.82,-80.93,175,132,40,7048,333,10,323,263,129,263,81,1190,138,65,22,388,220,388,285
"50","3511446",39.49,-92.67,117,119,29,9839,313,-90,403,217,-18,238,-18,1013,122,38,33,344,129,319,129
"53","3556533",37.93,-94.37,130,132,32,9473,328,-78,406,183,1,247,1,1066,139,38,35,362,133,329,133
"54","3329590",33.33,-81.92,172,140,42,7013,332,3,329,260,177,260,79,1153,117,65,18,340,222,340,300
"56","3290235",38.43,-90.82,126,133,33,9220,320,-78,398,126,-1,239,-1,991,110,51,19,294,180,266,180
"57","3510374",39.51,-92.67,117,120,29,9851,313,-91,404,217,-19,237,-19,1011,121,37,33,342,129,318,129
"58","CONN00049037",41.55361,-72.83555,99,112,30,8821,284,-78,362,86,-7,210,-18,1213,111,87,7,323,282,293,286
"59","CONN00098286",41.17583,-73.27194,102,105,30,8608,278,-70,348,87,-12,210,-12,1203,111,85,8,328,283,289,283
"60","CONN00098279",41.78222,-72.61194,98,118,31,9000,290,-84,374,143,-9,212,-21,1142,104,80,6,300,263,285,265
"61","CONN00098284",41.14138,-73.35777,105,107,30,8585,283,-67,350,91,-8,214,-8,1182,108,82,8,321,277,288,277
"63","CONN00098377",35.91305,-79.05611,149,132,38,7568,317,-22,339,245,103,245,49,1153,115,81,12,329,250,329,277
"64","CONN00098376",36.49333,-90.07555,147,120,32,8917,333,-41,374,148,210,258,26,1217,131,74,19,381,249,258,294
"65","CONN00098372",40.45527,-90.78888,106,118,29,10066,304,-101,405,209,-32,229,-32,933,109,34,33,313,123,302,123
"66","CONN00098280",41.42444,-72.74944,98,106,29,8716,280,-74,354,84,-6,209,-16,1225,114,89,7,326,289,292,293
"67","CONN00098277",41.39722,-72.76666,101,104,29,8643,279,-69,348,86,210,210,-13,1188,111,88,7,318,282,282,285
"69","CONN00098373",42.27083,-72.59666,87,125,31,9299,284,-108,392,136,-25,203,-38,1116,101,79,7,296,252,289,257
"72","CONN00098375",45.48333,-74.3,58,104,25,10643,261,-153,414,177,-73,188,-87,943,97,62,13,272,196,269,213
"75","CONN00098288",41.76361,-72.685,98,117,31,9031,290,-85,375,143,-10,212,-22,1165,106,81,7,307,266,290,270
"77","CONN00098278",41.83861,-72.36027,84,117,31,8849,270,-100,370,42,-23,196,-34,1221,114,86,6,322,281,304,286
"78","26254",45.47921,-74.30225,58,104,25,10643,261,-153,414,177,-73,188,-87,943,97,62,13,272,196,269,213
"79","UNA00001668",34.57555,-86.8125,155,130,38,7723,321,-19,340,68,211,251,52,1418,164,82,18,417,273,309,394
"80","UNA00001658",34.41972,-86.39667,154,130,38,7634,319,-18,337,68,209,249,52,1417,163,80,19,421,275,305,394
"81","UNA00059573",36.63,-88.27,143,122,33,8509,319,-42,361,144,203,248,27,1339,132,86,14,381,276,308,342
"82","UNA00001663",34.59528,-86.58111,152,129,38,7705,318,-21,339,65,208,248,49,1428,165,83,18,421,276,308,396
"83","UNA00001673",34.43528,-86.25056,153,130,38,7621,318,-19,337,67,208,248,51,1421,164,79,19,424,275,306,396
"84","UNA00001653",34.70611,-87.40583,155,132,38,7740,324,-19,343,155,211,252,52,1404,161,83,18,412,268,302,392
"85","70384",33.282,-88.821,169,129,39,7309,327,1,326,125,221,260,72,1404,155,83,21,431,259,294,407
"86","116361",34.626167,-90.369316,161,119,34,8141,330,-16,346,162,219,262,51,1340,142,76,21,417,241,272,356
"88","CAN 116419",45.417,-75.7,59,99,23,10977,264,-154,418,193,-76,193,-91,863,84,54,14,248,170,248,188
"89","CAN 470414",45.467,-75.567,59,97,23,10949,262,-154,416,181,-76,192,-91,880,86,56,14,252,176,251,194
"93","CAN 529599",45.121,-73.258,66,108,26,10484,269,-145,414,184,-63,195,-77,905,100,50,19,277,166,276,177
"95","CAN 116420",45.467,-75.6,59,97,23,10986,263,-154,417,193,-76,193,-91,870,85,55,14,249,173,249,191
"96","TRTE0009805",35.0549,-79.87565,160,132,39,7512,325,-12,337,254,113,254,60,1184,135,72,17,363,250,363,287
"97","dbsn212246",33.28283,-88.8215,169,129,39,7309,327,1,326,125,221,260,72,1404,155,83,21,431,259,294,407
"98","314252",41.95,-88.4333,86,115,28,10294,287,-121,408,213,-54,213,-54,934,109,33,32,318,128,318,128
"99","YPM CBS 030599",41.146,-73.3467,105,107,30,8585,283,-67,350,91,-8,214,-8,1182,108,82,8,321,277,288,277
"100","YPM CBS 008872",41.6122,-72.6636,99,112,30,8846,286,-78,364,86,-7,211,-18,1184,109,84,7,312,275,289,278
"101","YPM YU 051632",41.5367,-72.7944,99,110,30,8833,284,-77,361,86,-7,211,-18,1219,112,88,7,324,284,293,288
"102","MT00009946",45.466667,-73.933334,62,104,25,10654,266,-148,414,182,-69,193,-82,930,96,61,13,268,195,264,211
"103","MT00051952",46.308334,-72.475,51,107,24,10934,260,-169,429,173,-28,185,-98,1017,102,61,15,297,201,296,229
"106","3420645",38.75111,-76.84306,128,111,32,8389,301,-41,342,234,18,234,18,1051,108,71,12,303,229,303,229
"110","CONN00098285",41.14138,-73.35777,105,107,30,8585,283,-67,350,91,-8,214,-8,1182,108,82,8,321,277,288,277
"112","CAN 470444",45.467,-75.567,59,97,23,10949,262,-154,416,181,-76,192,-91,880,86,56,14,252,176,251,194
"114","CAN 116416",45.417,-75.7,59,99,23,10977,264,-154,418,193,-76,193,-91,863,84,54,14,248,170,248,188
"116","CAN 470440",45.467,-75.567,59,97,23,10949,262,-154,416,181,-76,192,-91,880,86,56,14,252,176,251,194
"117","3374761",38.565,-77.21639,133,115,33,8325,306,-38,344,232,24,239,24,1006,106,71,11,285,226,284,226
