"","catalogNumber","lat","lon","bio1","bio2","bio3","bio4","bio5","bio6","bio7","bio8","bio9","bio10","bio11","bio12","bio13","bio14","bio15","bio16","bio17","bio18","bio19"
"1","P00306228",56.03333,-123.55,-6,105,27,9477,187,-192,379,112,-62,112,-131,579,74,23,27,198,97,198,139
"3","052634",46.98312,-80.0681,32,108,24,11321,243,-199,442,158,-52,170,-122,861,97,50,19,267,164,256,174
"4","129218",46.841347,-80.05737,33,107,24,11288,243,-196,439,159,-51,171,-120,872,98,51,19,269,167,257,178
"5","129219",47.19898,-80.24792,27,113,25,11495,242,-210,452,154,-58,167,-129,838,95,49,20,262,159,253,167
"6","JEPS113733",39.961666,-120.516945,66,162,45,6590,273,-83,356,-5,152,152,-14,703,117,9,65,321,45,45,318
"7","UC1133393",38.478874,-120.0028,57,135,44,6112,232,-74,306,-2,138,139,-12,1099,190,12,73,522,51,58,521
"8","JEPS102678",39.5121,-120.5027,60,144,44,6285,248,-76,324,-2,143,144,-12,1177,203,10,72,562,52,56,556
"9","JEPS80275",39.37813,-122.75504,88,140,48,5405,264,-25,289,38,160,162,32,1309,238,4,81,667,28,42,615
"10","JEPS75124",39.379604,-122.7549,88,140,48,5405,264,-25,289,38,160,162,32,1309,238,4,81,667,28,42,615
"11","JEPS88667",40.7029,-121.6001,56,143,44,6085,244,-74,318,-4,137,137,-12,1023,150,10,59,439,66,67,415
"12","UC1133391",37.761,-119.5348,51,134,45,5834,222,-74,296,-14,129,130,-14,807,141,11,71,383,41,50,383
"13","JEPS101119",41.2613,-120.1801,33,147,43,6556,233,-108,341,-32,121,121,-42,536,67,15,37,193,61,61,178
"14","JEPS106100",39.45639,-120.552505,58,141,44,6224,244,-75,319,-2,140,142,-13,1248,217,10,73,599,52,56,595
"15","JEPS25942",37.438248,-119.48043,61,131,45,5610,228,-58,286,1,136,138,0,892,160,8,76,440,31,44,435
"16","UC1133394",38.7702,-120.1637,54,137,44,6148,232,-78,310,-5,135,137,-16,1080,187,12,71,514,53,59,512
"17","JEPS104615",39.734444,-121.03361,85,140,45,6120,270,-40,310,16,166,167,16,1342,249,5,78,668,39,45,668
"19","JEPS74536",40.944645,-123.040054,44,132,47,5265,214,-65,279,-5,114,117,-11,1274,207,11,69,605,63,71,528
"20","JEPS24143",37.15891,-119.08781,53,122,44,5500,213,-62,275,-6,127,129,-6,796,145,8,75,392,29,44,392
"21","UC1109530",40.02005,-122.85153,64,137,47,5359,239,-48,287,16,136,139,9,1394,232,7,75,683,45,59,622
"22","UC1050",38.656223,-120.11862,45,130,43,6009,215,-82,297,-10,125,127,-21,1231,211,13,72,584,58,65,578
"24","JEPS104612",39.734165,-121.03389,85,140,45,6120,270,-40,310,16,166,167,16,1342,249,5,78,668,39,45,668
"25","JEPS110428",39.76139,-121.09806,90,149,46,6121,282,-41,323,19,171,171,19,1239,234,4,78,624,34,34,624
"26","JEPS113030",37.467777,-119.58111,69,133,45,5699,239,-52,291,8,145,146,7,958,173,7,78,476,30,41,469
"27","JEPS63584",41.24184,-124.08449,112,95,55,2714,204,33,171,83,144,148,79,1513,255,7,73,737,51,62,696
"29","JEPS75126",39.36281,-122.744,99,145,47,5674,282,-21,303,44,175,176,38,1181,219,3,82,606,24,37,593
"30","JEPS83818",39.38503,-122.76878,88,140,48,5405,264,-25,289,38,160,162,32,1309,238,4,81,667,28,42,615
"31","JEPS105658",40.214447,-122.96527,68,141,48,5417,246,-45,291,17,141,143,11,1345,223,7,75,660,45,58,633
"32","UC1035804",38.872803,-120.11149,37,130,43,6017,209,-89,298,-17,117,119,-28,1159,195,15,69,542,64,69,512
"33","JEPS63556",37.28818,-119.11684,43,123,44,5514,204,-72,276,-14,118,119,-16,708,126,11,71,338,36,49,336
"34","JEPS63565",37.247936,-119.21161,68,127,45,5569,232,-48,280,9,143,144,9,862,156,6,78,434,25,39,434
"35","UC1011",38.774956,-120.29391,81,142,45,6189,263,-52,315,9,162,163,9,1169,209,9,76,571,42,51,571
"36","ECS025087",45.42,-63.058613,53,100,28,8710,236,-117,353,-28,85,162,-60,1252,132,88,14,381,274,284,347
"37","ECS024901",45.567356,-62.963017,50,97,27,8759,232,-119,351,-32,131,160,-64,1273,135,90,14,388,278,288,352
"38","ECS017536",43.959167,-65.916115,65,73,27,6551,194,-67,261,8,142,145,-21,1262,139,80,18,407,259,260,381
"39","ECS024620",43.95523,-65.91966,65,73,27,6604,195,-67,262,7,143,146,-21,1259,139,80,18,406,258,259,379
"40","52844",46.42265,-75.85304,36,116,26,11129,247,-197,444,169,-102,169,-119,915,97,55,18,282,175,282,191
"42","ECS016143",43.844444,-65.406944,62,70,27,6354,185,-68,253,8,112,140,-21,1308,146,79,20,426,258,265,365
"43","67477",46.748775,-60.62051,35,74,23,8076,200,-116,316,-31,104,139,-66,1461,162,93,17,460,300,315,372
"44","17516",46.84314,-60.7678,51,77,24,8032,216,-101,317,-15,120,155,-50,1278,142,81,18,408,261,277,324
"45","51228",45.336666,-60.994446,63,82,26,7815,223,-90,313,-2,126,164,-36,1458,167,97,17,460,307,311,372
"47","ECS017724",44.383057,-65.18166,63,84,28,7383,213,-84,297,-4,129,153,-33,1328,148,86,19,429,268,270,403
"49","ECS016217",44.07719,-65.88879,63,74,27,6663,195,-70,265,5,142,145,-24,1266,140,81,18,406,261,262,379
"51","66419",45.814877,-71.37403,41,108,26,10467,243,-169,412,170,-38,170,-101,1031,118,58,20,326,194,326,217
"52","ECS014765",44.10823,-64.99506,61,79,28,6950,199,-80,279,0,143,147,-29,1362,154,82,20,443,265,274,416
"53","11144",43.855278,-65.97444,66,73,28,6512,195,-64,259,10,143,146,-19,1256,138,79,18,405,257,258,380
"54","15055",44.642776,-64.054726,65,93,28,8184,231,-97,328,-11,165,167,-41,1353,147,91,17,427,283,284,398
"55","17002",45.14764,-61.98648,59,90,28,7844,220,-98,318,-10,124,159,-40,1430,157,97,17,452,306,310,407
"56","19148",47.163315,-67.924614,33,113,26,10650,240,-187,427,153,-47,165,-112,976,105,59,18,299,187,292,209
"57","61825",44.313328,-64.879654,63,84,28,7334,210,-85,295,-3,127,153,-33,1354,152,84,20,438,267,277,410
"58","ECS023743",45.49641,-76.0989,55,105,24,10921,260,-163,423,188,-80,188,-94,830,79,54,13,235,168,235,186
"59","21090",47.938946,-84.82692,22,112,26,10582,219,-206,425,108,-56,147,-123,951,109,54,22,300,171,261,208
"60","ECS016734",44.264225,-64.35159,64,86,28,7478,213,-87,300,-4,129,156,-33,1360,151,84,19,434,272,278,404
"61","62521",44.332985,-64.9684,63,83,28,7310,209,-84,293,-3,127,152,-32,1352,152,84,20,438,267,276,411
"62","41934",46.37296,-60.53025,50,82,25,8127,220,-104,324,-17,121,155,-51,1420,158,89,18,453,289,301,368
"63","ECS016216",43.95308,-65.804276,64,72,27,6532,192,-67,259,7,141,144,-21,1270,140,80,18,410,260,261,384
"64","26221",46.40043,-75.033875,36,106,24,11121,239,-193,432,170,-44,170,-118,1002,102,63,16,301,199,301,221
"65","16974",45.44199,-62.01287,57,96,27,8422,235,-108,343,-18,133,163,-50,1356,150,90,17,429,285,295,384
"66","70473",77.28333,-77.76667,NA,NA,NA,NA,NA,NA,NA,NA,NA,NA,NA,NA,NA,NA,NA,NA,NA,NA,NA
"67","20383",47.04141,-60.598286,46,72,23,7871,206,-100,306,-17,111,150,-52,1303,144,84,18,412,269,285,328
"68","40112",44.14703,-64.64854,63,81,28,6997,201,-81,282,1,145,149,-29,1354,153,78,20,436,262,272,405
"69","07897",40.916943,-110.818886,24,143,38,8066,234,-142,376,3,131,131,-73,473,46,32,10,130,100,100,125
"70","09841",40.519722,-111.654724,23,128,36,7632,220,-128,348,-60,125,125,-66,898,108,41,33,308,129,129,302
"71","07605",37.461945,-112.319725,41,162,42,7507,246,-133,379,136,69,139,-52,445,57,18,26,141,73,121,116
"72","07541",40.433334,-111.6,44,139,37,7987,253,-119,372,-42,151,151,-53,765,88,35,31,255,111,111,251
"73","07880",40.466667,-111.13333,17,134,37,7815,217,-144,361,-69,121,121,-76,694,77,36,24,221,121,121,217
"74","1601253",51.95306,-176.57944,42,48,31,3570,128,-25,153,29,67,93,2,1528,187,74,29,530,243,315,403
"75","1604250",52.68722,174.05583,38,32,24,3599,111,-22,133,56,38,89,-3,866,106,48,27,290,148,249,180
"76","1601255",51.93667,-176.6,44,48,31,3578,130,-24,154,31,69,94,3,1533,188,74,29,532,243,316,405
"77","1601258",51.92028,-176.64778,44,48,31,3578,130,-24,154,31,69,94,3,1533,188,74,29,532,243,316,405
"78","1601256",51.94694,-176.61362,44,48,31,3578,130,-24,154,31,69,94,3,1533,188,74,29,532,243,316,405
"79","1601252",51.84778,-176.67639,41,48,31,3548,126,-27,153,29,65,91,0,1541,188,75,28,532,246,317,409
"80","1601254",51.83,-176.63055,40,48,31,3513,125,-27,152,28,64,90,0,1544,188,75,28,533,247,317,410
"81","240658",56.8974,-154.2451,39,62,29,5347,155,-56,211,47,-6,111,-23,1145,127,72,19,357,232,297,299
"82","89989",59.18,-161.33,0,73,24,8527,159,-143,302,65,-68,110,-105,755,135,27,51,332,95,264,115
"83","141203",61.769444,-149.30833,-31,88,27,8355,146,-173,319,71,-45,82,-127,543,77,22,40,222,77,200,107
"85","240786",56.9397,-154.3265,41,63,29,5419,158,-56,214,49,-3,114,-22,1129,126,71,20,354,228,295,293
"86","162497",58.436,-152.766,37,69,30,5705,163,-61,224,41,91,113,-29,1366,149,77,20,415,279,286,376
"87","67906",59.48,-155.91,10,85,26,8575,176,-140,316,114,-51,120,-98,608,101,28,45,255,91,212,101
"88","3285",57.03,-135.25,49,67,33,4603,155,-43,198,56,90,109,-6,2444,372,101,37,926,357,595,657
"89","142251",56.786583,-158.13443,17,63,27,6022,137,-96,233,70,-36,97,-54,532,69,26,34,201,87,190,100
"90","144552",59.793,-141.08533,36,73,30,5991,155,-85,240,41,95,113,-38,2683,381,129,34,1003,467,517,666
"92","182311",60.1199,-143.30342,43,71,31,5455,157,-67,224,49,64,113,-23,2283,308,110,34,849,385,467,574
"93","241042",58.085,-134.7057,40,69,29,5722,165,-71,236,85,66,115,-31,1557,231,78,35,579,253,349,368
"95","245414",56.521667,-134.90695,41,60,33,4324,141,-40,181,20,78,99,-8,3434,509,142,37,1276,486,746,983
"96","148438",59.061367,-136.17172,34,74,27,6618,179,-86,265,-10,103,121,-48,1552,252,51,46,627,182,207,485
"97","162095",58.342,-152.564,34,67,31,5490,157,-59,216,38,85,108,-28,1421,153,79,19,428,291,296,393
"98","144550",60.137165,-141.106,10,81,29,6856,146,-126,272,13,43,98,-75,2144,286,120,30,768,393,465,515
"100","137738",57.633335,-153.28334,37,64,30,5333,155,-56,211,42,19,109,-24,1401,148,82,19,421,293,343,388
"101","144551",60.041832,-140.27467,-2,86,29,7156,143,-144,287,2,33,91,-90,2071,271,119,27,722,386,454,493
"102","182314",60.3087,-143.02835,21,75,31,5977,145,-96,241,26,8,100,-50,2021,265,101,32,736,344,440,501
"103","144470",60.1515,-141.45467,20,77,29,6557,149,-110,259,24,52,105,-61,2239,306,119,32,821,401,470,546
"104","146691",57.466667,-154.56667,30,69,30,5879,154,-76,230,79,-18,108,-39,1046,119,66,20,332,209,243,263
"105","188067",57.667667,-153.25783,27,64,30,5325,146,-65,211,32,6,99,-32,1375,144,84,17,408,289,341,377
"106","144471",60.22,-140.90967,-24,88,29,7393,128,-167,295,-20,-36,73,-113,1701,206,104,24,566,322,419,394
"107","47018",60.67,-154.06,-27,100,29,8703,159,-183,342,80,-92,89,-130,545,90,24,45,232,80,213,94
"108","162368",58.353615,-152.67793,31,68,30,5558,156,-64,220,35,83,106,-32,1387,149,79,19,416,286,294,383
"110","147798",59.716385,-149.78305,31,66,28,5910,158,-72,230,34,89,110,-39,1221,184,48,42,481,170,203,334
"111","74848",59.46,-138.04,16,91,30,7334,169,-132,301,22,90,109,-79,1685,248,75,35,620,265,296,461
"112","248302",57.84619,-153.31555,35,66,30,5516,156,-62,218,40,-10,109,-28,1372,146,81,19,412,288,295,377
"113","248333",57.76105,-153.28894,27,65,30,5399,148,-66,214,33,7,101,-33,1367,144,83,18,406,287,340,375
"114","242346",57.22018,-153.29408,43,60,30,5074,155,-45,200,49,25,112,-15,1410,151,82,19,427,293,341,392
"115","240911",57.3066,-154.2042,29,65,29,5542,149,-70,219,76,-18,104,-34,1144,125,72,18,350,234,302,297
"116","248319",57.84007,-153.31685,35,66,30,5516,156,-62,218,40,-10,109,-28,1372,146,81,19,412,288,295,377
"119","248477",58.30611,-134.1339,34,73,28,6220,165,-94,259,39,68,112,-48,2061,315,105,34,767,333,409,517
"120","192152",60.002083,-143.96783,46,72,32,5312,161,-60,221,52,66,115,-18,2284,294,109,31,823,387,474,573
"121","139105",57.783333,-153.53334,34,67,30,5619,156,-66,222,39,-13,109,-31,1297,140,78,19,394,269,282,351
"122","242293",57.24809,-153.29121,43,60,30,5074,155,-45,200,49,25,112,-15,1410,151,82,19,427,293,341,392
"123","147905",58.59435,-136.14096,42,65,28,5622,166,-61,227,45,68,115,-27,1745,281,70,41,682,247,284,492
"125","242676",60.836834,-142.51416,-46,94,28,8277,127,-200,327,55,-58,63,-144,1125,127,60,26,372,195,338,248
"126","146066",58.7352,-136.49785,34,67,28,5808,162,-73,235,37,92,110,-37,1832,289,68,41,701,247,276,537
"127","47017",59.94,-152.75,21,85,29,7225,175,-110,285,75,10,117,-65,805,108,39,31,289,137,190,201
"129","141482",60.183132,-149.66933,-4,72,28,6473,141,-113,254,46,20,85,-76,921,129,43,37,345,136,194,244
"130","144553",62.2225,-144.96933,-40,123,26,12165,197,-265,462,112,-101,112,-195,301,55,7,57,143,31,143,49
"131","57065",60.65,-152.03,22,87,28,8064,183,-127,310,80,15,126,-78,749,113,29,38,289,113,178,184
"132","3190",57.96,-136.23,40,61,31,4728,145,-50,195,47,56,102,-15,2071,316,89,37,786,321,366,548
"133","129752",57.667778,-153.25778,27,64,30,5325,146,-65,211,32,6,99,-32,1375,144,84,17,408,289,341,377
"134","242057",57.130356,-153.20348,41,59,30,4962,152,-44,196,48,22,109,-15,1427,153,83,19,432,297,343,398
"135","242678",59.98517,-139.93883,13,85,30,6952,152,-127,279,18,47,102,-74,2345,320,124,29,838,426,478,568
"136","7306",47.80111,-121.050835,35,90,32,6438,195,-80,275,-38,119,120,-42,1777,304,32,64,872,140,152,803
"137","28557",48.064167,-123.84722,67,87,39,4603,199,-19,218,18,127,130,14,2386,392,47,62,1104,169,201,1034
"138","181017",47.055084,-120.05293,103,130,35,8448,308,-61,369,-1,205,211,-6,182,30,5,44,78,23,27,69
"140","28699",46.776943,-123.016945,105,112,45,4913,252,4,248,49,169,169,45,1306,206,22,60,605,102,102,556
"141","28153",47.42472,-121.86417,83,89,39,4870,216,-8,224,29,147,147,25,2184,300,55,46,893,233,233,816
"142","50959",49.85,-125.916664,47,75,38,4323,163,-34,197,4,104,106,-1,2067,297,65,49,859,219,240,786
"143","28559",48.865,-120.73539,10,106,33,7196,187,-129,316,-73,102,103,-79,781,119,34,43,331,117,118,305
"145","28585",48.400833,-120.57611,9,105,33,7174,187,-129,316,-73,101,101,-79,907,145,31,50,405,115,116,373
"146","28608",47.743332,-121.084724,35,86,32,6268,190,-75,265,-35,117,118,-39,1925,325,35,63,932,153,166,860
"147","51028",43.003334,-116.72853,46,160,41,7545,269,-116,385,-37,143,147,-46,442,54,15,34,160,57,71,150
"148","28551",48.06111,-123.898056,67,87,39,4603,199,-19,218,18,127,130,14,2386,392,47,62,1104,169,201,1034
"150","28535",47.426388,-121.40667,42,79,31,5919,186,-61,247,-24,118,121,-28,2221,360,41,59,1031,184,199,957
"151","28550",46.925,-121.54222,38,84,34,5716,183,-63,246,-24,112,115,-28,2333,374,41,60,1089,184,201,1011
"152","28591",47.189167,-120.88111,70,125,37,7200,258,-72,330,-15,163,163,-21,678,120,13,65,339,58,58,310
"153","28771",47.397778,-121.86417,89,94,41,4868,224,-4,228,34,153,153,30,2111,292,54,46,861,228,228,791
"155","28171",47.449055,-121.77855,85,95,40,4953,223,-9,232,30,150,150,26,2106,295,52,47,877,220,221,802
"156","28571",47.818333,-121.57611,75,97,38,5472,223,-28,251,13,146,146,9,2046,303,47,52,893,194,207,818
"157","51037",42.986202,-116.77425,46,162,41,7513,270,-117,387,-36,142,146,-46,436,53,15,33,156,57,71,146
"158","51125",44.21139,-114.945,16,180,41,8449,251,-180,431,-82,116,122,-96,457,60,22,29,162,76,88,159
"159","3739",48.566666,-120.855,12,101,33,6911,182,-119,301,-67,101,101,-73,1093,176,35,52,496,128,133,457
"161","50956",46.08229,-115.42532,47,156,41,7437,265,-114,379,-39,139,145,-46,720,83,31,25,227,114,135,216
"162","28549",46.850834,-121.7625,-25,74,33,5262,107,-114,221,-71,43,50,-79,2695,423,54,58,1224,227,240,1013
"163","51012",44.75417,-116.28306,27,155,40,7644,247,-138,385,-58,122,127,-70,685,92,21,36,257,88,104,248
"164","7310",47.07139,-124.16944,99,84,46,3620,199,17,182,59,143,146,54,2359,359,50,56,1025,183,224,967
"165","27536",59.93667,-144.42166,47,71,33,4969,158,-51,209,54,62,112,-11,2352,293,110,29,828,400,674,588
"166","7299",47.29111,-123.98278,93,92,44,4232,213,5,208,46,146,149,42,3057,492,58,60,1373,213,259,1310
"167","28594",46.735962,-120.789185,76,131,38,7263,269,-68,337,-11,166,170,-16,379,64,8,60,183,35,41,169
"168","189452",49.234165,-122.7625,97,85,35,5310,229,-8,237,35,165,165,31,1421,214,40,50,607,149,149,561
"169","51038",48.72069,-116.80302,47,116,33,7678,247,-96,343,-42,142,147,-48,814,109,34,36,318,117,136,288
"170","180433",47.31105,-121.30075,58,96,35,6134,215,-55,270,-12,137,138,-17,1793,303,30,62,860,138,152,802
"171","50871",53.666668,-132.16667,72,66,31,4664,181,-26,207,50,111,134,15,1487,206,59,41,592,196,263,471
"172","177641",58.383335,-134.63333,48,70,28,6100,178,-70,248,93,80,126,-30,1546,225,77,34,579,264,363,353
"173","28569",48.690838,-117.84514,60,117,32,8346,266,-99,365,-40,161,168,-46,588,74,30,29,210,96,119,190
"174","51041",45.70555,-115.58397,18,161,42,7291,233,-149,382,-64,109,113,-73,765,95,32,27,255,119,141,246
"176","180466",48.6547,-117.483,52,113,32,8041,255,-98,353,-42,151,157,-49,706,93,32,34,268,104,127,243
"177","183271",42.73895,-118.64325,22,154,43,6771,230,-126,356,-49,111,113,-58,451,53,18,27,150,69,81,137
"178","50881",44.436672,-116.01008,47,156,39,8172,276,-123,399,-47,147,153,-58,598,81,17,40,234,73,85,220
"179","28633",47.54028,-120.86417,11,85,31,6457,168,-104,272,-60,95,98,-65,1602,264,33,59,752,145,150,696
"180","50863",44.566666,-115.683334,17,166,41,7786,243,-156,399,-69,113,118,-82,629,82,24,33,229,91,105,221
"181","28611",47.282776,-121.10167,54,99,34,6485,217,-66,283,-21,137,138,-26,1489,253,26,62,715,119,128,665
"182","33348",47.412224,-121.931946,96,100,42,4878,235,0,235,40,159,159,37,1719,245,45,45,704,191,191,648
"183","28577",47.389446,-121.37278,51,86,33,5950,200,-55,255,-16,127,129,-21,2096,343,38,59,979,171,186,910
"184","50876",43.97944,-114.87583,4,173,41,8157,232,-184,416,-88,103,107,-102,512,66,24,30,181,83,97,180
"185","27015",44.407333,-120.262665,49,155,44,6627,256,-96,352,-27,134,136,-33,472,66,18,37,187,65,76,162
"186","177120",56.816666,-132.96666,54,68,29,5511,173,-55,228,58,108,124,-17,2167,341,104,36,816,347,390,573
"187","7311",46.355,-124.050835,101,87,49,3342,195,20,175,65,141,145,60,2095,326,39,58,939,160,177,888
"188","28631",48.109165,-121.84722,82,91,39,5048,218,-15,233,25,148,148,22,1825,261,48,48,770,186,202,702
"191","185428",46.26972,-121.58847,49,98,36,5870,207,-58,265,-15,126,128,-20,2087,348,29,65,1010,143,159,943
"192","28599",47.196945,-124.1525,97,87,45,3878,205,12,193,53,144,147,49,2700,419,56,57,1185,201,247,1124
"193","180495",47.095554,-120.992226,51,104,35,6775,222,-75,297,-27,139,139,-32,1094,189,19,63,534,90,90,494
"195","28588",48.9275,-121.88111,36,87,33,5904,182,-75,257,-30,112,113,-35,1537,235,48,50,675,167,181,621
"196","28635",47.111946,-122.44055,102,102,42,4917,241,0,241,47,166,166,43,1034,164,22,56,475,94,94,423
"197","51029",46.12889,-115.17944,24,158,41,7373,242,-139,381,-59,116,120,-68,680,80,32,23,215,117,136,207
"198","28627",48.794724,-117.03389,42,110,32,7716,239,-102,341,-47,138,142,-54,814,108,36,35,312,120,141,284
"199","28548",46.869446,-121.525276,35,83,33,5717,179,-67,246,-27,109,112,-31,2379,382,40,60,1115,184,201,1036
"200","7302",45.725555,-121.50833,104,119,40,6360,276,-19,295,30,186,186,24,948,171,9,72,489,50,50,459
"201","28542",48.09722,-124.64389,95,75,44,3473,189,21,168,58,138,141,53,2477,366,59,54,1054,203,238,1004
"203","28992",47.404167,-121.931946,96,100,42,4878,235,0,235,40,159,159,37,1719,245,45,45,704,191,191,648
"204","179047",48.253334,-90.86833,25,125,26,11666,249,-220,469,166,-136,166,-136,709,98,23,45,283,82,283,82
"206","161863",41.915134,-123.193985,92,158,48,6029,292,-37,329,24,172,172,21,902,165,8,73,462,45,45,431
"207","50864",43.484108,-115.43089,36,165,39,8346,269,-144,413,-56,139,144,-71,518,77,17,44,215,62,72,207
"208","28626",48.79,-117.288055,50,111,32,7907,250,-96,346,-42,147,153,-49,765,101,35,34,290,114,137,264
"209","28581",47.572777,-121.118614,27,80,30,6231,177,-82,259,-42,108,110,-47,1945,324,36,61,925,161,171,856
"210","28547",47.983612,-123.660835,62,86,39,4701,193,-25,218,12,123,126,8,2219,369,43,62,1035,160,187,968
"211","50831",44.515175,-115.51275,3,169,42,7702,228,-173,401,-82,98,103,-94,635,81,26,31,227,97,112,220
"212","157899",48.468815,-120.65567,8,104,33,7094,184,-128,312,-73,99,99,-79,935,149,32,50,417,119,119,384
"213","50861",58.41861,-134.55333,23,77,28,6375,162,-104,266,28,54,105,-58,1382,197,69,32,497,227,309,339
"214","7303",47.02639,-122.67778,103,109,44,4944,247,1,246,47,168,168,44,1116,180,20,60,527,89,89,477
"215","6651",48.69137,-120.63212,9,106,33,7230,187,-130,317,-74,102,102,-80,806,125,33,45,348,115,116,320
"216","28617",45.72972,-121.525276,104,119,40,6360,276,-19,295,30,186,186,24,948,171,9,72,489,50,50,459
"217","51032",46.630733,-115.652855,44,147,40,7324,259,-108,367,-39,136,140,-47,867,113,31,32,311,122,137,297
"218","50947",60.666668,-149.48334,9,78,27,7223,165,-118,283,60,44,106,-76,846,119,35,38,319,120,181,228
"221","7319",46.41,-121.389725,37,94,35,5999,193,-72,265,-28,116,118,-33,1870,310,29,64,901,136,148,840
"222","28698",48.05389,-122.16944,103,91,41,4594,229,10,219,51,163,163,47,990,134,32,40,390,126,126,352
"224","28616",45.823055,-121.94889,85,106,39,5646,244,-22,266,22,158,159,16,2459,429,23,69,1211,132,148,1147
"225","28555",47.93111,-123.84722,60,86,40,4569,190,-25,215,12,119,122,9,2577,422,51,61,1186,185,217,1114
"227","7315",47.485554,-123.83028,76,93,42,4541,207,-12,219,26,134,137,23,3144,518,57,62,1442,213,253,1371
"228","28561",48.43,-120.46597,8,107,33,7267,188,-132,320,-76,101,101,-82,814,128,31,47,355,110,113,328
"229","7307",46.12,-121.81333,54,99,37,5723,212,-51,263,-8,130,131,-13,2269,377,30,65,1094,151,168,1025
"230","33321",48.504177,-120.7339,10,104,33,7084,185,-126,311,-71,101,101,-78,953,152,33,50,426,121,121,392
"231","50865",58.425,-134.53473,23,77,28,6375,162,-104,266,28,54,105,-58,1382,197,69,32,497,227,309,339
"232","28583",47.60889,-120.728615,62,124,36,7417,255,-82,337,-27,157,157,-32,882,163,15,70,459,69,69,422
"233","28612",47.301945,-120.7625,45,104,34,6970,220,-85,305,-36,135,135,-41,1054,183,19,63,516,90,90,476
"234","51024",48.56389,-116.92444,61,122,34,7811,267,-83,350,-31,155,162,-37,773,106,31,38,307,105,124,277
"235","28621",46.01361,-121.79639,44,93,36,5583,195,-58,253,-15,117,120,-20,2403,395,33,64,1146,163,180,1075
"236","28628",48.279724,-117.47444,59,119,33,8019,266,-92,358,-36,157,164,-42,645,87,27,36,251,91,109,226
"237","28610",47.65361,-121.06778,29,85,31,6377,185,-84,269,-42,112,114,-47,1810,305,33,62,873,147,157,806
"238","28565",48.79,-120.66761,8,105,33,7131,183,-129,312,-74,99,100,-80,829,127,35,44,355,120,121,327
"239","50955",43.484085,-115.45086,36,165,39,8346,269,-144,413,-56,139,144,-71,518,77,17,44,215,62,72,207
"240","189141",44.20662,-118.6418,36,164,42,7289,255,-131,386,-48,127,131,-57,441,60,17,34,166,64,76,151
"241","28545",47.81111,-123.626945,36,80,38,4545,162,-46,208,-7,96,100,-11,2717,438,56,59,1239,209,236,1164
"245","28572",48.395832,-122.660835,98,81,41,4067,207,12,195,52,149,149,47,595,82,24,38,234,84,84,213
"247","185297",45.184166,-118.751114,50,143,41,6751,253,-95,348,-26,137,139,-34,593,82,17,40,234,70,82,213
"248","28576",47.391388,-121.37278,51,86,33,5950,200,-55,255,-16,127,129,-21,2096,343,38,59,979,171,186,910
"250","32210",48.562218,-120.84127,12,101,33,6911,182,-119,301,-67,101,101,-73,1093,176,35,52,496,128,133,457
"252","188585",45.285,-121.725,49,96,37,5528,201,-54,255,-9,122,124,-15,2062,337,27,61,956,147,154,903
"256","27928",47.32,-121.593056,54,83,34,5518,196,-43,239,-7,125,128,-11,2331,357,47,55,1043,207,221,965
"257","28567",48.053055,-121.7625,68,87,37,5212,205,-29,234,10,135,137,6,2049,299,51,50,880,202,218,807
"258","28552",47.61871,-123.15855,63,86,39,4775,195,-25,220,13,126,128,9,2168,352,42,60,997,166,186,930
"259","52473",47.305832,-121.51889,55,86,34,5652,200,-46,246,-8,128,130,-12,2231,349,43,57,1013,192,207,939
"260","7314",48.051666,-123.83028,65,86,39,4622,196,-21,217,16,125,128,12,2279,376,45,62,1060,162,191,991
"261","28566",48.023888,-121.694725,67,88,36,5346,207,-31,238,7,136,137,3,2105,311,51,51,915,201,219,839
"265","7304",46.319443,-122.050835,59,97,38,5437,210,-41,251,0,130,132,-4,2574,418,36,63,1220,178,197,1139
"266","28573",48.225834,-117.288055,72,128,35,7974,284,-78,362,-22,169,176,-29,639,90,25,39,256,86,101,230
"268","108313",47.3523,-121.37076,51,86,33,5950,200,-55,255,-16,127,129,-21,2096,343,38,59,979,171,186,910
"269","28540",47.1125,-124.16944,98,85,45,3696,201,15,186,57,143,146,52,2510,384,53,56,1092,192,236,1033
"270","28553",47.88361,-123.33889,27,77,37,4654,152,-55,207,-17,88,92,-21,2585,413,56,58,1172,210,233,1099
"271","50869",56.966667,-133.91667,54,62,29,5097,165,-45,210,60,104,120,-10,2659,418,117,38,1015,397,449,719
"273","7313",47.654167,-120.728615,62,124,36,7417,255,-82,337,-27,157,157,-32,882,163,15,70,459,69,69,422
"274","187061",48.545,-116.94666,61,122,34,7811,267,-83,350,-31,155,162,-37,773,106,31,38,307,105,124,277
"275","50860",47.46019,-116.58258,70,126,36,7297,274,-68,342,-14,162,166,-20,809,111,26,40,320,102,117,299
"277","1340",47.29615,-121.534164,55,86,34,5652,200,-46,246,-8,128,130,-12,2231,349,43,57,1013,192,207,939
"278","28558",46.416668,-121.46597,33,90,34,5849,185,-73,258,-29,110,113,-34,2096,344,33,63,1002,153,168,934
"280","5868",46.9519,-121.57882,38,84,34,5716,183,-63,246,-24,112,115,-28,2333,374,41,60,1089,184,201,1011
"281","159363",47.511593,-115.728455,31,132,36,7474,246,-118,364,-48,130,130,-57,962,133,31,38,376,131,131,347
"284","51132",43.809834,-115.721794,38,165,40,8140,269,-137,406,-54,138,143,-67,586,86,17,45,241,68,78,233
"287","28541",48.59806,-122.94333,96,81,41,4102,208,15,193,51,149,149,46,698,105,22,48,302,81,81,268
"289","6302",48.4205,-120.6665,8,104,33,7094,184,-128,312,-73,99,99,-79,935,149,32,50,417,119,119,384
"290","48581",47.3975,-121.88695,89,94,41,4868,224,-4,228,34,153,153,30,2111,292,54,46,861,228,228,791
"291","7333",48.705833,-121.83028,45,86,34,5704,188,-61,249,-19,118,120,-24,1733,266,49,52,769,174,193,706
"292","50965",44.50472,-114.23083,62,160,37,8869,298,-126,424,151,-30,175,-53,232,34,11,34,86,40,74,46
"293","28613",47.23639,-121.16944,53,95,34,6323,212,-63,275,-19,134,135,-24,1617,273,28,62,773,128,139,720
"294","50817",43.84243,-115.9239,57,161,40,8110,288,-112,400,-36,157,162,-47,610,93,15,49,260,62,71,248
"295","7320",47.098057,-123.4575,101,105,44,4746,241,5,236,47,163,163,44,2145,345,36,62,994,143,172,939
"296","31504",48.871666,-121.02,58,103,34,6918,229,-72,301,-23,147,147,-29,1186,194,35,58,561,116,116,506
"297","165116",48.6479,-117.492,52,113,32,8041,255,-98,353,-42,151,157,-49,706,93,32,34,268,104,127,243
"302","7331",46.941666,-122.875,102,113,45,4988,251,0,251,45,166,166,41,1243,200,21,62,590,93,93,541
"303","51466",48.74194,-116.83611,60,120,34,7779,263,-84,347,-31,155,161,-38,767,104,32,37,301,109,127,271
"306","7325",46.11361,-122.898056,107,109,43,4965,254,5,249,49,170,171,45,1379,216,24,57,627,117,122,573
"308","28546",46.75,-121.81333,54,95,37,5611,206,-47,253,-7,127,130,-11,2370,377,40,60,1103,185,202,1021
"311","6104",46.93833,-121.59167,26,78,33,5538,164,-71,235,-32,98,102,-36,2620,416,46,60,1215,204,223,1131
"312","51042",48.7066,-116.6441,21,110,32,7502,216,-121,337,-64,116,118,-70,876,114,37,34,334,131,151,306
"316","7321",48.633335,-117.142334,48,114,32,7820,249,-97,346,-43,145,150,-49,787,105,33,36,306,112,133,278
"321","28564",47.443054,-120.98278,17,83,31,6404,171,-96,267,-53,100,103,-58,1711,283,34,60,807,149,155,747
"322","28574",48.576668,-118.254166,54,124,34,8195,261,-103,364,-44,154,160,-50,482,61,25,27,166,83,103,150
"323","28714",47.36222,-121.64389,61,87,36,5421,203,-36,239,1,131,133,-4,2305,344,49,53,1013,213,223,934
"324","28552",47.618332,-123.1525,63,86,39,4775,195,-25,220,13,126,128,9,2168,352,42,60,997,166,186,930
"326","28544",48.059723,-123.79639,65,86,39,4622,196,-21,217,16,125,128,12,2279,376,45,62,1060,162,191,991
"327","7326",46.308334,-121.5375,39,93,35,5818,192,-67,259,-24,115,117,-29,2117,349,31,64,1015,150,164,949
"328","185767",42.083332,-122.73,63,145,45,6065,254,-65,319,-3,144,144,-8,782,135,10,62,371,57,57,337
"330","76137",46.830833,-119.944725,110,129,35,8337,315,-50,365,8,211,218,3,176,29,5,45,75,23,25,66
"331","50983",47.520367,-115.81919,33,131,36,7426,247,-114,361,-46,131,131,-54,982,137,31,39,387,131,131,357
"332","28589",48.862778,-121.67778,42,88,33,5965,189,-70,259,-25,119,120,-30,1585,244,47,52,704,165,182,645
"334","7312",48.461113,-123.016945,99,78,41,4009,207,18,189,54,150,150,49,570,84,19,48,249,69,69,222
"336","7308",48.995556,-121.06778,51,104,34,6978,221,-82,303,-31,140,140,-38,1105,178,35,55,513,117,117,464
"338","52419",47.3225,-121.433334,47,79,32,5843,190,-55,245,-18,122,125,-23,2249,362,41,58,1036,188,203,962
"340","28630",48.0775,-121.74555,67,88,36,5346,207,-31,238,7,136,137,3,2105,311,51,51,915,201,219,839
"342","28562",47.323334,-120.67778,51,110,34,7194,232,-85,317,-34,143,143,-39,862,150,16,63,424,76,76,390
"345","28620",46.265556,-121.626945,49,98,36,5870,207,-58,265,-15,126,128,-20,2087,348,29,65,1010,143,159,943
"350","28008",47.336388,-121.43361,46,79,32,5811,189,-54,243,-18,121,124,-22,2278,364,43,57,1044,193,208,969
"352","180562",48.93,-120.21145,-6,103,32,7208,171,-144,315,-88,87,87,-94,578,78,34,29,214,108,117,197
"354","28624",48.065277,-121.49139,49,88,34,5829,198,-56,254,-16,125,126,-21,2070,328,45,57,953,180,200,876
"355","28590",47.853333,-120.83028,45,113,35,7074,227,-89,316,-38,137,137,-43,1184,213,22,68,605,95,95,555
"357","28597",47.423332,-121.44055,42,77,31,5784,183,-58,241,-21,117,120,-26,2326,372,44,58,1068,196,211,990
"359","159030",47.67363,-115.36475,48,140,37,7582,265,-104,369,-39,143,147,-46,778,105,29,35,296,115,129,277
"361","50878",43.71116,-115.635666,60,161,39,8362,294,-113,407,-36,163,168,-48,543,84,14,49,234,57,66,224
"362","33350",47.303333,-121.61,54,83,34,5518,196,-43,239,-7,125,128,-11,2331,357,47,55,1043,207,221,965
"363","28636",47.234722,-123.50833,96,101,43,4748,233,1,232,42,157,158,38,2566,417,43,63,1189,167,201,1127
"368","50870",48.860996,-116.15818,44,122,34,7782,248,-105,353,-47,140,146,-53,794,104,35,33,304,123,140,271
"378","51031",48.63389,-116.94472,59,120,34,7821,263,-85,348,-33,154,161,-39,776,106,32,37,306,108,127,277
"383","28602",46.138054,-121.77944,54,99,37,5723,212,-51,263,-8,130,131,-13,2269,377,30,65,1094,151,168,1025
"384","28625",46.482777,-121.49139,33,90,34,5849,185,-73,258,-29,110,113,-34,2096,344,33,63,1002,153,168,934
"386","7305",48.672222,-122.84722,91,82,40,4304,207,6,201,43,147,147,38,857,126,27,48,369,98,98,331
"389","28622",46.134724,-121.71167,54,100,37,5836,214,-53,267,-10,131,132,-15,2117,355,28,65,1028,140,156,964
"390","28604",47.838333,-120.71167,60,126,37,7401,255,-83,338,-28,155,155,-34,930,176,16,73,497,69,69,456
"393","5151",45.1617,-117.03665,23,149,40,7385,236,-136,372,-60,116,119,-71,628,79,23,31,224,89,108,213
"394","51036",48.56735,-116.92168,61,122,34,7811,267,-83,350,-31,155,162,-37,773,106,31,38,307,105,124,277
"398","28568",48.031944,-121.694725,67,88,36,5346,207,-31,238,7,136,137,3,2105,311,51,51,915,201,219,839
"402","50873",48.666927,-116.590515,21,110,32,7502,216,-121,337,-64,116,118,-70,876,114,37,34,334,131,151,306
"404","7324",48.218334,-122.50833,97,84,40,4280,215,10,205,49,152,152,45,716,97,27,38,279,99,100,254
"405","185326",48.73,-117.55666,53,111,31,8088,254,-98,352,-42,152,158,-48,703,91,33,33,263,106,130,239
"410","7329",47.994167,-122.16944,103,88,40,4637,227,11,216,51,163,163,47,972,133,30,42,390,121,122,354
"413","50875",48.59806,-116.99892,59,120,34,7821,263,-85,348,-33,154,161,-39,776,106,32,37,306,108,127,277
"414","7332",46.39611,-121.37278,37,94,35,5999,193,-72,265,-28,116,118,-33,1870,310,29,64,901,136,148,840
"417","28606",48.85389,-117.288055,55,112,32,7925,255,-91,346,-38,152,158,-44,760,100,36,33,287,115,138,261
"418","28578",47.394165,-121.389725,51,86,33,5950,200,-55,255,-16,127,129,-21,2096,343,38,59,979,171,186,910
"423","7328",48.536945,-117.61,59,117,32,8257,266,-97,363,-39,159,166,-45,622,81,29,33,232,94,116,209
"424","28607",47.661945,-117.40667,84,119,34,7807,286,-59,345,-8,182,186,-14,486,67,18,39,193,63,75,176
"427","7316",47.391666,-121.54222,59,87,35,5585,204,-41,245,-3,131,133,-8,2235,343,45,55,1001,199,211,926
"436","28623",47.607777,-121.321945,47,87,33,6037,199,-60,259,-20,125,127,-25,2055,337,38,60,968,168,182,896
"440","28592",46.976387,-120.965836,31,90,32,6472,190,-86,276,-41,115,117,-46,1438,240,26,61,686,121,124,636
"446","28586",48.748333,-121.186386,49,98,34,6514,212,-72,284,-25,133,133,-31,1446,235,39,58,680,135,135,616
"455","33276",48.506966,-120.75563,13,104,33,7044,187,-122,309,-68,104,104,-74,1014,164,34,52,460,122,122,424
"458","180473",48.5748,-117.644,59,117,32,8257,266,-97,363,-39,159,166,-45,622,81,29,33,232,94,116,209
"460","28629",48.541668,-120.67778,10,104,33,7084,185,-126,311,-71,101,101,-78,953,152,33,50,426,121,121,392
"462","28587",47.600597,-120.64719,79,139,38,7899,287,-77,364,-17,180,180,-23,630,124,10,75,343,47,47,314
"466","184375",48.88402,-121.03805,58,103,34,6918,229,-72,301,-23,147,147,-29,1186,194,35,58,561,116,116,506
"468","6182",48.429733,-120.67432,15,106,33,7168,193,-122,315,-67,108,108,-74,979,160,32,53,448,117,117,412
"473","7327",47.654167,-117.45556,85,117,33,7880,287,-59,346,-8,184,188,-13,457,63,17,38,181,59,71,165
"478","CONN00094745",45.91416,-68.91222,30,118,27,10411,238,-185,423,160,-98,160,-110,1100,113,68,15,313,218,313,235
"479","CONN00094741",44.27055,-71.30472,8,96,26,9247,182,-178,360,-34,-105,124,-114,1703,171,124,9,463,386,442,404
"480","CONN00094730",43.24861,-71.17916,71,126,31,9295,271,-125,396,26,-40,189,-53,1129,120,82,10,320,255,273,267
"481","CONN00094743",48.78444,-56.53527,35,102,28,8261,221,-134,355,6,62,141,-69,1099,109,67,14,320,224,277,292
"482","CONN00094744",45.25027,-66.04944,59,86,26,8286,216,-107,323,-20,160,160,-51,1299,144,92,16,409,285,285,380
"483","CONN00094734",44.21333,-70.54666,65,122,29,9766,266,-142,408,18,-53,187,-66,1130,120,79,11,323,257,275,267
"485","CONN00094735",43.96944,-74.16472,48,123,31,9530,242,-154,396,156,-70,164,-81,1060,115,63,16,314,208,307,215
"486","CONN00094738",44.54861,-72.81083,36,103,26,9897,228,-162,390,159,-85,159,-97,1270,138,70,18,382,237,382,253
"487","CONN00094746",45.92777,-68.91361,23,116,27,10441,230,-192,422,154,-105,154,-117,1135,115,69,15,325,223,325,240
"488","CONN00094739",45.96666,-74.33111,35,104,25,10641,235,-179,414,166,-43,166,-109,1087,104,72,12,301,227,301,254
"491","CONN00094742",43.43361,-72.05722,58,121,30,9550,257,-140,397,178,-57,178,-70,1106,107,74,11,297,231,297,244
"493","CONN00094731",58.78333,-63.06666,-63,71,19,9697,114,-246,360,54,-93,55,-190,617,73,32,27,216,109,194,129
"494","CONN00152317",41.27944,-73.02583,103,103,29,8613,278,-67,345,87,211,211,-11,1165,108,85,8,316,277,277,277
"495","CONN00094732",44.70361,-72.11416,40,114,27,10140,242,-167,409,165,-83,165,-97,1128,126,64,18,351,211,351,230
"497","QFA0006958",50.238056,-63.611668,14,84,23,9213,183,-175,358,39,-60,128,-110,999,102,49,20,299,171,277,214
"498","QFA01024?5",47.795277,-61.43667,45,63,20,8098,198,-105,303,23,113,151,-56,1024,113,69,17,320,216,237,246
"500","QFA0495487",51.454445,-57.128334,8,72,23,8030,154,-156,310,81,-16,108,-98,1134,105,72,12,308,241,305,283
"501","QFA0101046",51.74389,-67.5825,-31,105,22,11891,188,-270,458,105,-174,118,-192,1052,126,53,25,352,187,341,204
"502","QFA0202113",50.256943,-63.49167,12,86,23,9323,184,-179,363,37,-62,128,-113,994,101,48,21,298,167,279,211
"503","QFA0006961",50.29639,-64.00306,13,89,24,9329,188,-178,366,89,-62,129,-112,985,101,48,20,298,173,278,204
"504","QFA0209126",50.01889,-66.876114,12,103,24,10476,209,-206,415,94,-115,143,-130,1063,111,59,15,305,216,285,237
"505","QFA0451093",52.783333,-67.083336,-40,102,22,12170,180,-279,459,99,-131,111,-205,934,118,46,27,323,162,312,177
"506","QFA0570185",47.836666,-70.638054,1,96,22,11024,208,-211,419,125,-82,138,-148,1221,132,70,20,384,226,377,254
"507","QFA0495510",51.426388,-57.1325,8,72,23,8030,154,-156,310,81,-16,108,-98,1134,105,72,12,308,241,305,283
"508","QFA0240925",51.730556,-67.57167,-31,105,22,11891,188,-270,458,105,-174,118,-192,1052,126,53,25,352,187,341,204
"509","QFA0491045",48.89861,-66.61611,-5,87,22,10175,189,-201,390,113,-85,124,-140,1202,116,72,13,344,244,336,270
"510","QFA0466806",51.416668,-61.65,-10,97,24,10217,184,-218,402,72,-90,117,-148,1057,108,60,18,314,199,305,221
"511","QFA0313420",51.86667,-63.766666,-27,107,24,11323,187,-255,442,106,-112,115,-180,945,105,49,23,306,168,298,187
"513","QFA0495466",51.419724,-57.15917,8,72,23,8030,154,-156,310,81,-16,108,-98,1134,105,72,12,308,241,305,283
"514","QFA0313421",51.25,-59.666668,1,90,24,9396,178,-193,371,81,-74,116,-126,1133,117,60,21,346,204,321,234
"515","QFA0466561",52.55,-67.433334,-39,101,22,12150,181,-278,459,100,-186,112,-204,983,124,49,27,340,172,328,185
"516","UNA00065037",48.5927,-120.1656,44,129,34,8400,249,-124,373,-58,146,150,-65,450,70,22,41,187,71,79,174
"517","167061",41.163,-124.1257,110,94,55,2763,202,32,170,81,142,146,77,1477,249,6,73,721,48,60,684
"518","1121952",37.158333,-119.06555,34,117,43,5441,191,-80,271,-21,108,109,-24,714,128,12,70,339,39,53,335
"519","668766",37.895,-119.683334,57,136,45,5935,231,-69,300,-9,136,137,-9,898,158,10,74,430,40,49,430
"520","126351",41.7478,-124.1795,117,89,56,2511,200,42,158,92,147,150,87,1858,305,10,71,889,71,85,828
"521","810219",41.9739,-120.1966,43,147,42,6644,245,-97,342,-25,132,132,-33,490,61,14,36,175,57,57,162
"522","322171",37.8895,-119.3398,26,128,44,5682,191,-96,287,-24,102,103,-36,714,121,17,65,327,54,62,314
"523","293319",38.1929,-119.3222,59,159,45,6602,252,-95,347,-23,146,146,-23,390,64,12,55,171,43,43,171
"524","258986",41.1606,-124.1314,110,94,55,2763,202,32,170,81,142,146,77,1477,249,6,73,721,48,60,684
"525","326077",37.6056,-119.0089,34,130,44,5730,201,-89,290,-29,111,111,-29,558,94,15,61,251,47,56,251
"526","1119858",37.16639,-119.0725,34,117,43,5441,191,-80,271,-21,108,109,-24,714,128,12,70,339,39,53,335
"527","126501",41.734,-124.1498,109,102,55,3069,209,26,183,77,147,150,73,2006,341,9,74,985,68,84,916
"528","159303",41.1646,-124.1242,110,94,55,2763,202,32,170,81,142,146,77,1477,249,6,73,721,48,60,684
"529","240442",37.618,-119.0086,34,130,44,5730,201,-89,290,-29,111,111,-29,558,94,15,61,251,47,56,251
"530","54964",37.6027,-119.003,34,130,44,5730,201,-89,290,-29,111,111,-29,558,94,15,61,251,47,56,251
"531","342315",37.130726,-118.50939,-5,111,41,5369,149,-119,268,-57,38,69,-63,710,116,18,57,309,71,87,302
"532","342316",37.13719,-118.51639,-5,111,41,5369,149,-119,268,-57,38,69,-63,710,116,18,57,309,71,87,302
"533","10669",41.7566,-124.201,117,88,56,2462,198,43,155,92,146,149,88,1821,297,10,70,866,72,85,808
"534","379576",41.2779,-124.0932,114,96,55,2673,206,34,172,85,144,149,81,1574,265,7,73,764,54,65,719
"535","257357",39.4502,-123.7358,114,117,57,3087,229,26,203,75,152,154,75,1147,212,3,82,582,21,34,582
"536","712532",37.6029,-119.0026,34,130,44,5730,201,-89,290,-29,111,111,-29,558,94,15,61,251,47,56,251
"537","577877",41.2779,-124.0935,114,96,55,2673,206,34,172,85,144,149,81,1574,265,7,73,764,54,65,719
"538","931830",38.6082,-119.5664,83,170,45,6936,291,-79,370,-1,176,176,-1,383,61,12,54,164,43,43,164
"539","OSC192301",44.0556,-124.1083,112,95,51,3381,214,29,185,74,152,156,70,1990,328,20,66,940,112,115,882
"540","OSC200087",44.3983,-121.7991,49,122,40,6041,232,-70,302,-17,130,130,-22,1522,259,24,64,731,115,115,680
"541","OSC184953",44.2482,-123.5073,100,113,45,4771,249,0,249,47,162,164,43,1700,300,17,69,838,92,102,776
"542","ORE38583",42.6471,-122.1208,51,138,43,6144,241,-74,315,-14,134,134,-21,962,164,13,64,461,66,66,423
"543","OSC184889",45.3189,-117.4052,1,141,39,6952,204,-149,353,-74,91,91,-85,732,95,26,34,270,101,120,257
"544","OSC218195",45.0958,-122.268,68,96,40,4982,212,-24,236,16,134,136,12,2488,403,31,61,1152,168,177,1080
"545","ORE16960",45.5053,-117.2827,49,150,40,7234,261,-105,366,-36,139,142,-44,493,53,21,24,154,81,100,142
"546","ORE5718",45.6228,-122.7006,116,106,41,5430,265,8,257,53,186,187,49,974,160,17,57,448,85,91,411
"547","OSC178043",44.0789,-124.1153,112,95,51,3381,214,29,185,74,152,156,70,1990,328,20,66,940,112,115,882
"548","OSC136919",44.2044,-122.13,72,127,42,5961,254,-45,299,5,151,151,0,1776,301,23,64,852,117,117,786
"549","OSC184267",44.284,-118.6797,11,152,41,6868,218,-145,363,-65,98,101,-75,578,80,21,36,222,79,92,205
"550","OSC178650",43.7644,-121.9508,39,130,42,6025,224,-83,307,-24,119,120,-31,1335,229,23,64,646,102,102,598
"552","WILLU9796",43.1192,-124.4072,110,93,55,2797,200,32,168,82,144,148,77,1599,266,12,69,769,77,84,717
"553","ORE17040",43.8815,-124.113,112,96,52,3356,214,30,184,75,152,156,71,1882,310,18,66,890,103,106,836
"554","ORE103147",43.8454,-124.0928,112,96,52,3356,214,30,184,75,152,156,71,1882,310,18,66,890,103,106,836
"555","ORE17163",44.1681,-121.8928,43,121,40,6008,224,-75,299,-20,124,124,-26,1567,268,25,64,754,117,118,701
"556","OSC194497",46.1049,-123.9306,105,86,48,3488,201,23,178,68,148,151,63,1941,299,36,59,874,149,161,823
"557","WILLU8387C",42.0546,-123.3495,60,135,47,5309,234,-51,285,6,131,133,1,1100,192,10,69,542,59,67,497
"558","ORE17175",44.3895,-122.0217,62,121,41,5915,240,-53,293,-3,141,141,-8,1806,309,24,65,872,120,120,810
"559","WILLU15294",45.2192,-121.6965,57,101,38,5599,213,-48,261,-3,131,132,-8,1908,311,25,60,884,137,143,835
"560","OSC226161",44.4073,-120.2626,49,155,44,6627,256,-96,352,-27,134,136,-33,472,66,18,37,187,65,76,162
"561","OSC184317",42.9797,-122.2976,55,139,44,6035,245,-67,312,-9,134,136,-15,1200,207,15,66,588,76,77,537
"562","WILLU7075",42.4394,-122.295,40,129,43,5930,220,-78,298,-20,121,121,-27,1041,176,14,63,494,72,72,452
"564","ORE17052",42.8939,-124.5028,112,89,54,2720,200,36,164,85,145,149,81,1886,312,14,68,897,92,97,840
"565","WILLU28919",44.4828,-121.9969,56,118,40,5929,234,-58,292,-9,135,135,-14,1817,309,25,64,874,125,125,813
"566","OSC70158",44.695,-122.3203,73,104,40,5266,228,-26,254,17,142,144,12,2333,386,27,63,1099,149,157,1024
"567","ORE17050",43.9221,-124.1142,112,96,51,3381,215,29,186,74,152,156,70,1935,318,19,66,912,108,111,857
"568","ORE17039",42.0014,-124.2073,113,97,55,2939,209,35,174,83,149,152,79,2000,337,10,72,970,74,89,919
"569","OSC206566",45.2596,-118.4182,64,132,38,6970,265,-77,342,-14,154,156,-22,635,91,16,43,255,68,82,237
"570","OSC146238",42.0984,-120.2074,55,148,42,6740,258,-88,346,-17,144,144,-25,444,55,13,35,159,52,65,147
"571","ORE17053",43.9828,-124.0986,112,96,51,3381,215,29,186,74,152,156,70,1935,318,19,66,912,108,111,857
"572","OSC184886",44.4001,-122.0234,62,121,41,5915,240,-53,293,-3,141,141,-8,1806,309,24,65,872,120,120,810
"573","OSC125206",45.2753,-117.4462,2,141,39,6955,205,-148,353,-74,92,92,-84,733,97,26,35,274,100,119,260
"574","ORE17153",44.1708,-123.5778,100,113,45,4771,249,0,249,47,162,164,43,1700,300,17,69,838,92,102,776
"575","ORE17156",45.3044,-121.6586,49,99,37,5640,205,-56,261,-10,124,126,-16,1881,306,26,60,871,138,144,822
"576","WILLU9797",43.5635,-124.1376,110,94,51,3279,212,30,182,75,150,154,71,1686,285,13,70,822,79,86,769
"578","ORE34068",44.2406,-121.8456,43,121,40,6008,224,-75,299,-20,124,124,-26,1567,268,25,64,754,117,118,701
"580","ORE17041",43.8922,-124.0982,112,96,52,3356,214,30,184,75,152,156,71,1882,310,18,66,890,103,106,836
"581","ORE17149",42.844,-122.1472,34,124,43,5751,210,-75,285,-21,114,114,-29,1461,245,18,66,700,89,89,649
"582","ORE17167",42.8434,-122.1557,34,124,43,5751,210,-75,285,-21,114,114,-29,1461,245,18,66,700,89,89,649
"583","WILLU8380",42.0908,-123.375,70,139,47,5438,249,-44,293,12,142,144,8,1045,185,9,70,521,55,63,476
"584","ORE17582",44.0342,-121.811,30,122,41,5909,210,-87,297,-30,111,111,-37,1425,240,25,62,678,112,112,629
"585","ORE17163B",44.2492,-121.8364,43,121,40,6008,224,-75,299,-20,124,124,-26,1567,268,25,64,754,117,118,701
"586","OSC178832",44.2262,-121.8063,25,115,40,5814,199,-87,286,-33,105,105,-40,1634,273,27,62,774,127,127,719
"587","OSC189162",42.0768,-122.7069,63,145,45,6065,254,-65,319,-3,144,144,-8,782,135,10,62,371,57,57,337
"588","WILLU23608",43.5731,-121.9972,50,145,44,6254,247,-82,329,-18,133,133,-25,1035,180,19,65,508,81,81,468
"590","OSC184885",42.0204,-123.4603,70,138,47,5343,246,-43,289,13,141,142,9,1113,197,9,71,557,55,64,511
"591","OSC184887",42.0931,-123.4011,70,139,47,5438,249,-44,293,12,142,144,8,1045,185,9,70,521,55,63,476
"592","WILLU3640",42.0808,-122.7161,63,145,45,6065,254,-65,319,-3,144,144,-8,782,135,10,62,371,57,57,337
"593","OSC1896",46.2006,-123.9697,104,86,48,3463,199,22,177,67,146,150,62,1979,306,37,59,891,152,165,838
"594","WILLU26422",45.6137,-123.937,98,93,52,3252,196,18,178,63,137,141,59,2318,365,38,61,1063,163,173,997
"595","WILLU2949",45.2724,-123.9536,99,94,51,3295,202,19,183,64,139,143,60,2373,376,38,61,1093,167,175,1016
"596","367546",44.4919,-121.795,47,118,40,5954,226,-69,295,-18,126,127,-23,1625,274,25,63,777,121,122,723
"597","362931",44.8192,-118.64,20,148,41,6835,226,-132,358,-56,108,110,-65,631,90,21,39,250,81,96,231
"598","363199",45.1639,-119.278,43,142,41,6506,241,-99,340,-31,126,128,-38,565,75,18,37,218,70,82,196
"723","CAN 443482",45.45,-75.583,59,97,23,10949,262,-154,416,181,-76,192,-91,880,86,56,14,252,176,251,194
"725","CAN 525984",45.617,-67.417,51,114,28,9819,250,-150,400,7,-24,173,-82,1079,115,76,12,315,234,259,271
"726","CAN 24618",54.317,-130.317,68,61,31,4622,168,-28,196,41,110,128,11,2394,354,100,37,900,336,460,721
"728","CAN 437129",45.517,-78.217,35,113,26,10623,240,-181,421,153,-97,163,-110,912,92,58,16,267,179,264,193
"729","CAN 452177",48.533,-89.233,15,121,25,11437,239,-227,466,143,-142,154,-142,762,89,32,29,258,123,256,123
"731","CAN 447754",50.867,-83.667,-2,123,24,12748,237,-263,500,152,-97,152,-177,729,92,36,28,248,121,248,133
"732","CAN 430978",48.383,-86.183,20,105,26,10175,204,-198,402,106,-56,140,-119,824,95,47,20,254,153,237,172
"733","CAN 24653",53.983,-126.433,26,104,30,7888,199,-145,344,-69,23,123,-79,528,60,21,28,174,78,138,153
"734","CAN 516627",49.867,-91.017,4,119,24,12662,238,-257,495,157,-169,157,-169,768,103,32,37,283,108,283,108
"735","CAN 584614",48.554,-53.888,48,79,26,7232,202,-91,293,-14,109,143,-41,1102,109,72,13,311,230,261,300
"737","CAN 470283",48.467,-83.467,11,129,26,11715,239,-239,478,140,-73,153,-149,776,91,40,23,250,134,238,152
"738","CAN 24594",54.017,-124.017,30,128,32,8981,227,-163,390,139,-17,139,-92,508,55,21,24,155,81,155,134
"739","CAN 24590",54.983,-123.033,24,110,29,9027,217,-157,374,-84,25,136,-97,678,71,24,22,206,115,186,195
"741","CAN 24613",55.25,-127.667,42,103,29,8262,222,-131,353,45,0,143,-69,571,69,22,31,187,81,146,157
"742","CAN 498540",45.25,-76.758,50,105,25,10694,257,-163,420,131,-82,182,-94,864,82,57,11,237,180,231,197
"744","CAN 25011",52.367,-126.067,39,97,34,6572,192,-92,284,-4,69,122,-46,897,120,42,41,351,133,142,306
"745","CAN 431015",48.483,-83.317,11,130,27,11742,238,-240,478,139,-74,152,-150,771,90,40,24,249,132,239,149
"746","CAN 24593",56.033,-123.55,-6,105,27,9477,187,-192,379,112,-62,112,-131,579,74,23,27,198,97,198,139
"750","CAN 585274",45.934,-77.568,45,115,26,11077,260,-180,440,180,-92,180,-106,845,86,50,18,251,160,251,170
"751","CAN 411998",57.667,-126.75,-33,115,28,9784,171,-234,405,89,-87,89,-161,468,69,14,36,176,63,176,113
"754","CAN 530289",45.733,-75.333,48,100,23,10937,250,-170,420,180,-87,180,-103,942,94,60,14,272,190,272,209
"755","CAN 584806",47.633,-70.883,4,95,22,10922,208,-206,414,126,-78,139,-144,1257,136,73,20,395,232,389,264
"756","CAN 24592",59.033,-123.55,-21,118,25,12828,213,-259,472,134,-90,134,-191,462,84,19,53,211,61,211,68
"758","CAN 450140",46.017,-80.617,49,101,24,10510,249,-160,409,73,-32,178,-92,894,98,59,15,264,183,224,216
"759","CAN 24654",53.883,-123.567,25,129,33,8814,221,-167,388,133,-20,133,-94,534,58,22,24,168,84,168,135
"760","CAN 446561",52.867,-83.75,-21,113,22,13019,216,-284,500,136,-185,136,-198,605,90,24,43,240,79,240,88
"761","CAN 447564",50.333,-80.167,-8,120,24,12464,224,-263,487,131,-103,142,-179,819,101,34,32,286,124,278,134
"763","22169",58.216667,-101.25,-55,97,18,14826,201,-328,529,115,-233,129,-251,435,71,14,50,188,50,182,55
"765","38203",51.033333,-95.333336,10,114,22,13218,247,-257,504,168,-173,168,-173,563,87,19,48,237,69,237,69
"766","22165",49.809586,-97.13274,22,116,23,13132,257,-237,494,179,-159,179,-159,516,83,17,53,231,59,231,59
"767","54949",51.001667,-95.35222,10,114,22,13218,247,-257,504,168,-173,168,-173,563,87,19,48,237,69,237,69
"768","48617",50.567,-96.217,21,105,21,13039,250,-235,485,178,-136,178,-158,512,80,17,50,220,63,220,65
"769","22167",49.805832,-97.14083,22,116,23,13132,257,-237,494,179,-159,179,-159,516,83,17,53,231,59,231,59
"771","22166",54.849167,-95.631386,-23,106,20,14180,225,-292,517,149,-190,149,-217,502,78,17,48,212,59,212,64
"774","2757719",48.67,-115.53,28,127,35,7712,236,-126,362,-61,124,129,-67,800,99,37,30,292,129,150,268
"775","2760080",49.63,-88.02,3,126,25,12188,238,-261,499,150,-82,150,-165,791,93,32,32,263,111,263,144
"777","3318162",57.78,-153.53,34,67,30,5619,156,-66,222,39,-13,109,-31,1297,140,78,19,394,269,282,351
"778","2758327",53.28,-60.37,-1,103,24,10829,212,-217,429,134,-86,134,-147,946,108,59,19,299,191,299,205
"779","128401",49.0075,-114.025,5,127,35,7528,200,-158,358,38,66,103,-88,685,84,42,19,212,153,183,170
"780","104497",51.080833,-115.82972,-14,116,31,7898,177,-187,364,64,-67,86,-114,631,80,37,22,203,126,195,149
"781","104498",51.07139,-115.787224,-14,116,31,7898,177,-187,364,64,-67,86,-114,631,80,37,22,203,126,195,149
"782","43964",49.1667,-123.9333,97,77,34,5197,224,2,222,40,166,166,35,1098,181,30,57,503,104,104,463
"783","125884",44.5333,-68.1,65,110,29,9154,253,-125,378,-27,180,180,-58,1237,140,78,17,379,247,247,333
"784","109588",58.93667,-110.62666,-21,112,21,14316,225,-300,525,151,-191,151,-216,370,61,14,45,155,50,155,55
"785","109589",59.104443,-110.420555,-25,110,20,14373,222,-303,525,148,-195,148,-220,368,60,14,45,153,50,153,54
"786","35033",52.66722,-118.05666,-16,105,31,7905,162,-173,335,84,-65,84,-118,623,77,33,27,218,109,218,141
"787","73979",55.166733,-105.00045,-8,117,23,13482,229,-275,504,154,-165,154,-192,497,82,16,53,223,59,223,62
"788","107885",52.749443,-114.291664,19,149,33,9977,225,-214,439,140,-41,140,-115,505,96,17,65,253,58,253,60
"789","26041",52.91667,-118.0333,22,121,31,8717,213,-168,381,130,-26,130,-94,490,66,23,36,192,73,192,97
"790","99999",51.072777,-115.805,-14,116,31,7898,177,-187,364,64,-67,86,-114,631,80,37,22,203,126,195,149
"791","104499",51.131943,-115.77556,-24,113,31,7786,163,-194,357,52,-78,75,-121,647,83,39,23,211,129,204,149
"794","131013",54.127453,-119.89853,1,105,31,7963,176,-159,335,101,-50,101,-101,692,82,35,24,235,128,235,156
"795","101757",54.92167,-159.265,41,52,27,4858,142,-50,192,54,-3,108,-15,700,90,38,30,249,121,213,152
"798","207316",37.8284,-108.2143,16,159,42,7249,211,-160,371,105,44,110,-73,749,81,33,21,227,132,193,191
"799","174100",40.5575,-106.5889,12,154,40,7993,222,-156,378,111,-78,116,-87,555,53,38,9,149,128,148,129
"800","206893",37.4645,-108.1684,37,161,42,7457,238,-142,380,129,68,134,-56,659,74,27,23,205,109,172,167
"801","174101",40.55749,-106.83971,40,178,40,8997,276,-160,436,-62,154,154,-79,519,50,37,9,143,118,118,139
"802","174098",39.00974,-107.0402,-17,148,39,7850,176,-199,375,80,12,84,-113,668,69,37,16,182,138,166,178
"803","174099",38.55518,-107.41992,17,176,41,8371,230,-194,424,118,55,123,-91,513,57,28,18,158,104,139,122
"804","MT00178317",48.555557,-68.219444,23,95,24,9787,216,-171,387,135,-53,145,-109,932,88,61,11,256,195,247,234
"805","MT00106115",53.205555,-58.083332,-13,83,23,9081,163,-196,359,99,19,99,-133,1056,105,70,13,310,236,297,237
"806","MT00178300",46.333332,-74.5,27,107,25,10854,231,-194,425,160,-52,160,-121,1111,108,71,14,319,222,319,255
"807","MT00178421",49.266666,-88.76667,9,124,25,11991,241,-247,488,154,-139,154,-156,755,87,32,31,257,119,257,123
"808","MT00065345",47.85,-68.333336,16,105,25,10533,221,-193,414,134,-64,147,-127,1059,106,71,13,309,217,301,246
"809","MT00108045",46.333332,-74.51667,27,106,24,10885,230,-195,425,160,-53,160,-122,1106,108,71,14,319,221,319,253
"811","MT00178423",48.533333,-89.23333,15,121,25,11437,239,-227,466,143,-142,154,-142,762,89,32,29,258,123,256,123
"812","MT00178259",48.833332,-78.53333,7,113,24,12108,231,-239,470,140,-82,153,-159,887,110,37,33,319,135,310,147
"813","MT00106109",55.466667,-60.216667,-20,77,21,9415,149,-205,354,95,12,95,-144,820,88,49,15,242,168,242,204
"814","MT00178303",48.466667,-79.26667,13,114,24,12135,238,-234,472,148,-79,161,-152,856,104,39,30,299,137,291,148
"815","MT00178419",49.866665,-91.53333,8,113,23,12733,239,-252,491,162,-145,162,-167,763,99,33,35,280,113,280,114
"817","MT00106094",54.808334,-59.15,-16,81,22,9367,161,-200,361,99,15,99,-138,901,99,54,20,293,190,293,200
"818","MT00178242",46.733334,-73.03333,33,110,25,11057,243,-192,435,155,-48,168,-119,1079,107,70,14,316,217,314,246
"819","MT00002198",45.866665,-74.583336,44,103,24,10779,244,-173,417,175,-89,175,-104,1013,100,66,13,288,210,288,232
"820","MT00099406",49.65,-57.85,31,80,24,8232,196,-132,328,4,4,136,-73,1125,117,60,18,336,211,289,268
"821","MT00037720",51.841946,-56.53417,-4,71,22,8002,146,-164,310,-75,-28,97,-108,1156,106,74,10,314,257,300,292
"823","MT00037707",51.781944,-56.35278,3,72,23,7946,153,-156,309,-68,-21,103,-100,1119,102,71,11,306,248,289,285
"828","MT00107972",45.06361,-72.24,53,117,27,10425,260,-161,421,181,-75,181,-89,1047,117,58,19,327,196,327,211
"829","MT00178434",56.033333,-123.55,-6,105,27,9477,187,-192,379,112,-62,112,-131,579,74,23,27,198,97,198,139
"830","MT00178282",73.23333,-51.15,-158,41,12,9768,15,-315,330,-148,-275,-25,-275,553,68,33,25,190,104,143,104
"831","MT00106090",55.116665,-60.316666,-19,81,22,9697,158,-210,368,99,16,99,-147,841,92,51,15,254,175,254,203
"832","MT00178411",48.75,-87.25,18,102,25,10390,204,-203,407,103,-59,140,-125,791,93,38,26,257,130,245,152
"833","MT00030267",47.275,-55.891666,52,75,27,6698,196,-79,275,-3,103,141,-32,1400,146,94,15,424,296,316,360
"834","MT00178427",49.583332,-99.7,25,129,25,12867,268,-238,506,181,-120,181,-150,449,73,14,58,210,47,210,48
"835","MT00177700",53.283333,-60.366665,-1,103,24,10829,212,-217,429,134,-86,134,-147,946,108,59,19,299,191,299,205
"837","MT00178420",49.25,-88.916664,10,124,25,11960,241,-246,487,154,-138,154,-155,751,87,32,30,255,120,255,122
"838","MT00037722",51.814724,-56.22333,6,73,23,7842,156,-152,308,-63,-18,106,-95,1087,100,69,10,298,242,280,278
"841","MT00108046",45.33278,-73.94556,64,106,25,10601,267,-145,412,183,-66,194,-80,918,98,59,14,270,189,266,204
"843","MT00013905",48.77022,-87.11295,14,103,25,10493,200,-210,410,100,-63,137,-131,801,95,39,27,262,131,249,155
"844","MT00006552",55.283333,-77.75,-47,89,20,12184,151,-286,437,92,-213,92,-213,624,89,22,46,255,70,255,70
"845","MT00178425",49.633335,-88.01667,3,126,25,12188,238,-261,499,150,-82,150,-165,791,93,32,32,263,111,263,144
"846","MT00171896",48.092,-77.879,12,116,25,11768,229,-233,462,141,-74,153,-151,913,107,47,27,314,153,304,170
"847","MT00006553",46.75,-71.7,45,103,24,10825,252,-168,420,178,-34,178,-102,1087,113,68,17,328,211,328,249
"849","MT00177698",53.283333,-60.233334,-1,101,23,10672,209,-214,423,127,-84,132,-144,946,107,59,19,298,192,297,204
"850","MT00178305",48.366665,-79.166664,12,113,24,12082,234,-235,469,145,-79,158,-153,884,107,42,30,308,143,299,155
"852","MT00019498",54.45,-130.43333,73,63,31,4693,172,-27,199,45,115,133,14,2463,372,102,37,925,347,480,731
"853","MT00037792",51.990833,-55.31333,5,64,23,6929,140,-134,274,-53,19,95,-84,1059,98,67,10,290,238,266,274
"854","MT00178315",46.988888,-70.548615,45,99,24,10585,247,-159,406,176,-36,176,-98,1005,106,64,18,311,196,311,227
"855","MT00177761",45.616665,-67.416664,50,111,28,9765,247,-148,395,7,-25,172,-81,1090,116,77,12,319,237,260,275
"857","MT00037767",52.012222,-55.286945,10,65,23,6955,145,-131,276,-50,63,100,-79,1023,94,65,10,279,230,257,266
"858","MT00030559",47.616665,-57.672222,44,64,23,6936,184,-89,273,-13,15,135,-44,1527,163,105,14,459,320,363,369
"860","MT00178286",73.28333,-51.12014,-160,40,12,9822,13,-318,331,-150,-278,-26,-278,560,69,34,25,193,106,143,106
"864","MT00039420",46.65,-73.88333,26,116,26,10946,236,-201,437,158,-55,158,-125,1092,107,71,15,318,216,318,252
"865","MT00108044",46.35,-74.51667,24,107,25,10908,227,-199,426,157,-56,157,-125,1117,110,72,15,324,222,324,255
"866","MT00178435",48.491665,-123.38333,97,73,39,4056,202,17,185,52,149,149,47,763,128,17,64,374,62,62,338
"867","MT00178275",52.983334,-66.25,-38,109,23,12259,188,-282,470,102,-128,114,-205,837,110,38,31,300,133,294,156
"868","MT00178261",45.433334,-76.28333,56,106,25,10921,262,-162,424,178,-79,190,-93,815,77,53,13,231,166,229,183
"870","MT00014618",53.869446,-79.05028,-32,98,21,12128,177,-281,458,105,-138,106,-196,562,74,17,44,211,63,196,83
"871","TRTE0005368",48.68796,-86.97962,17,103,25,10357,200,-204,404,104,-59,139,-125,791,93,40,25,255,133,242,157
"872","TRTE0005195",48.656,-90.669,17,126,26,11794,242,-234,476,159,-146,159,-146,722,99,26,43,283,91,283,91
"873","S05-8783",59.466667,-134.75,-32,101,28,8483,150,-202,352,33,-41,76,-142,508,55,20,26,163,76,142,136
"875","235294",48.87,-117,51,113,33,7772,250,-92,342,-39,147,152,-46,789,105,35,35,303,117,137,275
"876","184393",41.95,-111.48,25,150,38,8399,246,-148,394,9,130,135,-79,455,44,27,13,126,95,96,121
"877","217111",44.93,-115.96,14,161,41,7401,233,-151,384,-67,106,111,-78,712,92,26,32,254,102,119,244
"878","V143673",50.433334,-126.666664,55,63,36,4051,158,-17,175,13,108,110,9,1839,256,62,47,748,212,245,673
"879","V202842",50.05,-123.083336,60,89,29,6751,226,-73,299,-19,147,147,-25,1211,184,41,51,529,143,143,472
"880","V193384",45.566666,-78.6,36,112,26,10614,241,-180,421,115,-44,164,-109,968,97,61,14,278,191,268,216
"881","V144634",50.05,-123.2,28,95,32,6404,189,-104,293,-44,111,111,-49,1039,155,44,44,436,145,145,398
"882","V14170",48.75,-86.25,13,106,25,10492,199,-215,414,99,-66,136,-131,830,96,47,20,255,156,245,166
"885","V191701",53.766666,-145.75,NA,NA,NA,NA,NA,NA,NA,NA,NA,NA,NA,NA,NA,NA,NA,NA,NA,NA,NA
"888","V97248",50.716667,-120.51667,76,111,30,8472,270,-91,361,184,31,184,-35,302,33,13,26,95,47,95,83
"889","V141043",50.116665,-126.73333,48,63,37,3852,148,-21,169,10,98,101,6,2126,297,66,48,869,230,263,791
"890","V162994",50.333332,-122.566666,53,97,30,7301,229,-94,323,-34,146,146,-40,843,125,36,46,362,120,120,325
"891","V90573",49.216667,-115.38333,47,129,34,8215,254,-121,375,-52,144,152,-59,696,84,40,25,242,127,149,221
"892","V143661",50.283333,-126.566666,58,64,36,3994,161,-13,174,16,110,112,13,1950,272,63,48,796,218,249,719
"894","V214968",53.238888,-132.4161,60,57,32,4013,159,-14,173,43,111,117,17,2429,335,84,41,928,290,378,712
"896","V170921",52.383335,-120.083336,18,104,30,7853,198,-145,343,-77,15,117,-83,811,89,44,18,249,155,205,237
"897","V182384",52.75,-125.19,-12,121,36,7279,162,-174,336,-97,-22,80,-105,517,60,24,24,169,88,136,153
"898","V190588",49.25,-123.25,99,77,34,5138,223,2,221,42,167,167,36,1192,184,34,51,517,123,123,475
"900","V215376",50.233334,-126.85,61,60,36,3752,157,-6,163,23,110,112,19,2074,290,63,48,849,223,262,768
"902","V219500",49.283333,-124.61667,72,84,36,5051,208,-21,229,18,138,139,13,1750,277,44,58,785,150,168,724
"904","V225856",50.689335,-119.82667,68,114,31,8369,265,-96,361,-33,23,174,-42,425,47,22,21,125,74,124,115
"905","V217476",49.308334,-121.405,44,96,33,6695,206,-83,289,-34,130,130,-40,1132,172,41,49,497,134,134,454
"906","V219501",50.033333,-125.28333,88,83,35,5256,221,-11,232,29,158,158,24,1592,244,51,52,686,173,173,606
"909","V181263",49.65,-88.38,6,126,25,12175,241,-256,497,152,-80,152,-162,764,89,32,31,260,112,260,132
"911","V193330",49.366665,-122.933334,70,82,32,5649,210,-39,249,7,143,143,2,1442,227,42,52,635,150,150,586
"912","V170746",52.133335,-119.61667,24,107,30,8154,212,-143,355,-76,24,127,-82,783,87,42,18,244,147,198,227
"914","V215375",49.35,-124.8,68,85,37,5004,203,-25,228,15,134,135,10,1783,280,47,57,793,158,177,729
"915","V233968",49.235554,-122.76417,97,85,35,5310,229,-8,237,35,165,165,31,1421,214,40,50,607,149,149,561
"916","V123667",48.283333,-66.833336,14,101,24,10319,218,-190,408,133,-66,144,-124,1098,110,68,14,318,222,315,254
"917","V211880",49.075,-119.89167,-5,104,32,7310,175,-145,320,-88,57,90,-95,481,61,29,23,163,98,113,151
"918","V143675",50.416668,-126.583336,55,63,36,4051,158,-17,175,13,108,110,9,1839,256,62,47,748,212,245,673
"919","V228786",51.483334,-128.09166,86,42,30,3558,161,22,139,66,131,133,43,2837,367,93,41,1082,343,427,951
"920","V216801",49.283333,-125.21667,64,82,39,4498,187,-23,210,17,123,124,13,2217,337,57,55,960,196,222,891
"922","V190131",49.233334,-122.76667,97,85,35,5310,229,-8,237,35,165,165,31,1421,214,40,50,607,149,149,561
"924","V194217",52.666668,-121.583336,28,119,33,7919,210,-141,351,126,-19,126,-76,817,85,46,17,237,157,237,218
"925","V182395",50.11,-123.1,45,94,30,6731,212,-92,304,-33,131,131,-39,1052,158,41,48,451,139,139,405
"926","V170739",52.133335,-119.8,23,106,30,8052,208,-143,351,-76,22,124,-82,776,86,42,18,241,147,197,225
"929","7330",48.318333,-121.81333,75,92,38,5327,216,-26,242,15,144,145,11,1913,285,48,52,837,180,202,764
"931","28632",47.60841,-121.32984,47,87,33,6037,199,-60,259,-20,125,127,-25,2055,337,38,60,968,168,182,896
"941","7317",47.305,-121.305,58,96,35,6134,215,-55,270,-12,137,138,-17,1793,303,30,62,860,138,152,802
"942","28582",47.822777,-120.71167,68,131,38,7402,265,-77,342,-21,163,163,-26,862,166,14,75,468,61,61,431
"943","50868",47.52025,-115.73344,31,132,36,7474,246,-118,364,-48,130,130,-57,962,133,31,38,376,131,131,347
"949","50872",48.89222,-116.32806,49,120,34,7757,251,-99,350,-42,144,150,-48,784,103,34,34,303,120,136,269
"959","187035",43.173332,-122.136665,45,138,44,6014,235,-77,312,-18,124,126,-25,1274,219,18,67,625,85,86,575
"960","28570",47.497776,-120.88111,14,86,31,6459,171,-102,273,-57,98,100,-62,1587,262,32,59,747,141,145,692
"965","50867",44.08361,-115.61972,44,169,41,8124,279,-131,410,-50,142,148,-62,529,74,19,37,205,72,82,196
"966","28614",46.197224,-121.49139,-4,83,34,5528,139,-102,241,-57,68,73,-63,2322,372,41,60,1075,184,194,1007
"971","28619",45.801945,-121.915,91,108,39,5840,253,-21,274,24,166,166,19,2269,404,20,71,1133,115,115,1075
"974","185516",47.34854,-121.42999,46,79,32,5811,189,-54,243,-18,121,124,-22,2278,364,43,57,1044,193,208,969
"975","7323",47.025,-122.44903,101,105,43,4910,242,-1,243,45,165,165,42,1061,165,23,55,481,100,100,430
"982","28582",47.4984,-121.05764,31,85,31,6405,186,-83,269,-41,114,116,-46,1741,293,32,61,834,144,152,772
"988","50991",47.78861,-116.69889,76,123,36,7389,277,-62,339,-8,169,174,-15,709,97,25,38,281,93,109,258
"995","28584",47.918335,-124.389725,93,97,45,4229,219,4,215,46,146,148,42,2934,454,61,58,1289,212,252,1233
"1007","180497",48.742115,-121.5681,42,90,34,6035,192,-70,262,-26,120,121,-31,1642,257,46,54,743,162,181,680
"1010","28595",47.16139,-122.06778,97,105,43,4876,239,-3,242,41,160,161,38,1333,181,38,41,526,164,165,477
"1034","158133",46.942467,-121.889915,46,84,35,5330,186,-49,235,-10,115,119,-15,2583,396,48,57,1171,214,232,1084
"1068","233988",37.6202,-119.0073,34,130,44,5730,201,-89,290,-29,111,111,-29,558,94,15,61,251,47,56,251
"1070","362728",37.1754,-118.6351,9,116,42,5517,167,-106,273,-47,83,85,-51,622,104,16,58,274,61,74,266
"1071","281483",36.7236,-118.4454,2,109,41,5320,154,-111,265,-49,45,75,-56,749,125,16,61,336,66,83,331
"1072","1153409",36.72222,-118.80417,55,117,42,5672,215,-59,274,-6,131,133,-6,729,136,8,76,359,29,44,359
"1073","348548",37.5759,-118.9759,14,120,43,5522,174,-102,276,-43,88,90,-46,634,106,17,61,282,57,67,273
"1074","865713",38.85278,-120.139725,37,130,43,6017,209,-89,298,-17,117,119,-28,1159,195,15,69,542,64,69,512
"1075","49304",36.5986,-105.5,7,154,44,6776,188,-160,348,90,-63,95,-77,729,109,43,35,273,137,266,138
"1077","91175",35.748337,-105.789825,50,156,45,6601,230,-114,344,130,-19,137,-32,613,106,33,48,267,102,255,106
"1078","107366",35.18,-106.61,133,170,42,8392,341,-57,398,233,48,243,28,225,42,10,52,102,32,92,32
"1079","108902",35.818,-105.871,70,160,44,7123,258,-105,363,155,-8,163,-20,499,89,26,51,225,80,212,80
"1080","71701",33.419083,-108.591125,55,182,51,6273,238,-113,351,133,82,138,-22,595,112,16,62,292,59,249,124
"1081","247143",40.46,-111.13,17,134,37,7815,217,-144,361,-69,121,121,-76,694,77,36,24,221,121,121,217
"1083","100251123",58.44,-152.77,37,69,30,5705,163,-61,224,41,91,113,-29,1366,149,77,20,415,279,286,376
"1087","2758464",59.48,-155.92,8,85,26,8622,175,-142,317,112,-53,120,-100,598,100,27,46,253,88,211,98
"1088","1621403",57.83,-126.38,-26,117,28,10001,180,-230,410,97,-80,97,-158,465,69,13,38,175,61,175,112
"1089","V231149",49.37361,-121.48333,81,90,32,6482,235,-40,275,3,163,163,-1,1533,231,44,54,686,149,149,621
"1090","V170625",52.366665,-120.2,20,105,30,7868,200,-144,344,-75,18,119,-82,813,89,44,17,249,156,206,238
"1091","V170667",51.966667,-119.88333,-2,95,29,7465,169,-148,317,-91,-9,94,-96,798,90,43,17,246,157,201,235
"1093","ORE17170",44.6016,-121.543,66,136,43,6056,255,-58,313,-2,145,147,-7,917,149,17,59,428,80,81,398
"1094","OSC193805",44.3802,-121.8683,44,115,39,6000,223,-71,294,-20,125,125,-25,1811,308,26,64,870,130,131,809
"1095","OSC182496",45.4405,-123.3914,82,107,46,4486,222,-10,232,34,140,143,30,2426,417,29,68,1181,138,156,1102
"1096","OSC125192",45.2311,-117.2581,-8,141,39,6930,195,-158,353,-81,82,83,-92,769,101,27,34,286,106,125,272
"1098","ORE17173",44.07,-123.6555,102,112,45,4617,248,4,244,51,162,164,47,1731,305,16,69,854,89,98,791
"1099","ORE38347",43.5226,-122.0123,40,134,43,6003,226,-83,309,-23,119,120,-30,1319,227,21,66,644,95,96,594
"1100","OSC184922",45.6191,-117.7247,66,151,41,7119,279,-83,362,-18,154,158,-25,590,77,19,35,221,75,88,206
"1101","WILLU9855",44.6742,-121.7997,22,102,38,5616,183,-82,265,-34,97,100,-40,2041,335,31,61,955,154,156,891
"1102","OSC148327",44.764,-121.7775,36,103,38,5648,198,-70,268,-22,111,113,-28,1999,330,29,62,938,147,151,876
"1103","OSC62039",43.3961,-121.0514,75,162,45,6678,287,-69,356,-1,160,164,-6,278,41,11,39,112,39,51,97
"1104","ORE17174",44.4097,-121.7453,64,139,43,6130,257,-63,320,-5,146,146,-10,990,168,18,63,476,81,81,445
"1105","ORE17166",45.2825,-121.7338,49,96,37,5528,201,-54,255,-9,122,124,-15,2062,337,27,61,956,147,154,903
"1106","WILLU6106",44.257,-121.813,40,119,40,5972,219,-77,296,-23,120,120,-29,1573,266,25,63,752,120,120,699
"1108","OSC185049",42.8021,-118.8669,75,165,44,6905,288,-80,368,-5,162,167,-10,283,32,10,26,88,45,55,76
"1109","ORE17148",44.2136,-121.8881,43,121,40,6008,224,-75,299,-20,124,124,-26,1567,268,25,64,754,117,118,701
"1110","OSC159150",44.0435,-121.8165,30,122,41,5909,210,-87,297,-30,111,111,-37,1425,240,25,62,678,112,112,629
"1111","WILLU25121",45.7783,-118.085,53,127,38,6881,251,-83,334,-25,142,143,-32,772,111,18,46,317,78,91,298
"1112","OSC163452",44.3406,-120.3963,44,152,43,6529,248,-98,346,-30,128,130,-37,509,71,19,39,204,69,79,178
"1113","OSC119434",45.8083,-122.8111,115,111,42,5361,267,5,262,52,184,184,48,1073,176,18,57,491,92,99,455
"1114","OSC181062",45.0757,-119.4722,64,149,43,6486,265,-78,343,-11,147,149,-17,458,57,16,33,166,61,72,147
"1115","ORE111771",45.5156,-122.6592,116,105,41,5380,265,9,256,54,186,186,50,1069,173,18,57,490,91,91,449
"1116","WILLU14570",45.1739,-121.6861,57,101,38,5599,213,-48,261,-3,131,132,-8,1908,311,25,60,884,137,143,835
"1117","ORE66792",44.1075,-122.6758,95,118,44,5153,257,-10,267,37,162,163,33,1741,278,21,61,803,119,122,725
"1118","OSC159026",43.9986,-121.8547,41,128,41,6058,225,-82,307,-23,122,122,-30,1328,227,23,63,639,104,104,593
"1119","WILLU12960",44.9648,-122.3256,68,98,40,5054,215,-26,241,15,135,137,10,2438,398,30,62,1134,163,172,1061
"1120","OSC39487",44.8058,-121.7952,36,103,38,5648,198,-70,268,-22,111,113,-28,1999,330,29,62,938,147,151,876
"1121","ORE17165",45.3186,-117.9433,92,139,39,7201,301,-49,350,9,183,187,2,440,50,15,30,145,60,75,132
"1122","OSC167763",45.3099,-123.4117,88,113,46,4594,235,-8,243,38,147,150,34,2257,398,24,70,1117,118,135,1042
"1123","WILLU22495",44.4573,-121.6438,66,142,44,6130,261,-61,322,-3,146,148,-8,883,147,17,61,419,76,77,392
"1124","OSC62668",43.552,-121.9518,50,145,44,6254,247,-82,329,-18,133,133,-25,1035,180,19,65,508,81,81,468
"1125","OSC178634",43.7862,-122.005,46,132,42,6045,232,-77,309,-18,126,127,-25,1351,233,22,65,657,100,101,608
"1126","ORE17151",43.1789,-122.1378,45,138,44,6014,235,-77,312,-18,124,126,-25,1274,219,18,67,625,85,86,575
"1127","ORE17158",43.4931,-124.2175,111,87,52,2969,202,35,167,81,147,151,76,1651,276,12,69,802,78,83,753
"1128","OSC214827",45.1617,-117.0366,23,149,40,7385,236,-136,372,-60,116,119,-71,628,79,23,31,224,89,108,213
"1129","WILLU31854",45.3042,-121.7536,56,96,37,5475,208,-45,253,-2,129,130,-7,2135,349,27,61,992,148,156,939
"1130","ORE17161",43.9433,-122.0182,60,133,42,6106,248,-64,312,-7,141,141,-13,1363,235,21,65,661,99,99,612
"1131","OSC189147",45.1151,-117.7206,56,147,40,7278,267,-96,363,-29,147,150,-37,463,56,19,28,158,70,88,147
"1132","OSC86064",44.327,-120.3761,40,151,44,6505,242,-101,343,-33,124,126,-40,515,72,19,39,207,69,80,180
"1133","ORE29972",44.2039,-121.9108,43,121,40,6008,224,-75,299,-20,124,124,-26,1567,268,25,64,754,117,118,701
"1134","WILLU13230",43.9756,-121.8017,46,133,42,6144,234,-81,315,-20,127,128,-27,1123,193,21,63,541,92,94,502
"1135","ORE17155",45.5673,-122.5617,116,106,41,5342,266,10,256,55,185,185,50,1149,183,20,55,517,101,107,477
"1136","OSC179774",42.0401,-122.8931,44,131,45,5614,220,-71,291,-13,118,121,-19,1021,173,12,64,486,67,68,445
"1137","OSC158710",45.4361,-122.0091,81,102,40,5344,234,-19,253,22,150,152,17,2300,372,26,63,1074,148,155,1014
"1138","WILLU13855",45.4126,-122.6929,113,111,42,5326,268,6,262,52,183,183,48,1133,186,18,58,524,92,92,480
"1139","WILLU27969",44.4606,-121.64,66,142,44,6130,261,-61,322,-3,146,148,-8,883,147,17,61,419,76,77,392
"1140","OSC159017",43.8897,-121.905,46,134,42,6153,235,-81,316,-20,128,128,-27,1167,201,22,63,564,94,95,524
"1141","ORE37740",44.275,-121.7835,40,119,40,5972,219,-77,296,-23,120,120,-29,1573,266,25,63,752,120,120,699
"1143","OSC178560",45.6002,-123.3305,92,108,45,4676,235,-5,240,40,152,154,36,1969,337,24,67,958,117,132,894
"1144","ORE34026",44.1898,-121.8703,43,121,40,6008,224,-75,299,-20,124,124,-26,1567,268,25,64,754,117,118,701
"1145","OSC30943",44.4922,-121.8994,37,110,38,5857,210,-73,283,-24,116,117,-29,1928,325,28,63,920,139,141,856
"1146","OSC146530",43.9589,-121.8799,41,128,41,6058,225,-82,307,-23,122,122,-30,1328,227,23,63,639,104,104,593
"1147","WILLU14569",42.4762,-120.684,53,150,43,6480,255,-86,341,-17,139,139,-23,476,65,14,39,180,54,68,167
"1148","OSC185050",43.2687,-118.9664,77,160,42,7380,293,-82,375,-11,168,174,-16,257,29,10,27,85,39,48,76
"1149","WILLU6152",44.1251,-122.0829,73,133,42,6107,261,-49,310,5,154,154,0,1507,259,21,65,728,103,103,673
"1150","WILLU10539",45.5581,-118.4932,68,119,36,6939,264,-65,329,-9,159,160,-16,708,104,15,47,293,67,80,274
"1151","OSC189436",42.7984,-118.862,75,165,44,6905,288,-80,368,-5,162,167,-10,283,32,10,26,88,45,55,76
"1152","OSC184299",42.8784,-122.1991,38,125,43,5757,215,-72,287,-18,118,118,-26,1461,247,17,66,705,87,87,652
"1153","ORE17168",44.2406,-121.8658,43,121,40,6008,224,-75,299,-20,124,124,-26,1567,268,25,64,754,117,118,701
"1155","ORE17162",44.2606,-121.8064,40,119,40,5972,219,-77,296,-23,120,120,-29,1573,266,25,63,752,120,120,699
"1156","OSC164597",45.2954,-123.4118,88,113,46,4594,235,-8,243,38,147,150,34,2257,398,24,70,1117,118,135,1042
"1158","WILLU10530",44.4633,-118.7089,72,168,43,7258,296,-91,387,-13,162,168,-20,376,48,14,31,134,56,69,119
"1159","WILLU17095",42.3959,-122.2166,54,139,43,6297,245,-76,321,-14,138,138,-20,783,135,11,62,372,57,57,338
"1160","WILLU11223",45.6283,-122.7944,113,108,41,5389,264,5,259,51,183,183,47,1043,173,17,59,485,87,87,446
"1161","OSC62362",43.523,-121.9915,50,145,44,6254,247,-82,329,-18,133,133,-25,1035,180,19,65,508,81,81,468
"1163","WILLU32477",44.3714,-121.8714,44,115,39,6000,223,-71,294,-20,125,125,-25,1811,308,26,64,870,130,131,809
"1164","OSC185052",45.0724,-119.3749,61,149,43,6500,263,-81,344,-13,144,147,-20,471,59,16,33,172,63,74,152
"1165","ORE16787",45.3431,-121.5744,46,100,37,5735,204,-61,265,-15,122,123,-21,1784,291,25,61,831,131,138,782
"1166","ORE17157",45.2772,-121.6855,49,96,37,5528,201,-54,255,-9,122,124,-15,2062,337,27,61,956,147,154,903
"1167","ORE37080",44.2306,-121.8785,43,121,40,6008,224,-75,299,-20,124,124,-26,1567,268,25,64,754,117,118,701
"1168","OSC45366",44.6533,-121.8465,49,111,39,5817,220,-61,281,-13,126,127,-19,1889,317,26,63,899,133,137,838
"1169","WILLU6314",45.5067,-118.4203,68,119,36,6939,264,-65,329,-9,159,160,-16,708,104,15,47,293,67,80,274
"1170","WILLU31825",45.6274,-122.7143,116,106,41,5430,265,8,257,53,186,187,49,974,160,17,57,448,85,91,411
"1171","118541",54.13889,-119.91333,1,105,31,7963,176,-159,335,101,-50,101,-101,692,82,35,24,235,128,235,156
"1172","3493",49.466667,-114.316666,28,129,34,7854,224,-147,371,67,-17,127,-72,639,79,39,20,202,137,177,151
"1173","116290",54.51667,-128.4667,50,78,27,7178,208,-80,288,1,122,142,-42,1225,188,50,46,504,157,174,419
"1174","100075",49.094444,-113.861664,33,133,36,7813,233,-136,369,112,-14,134,-67,572,78,34,26,191,115,172,122
"1177","53436",48.8167,-121.6,41,88,33,5947,189,-70,259,-25,118,119,-30,1627,251,47,53,726,165,184,665
"1179","3447",54.991665,-114.37666,7,121,25,11695,221,-249,470,144,-55,144,-154,501,93,20,62,252,62,252,76
"1180","3448",49.009445,-114.05055,5,127,35,7528,200,-158,358,38,66,103,-88,685,84,42,19,212,153,183,170
"1182","3409",53.8833,-123.5667,25,129,33,8814,221,-167,388,133,-20,133,-94,534,58,22,24,168,84,168,135
"1183","39017",49.398056,-114.57139,7,126,34,7661,202,-161,363,42,101,105,-88,727,83,46,17,214,155,182,195
"1184","78499",49.35,-114.8667,8,125,34,7678,204,-159,363,-79,102,106,-88,775,83,45,19,237,151,178,229
"1185","109590",59.204445,-110.17778,-26,109,20,14442,221,-304,525,149,-197,149,-222,365,59,14,44,151,50,151,54
"1186","106837",52.88333,-116.9333,-3,123,33,8348,188,-182,370,100,-54,100,-113,569,94,21,52,256,81,256,86
"1188","3410",54.05,-125.75,24,114,30,8482,201,-169,370,-79,24,126,-92,470,53,20,26,153,74,133,136
"1189","38318",48.7833,-121.9,19,84,33,5793,162,-89,251,-43,94,96,-48,1619,248,49,51,710,176,188,658
"1191","CONN00094494",47.36027,-113.84861,7,134,37,7381,212,-144,356,-73,101,105,-82,712,79,39,20,220,138,159,211
"1192","dbsn62200",32.70833,-109.975,97,152,47,6263,267,-53,320,172,125,180,20,646,118,12,59,294,55,253,161
"1193","dbsn140561",34.33944,-110.95167,77,151,43,6942,262,-83,345,164,104,169,-8,645,96,13,45,248,61,203,174
"1194","dbsn140557",32.6534,-109.8645,111,160,48,6435,286,-45,331,189,141,196,32,554,105,10,61,261,46,224,133
"1195","dbsn140559",34.3584,-110.8893,80,154,44,7011,266,-83,349,168,108,173,-6,611,93,13,46,240,58,197,160
"1196","dbsn140556",32.7489,-109.8803,82,149,47,6079,248,-64,312,155,108,162,8,714,130,14,57,322,63,278,178
"1197","dbsn140562",31.9057,-109.2798,94,155,49,5881,262,-54,316,162,124,171,21,652,137,12,66,325,59,286,145
"1198","dbsn140555",32.694,-109.8769,82,149,47,6079,248,-64,312,155,108,162,8,714,130,14,57,322,63,278,178
"1199","dbsn140558",34.30514,-110.85656,84,157,44,6947,270,-80,350,171,111,176,-1,627,95,12,46,243,57,198,169
"1201","dbsn172602",32.65335,-109.86473,111,160,48,6435,286,-45,331,189,141,196,32,554,105,10,61,261,46,224,133
"1202","dbsn140560",33.9734,-109.7105,61,161,47,6440,240,-98,338,141,88,146,-18,692,110,19,49,289,69,242,170
"1203","dbsn186474",32.38917,-110.70943,131,136,44,6320,292,-11,303,206,161,214,54,613,110,9,59,275,44,233,162
"1204","dbsn11001",34.41667,-110.50028,96,177,46,7302,295,-85,380,187,126,192,5,457,76,10,50,196,43,158,108
"1205","105142",51.131943,-115.77556,-24,113,31,7786,163,-194,357,52,-78,75,-121,647,83,39,23,211,129,204,149
"1207","38514",52.66722,-118.05666,-16,105,31,7905,162,-173,335,84,-65,84,-118,623,77,33,27,218,109,218,141
"1209","CAN 24591",56.033,-123.55,-6,105,27,9477,187,-192,379,112,-62,112,-131,579,74,23,27,198,97,198,139
"1211","CAN 470283",48.467,-83.467,11,129,26,11715,239,-239,478,140,-73,153,-149,776,91,40,23,250,134,238,152
"1214","QFA0240922",47.795277,-61.43667,45,63,20,8098,198,-105,303,23,113,151,-56,1024,113,69,17,320,216,237,246
"1216","QFA0240925",51.730556,-67.57167,-31,105,22,11891,188,-270,458,105,-174,118,-192,1052,126,53,25,352,187,341,204
"1217","257357",39.4502,-123.7358,114,117,57,3087,229,26,203,75,152,154,75,1147,212,3,82,582,21,34,582
"1218","240785",56.9397,-154.3265,41,63,29,5419,158,-56,214,49,-3,114,-22,1129,126,71,20,354,228,295,293
"1219","162640",58.353615,-152.67793,31,68,30,5558,156,-64,220,35,83,106,-32,1387,149,79,19,416,286,294,383
"1221","141201",61.769444,-149.30833,-31,88,27,8355,146,-173,319,71,-45,82,-127,543,77,22,40,222,77,200,107
"1222","248477",58.30611,-134.1339,34,73,28,6220,165,-94,259,39,68,112,-48,2061,315,105,34,767,333,409,517
"1225","S05-8782",59.466667,-134.75,-32,101,28,8483,150,-202,352,33,-41,76,-142,508,55,20,26,163,76,142,136
"1227","JEPS102685",39.5121,-120.5027,60,144,44,6285,248,-76,324,-2,143,144,-12,1177,203,10,72,562,52,56,556
"1228","JEPS83819",39.37813,-122.75504,88,140,48,5405,264,-25,289,38,160,162,32,1309,238,4,81,667,28,42,615
"1229","JEPS75126",39.36281,-122.744,99,145,47,5674,282,-21,303,44,175,176,38,1181,219,3,82,606,24,37,593
"1232","52634",46.98312,-80.0681,32,108,24,11321,243,-199,442,158,-52,170,-122,861,97,50,19,267,164,256,174
"1233","129219",47.19898,-80.24792,27,113,25,11495,242,-210,452,154,-58,167,-129,838,95,49,20,262,159,253,167
"1234","129218",46.841347,-80.05737,33,107,24,11288,243,-196,439,159,-51,171,-120,872,98,51,19,269,167,257,178
"1235","MT00177760",47.85,-68.333336,16,105,25,10533,221,-193,414,134,-64,147,-127,1059,106,71,13,309,217,301,246
"1236","MT00178264",46.333332,-74.5,27,107,25,10854,231,-194,425,160,-52,160,-121,1111,108,71,14,319,222,319,255
"1240","MT00178275",52.983334,-66.25,-38,109,23,12259,188,-282,470,102,-128,114,-205,837,110,38,31,300,133,294,156
"1241","7541",40.433334,-111.6,44,139,37,7987,253,-119,372,-42,151,151,-53,765,88,35,31,255,111,111,251
"1242","7605",37.461945,-112.319725,41,162,42,7507,246,-133,379,136,69,139,-52,445,57,18,26,141,73,121,116
"1243","7880",40.466667,-111.13333,17,134,37,7815,217,-144,361,-69,121,121,-76,694,77,36,24,221,121,121,217
"1244","7897",40.916943,-110.818886,24,143,38,8066,234,-142,376,3,131,131,-73,473,46,32,10,130,100,100,125
"1245","9841",40.519722,-111.654724,23,128,36,7632,220,-128,348,-60,125,125,-66,898,108,41,33,308,129,129,302
"1246","28618",46.265556,-121.626945,49,98,36,5870,207,-58,265,-15,126,128,-20,2087,348,29,65,1010,143,159,943
"1247","5884",46.9519,-121.57882,38,84,34,5716,183,-63,246,-24,112,115,-28,2333,374,41,60,1089,184,201,1011
"1248","7308",48.995556,-121.06778,51,104,34,6978,221,-82,303,-31,140,140,-38,1105,178,35,55,513,117,117,464
"1249","28597",47.423332,-121.44055,42,77,31,5784,183,-58,241,-21,117,120,-26,2326,372,44,58,1068,196,211,990
"1250","28537",47.80111,-121.050835,35,90,32,6438,195,-80,275,-38,119,120,-42,1777,304,32,64,872,140,152,803
"1251","28539",46.12,-121.81333,54,99,37,5723,212,-51,263,-8,130,131,-13,2269,377,30,65,1094,151,168,1025
"1252","28536",47.743332,-121.084724,35,86,32,6268,190,-75,265,-35,117,118,-39,1925,325,35,63,932,153,166,860
"1253","51028",43.003334,-116.72853,46,160,41,7545,269,-116,385,-37,143,147,-46,442,54,15,34,160,57,71,150
"1254","50965",44.50472,-114.23083,62,160,37,8869,298,-126,424,151,-30,175,-53,232,34,11,34,86,40,74,46
"1255","28596",47.426388,-121.40667,42,79,31,5919,186,-61,247,-24,118,121,-28,2221,360,41,59,1031,184,199,957
"1256","7302",45.725555,-121.50833,104,119,40,6360,276,-19,295,30,186,186,24,948,171,9,72,489,50,50,459
"1257","50955",43.484085,-115.45086,36,165,39,8346,269,-144,413,-56,139,144,-71,518,77,17,44,215,62,72,207
"1258","28635",47.111946,-122.44055,102,102,42,4917,241,0,241,47,166,166,43,1034,164,22,56,475,94,94,423
"1259","28700",47.07139,-124.16944,99,84,46,3620,199,17,182,59,143,146,54,2359,359,50,56,1025,183,224,967
"1260","51006",44.75417,-116.28306,27,155,40,7644,247,-138,385,-58,122,127,-70,685,92,21,36,257,88,104,248
"1262","28634",48.05389,-122.16944,103,91,41,4594,229,10,219,51,163,163,47,990,134,32,40,390,126,126,352
"1263","27015",44.407333,-120.262665,49,155,44,6627,256,-96,352,-27,134,136,-33,472,66,18,37,187,65,76,162
"1266","28612",47.301945,-120.7625,45,104,34,6970,220,-85,305,-36,135,135,-41,1054,183,19,63,516,90,90,476
"1267","28563",48.43,-120.46597,8,107,33,7267,188,-132,320,-76,101,101,-82,814,128,31,47,355,110,113,328
"1268","7333",48.705833,-121.83028,45,86,34,5704,188,-61,249,-19,118,120,-24,1733,266,49,52,769,174,193,706
"1269","28566",48.023888,-121.694725,67,88,36,5346,207,-31,238,7,136,137,3,2105,311,51,51,915,201,219,839
"1270","33348",47.412224,-121.931946,96,100,42,4878,235,0,235,40,159,159,37,1719,245,45,45,704,191,191,648
"1271","51125",44.21139,-114.945,16,180,41,8449,251,-180,431,-82,116,122,-96,457,60,22,29,162,76,88,159
"1272","28567",48.053055,-121.7625,68,87,37,5212,205,-29,234,10,135,137,6,2049,299,51,50,880,202,218,807
"1273","50865",58.425,-134.53473,23,77,28,6375,162,-104,266,28,54,105,-58,1382,197,69,32,497,227,309,339
"1274","7320",47.098057,-123.4575,101,105,44,4746,241,5,236,47,163,163,44,2145,345,36,62,994,143,172,939
"1276","33321",48.504177,-120.7339,10,104,33,7084,185,-126,311,-71,101,101,-78,953,152,33,50,426,121,121,392
"1277","51032",46.630733,-115.652855,44,147,40,7324,259,-108,367,-39,136,140,-47,867,113,31,32,311,122,137,297
"1280","50861",58.41861,-134.55333,23,77,28,6375,162,-104,266,28,54,105,-58,1382,197,69,32,497,227,309,339
"1281","7299",47.29111,-123.98278,93,92,44,4232,213,5,208,46,146,149,42,3057,492,58,60,1373,213,259,1310
"1284","28540",47.1125,-124.16944,98,85,45,3696,201,15,186,57,143,146,52,2510,384,53,56,1092,192,236,1033
"1287","28616",45.823055,-121.94889,85,106,39,5646,244,-22,266,22,158,159,16,2459,429,23,69,1211,132,148,1147
"1288","51029",46.12889,-115.17944,24,158,41,7373,242,-139,381,-59,116,120,-68,680,80,32,23,215,117,136,207
"1289","28556",47.93111,-123.84722,60,86,40,4569,190,-25,215,12,119,122,9,2577,422,51,61,1186,185,217,1114
"1290","180495",47.095554,-120.992226,51,104,35,6775,222,-75,297,-27,139,139,-32,1094,189,19,63,534,90,90,494
"1291","7304",46.319443,-122.050835,59,97,38,5437,210,-41,251,0,130,132,-4,2574,418,36,63,1220,178,197,1139
"1292","28610",47.65361,-121.06778,29,85,31,6377,185,-84,269,-42,112,114,-47,1810,305,33,62,873,147,157,806
"1293","7318",45.72972,-121.525276,104,119,40,6360,276,-19,295,30,186,186,24,948,171,9,72,489,50,50,459
"1294","7319",46.41,-121.389725,37,94,35,5999,193,-72,265,-28,116,118,-33,1870,310,29,64,901,136,148,840
"1295","76137",46.830833,-119.944725,110,129,35,8337,315,-50,365,8,211,218,3,176,29,5,45,75,23,25,66
"1296","177641",58.383335,-134.63333,48,70,28,6100,178,-70,248,93,80,126,-30,1546,225,77,34,579,264,363,353
"1298","28594",46.735962,-120.789185,76,131,38,7263,269,-68,337,-11,166,170,-16,379,64,8,60,183,35,41,169
"1300","51132",43.809834,-115.721794,38,165,40,8140,269,-137,406,-54,138,143,-67,586,86,17,45,241,68,78,233
"1302","189151",44.20662,-118.6418,36,164,42,7289,255,-131,386,-48,127,131,-57,441,60,17,34,166,64,76,151
"1303","51038",48.72069,-116.80302,47,116,33,7678,247,-96,343,-42,142,147,-48,814,109,34,36,318,117,136,288
"1309","51041",45.70555,-115.58397,18,161,42,7291,233,-149,382,-64,109,113,-73,765,95,32,27,255,119,141,246
"1313","28153",47.42472,-121.86417,83,89,39,4870,216,-8,224,29,147,147,25,2184,300,55,46,893,233,233,816
"1315","50956",46.08229,-115.42532,47,156,41,7437,265,-114,379,-39,139,145,-46,720,83,31,25,227,114,135,216
"1319","28714",47.36222,-121.64389,61,87,36,5421,203,-36,239,1,131,133,-4,2305,344,49,53,1013,213,223,934
"1320","28548",46.869446,-121.525276,35,83,33,5717,179,-67,246,-27,109,112,-31,2379,382,40,60,1115,184,201,1036
"1326","28559",48.865,-120.73539,10,106,33,7196,187,-129,316,-73,102,103,-79,781,119,34,43,331,117,118,305
"1328","7314",48.051666,-123.83028,65,86,39,4622,196,-21,217,16,125,128,12,2279,376,45,62,1060,162,191,991
"1345","28583",47.60889,-120.728615,62,124,36,7417,255,-82,337,-27,157,157,-32,882,163,15,70,459,69,69,422
"1349","50870",48.860996,-116.15818,44,122,34,7782,248,-105,353,-47,140,146,-53,794,104,35,33,304,123,140,271
"1357","CONN00094740",44.27055,-71.30472,8,96,26,9247,182,-178,360,-34,-105,124,-114,1703,171,124,9,463,386,442,404
"1359","CONN00094727",44.54861,-72.81083,36,103,26,9897,228,-162,390,159,-85,159,-97,1270,138,70,18,382,237,382,253
"1361","OSC226161",44.4073,-120.2626,49,155,44,6627,256,-96,352,-27,134,136,-33,472,66,18,37,187,65,76,162
"1362","ORE17582",44.0342,-121.811,30,122,41,5909,210,-87,297,-30,111,111,-37,1425,240,25,62,678,112,112,629
"1363","OSC178832",44.2262,-121.8063,25,115,40,5814,199,-87,286,-33,105,105,-40,1634,273,27,62,774,127,127,719
"1364","ORE17042",43.8815,-124.113,112,96,52,3356,214,30,184,75,152,156,71,1882,310,18,66,890,103,106,836
"1365","OSC178043",44.0789,-124.1153,112,95,51,3381,214,29,185,74,152,156,70,1990,328,20,66,940,112,115,882
"1366","ORE17149",42.844,-122.1472,34,124,43,5751,210,-75,285,-21,114,114,-29,1461,245,18,66,700,89,89,649
"1367","OSC184885",42.0204,-123.4603,70,138,47,5343,246,-43,289,13,141,142,9,1113,197,9,71,557,55,64,511
"1368","OSC206566",45.2596,-118.4182,64,132,38,6970,265,-77,342,-14,154,156,-22,635,91,16,43,255,68,82,237
"1369","OSC184267",44.284,-118.6797,11,152,41,6868,218,-145,363,-65,98,101,-75,578,80,21,36,222,79,92,205
"1370","OSC70158",44.695,-122.3203,73,104,40,5266,228,-26,254,17,142,144,12,2333,386,27,63,1099,149,157,1024
"1372","WILLU7075",42.4394,-122.295,40,129,43,5930,220,-78,298,-20,121,121,-27,1041,176,14,63,494,72,72,452
"1374","OSC194497",46.1049,-123.9306,105,86,48,3488,201,23,178,68,148,151,63,1941,299,36,59,874,149,161,823
"1375","ORE17167",42.8434,-122.1557,34,124,43,5751,210,-75,285,-21,114,114,-29,1461,245,18,66,700,89,89,649
"1376","OSC184317",42.9797,-122.2976,55,139,44,6035,245,-67,312,-9,134,136,-15,1200,207,15,66,588,76,77,537
"1377","OSC184887",42.0931,-123.4011,70,139,47,5438,249,-44,293,12,142,144,8,1045,185,9,70,521,55,63,476
"1378","OSC136919",44.2044,-122.13,72,127,42,5961,254,-45,299,5,151,151,0,1776,301,23,64,852,117,117,786
"1399","V14172",48.75,-86.25,13,106,25,10492,199,-215,414,99,-66,136,-131,830,96,47,20,255,156,245,166
"1400","V143674",50.283333,-126.566666,58,64,36,3994,161,-13,174,16,110,112,13,1950,272,63,48,796,218,249,719
"1403","48616",50.567,-96.217,21,105,21,13039,250,-235,485,178,-136,178,-158,512,80,17,50,220,63,220,65
"1405","dbsn140557",32.6534,-109.8645,111,160,48,6435,286,-45,331,189,141,196,32,554,105,10,61,261,46,224,133
"1406","dbsn172602",32.65335,-109.86473,111,160,48,6435,286,-45,331,189,141,196,32,554,105,10,61,261,46,224,133
"1407","dbsn140559",34.3584,-110.8893,80,154,44,7011,266,-83,349,168,108,173,-6,611,93,13,46,240,58,197,160
"1408","dbsn140558",34.30514,-110.85656,84,157,44,6947,270,-80,350,171,111,176,-1,627,95,12,46,243,57,198,169
"1409","dbsn140556",32.7489,-109.8803,82,149,47,6079,248,-64,312,155,108,162,8,714,130,14,57,322,63,278,178
"1410","dbsn140555",32.694,-109.8769,82,149,47,6079,248,-64,312,155,108,162,8,714,130,14,57,322,63,278,178
"1412","dbsn140562",31.9057,-109.2798,94,155,49,5881,262,-54,316,162,124,171,21,652,137,12,66,325,59,286,145
"1413","dbsn140560",33.9734,-109.7105,61,161,47,6440,240,-98,338,141,88,146,-18,692,110,19,49,289,69,242,170
"1414","OSC55992",44.4922,-121.8994,37,110,38,5857,210,-73,283,-24,116,117,-29,1928,325,28,63,920,139,141,856
"1415","OSC125192",45.2311,-117.2581,-8,141,39,6930,195,-158,353,-81,82,83,-92,769,101,27,34,286,106,125,272
"1416","OSC167772",45.3099,-123.4117,88,113,46,4594,235,-8,243,38,147,150,34,2257,398,24,70,1117,118,135,1042
"1417","OSC146530",43.9589,-121.8799,41,128,41,6058,225,-82,307,-23,122,122,-30,1328,227,23,63,639,104,104,593
"1418","OSC214827",45.1617,-117.0366,23,149,40,7385,236,-136,372,-60,116,119,-71,628,79,23,31,224,89,108,213
"1420","OSC189436",42.7984,-118.862,75,165,44,6905,288,-80,368,-5,162,167,-10,283,32,10,26,88,45,55,76
"1421","OSC182496",45.4405,-123.3914,82,107,46,4486,222,-10,232,34,140,143,30,2426,417,29,68,1181,138,156,1102
"1422","ORE17173",44.07,-123.6555,102,112,45,4617,248,4,244,51,162,164,47,1731,305,16,69,854,89,98,791
"1423","WILLU6152",44.1251,-122.0829,73,133,42,6107,261,-49,310,5,154,154,0,1507,259,21,65,728,103,103,673
"1424","ORE17161",43.9433,-122.0182,60,133,42,6106,248,-64,312,-7,141,141,-13,1363,235,21,65,661,99,99,612
"1425","WILLU9855",44.6742,-121.7997,22,102,38,5616,183,-82,265,-34,97,100,-40,2041,335,31,61,955,154,156,891
"1426","WILLU1656",45.3186,-117.9433,92,139,39,7201,301,-49,350,9,183,187,2,440,50,15,30,145,60,75,132
"1427","OSC159150",44.0435,-121.8165,30,122,41,5909,210,-87,297,-30,111,111,-37,1425,240,25,62,678,112,112,629
"1430","OSC178560",45.6002,-123.3305,92,108,45,4676,235,-5,240,40,152,154,36,1969,337,24,67,958,117,132,894
"1431","ORE17168",44.2406,-121.8658,43,121,40,6008,224,-75,299,-20,124,124,-26,1567,268,25,64,754,117,118,701
"1432","WILLU10393",44.257,-121.813,40,119,40,5972,219,-77,296,-23,120,120,-29,1573,266,25,63,752,120,120,699
"1435","OSC148327",44.764,-121.7775,36,103,38,5648,198,-70,268,-22,111,113,-28,1999,330,29,62,938,147,151,876
"1436","WILLU31854",45.3042,-121.7536,56,96,37,5475,208,-45,253,-2,129,130,-7,2135,349,27,61,992,148,156,939
"1437","109587",59.204445,-110.17778,-26,109,20,14442,221,-304,525,149,-197,149,-222,365,59,14,44,151,50,151,54
"1439","50867",44.08361,-115.61972,44,169,41,8124,279,-131,410,-50,142,148,-62,529,74,19,37,205,72,82,196
"1441","28614",46.197224,-121.49139,-4,83,34,5528,139,-102,241,-57,68,73,-63,2322,372,41,60,1075,184,194,1007
"1442","28619",45.801945,-121.915,91,108,39,5840,253,-21,274,24,166,166,19,2269,404,20,71,1133,115,115,1075
"1443","50872",48.89222,-116.32806,49,120,34,7757,251,-99,350,-42,144,150,-48,784,103,34,34,303,120,136,269
"1446","28584",47.918335,-124.389725,93,97,45,4229,219,4,215,46,146,148,42,2934,454,61,58,1289,212,252,1233
"1447","28570",47.497776,-120.88111,14,86,31,6459,171,-102,273,-57,98,100,-62,1587,262,32,59,747,141,145,692
"1448","187035",43.173332,-122.136665,45,138,44,6014,235,-77,312,-18,124,126,-25,1274,219,18,67,625,85,86,575
"1453","7330",48.318333,-121.81333,75,92,38,5327,216,-26,242,15,144,145,11,1913,285,48,52,837,180,202,764
"1461","P00306228",56.03333,-123.55,-6,105,27,9477,187,-192,379,112,-62,112,-131,579,74,23,27,198,97,198,139
"1462","3739",48.566666,-120.855,12,101,33,6911,182,-119,301,-67,101,101,-73,1093,176,35,52,496,128,133,457
"1464","28557",48.064167,-123.84722,67,87,39,4603,199,-19,218,18,127,130,14,2386,392,47,62,1104,169,201,1034
"1465","50876",43.97944,-114.87583,4,173,41,8157,232,-184,416,-88,103,107,-102,512,66,24,30,181,83,97,180
"1467","28553",47.88361,-123.33889,27,77,37,4654,152,-55,207,-17,88,92,-21,2585,413,56,58,1172,210,233,1099
"1469","50864",43.484108,-115.43089,36,165,39,8346,269,-144,413,-56,139,144,-71,518,77,17,44,215,62,72,207
"1470","51036",48.56735,-116.92168,61,122,34,7811,267,-83,350,-31,155,162,-37,773,106,31,38,307,105,124,277
"1472","28558",46.416668,-121.46597,33,90,34,5849,185,-73,258,-29,110,113,-34,2096,344,33,63,1002,153,168,934
"1475","51037",42.986202,-116.77425,46,162,41,7513,270,-117,387,-36,142,146,-46,436,53,15,33,156,57,71,146
"1478","142251",56.786583,-158.13443,17,63,27,6022,137,-96,233,70,-36,97,-54,532,69,26,34,201,87,190,100
"1479","74848",59.46,-138.04,16,91,30,7334,169,-132,301,22,90,109,-79,1685,248,75,35,620,265,296,461
"1480","240786",56.9397,-154.3265,41,63,29,5419,158,-56,214,49,-3,114,-22,1129,126,71,20,354,228,295,293
