"","catalogNumber","lat","lon","bio1","bio2","bio3","bio4","bio5","bio6","bio7","bio8","bio9","bio10","bio11","bio12","bio13","bio14","bio15","bio16","bio17","bio18","bio19"
"1","YPM CBS 008708",41.4853,-72.2664,96,108,30,8518,273,-78,351,57,204,204,-16,1242,120,93,8,335,289,289,308
"2","YPM CBS 007492",41.9694,-72.0221,82,120,31,8937,271,-106,377,39,-25,195,-37,1235,117,90,6,331,292,300,299
"3","YPM CBS 008709",41.6922,-72.5472,93,114,31,8838,280,-86,366,81,-13,205,-24,1202,111,85,6,314,279,295,282
"5","YPM CBS 006813",41.7908,-72.8539,93,118,31,9046,284,-93,377,139,-16,207,-28,1217,111,86,7,321,279,301,283
"6","3569958",39.04,-90.93,122,128,32,9415,317,-79,396,217,-7,238,-7,961,108,42,24,301,157,277,157
"8","2710643",38.64,-90.28,131,118,30,9414,320,-65,385,227,4,248,4,968,102,50,19,292,179,269,179
"9","1899314",37.91,-90.99,125,138,35,8802,316,-74,390,125,5,234,5,1067,114,53,19,317,196,283,196
"10","3292497",37.82,-94.29,130,131,32,9349,325,-75,400,182,3,246,3,1083,137,38,33,364,141,324,141
"11","2710732",38.75,-93.6,124,121,30,9602,316,-80,396,221,-6,242,-6,1017,130,36,37,356,121,327,121
"12","3548089",36.66,-91.91,131,140,35,8670,322,-67,389,131,14,239,14,1131,119,62,17,343,234,267,234
"14","3569281",37.77,-90.49,124,131,34,8904,313,-69,382,124,4,236,4,1099,117,61,18,329,212,288,212
"15","2711521",36.99,-91.58,130,139,35,8713,321,-69,390,131,12,238,12,1126,120,58,18,342,225,277,225
"16","3507067",36.66,-93.3,135,141,36,8595,324,-64,388,182,18,242,18,1098,121,51,21,338,194,285,194
"17","3522057",37.01,-90.76,131,141,35,8868,325,-71,396,132,10,241,10,1163,119,70,17,345,258,284,258
"18","2711205",38.27,-92.48,129,130,32,9254,323,-75,398,181,3,244,3,1021,126,39,27,329,152,284,152
"20","3293534",38.58,-77.77,129,128,35,8352,308,-52,360,234,17,234,17,1047,101,72,11,291,222,291,222
"22","2710515",39.16,-94.39,124,117,29,9728,316,-79,395,223,-7,244,-7,971,126,32,42,357,103,334,103
"26","2712239",38.29,-90.57,124,134,33,9216,317,-79,396,124,-2,238,-2,1007,108,53,18,299,191,265,191
"29","2711510",38.57,-90.4,128,122,31,9374,318,-70,388,224,1,245,1,989,104,51,18,293,185,270,185
"31","263664",38.93,-91.95,119,121,30,9636,314,-83,397,216,-12,238,-12,983,119,39,28,324,145,292,145
"33","3545385",37.51,-91.31,130,134,35,8602,316,-66,382,130,12,236,12,1081,115,52,20,325,191,285,191
"35","2711759",37.93,-91.98,129,133,33,9025,321,-72,393,180,7,241,7,1048,124,47,22,322,177,287,177
"36","262141",38.93,-91.71,119,125,31,9599,316,-84,400,216,-12,238,-12,991,118,42,26,321,155,291,155
"38","3293599",38.43,-91.35,124,134,33,9213,319,-79,398,176,-2,238,-2,1005,117,45,23,312,169,278,169
"40","3529586",37.73,-92.05,128,138,34,8908,320,-75,395,179,7,239,7,1071,121,50,20,322,189,285,189
"41","2711790",38.73,-93.3,121,123,30,9634,316,-83,399,219,-10,240,-10,1019,124,36,34,348,128,316,128
"43","2711363",42.66,-77.05,81,113,30,9074,272,-96,368,195,-30,195,-38,832,91,43,21,252,143,252,146
"44","R. J. O'Kennon 19979",33.3691,-97.5388,176,134,36,8040,355,-12,367,219,68,276,68,877,125,40,35,297,134,200,134
"45","315766",40.1155,-97.0602,108,134,31,10286,320,-107,427,214,-30,237,-30,773,109,15,53,311,58,305,58
"46","342441",37.77,-95.9244,133,131,32,9576,331,-78,409,228,2,251,2,952,134,26,43,348,93,327,93
"47","359816",37.1744,-97.1964,141,131,32,9579,342,-64,406,237,13,261,13,830,114,23,42,311,85,284,85
"48","49864",37.7221,-94.9357,136,124,31,9456,331,-67,398,188,8,254,8,1063,140,36,37,366,124,333,124
"49","102836",37.6581,-96.5779,131,130,32,9356,328,-72,400,225,6,248,6,915,130,24,43,342,90,317,90
"50","49831",38.3047,-95.4735,130,126,31,9616,327,-77,404,227,-1,249,-1,975,144,28,43,357,96,340,96
"51","49885",39.3911,-97.4045,124,132,31,10042,334,-87,421,226,-10,250,-10,772,117,16,53,324,59,302,59
"52","50102",39.125,-97.5923,127,134,31,10029,338,-84,422,228,-6,254,-6,741,111,17,53,316,60,287,60
"54","49884",38.7832,-97.6488,130,130,31,10043,339,-78,417,232,-2,258,-2,746,111,19,49,310,70,277,70
"55","322621",38.6533,-95.8403,126,126,31,9695,325,-81,406,224,-5,246,-5,929,139,26,45,354,88,328,88
"56","49839",37.7961,-95.8441,133,130,31,9542,331,-76,407,228,3,251,3,970,135,28,42,352,97,331,97
"57","317787",40.1496,-96.2482,111,130,30,10248,321,-103,424,217,-26,240,-26,831,116,19,50,328,68,325,68
"58","345333",38.6556,-97.8722,124,136,32,9991,335,-89,424,225,-9,250,-9,717,107,14,51,296,56,274,56
"59","49886",38.7095,-95.2138,128,121,30,9599,322,-75,397,225,-1,247,-1,971,144,30,44,362,97,341,97
"60","342396",37.8144,-95.7428,135,128,32,9398,331,-69,400,229,7,251,7,997,138,30,41,358,101,338,101
"61","50094",37.0987,-94.704,141,124,32,8858,327,-49,376,190,24,253,24,1079,131,40,32,358,147,307,147
"62","341985",37.4531,-96.0083,137,135,33,9319,334,-69,403,230,11,253,11,960,133,28,41,347,99,307,99
"63","109387",38.9188,-94.975,128,117,29,9643,321,-72,393,227,-1,248,-1,961,139,29,44,361,94,340,94
"64","49856",38.5278,-98.036,123,137,32,9973,335,-90,425,224,-10,249,-10,708,106,13,51,292,54,275,54
"65","331588",38.2772,-95.4911,130,126,31,9616,327,-77,404,227,-1,249,-1,975,144,28,43,357,96,340,96
"66","326804",38.1047,-96.1472,129,131,32,9642,329,-80,409,226,-1,249,-1,934,144,25,46,357,88,343,88
"67","326364",38.9431,-95.0381,128,118,29,9642,322,-72,394,227,-1,248,-1,960,140,28,45,362,93,340,93
"69","49841",39.3706,-97.4309,123,131,31,10050,333,-87,420,225,-11,250,-11,767,116,16,54,324,59,301,59
"70","49858",37.856,-95.4717,137,124,31,9440,331,-66,397,232,9,254,9,1004,139,31,41,357,101,341,101
"71","49881",39.5198,-95.3126,120,124,30,9914,320,-88,408,222,-14,243,-14,936,133,24,48,362,84,344,84
"72","348393",37.36,-94.8292,138,123,31,9166,328,-58,386,189,15,253,15,1083,135,38,34,368,136,318,136
"73","49840",37.8647,-95.7479,135,128,32,9391,331,-69,400,229,7,251,7,1004,141,30,41,361,101,344,101
"75","102837",37.833,-95.9882,133,131,32,9576,331,-78,409,228,2,251,2,952,134,26,43,348,93,327,93
"76","343366",38.2539,-94.7458,130,127,31,9618,327,-79,406,184,-1,248,-1,1029,144,34,39,361,114,336,114
"77","356252",38.1718,-95.2591,132,124,31,9518,327,-73,400,227,2,249,2,1009,144,31,41,358,105,344,105
"78","49862",38.5409,-96.0513,125,127,31,9720,325,-83,408,223,-6,246,-6,920,142,25,47,357,84,332,84
"79","49888",38.0537,-95.7388,132,128,31,9552,329,-75,404,227,1,250,1,989,145,28,43,362,96,347,96
"80","49860",37.5087,-95.0064,137,124,31,9401,331,-66,397,189,10,254,10,1062,136,36,36,365,125,323,125
"81","317077",38.1924,-95.2652,132,124,31,9518,327,-73,400,227,2,249,2,1009,144,31,41,358,105,344,105
"82","326622",38.5628,-94.8481,129,124,30,9601,325,-76,401,226,-2,247,-2,1003,148,32,42,361,106,340,106
"83","49832",38.8031,-95.1861,126,118,29,9597,319,-75,394,224,-2,246,-2,970,145,29,45,365,94,344,94
"84","50095",38.5329,-95.8662,127,128,31,9703,326,-82,408,224,-5,247,-5,933,143,26,46,358,87,333,87
"85","49825",38.5668,-95.3184,129,124,31,9611,324,-76,400,226,-1,248,-1,975,143,30,43,359,98,338,98
"86","50101",37.6538,-96.0954,134,134,32,9471,332,-76,408,228,5,251,5,935,128,26,43,343,92,312,92
"87","362374",37.6186,-97.8135,137,131,31,9778,345,-68,413,236,7,261,7,751,109,17,46,292,67,271,67
"89","366747",38.991,-94.7993,126,114,29,9640,317,-72,389,225,-3,246,-3,967,137,29,45,363,95,340,95
"90","341728",38.905,-95.4947,126,119,29,9718,321,-78,399,225,-4,247,-4,931,141,26,45,355,89,335,89
"91","50091",37.7315,-95.6972,137,129,32,9414,333,-69,402,231,9,253,9,986,134,30,41,355,101,331,101
"92","49828",37.0382,-94.7405,142,126,33,8769,328,-49,377,190,25,252,25,1082,130,42,30,354,151,303,151
"93","49879",38.5997,-94.9982,127,121,30,9596,322,-75,397,225,-2,246,-2,992,147,32,43,362,101,342,101
"94","49887",38.5499,-95.2476,129,124,31,9577,324,-75,399,226,0,248,0,981,144,31,43,359,100,339,100
"95","374106",39.0689,-94.8507,128,116,29,9660,321,-71,392,227,-1,248,-1,961,135,28,44,360,94,338,94
"96","49857",37.8579,-95.1529,134,123,30,9446,328,-69,397,186,6,251,6,1042,141,35,38,360,115,339,115
"97","49873",38.957,-95.2502,127,117,29,9668,320,-75,395,225,-2,247,-2,959,144,27,45,367,92,345,92
"98","326434",38.1042,-95.025,132,124,30,9540,327,-74,401,185,2,250,2,1033,144,35,39,360,112,342,112
"99","345238",38.7075,-97.8678,125,136,32,10021,337,-88,425,226,-8,252,-8,718,107,14,51,299,57,274,57
"100","311392",37.623,-95.9838,134,133,32,9472,332,-75,407,229,5,252,5,957,130,27,42,348,96,318,96
"101","49829",38.4202,-94.7908,129,124,30,9609,325,-78,403,183,-2,247,-2,1014,147,33,41,360,109,339,109
"102","331691",38.4461,-95.5831,127,125,30,9702,324,-81,405,224,-6,246,-6,951,142,26,45,355,89,334,89
"103","341956",37.7953,-95.8353,133,130,31,9542,331,-76,407,228,3,251,3,970,135,28,42,352,97,331,97
"104","49826",37.1565,-94.8315,142,124,32,8873,327,-49,376,190,24,253,24,1075,133,39,32,359,143,307,143
"105","50106",39.4907,-95.1365,122,122,30,9799,320,-83,403,223,-10,243,-10,941,133,25,48,366,86,348,86
"106","50099",37.6088,-96.5688,131,130,32,9356,328,-72,400,225,6,248,6,915,130,24,43,342,90,317,90
"107","50105",37.2172,-95.5539,140,132,32,9298,335,-67,402,191,14,255,14,1035,136,35,37,358,121,307,121
"108","49846",37.4269,-95.5734,137,128,32,9350,332,-67,399,231,11,254,11,1012,132,34,38,353,112,319,112
"109","49876",37.6756,-94.8273,136,124,31,9404,330,-66,396,188,9,253,9,1077,141,37,36,370,130,334,130
"110","50100",37.7009,-96.6247,132,131,32,9429,329,-74,403,226,5,249,5,900,132,23,44,342,87,320,87
"111","331705",38.3919,-95.2233,131,125,31,9538,326,-74,400,227,1,249,1,997,144,30,41,357,103,341,103
"112","340761",39.6525,-95.9136,118,128,30,10023,321,-94,415,220,-18,242,-18,905,135,22,49,353,75,341,75
"114","326841",37.8981,-96.3064,133,134,32,9538,334,-76,410,229,4,252,4,914,136,24,44,341,90,323,90
"115","327980",38.7958,-94.6917,125,115,29,9628,316,-76,392,222,-5,244,-5,978,141,31,44,364,98,340,98
"116","339805",38.7021,-97.8082,126,134,31,10019,337,-85,422,228,-6,253,-6,733,109,16,50,304,62,277,62
"117","342009",38.9858,-95.1078,128,118,29,9636,322,-73,395,227,0,248,0,961,141,28,45,364,93,342,93
"118","49847",37.1084,-95.1099,141,127,32,9126,332,-59,391,191,18,254,18,1059,135,36,35,356,130,299,130
"119","49837",38.9325,-95.1997,128,118,29,9640,322,-73,395,226,-1,248,-1,960,143,28,45,366,93,344,93
"120","105971",38.8077,-95.1842,126,118,29,9597,319,-75,394,224,-2,246,-2,970,145,29,45,365,94,344,94
"121","348207",38.4063,-94.66,128,125,31,9601,324,-79,403,181,-3,246,-3,1027,145,34,40,361,113,339,113
"122","50107",39.4634,-95.1107,122,122,30,9799,320,-83,403,223,-10,243,-10,941,133,25,48,366,86,348,86
"123","49880",38.6513,-95.2661,128,124,31,9592,324,-76,400,226,-1,248,-1,970,142,30,43,360,97,338,97
"124","338597",34.4769,-97.0308,163,133,35,8440,345,-30,375,208,51,270,51,933,139,38,37,334,130,231,130
"125","49838",39.0438,-95.3536,126,119,29,9746,321,-77,398,226,-4,248,-4,953,144,26,46,367,89,345,89
"126","332534",40.0396,-96.8706,111,134,31,10287,323,-105,428,216,-28,239,-28,788,112,16,53,316,59,309,59
"127","343418",38.2044,-94.645,130,128,31,9595,328,-78,406,184,0,249,0,1039,143,36,38,361,118,337,118
"128","49843",37.6007,-95.1133,136,123,30,9432,331,-67,398,188,9,254,9,1049,137,36,37,362,121,328,121
"129","49842",38.2864,-96.5301,129,131,31,9705,331,-81,412,226,-3,249,-3,864,136,21,48,339,74,317,74
"131","348275",38.1944,-94.6131,130,128,31,9595,328,-78,406,184,0,249,0,1039,143,36,38,361,118,337,118
"132","111307",37.2557,-95.1824,138,125,31,9346,332,-66,398,189,12,254,12,1048,135,35,36,358,122,305,122
"133","336633",38.8083,-95.1472,127,118,29,9588,320,-74,394,224,-2,246,-2,974,145,29,44,366,95,345,95
"134","326755",38.9511,-95.6969,125,120,30,9773,320,-80,400,224,-6,246,-6,891,131,29,41,333,101,320,101
"135","50104",38.6559,-96.2249,123,127,31,9746,322,-86,408,221,-9,244,-9,898,135,22,48,350,77,323,77
"136","49848",39.8492,-95.3722,115,127,30,10187,318,-100,418,220,-24,240,-24,906,122,23,48,346,79,338,79
"137","49849",39.1352,-95.3326,125,119,29,9733,321,-78,399,224,-6,246,-6,967,143,26,46,373,90,348,90
"138","343865",38.3747,-94.6608,128,125,31,9601,324,-79,403,181,-3,246,-3,1027,145,34,40,361,113,339,113
"139","336962",39.1025,-96.7658,121,128,30,10011,325,-89,414,223,-13,247,-13,844,136,18,53,351,67,325,67
"140","335058",40.2068,-96.2119,110,131,30,10256,319,-105,424,216,-28,238,-28,832,113,20,49,326,70,324,70
"141","326612",38.1956,-94.6858,130,127,31,9603,328,-79,407,184,-1,249,-1,1038,143,36,39,362,116,337,116
"142","49882",38.3111,-95.7445,126,128,31,9716,325,-84,409,224,-7,246,-7,946,146,25,46,360,87,341,87
"143","49852",38.4427,-95.3057,129,124,30,9595,325,-76,401,226,-1,248,-1,984,144,30,42,359,100,340,100
"144","326822",37.6344,-96.2431,135,135,33,9414,333,-74,407,228,7,251,7,934,128,26,42,342,94,311,94
"146","326811",38.4761,-95.4403,127,124,30,9659,323,-80,403,224,-5,246,-5,961,143,27,44,357,92,337,92
"147","49833",38.8845,-95.2502,127,118,29,9654,320,-75,395,225,-2,247,-2,958,144,28,45,364,92,343,92
"148","102838",37.5363,-96.6416,133,130,32,9303,329,-69,398,226,8,249,8,907,127,24,43,338,90,312,90
"149","49865",37.8867,-95.7705,133,128,31,9444,330,-73,403,227,4,250,4,994,140,29,42,359,100,342,100
"150","49866",38.957,-95.2873,127,117,29,9668,320,-75,395,225,-2,247,-2,959,144,27,45,367,92,345,92
"151","49875",37.1697,-94.6601,141,123,32,8939,327,-51,378,190,22,253,22,1077,131,39,32,361,146,308,146
"152","49830",38.221,-95.2418,131,123,30,9504,326,-73,399,227,2,249,2,1019,145,32,41,359,108,344,108
"154","327876",38.6042,-94.75,125,120,30,9629,319,-78,397,222,-5,244,-5,1002,145,32,42,363,105,341,105
"155","342561",38.1694,-95.4308,131,126,31,9579,327,-75,402,227,0,249,0,987,144,28,43,359,97,343,97
"156","49859",37.3677,-94.6502,138,124,32,9100,327,-57,384,188,16,252,16,1088,136,39,33,368,143,316,143
"157","342069",38.4581,-94.9203,129,124,30,9580,325,-76,401,183,-1,247,-1,1003,147,32,42,358,105,339,105
"158","49850",38.3979,-95.2815,131,125,31,9571,326,-75,401,227,1,249,1,990,144,30,42,357,102,340,102
"159","341994",37.4303,-95.9908,137,134,33,9319,334,-69,403,230,11,253,11,973,134,29,40,350,102,310,102
"160","326728",38.3397,-95.6731,126,128,31,9731,325,-83,408,224,-7,246,-7,946,145,26,46,359,88,339,88
"161","342569",38.1694,-95.4311,131,126,31,9579,327,-75,402,227,0,249,0,987,144,28,43,359,97,343,97
"162","352313",37.7778,-95.9117,133,130,31,9542,331,-76,407,228,3,251,3,970,135,28,42,352,97,331,97
"163","49834",38.8951,-95.2418,128,118,29,9646,321,-74,395,226,-1,248,-1,962,144,28,45,365,93,343,93
"164","49854",37.8976,-94.9753,135,124,31,9485,330,-69,399,187,7,253,7,1049,141,36,37,362,120,336,120
"165","49827",37.2352,-94.7482,141,123,32,8951,328,-51,379,190,22,253,22,1076,132,39,33,361,143,308,143
"166","49861",37.6179,-94.8273,136,125,31,9395,330,-66,396,188,9,253,9,1086,141,38,35,371,133,332,133
"167","341966",37.5858,-95.9969,134,133,32,9472,332,-75,407,229,5,252,5,957,130,27,42,348,96,318,96
"168","50097",37.7074,-97.0554,135,128,31,9577,334,-69,403,231,8,255,8,864,126,22,45,338,85,313,85
"169","49889",37.8175,-96.9762,133,129,31,9559,332,-72,404,230,6,253,6,873,130,22,46,343,84,318,84
"170","326687",38.9181,-94.9792,128,117,29,9643,321,-72,393,227,-1,248,-1,961,139,29,44,361,94,340,94
"171","326561",38.9333,-95.4333,125,118,29,9730,320,-78,398,224,-5,247,-5,932,142,26,46,358,88,338,88
"172","49835",38.8535,-95.167,128,118,29,9646,321,-74,395,226,-1,248,-1,962,144,28,45,365,93,343,93
"173","49836",38.957,-95.343,126,118,29,9684,320,-77,397,225,-4,247,-4,951,144,27,45,365,91,343,91
"174","342379",37.7917,-95.6983,135,128,32,9398,331,-69,400,229,7,251,7,997,138,30,41,358,101,338,101
"175","326818",37.1597,-97.1833,142,131,32,9533,343,-63,406,237,15,262,15,838,115,24,42,312,87,283,87
"176","49844",37.2548,-95.0541,139,125,31,9214,331,-60,391,190,15,254,15,1056,135,35,36,360,125,307,125
"177","2681888",38.82778,-77.4875,128,124,34,8480,309,-50,359,228,16,235,16,991,98,68,11,275,214,274,214
"178","1734570",38.86639,-77.70639,119,120,33,8476,298,-59,357,205,6,226,6,1048,105,70,12,294,217,292,217
"179","1895273",38.44194,-77.96306,128,129,35,8278,307,-52,359,232,18,232,18,1074,103,73,11,300,224,300,224
"180","1769818",38.91028,-76.96639,130,114,32,8486,307,-43,350,238,19,238,19,1046,107,71,12,300,228,300,228
"181","3451059",38.96944,-77.38639,124,121,33,8503,304,-52,356,232,11,232,11,1016,99,69,11,283,217,283,217
"182","2134759",38.79667,-77.46611,128,124,34,8480,309,-50,359,228,16,235,16,991,98,68,11,275,214,274,214
"184","2009992",38.995,-76.92667,130,117,33,8530,309,-45,354,238,17,238,17,1053,106,71,12,299,228,299,228
"185","2589002",38.895,-77.03667,133,115,32,8546,311,-42,353,241,20,241,20,1021,104,70,12,292,223,292,223
"187","1813214",38.85889,-77.68639,119,120,33,8476,298,-59,357,205,6,226,6,1048,105,70,12,294,217,292,217
"189","2311973",38.92444,-77.12361,128,119,33,8549,307,-48,355,236,14,236,14,1034,102,70,11,291,223,291,223
"190","2008831",38.7675,-77.41528,127,120,33,8485,305,-50,355,227,14,234,14,1008,100,70,10,281,220,279,220
"191","1785849",38.85611,-77.71444,119,120,33,8476,298,-59,357,205,6,226,6,1048,105,70,12,294,217,292,217
"192","1898142",38.82361,-77.71333,124,124,34,8460,303,-56,359,209,11,230,11,1031,102,70,12,286,216,286,216
"193","363445",38.93944,-77.11083,128,119,33,8549,307,-48,355,236,14,236,14,1034,102,70,11,291,223,291,223
"194","UNA00000569",32.85,-88.15,172,133,40,7273,332,2,330,128,225,263,75,1398,162,79,21,435,263,313,402
"195","UNA00000574",34.75806,-87.5725,155,132,38,7768,325,-18,343,68,211,252,52,1387,158,80,19,407,262,300,391
"196","115399",41.95,-88.4333,86,115,28,10294,287,-121,408,213,-54,213,-54,934,109,33,32,318,128,318,128
"198","3068",39.3333,-97.4333,124,132,31,10005,334,-85,419,226,-9,251,-9,765,115,16,53,322,58,297,58
"199","CONN00102098",39.74861,-76.01861,115,111,31,8669,293,-60,353,202,12,224,0,1123,110,72,12,319,243,317,245
"200","CONN00141866",41.98472,-73.28194,73,116,30,9090,261,-114,375,121,-37,187,-49,1220,111,85,8,324,270,324,276
"201","CONN00137276",41.34583,-72.02972,99,104,30,8314,270,-70,340,16,179,204,-10,1218,120,84,10,337,271,274,311
"202","CONN00102099",38.98083,-72.10027,NA,NA,NA,NA,NA,NA,NA,NA,NA,NA,NA,NA,NA,NA,NA,NA,NA,NA,NA
"203","117857",31.786388,-93.76222,179,138,41,7148,341,5,336,180,262,267,82,1276,142,75,15,351,264,276,349
"204","114595",32.3075,-93.80666,182,127,39,7187,340,17,323,222,266,271,87,1235,136,67,16,346,247,265,333
"206","2711559",36.99,-91.58,130,139,35,8713,321,-69,390,131,12,238,12,1126,120,58,18,342,225,277,225
"209","3569959",39.04,-90.93,122,128,32,9415,317,-79,396,217,-7,238,-7,961,108,42,24,301,157,277,157
"212","348208",41.95,-88.4333,86,115,28,10294,287,-121,408,213,-54,213,-54,934,109,33,32,318,128,318,128
"214","49851",38.5668,-95.3184,129,124,31,9611,324,-76,400,226,-1,248,-1,975,143,30,43,359,98,338,98
"215","49877",37.6756,-94.8273,136,124,31,9404,330,-66,396,188,9,253,9,1077,141,37,36,370,130,334,130
"217","49878",37.7961,-95.8441,133,130,31,9542,331,-76,407,228,3,251,3,970,135,28,42,352,97,331,97
"221","1812890",38.86639,-77.70639,119,120,33,8476,298,-59,357,205,6,226,6,1048,105,70,12,294,217,292,217
"223","1727814",38.44194,-77.96306,128,129,35,8278,307,-52,359,232,18,232,18,1074,103,73,11,300,224,300,224
"225","YPM CBS 006818",41.9694,-72.0221,82,120,31,8937,271,-106,377,39,-25,195,-37,1235,117,90,6,331,292,300,299
"227","CABU5-05057",33.7313,-93.66496,167,131,37,7748,336,-11,347,167,224,263,63,1328,136,88,15,388,287,301,310
"228","CABU5-40145",35.958874,-95.52279,156,130,34,8673,341,-38,379,203,39,264,39,1048,131,46,30,352,158,269,158
"229","CABU5-42003",40.46895,-79.98119,103,124,33,8761,290,-79,369,192,-15,212,-15,964,101,59,17,294,194,285,194
"230","CABU5-40069",34.31465,-96.65529,166,131,35,8308,345,-24,369,210,55,270,55,1007,138,43,33,348,150,241,150
"231","CABU5-09005",41.794785,-73.244576,77,113,30,9007,262,-108,370,123,-32,190,-44,1259,114,89,7,331,284,325,288
"232","CABU5-40147",36.722336,-95.90427,147,134,34,9029,340,-53,393,197,27,261,27,983,124,35,34,332,126,277,126
"233","CABU5-20087",39.228657,-95.38173,124,121,30,9800,321,-81,402,224,-8,246,-8,956,141,26,47,370,88,346,88
"234","CABU5-18147",38.01058,-87.01086,131,122,32,8899,313,-57,370,129,195,241,10,1156,120,73,16,350,249,299,250
"235","CABU5-29205",39.79144,-92.06939,116,125,30,9793,314,-91,405,215,-18,236,-18,973,113,35,32,325,125,310,125
"236","CABU5-25015",42.3393,-72.66419,85,127,32,9300,283,-112,395,134,-27,201,-41,1115,101,78,7,295,251,291,256
"237","CABU5-21039",36.853874,-88.97749,142,119,32,8757,322,-43,365,143,204,251,24,1268,128,79,15,377,258,297,312
"238","CABU5-36115",43.32009,-73.43059,78,127,30,9771,284,-129,413,199,-41,199,-55,985,106,57,15,282,196,282,199
"239","CABU5-48225",31.317507,-95.42918,186,130,39,7098,348,16,332,225,273,273,90,1079,115,60,16,311,230,230,251
"240","CABU5-36027",41.764454,-73.747154,87,122,32,9066,278,-102,380,179,-22,200,-35,1102,103,73,10,307,235,306,238
"241","CABU5-29011",37.501404,-94.34358,134,126,32,9138,324,-62,386,184,12,248,12,1098,136,40,32,368,148,322,148
"242","CABU5-05007",36.337986,-94.25784,136,130,34,8502,319,-57,376,183,21,242,21,1147,136,51,25,368,191,298,191
"243","CABU5-40097",36.299892,-95.236664,152,129,33,8742,337,-45,382,199,34,260,34,1079,126,46,29,352,162,285,162
"244","CABU5-17137",39.714546,-90.19812,113,118,30,9590,304,-85,389,211,-18,230,-18,942,109,39,27,308,141,285,141
"245","CABU5-01033",34.707294,-87.79657,155,135,39,7702,324,-20,344,155,211,250,52,1402,159,80,19,416,262,298,397
"246","CABU5-42127",41.65018,-75.30639,73,120,32,8979,260,-114,374,163,-36,184,-48,1089,109,70,13,311,225,300,230
"247","CABU5-20029",39.482838,-97.65591,119,129,30,10012,329,-88,417,221,-14,246,-14,749,112,16,54,318,58,296,58
"248","CABU5-21093",37.696423,-85.96342,129,123,34,8553,306,-53,359,128,192,235,14,1239,122,72,14,353,259,314,302
"249","CABU5-48149",29.864754,-96.92631,201,126,39,6596,355,38,317,237,127,281,111,967,126,53,28,304,192,216,202
"250","CABU5-17181",37.468895,-89.25607,134,120,32,8965,316,-55,371,134,198,245,12,1189,126,75,15,360,254,294,269
"251","CABU5-51109",37.987057,-77.95703,133,129,36,8051,306,-45,351,234,25,234,25,1081,107,77,11,305,236,305,236
"252","CABU5-20045",38.884403,-95.286934,127,118,29,9654,320,-75,395,225,-2,247,-2,958,144,28,45,364,92,343,92
"253","CABU5-29055",37.976643,-91.30262,124,143,35,8936,319,-81,400,175,1,234,1,1042,116,50,20,311,184,281,184
"254","CABU5-29189",38.6388,-90.442764,127,122,31,9403,318,-72,390,223,-1,244,-1,983,104,50,19,294,182,270,182
"255","CABU5-42019",40.90852,-79.91207,92,124,33,8821,281,-91,372,181,-27,201,-27,1026,108,59,17,314,202,309,202
"256","CABU5-17157",38.04918,-89.8213,130,123,32,9154,319,-63,382,128,6,244,6,1055,111,56,18,310,208,281,208
"257","CABU5-28129",32.01631,-89.50124,176,134,41,6898,330,8,322,135,226,261,84,1486,160,88,19,440,285,330,434
"258","CABU5-29083",38.38734,-93.79133,126,131,32,9414,322,-78,400,221,-1,243,-1,1043,129,36,35,356,130,326,130
"259","CABU5-17135",39.22814,-89.478134,120,121,30,9588,316,-76,392,177,-10,239,-10,975,105,51,21,306,176,277,176
"260","CABU5-51059",38.833866,-77.2764,126,119,33,8481,303,-50,353,232,13,232,13,1025,102,70,11,287,221,287,221
"261","CABU5-17109",40.455746,-90.67758,106,118,29,10057,304,-100,404,209,-31,229,-31,931,108,34,32,311,124,300,124
"262","CABU5-29213",36.65477,-93.0359,137,144,36,8601,330,-63,393,185,21,244,21,1086,120,51,20,329,197,277,197
"263","CABU5-51015",38.171555,-79.133095,113,135,38,7957,292,-62,354,206,8,214,8,983,99,64,14,282,198,275,198
"264","CABU5-29117",39.782948,-93.54668,115,124,30,9947,315,-95,410,217,-22,237,-22,940,115,29,39,325,106,311,106
"265","CABU5-05045",35.147167,-92.33529,159,131,35,8228,337,-27,364,160,261,261,48,1265,137,79,18,387,262,262,290
"266","CABU5-29221",37.96882,-90.87711,125,138,35,8884,317,-75,392,125,3,235,3,1055,113,53,19,313,195,280,195
"267","CABU5-05059",34.320145,-92.945114,164,136,38,7773,338,-18,356,165,220,260,59,1383,148,83,17,415,295,302,316
"268","CABU5-42075",40.367233,-76.457436,105,116,31,8900,293,-74,367,196,0,217,-13,1073,108,67,14,319,223,303,225
"269","CABU5-17153",37.22782,-89.13118,139,116,31,8919,320,-47,367,139,202,250,19,1211,126,75,15,365,253,293,285
"270","CABU5-36119",41.1536,-73.75399,104,105,29,8802,285,-69,354,93,-12,216,-12,1230,114,85,8,328,279,310,279
"271","CABU5-48319",30.717773,-99.22038,182,148,42,7132,348,-2,350,223,97,269,85,667,93,28,38,225,96,190,97
"272","CABU5-48287",30.306715,-96.95639,197,124,38,6870,353,30,323,235,120,281,103,930,125,45,31,298,188,194,192
"273","CABU5-42119",40.96187,-77.06466,100,123,32,9007,294,-81,375,192,-20,213,-20,1035,108,65,15,309,208,297,208
"274","CABU5-09009",41.34897,-72.900345,103,106,30,8648,281,-68,349,88,-1,213,-11,1161,110,85,8,312,275,277,276
"275","CABU5-17159",38.71339,-88.08519,124,119,31,9308,312,-68,380,122,-3,238,-3,1067,112,61,19,323,214,284,214
"276","CABU5-37159",35.63594,-80.52288,148,134,39,7662,317,-26,343,227,61,245,47,1139,110,79,10,312,258,309,274
"277","CABU5-51047",38.48607,-77.95695,128,129,35,8278,307,-52,359,232,18,232,18,1074,103,73,11,300,224,300,224
"278","CABU5-23009",44.566124,-68.36845,67,110,29,9245,256,-123,379,26,183,183,-57,1193,135,78,16,361,244,244,315
"279","CABU5-40121",34.92513,-95.74881,163,126,34,8306,341,-24,365,208,52,267,52,1125,152,50,29,368,185,255,185
"280","CABU5-29185",38.04034,-93.77412,129,131,32,9268,325,-74,399,181,4,245,4,1053,127,38,32,352,142,313,142
"281","CABU5-40041",36.414562,-94.80248,148,128,34,8465,331,-43,374,194,34,254,34,1129,132,50,26,360,179,294,179
"282","CABU5-20169",38.78145,-97.6478,130,130,31,10043,339,-78,417,232,-2,258,-2,746,111,19,49,310,70,277,70
"283","CABU5-29099",38.255886,-90.53731,124,134,33,9216,317,-79,396,124,-2,238,-2,1007,108,53,18,299,191,265,191
"284","CABU5-29219",38.768154,-91.16417,123,125,32,9230,315,-72,387,216,-1,238,-1,962,110,43,25,307,151,280,151
"285","CABU5-54039",38.342354,-81.52571,122,127,36,8222,297,-55,352,225,75,225,12,1123,129,72,16,333,244,333,246
"286","CABU5-17081",38.30073,-88.92351,126,120,31,9142,313,-64,377,125,2,239,2,1058,112,61,18,322,215,271,215
"287","CABU5-20197",38.95481,-96.2003,121,126,30,9813,321,-87,408,221,-11,243,-11,886,132,22,48,347,77,321,77
"288","CABU5-28107",34.363316,-89.94654,161,127,37,7811,329,-10,339,160,217,258,57,1391,146,79,20,420,247,288,380
"289","CABU5-20157",39.828163,-97.650276,115,131,30,10149,327,-97,424,219,-21,243,-21,750,111,15,53,311,58,296,58
"290","CABU5-20205",37.558945,-95.74166,138,131,32,9342,335,-67,402,231,12,254,12,990,131,31,40,354,105,321,105
"291","CABU5-42061",40.414326,-77.97803,97,113,31,8799,282,-78,360,187,-21,207,-21,995,102,64,14,295,201,279,201
"292","CABU5-31095",40.168316,-97.14568,106,134,31,10282,318,-109,427,212,-32,235,-32,764,109,15,53,309,58,302,58
"293","CABU5-17151",37.41135,-88.57321,135,121,33,8697,314,-51,365,136,198,243,17,1217,126,75,16,368,248,297,286
"294","CABU5-47043",36.153652,-87.36151,139,140,38,8154,318,-46,364,138,198,240,29,1347,143,80,16,392,263,306,356
"295","CABU5-42029",39.967136,-75.75193,111,110,31,8709,291,-63,354,199,8,221,-4,1138,115,74,12,322,248,316,249
"296","CABU5-20003",38.21568,-95.29203,132,124,31,9518,327,-73,400,227,2,249,2,1009,144,31,41,358,105,344,105
"297","CABU5-48097",33.637623,-97.21252,174,129,35,8036,351,-10,361,216,67,275,67,923,129,44,33,314,149,212,149
"298","CABU5-20021",37.16942,-94.84551,140,123,32,8970,328,-52,380,190,21,253,21,1069,135,38,34,363,136,309,136
"299","CABU5-29105",37.65993,-92.594734,128,129,33,8915,316,-68,384,177,7,238,7,1068,123,47,23,332,171,288,171
"300","CABU5-51121",37.171177,-80.39441,115,133,38,7718,288,-55,343,193,12,212,12,998,100,69,12,282,210,274,210
"301","CABU5-20037",37.507736,-94.85112,137,125,31,9362,330,-65,395,188,10,253,10,1082,139,37,35,370,130,328,130
"302","CABU5-05023",35.542423,-92.02899,149,133,35,8374,332,-41,373,149,253,253,36,1286,139,75,19,396,269,269,283
"303","CABU5-42071",40.042,-76.25002,112,113,31,8843,294,-67,361,201,7,223,-6,1049,110,63,14,313,217,305,221
"304","CABU5-18079",38.996227,-85.6282,121,122,33,8869,304,-64,368,118,1,231,1,1104,118,71,17,331,235,301,235
"305","CABU5-51061",38.740658,-77.80854,124,125,34,8389,302,-57,359,208,11,229,11,1040,102,71,12,290,218,289,218
"306","CABU5-17165",37.753784,-88.54079,132,124,33,8846,318,-54,372,132,196,242,13,1134,121,71,17,349,230,283,255
"307","CABU5-42133",39.922,-76.72705,112,116,32,8769,296,-64,360,201,-4,223,-4,1031,99,69,11,291,224,280,224
"308","CABU5-17139",39.638344,-88.61679,114,119,30,9715,307,-84,391,214,-18,233,-18,991,107,51,22,311,177,296,177
"309","CABU5-17061",39.352325,-90.38615,117,120,30,9566,309,-82,391,215,-13,235,-13,925,106,40,25,294,146,272,146
"310","CABU5-54001",39.12985,-79.998344,100,131,37,8170,276,-78,354,182,-10,202,-10,1242,128,83,13,365,274,361,274
"311","CABU5-42033",41.000317,-78.474174,80,123,33,8746,269,-98,367,169,-38,189,-38,1070,115,67,16,329,212,320,212
"312","CABU5-47007",35.59876,-85.20716,136,127,37,7711,302,-35,337,135,192,232,32,1444,157,87,15,408,292,331,389
"313","CABU5-20207",37.88741,-95.738655,135,128,32,9391,331,-69,400,229,7,251,7,1004,141,30,41,361,101,344,101
"314","CABU5-20125",37.189342,-95.74175,141,133,33,9176,336,-61,397,192,18,256,18,1008,135,33,38,354,116,304,116
"315","CABU5-20121",38.564655,-94.83353,129,124,30,9601,325,-76,401,226,-2,247,-2,1003,148,32,42,361,106,340,106
"316","CABU5-48161",31.702337,-96.14795,189,130,38,7091,354,19,335,227,277,277,94,1014,122,52,23,306,193,193,225
"317","CABU5-48471",30.737951,-95.573906,193,124,38,6867,348,29,319,231,115,277,99,1141,132,70,19,331,250,255,266
"318","CABU5-51153",38.70405,-77.47778,129,123,34,8462,308,-49,357,228,17,236,17,993,98,69,10,275,215,274,215
"319","CABU5-29103",40.12487,-92.14967,110,123,30,9977,310,-99,409,222,-27,233,-27,949,113,31,35,324,117,311,117
"320","CABU5-47127",35.28422,-86.357414,144,131,38,7777,313,-30,343,142,201,241,40,1438,161,89,17,413,282,316,391
"321","CABU5-48015",29.883408,-96.27741,199,127,40,6626,354,37,317,237,124,280,109,1042,127,60,24,310,211,240,228
"322","CABU5-20015",37.77362,-96.833954,133,130,32,9519,331,-73,404,229,7,253,7,875,131,21,46,343,83,319,83
"323","CABU5-51063",36.93601,-80.36317,110,131,38,7554,278,-59,337,186,9,204,9,1098,106,73,12,305,224,293,224
"324","CABU5-48113",32.76685,-96.77801,186,120,34,7889,354,10,344,228,95,286,82,921,131,48,31,318,168,194,168
"325","CABU5-29039",37.722485,-93.86476,129,133,33,9177,324,-74,398,180,5,243,5,1077,129,39,31,357,151,309,151
"326","CABU5-29113",39.060753,-90.96156,122,128,32,9415,317,-79,396,217,-7,238,-7,961,108,42,24,301,157,277,157
"327","CABU5-21141",36.85797,-86.87871,136,127,34,8479,314,-50,364,136,197,241,21,1294,131,77,14,372,261,307,329
"328","CABU5-21035",36.620865,-88.27392,143,122,33,8509,319,-42,361,144,203,248,27,1339,132,86,14,381,276,308,342
"329","CABU5-29085",37.942043,-93.31901,129,128,32,9338,323,-75,398,181,2,245,2,1046,126,39,30,341,146,298,146
"330","CABU5-36071",41.40211,-74.30635,97,117,31,9077,288,-86,374,190,-24,211,-24,1139,110,74,11,314,243,306,243
"331","CABU5-13059",33.951965,-83.36602,162,128,39,7249,324,-2,326,81,168,254,66,1256,137,85,15,378,263,304,342
"332","CABU5-42043",40.41317,-76.78681,105,112,30,8951,292,-71,363,197,-13,219,-13,1048,102,70,11,297,223,284,223
"333","CABU5-17199",37.730328,-88.92954,130,122,32,8939,312,-61,373,130,195,240,8,1145,120,73,16,348,242,288,254
"334","CABU5-47149",35.843235,-86.41654,145,132,37,7965,318,-30,348,143,203,245,40,1322,141,76,15,379,266,307,354
"335","CABU5-40119",36.07801,-96.974495,154,131,33,8948,345,-46,391,202,34,266,34,887,133,29,40,315,108,252,108
"336","CABU5-29141",38.425568,-92.885765,124,123,31,9306,315,-76,391,177,-3,239,-3,1046,129,38,29,340,148,296,148
"337","CABU5-42103",41.32964,-75.03371,75,119,31,8915,261,-111,372,165,-33,186,-45,1131,112,73,12,320,239,311,240
"338","CABU5-42017",40.33791,-75.10507,107,115,31,8756,293,-68,361,197,-8,219,-8,1167,116,74,12,327,251,323,251
"339","CABU5-22017",32.579178,-93.87992,182,124,38,7217,340,19,321,222,267,273,88,1209,126,68,15,345,242,264,318
"340","CABU5-42001",39.869595,-77.21766,111,120,32,8756,298,-66,364,157,-5,221,-5,1035,100,72,10,288,227,271,227
"341","CABU5-20013",39.822918,-95.562126,115,129,30,10138,320,-99,419,220,-22,241,-22,914,126,23,48,351,80,341,80
"342","CABU5-29079",40.112194,-93.56716,109,124,29,10076,311,-103,414,212,-30,233,-30,953,117,29,37,329,112,312,112
"343","CABU5-40113",36.63122,-96.395836,147,135,34,8994,338,-55,393,197,26,259,26,960,127,32,36,329,117,282,117
"344","CABU5-10003",39.580566,-75.63805,124,112,32,8574,303,-47,350,226,12,233,12,1070,104,71,11,299,236,295,236
"345","CABU5-54049",39.512047,-80.24275,106,131,36,8400,288,-74,362,192,-7,211,-7,1099,115,70,16,329,229,326,229
"346","CABU5-51107",39.09318,-77.63663,120,122,33,8556,303,-57,360,207,7,228,7,1017,101,67,12,289,212,286,212
"347","CABU5-17027",38.607487,-89.42397,127,116,30,9412,315,-68,383,182,-1,243,-1,977,104,49,19,295,187,263,187
"348","CABU5-36035",43.11498,-74.42378,60,115,29,9475,253,-133,386,156,-56,177,-67,1191,111,75,10,317,254,315,260
"349","CABU5-34037",41.14184,-74.69079,91,126,33,8928,282,-98,380,181,-29,202,-29,1154,111,72,12,327,242,323,242
"350","CABU5-42039",41.683514,-80.10763,82,114,31,8904,268,-96,364,193,-27,193,-37,1115,113,63,16,328,212,328,221
"351","CABU5-36079",41.431416,-73.74635,92,114,31,8921,277,-90,367,196,-15,204,-27,1182,107,81,8,313,262,309,264
"352","CABU5-09003",41.8071,-72.734985,98,117,31,9031,290,-85,375,143,-10,212,-22,1165,106,81,7,307,266,290,270
"353","CABU5-48467",32.55797,-95.835236,180,128,36,7617,351,3,348,219,270,274,77,1066,132,47,25,338,200,203,240
"354","CABU5-17021",39.54731,-89.27809,118,121,30,9711,312,-81,393,217,-15,236,-15,962,102,48,22,302,168,285,168
"355","CABU5-40079",34.903004,-94.70114,159,145,38,8188,345,-36,381,159,49,261,49,1204,162,59,24,384,222,272,222
"356","CABU5-51091",38.350323,-79.5563,86,123,35,7886,256,-88,344,166,-20,184,-20,1155,113,80,10,319,247,311,247
"357","CABU5-29217",37.85039,-94.34213,129,133,32,9456,327,-79,406,182,1,246,1,1074,139,38,34,363,135,327,135
"358","CABU5-17117",39.257446,-89.92118,118,118,30,9548,309,-80,389,174,-12,235,-12,953,108,45,23,298,162,273,162
"359","CABU5-29065",37.609432,-91.49833,130,135,34,8694,319,-67,386,130,12,238,12,1064,114,51,20,317,187,284,187
"360","CABU5-42095",40.75269,-75.307556,98,122,32,8847,290,-81,371,201,-7,210,-19,1173,111,75,11,327,253,321,255
"361","CABU5-17133",38.276764,-90.1782,126,124,31,9289,316,-72,388,126,0,242,0,1013,105,52,18,295,194,271,194
"362","CABU5-11001",38.90505,-77.01617,133,115,32,8546,311,-42,353,241,20,241,20,1021,104,70,12,292,223,292,223
"363","CABU5-09007",41.43512,-72.523895,97,106,30,8634,276,-75,351,57,207,207,-16,1242,118,91,7,331,294,294,302
"364","CABU5-17049",39.06448,-88.58834,119,120,30,9523,311,-78,389,217,-11,236,-11,1009,105,54,19,310,196,283,196
"365","CABU5-48021",30.103798,-97.31155,197,127,39,6826,354,30,324,235,121,280,104,901,120,45,31,290,173,196,179
"366","CABU5-17069",37.521572,-88.26598,134,121,33,8703,313,-52,365,134,197,241,16,1197,125,73,16,364,241,295,278
"367","CABU5-29097",37.201946,-94.33556,138,125,32,8945,325,-56,381,187,18,250,18,1084,134,40,31,362,150,310,150
"368","CABU5-17087",37.459435,-88.87418,134,120,32,8853,314,-54,368,134,197,243,13,1192,123,74,15,361,247,294,275
"369","CABU5-21219",36.840244,-87.18493,137,126,34,8478,315,-47,362,137,198,242,22,1279,131,76,14,368,259,303,327
"370","CABU5-29183",38.778744,-90.67492,123,126,31,9441,317,-80,397,219,-6,240,-6,961,106,45,21,296,168,270,168
"371","CABU5-10005",38.68327,-75.34182,128,111,33,8084,297,-39,336,224,142,230,21,1102,121,79,12,312,251,309,262
"372","CABU5-42109",40.770943,-77.07605,99,120,32,8954,290,-81,371,190,-21,211,-21,1065,109,68,14,314,216,300,216
"373","CABU5-48499",32.781918,-95.38155,176,132,37,7667,347,-4,351,175,266,271,72,1082,126,52,22,334,209,215,243
"374","CABU5-51137",38.240196,-78.01178,130,128,36,8141,306,-47,353,233,22,233,22,1088,106,75,11,308,230,308,230
"375","CABU5-42077",40.61447,-75.58996,101,118,31,8908,292,-77,369,192,-4,215,-16,1156,112,74,11,323,248,318,251
"376","CABU5-17101",38.719585,-87.730705,125,118,31,9292,313,-64,377,123,0,240,0,1095,121,65,19,334,220,293,220
"377","CABU5-17041",39.766113,-88.22282,113,117,29,9764,307,-84,391,214,-20,233,-20,992,112,51,22,311,181,300,181
"378","CABU5-05143",35.98574,-94.214355,140,127,34,8216,319,-44,363,186,31,244,31,1169,142,59,22,370,207,291,207
"379","CABU5-29093",37.546104,-90.75682,127,135,35,8669,316,-68,384,127,9,234,9,1124,114,60,18,334,219,290,219
"380","CABU5-51089",36.670868,-79.88446,133,134,38,7758,305,-41,346,224,47,230,29,1164,119,83,10,322,254,318,259
"381","CABU5-29179",37.357727,-90.97121,130,139,35,8696,320,-69,389,131,11,237,11,1139,113,62,17,336,230,284,230
"382","CABU5-47085",36.03269,-87.773094,140,140,38,8158,317,-48,365,140,199,241,30,1375,145,81,16,402,269,312,361
"383","CABU5-36083",42.70975,-73.51395,76,117,30,9463,272,-117,389,194,-51,194,-51,1031,102,61,15,300,204,300,204
"384","CABU5-47027",36.554417,-85.54328,137,135,37,8028,311,-46,357,137,196,237,28,1349,133,81,13,368,285,339,343
"385","CABU5-29057",37.429703,-93.85347,132,129,33,8978,322,-64,386,181,12,245,12,1087,128,42,28,356,161,308,161
"386","CABU5-05137",35.862904,-92.153496,144,136,35,8391,330,-48,378,143,249,249,30,1227,131,68,18,374,265,265,265
"387","CABU5-54023",39.101933,-79.19675,94,130,36,8117,271,-83,354,176,-15,195,-15,1066,110,69,14,315,218,309,218
"388","CABU5-21083",36.72327,-88.649826,142,123,33,8547,319,-43,362,142,203,247,25,1335,133,86,14,386,275,306,338
"389","CABU5-54081",37.775948,-81.25566,105,123,36,7848,271,-68,339,185,61,202,-1,1108,127,77,15,331,243,323,244
"390","CABU5-17079",39.005596,-88.14932,119,118,30,9475,309,-77,386,216,-11,235,-11,1032,106,54,19,308,198,288,198
"391","CABU5-48449",33.217644,-94.968315,173,136,38,7783,346,-11,357,173,264,270,68,1175,127,60,19,351,240,246,263
"392","CABU5-40077",34.870003,-95.24165,161,135,36,8103,342,-28,370,205,52,262,52,1216,162,56,26,389,208,280,208
"393","CABU5-29115",39.86781,-93.11058,116,121,29,9892,314,-91,405,217,-20,237,-20,1028,119,40,30,334,146,315,146
"394","CABU5-42073",40.991787,-80.33462,96,124,33,8791,284,-84,368,184,-22,205,-22,961,102,56,17,296,187,289,187
"395","CABU5-20059",38.56725,-95.28781,129,124,31,9611,324,-76,400,226,-1,248,-1,975,143,30,43,359,98,338,98
"396","CABU5-48283",28.3443,-99.100395,218,140,43,6498,371,49,322,265,146,295,128,558,88,21,48,221,72,157,76
"397","CABU5-51191",36.72422,-81.961174,118,132,39,7561,285,-52,337,195,73,213,17,1158,119,83,12,334,253,324,261
"398","CABU5-17119",38.831898,-89.908264,126,114,29,9488,315,-67,382,182,-1,244,-1,963,104,50,19,293,181,269,181
"399","CABU5-17005",38.8806,-89.43616,124,118,30,9479,315,-71,386,180,-5,241,-5,962,102,49,20,297,179,265,179
"400","CABU5-40021",35.905743,-94.998886,153,130,35,8385,335,-36,371,199,41,258,41,1134,142,52,27,371,183,282,183
"401","CABU5-17065",38.08135,-88.54085,129,122,32,8953,315,-58,373,128,194,240,8,1101,118,72,17,340,229,275,238
"402","CABU5-22111",32.82715,-92.37758,175,131,39,7381,337,4,333,175,228,267,76,1337,138,77,16,386,262,281,367
"403","CABU5-55049",42.99792,-90.133865,72,115,27,10653,277,-145,422,202,-74,202,-74,865,105,29,39,315,101,315,101
"404","CABU5-05063",35.7441,-91.566216,153,132,35,8524,339,-38,377,154,259,259,38,1220,130,78,18,375,256,256,278
"405","CABU5-48001",31.812084,-95.64744,188,127,38,6988,350,21,329,226,270,274,93,1077,121,55,20,320,212,214,246
"406","CABU5-47147",36.52501,-86.8702,138,128,35,8395,315,-47,362,137,199,242,24,1272,133,76,15,367,252,299,328
"407","CABU5-42011",40.415565,-75.927704,106,114,31,8887,291,-73,364,197,1,218,-12,1118,110,72,12,322,240,309,245
"408","CABU5-42035",41.24145,-77.63672,84,117,31,8875,274,-94,368,175,-35,195,-35,1019,114,61,17,315,199,306,199
"409","CABU5-29199",40.45378,-92.14872,107,124,29,10155,311,-105,416,221,-33,231,-33,934,115,28,38,330,108,315,108
"410","CABU5-40013",33.97016,-96.25483,167,129,36,8071,343,-15,358,211,60,268,60,1072,142,50,29,358,183,245,183
"411","CABU5-29071",38.40767,-91.07613,126,136,34,9109,321,-77,398,178,2,239,2,1009,113,49,20,303,178,274,178
"412","CABU5-01063",32.85478,-87.95123,172,132,40,7284,331,3,328,128,225,262,75,1395,161,80,21,436,261,310,405
"413","CABU5-48089",29.62176,-96.51873,200,128,40,6495,352,37,315,236,126,279,111,1040,132,61,25,316,208,250,220
"414","CABU5-42099",40.397774,-77.26643,104,115,31,8892,291,-75,366,194,-15,215,-15,1033,103,68,12,300,215,283,215
"415","CABU5-20191",37.229572,-97.47535,138,131,31,9719,343,-68,411,236,8,261,8,804,109,23,42,301,82,278,82
"416","CABU5-09015",41.834217,-71.98849,87,121,32,8856,275,-100,375,45,-19,199,-31,1219,117,89,7,329,290,292,297
"417","CABU5-40101",35.609352,-95.37944,158,131,35,8454,342,-32,374,205,45,264,45,1082,139,47,28,358,171,264,171
"418","CABU5-17023",39.33339,-87.79239,116,116,30,9551,306,-79,385,214,-14,234,-14,1028,112,57,20,319,193,300,193
"419","CABU5-29043",36.96967,-93.18749,129,130,33,8786,315,-68,383,177,10,238,10,1103,120,48,23,336,184,288,184
"420","CABU5-17167",39.758125,-89.65802,115,115,29,9830,307,-85,392,216,-20,235,-20,916,96,41,24,287,153,275,153
"421","CABU5-28123",32.40495,-89.54533,172,137,42,6986,329,3,326,95,223,259,79,1462,156,87,19,430,274,323,425
"422","CABU5-34019",40.57035,-74.91711,101,121,33,8713,290,-76,366,203,-14,211,-14,1212,120,78,11,338,265,333,265
"423","CABU5-05011",33.46324,-92.168365,167,134,38,7662,335,-13,348,168,222,262,63,1358,141,83,14,383,284,291,359
"424","CABU5-42069",41.4404,-75.610115,82,116,31,9002,271,-99,370,174,-26,195,-37,1028,102,64,14,300,206,294,207
"425","CABU5-42057",39.920383,-78.109,100,118,32,8699,285,-76,361,188,-16,209,-16,986,98,63,13,288,198,272,198
"426","CABU5-28137",34.653316,-89.94012,159,121,35,7944,327,-13,340,160,216,258,53,1367,143,81,20,418,247,282,371
"427","CABU5-48395",31.027267,-96.51402,195,127,38,6865,356,30,326,231,279,279,102,950,120,52,25,287,183,183,207
"428","CABU5-05083",35.215115,-93.71263,152,131,36,8112,331,-31,362,149,44,253,44,1171,141,62,19,360,234,274,234
"429","CABU5-20017",38.301525,-96.593025,127,130,31,9705,330,-82,412,225,-4,248,-4,863,135,21,49,339,73,316,73
"430","CABU5-42045",39.917,-75.3993,118,105,29,8772,297,-54,351,221,2,229,2,1135,113,76,11,317,251,313,251
"431","CABU5-29027",38.83621,-91.92453,119,122,30,9615,314,-84,398,216,-12,239,-12,980,119,39,28,320,146,287,146
"432","CABU5-48223",33.14902,-95.56196,173,130,36,7862,346,-10,356,171,270,270,67,1124,135,55,23,348,229,229,237
"433","CABU5-17051",39.001152,-89.01781,121,121,31,9466,314,-74,388,177,-7,238,-7,976,102,50,21,300,184,273,184
"434","CABU5-42079",41.1765,-75.991035,90,116,31,8915,279,-89,368,181,-17,202,-28,1015,104,61,17,307,195,301,196
"435","CABU5-36021",42.251434,-73.630356,82,125,31,9293,281,-111,392,177,-30,198,-43,1038,100,65,12,295,215,292,218
"436","CABU5-29073",38.442272,-91.50645,123,133,33,9251,319,-81,400,176,-3,238,-3,1004,120,43,24,316,166,277,166
"437","CABU5-20133",37.55683,-95.30133,137,124,31,9426,331,-68,399,189,9,254,9,1026,132,35,38,355,115,321,115
"438","CABU5-17003",37.194332,-89.339806,138,117,31,9005,320,-50,370,138,201,250,16,1210,130,75,16,368,257,290,280
"439","CABU5-42009",40.01043,-78.489624,99,124,34,8669,286,-78,364,187,-17,207,-17,965,98,62,14,287,192,272,192
"440","CABU5-47017",35.976257,-88.45211,144,131,36,8313,320,-41,361,145,204,247,32,1359,137,84,15,387,274,309,354
"441","CABU5-17035",39.27376,-88.239685,117,117,30,9582,308,-79,387,215,-14,234,-14,1010,107,52,20,308,190,288,190
"442","CABU5-20011",37.85609,-94.85061,135,125,31,9484,331,-69,400,187,7,253,7,1056,141,36,37,364,123,337,123
"443","CABU5-13105",34.114998,-82.83977,159,136,41,7240,321,-8,329,80,165,250,63,1242,136,82,15,375,254,307,343
"444","CABU5-29161",37.877678,-91.79338,129,130,33,8995,319,-69,388,180,8,241,8,1049,121,50,21,320,182,289,182
"445","CABU5-20001",37.88843,-95.30002,135,122,30,9437,329,-68,397,230,7,252,7,1021,140,33,39,358,108,340,108
"446","CABU5-05047",35.51225,-93.89193,152,138,37,8224,335,-37,372,150,42,254,42,1147,138,63,19,353,228,265,228
"447","CABU5-21047",36.89505,-87.49187,140,123,34,8490,316,-43,359,140,201,246,26,1253,130,74,15,365,248,291,328
"448","CABU5-51017",38.058846,-79.736145,110,135,38,7926,288,-64,352,191,5,210,5,1053,106,73,11,295,222,287,222
"449","CABU5-47123",35.44759,-84.25083,140,136,39,7619,309,-33,342,54,197,235,38,1420,153,85,15,410,289,346,389
"450","CABU5-17189",38.350857,-89.41714,128,116,30,9309,316,-64,380,128,2,244,2,1007,106,52,18,301,196,267,196
"451","CABU5-51041",37.378204,-77.58842,138,130,37,7977,312,-38,350,232,32,239,32,1102,110,78,11,312,253,310,253
"452","CABU5-36103",40.940536,-72.67905,107,95,29,8318,275,-52,327,25,187,213,0,1141,108,82,9,311,259,269,293
"453","CABU5-36093",42.814907,-74.065956,78,116,29,9542,276,-116,392,176,-49,198,-49,996,97,61,13,281,206,277,206
"454","CABU5-20111",38.461624,-96.15018,126,128,31,9738,326,-83,409,224,-6,247,-6,913,144,24,48,358,80,336,80
"455","CABU5-29095",39.010063,-94.34381,124,119,30,9699,317,-78,395,223,-6,244,-6,974,128,32,42,357,103,334,103
"456","CABU5-54083",38.780277,-79.868126,94,128,36,7957,264,-82,346,175,-13,193,-13,1228,130,82,13,360,264,359,264
"457","CABU5-36005",40.84895,-73.85262,117,93,27,8739,291,-49,340,102,3,228,3,1149,107,79,9,309,259,296,259
"458","CABU5-42059",39.855312,-80.222404,101,130,35,8441,283,-79,362,186,-13,206,-13,1045,111,65,17,318,211,311,211
"459","CABU5-17033",39.002697,-87.75956,120,117,30,9459,311,-73,384,218,-8,237,-8,1051,112,59,19,317,202,293,202
"460","CABU5-51187",38.908123,-78.20697,112,128,35,8355,292,-71,363,196,-1,216,-1,1008,101,64,15,293,197,288,197
"461","CABU5-18129",38.024094,-87.86129,133,118,32,8973,317,-51,368,132,198,244,12,1114,125,72,18,349,227,278,242
"462","CABU5-27123",45.0153,-93.09961,71,111,25,11469,285,-159,444,211,-86,211,-86,757,111,21,49,314,70,314,70
"463","CABU5-42129",40.309277,-79.46544,96,126,34,8692,282,-86,368,183,-21,204,-21,1066,109,67,15,317,217,313,217
"464","CABU5-17059",37.758034,-88.229385,135,121,32,8840,317,-51,368,134,199,244,15,1133,122,70,17,349,228,282,254
"465","CABU5-42101",40.006817,-75.13468,120,107,30,8709,299,-51,350,223,6,231,6,1136,115,74,12,323,249,321,249
"466","CABU5-17115",39.86,-88.961296,113,121,30,9739,306,-87,393,213,-20,232,-20,983,106,48,23,312,168,298,168
"467","CABU5-21105",36.678158,-88.97553,142,121,33,8652,322,-42,364,143,203,250,25,1294,130,82,15,382,262,301,321
"468","CABU5-51013",38.878727,-77.101906,128,116,33,8505,305,-46,351,236,16,236,16,1033,104,71,11,293,224,293,224
"469","CABU5-29201",37.05353,-89.57224,140,119,31,9033,325,-49,374,141,203,253,18,1204,130,75,17,371,256,280,278
"470","CABU5-48041",30.66165,-96.30053,199,122,38,6814,355,40,315,236,283,283,108,1011,125,55,24,307,204,204,226
"471","CABU5-20073",37.878124,-96.22805,133,134,32,9540,334,-77,411,229,3,251,3,926,136,25,43,344,92,325,92
"472","CABU5-47081",35.80011,-87.47438,141,147,40,7962,320,-45,365,141,199,240,34,1366,144,82,17,402,264,304,360
"473","CABU5-17025",38.75505,-88.488304,122,121,31,9373,313,-73,386,122,-6,237,-6,1037,107,55,19,308,204,281,204
"474","CABU5-47001",36.11283,-84.19707,133,129,37,7877,301,-41,342,132,191,231,27,1368,142,82,14,374,276,344,359
"475","CABU5-42091",40.20937,-75.37045,111,112,31,8773,294,-65,359,201,-5,222,-5,1122,111,73,12,315,245,310,245
"476","CABU5-29091",36.7744,-91.88732,130,137,35,8717,320,-68,388,129,12,238,12,1120,118,58,18,342,225,271,225
"477","CABU5-05085",34.740314,-91.85301,166,118,34,8036,333,-11,344,167,265,265,57,1258,132,76,19,393,255,255,314
"478","CABU5-29001",40.188408,-92.5988,107,122,30,9907,306,-100,406,209,-28,228,-28,950,112,34,37,323,115,319,115
"479","CABU5-36001",42.602898,-73.97174,79,118,30,9453,276,-115,391,176,-47,198,-47,983,96,60,14,282,199,277,199
"480","CABU5-17055",37.9921,-88.9234,128,122,32,9022,314,-62,376,128,6,240,6,1098,115,68,17,334,235,276,235
"481","CABU5-17077",37.78752,-89.38149,131,124,32,9083,318,-62,380,131,7,243,7,1119,116,66,17,335,235,292,235
"482","CABU5-17173",39.3947,-88.80926,117,120,30,9625,311,-80,391,217,-14,236,-14,988,105,52,20,308,181,289,181
"483","CABU5-17185",38.44393,-87.84039,128,118,31,9218,316,-60,376,127,4,243,4,1101,122,66,19,342,227,285,227
"484","CABU5-20201",39.784203,-97.08591,118,135,31,10200,330,-97,427,222,-19,246,-19,785,116,15,53,320,58,307,58
"485","CABU5-51069",39.205593,-78.26295,110,128,34,8523,294,-73,367,197,-4,217,-4,944,96,60,15,281,182,273,182
"486","CABU5-42055",39.927135,-77.7238,109,118,32,8823,295,-68,363,199,-9,220,-9,1007,99,68,11,286,213,272,213
"487","CABU5-17163",38.4708,-89.931435,130,117,30,9331,317,-61,378,185,5,246,5,971,104,52,18,292,185,268,185
"488","CABU5-28071",34.358685,-89.48547,159,129,38,7654,325,-12,337,157,214,254,57,1448,153,82,20,434,264,295,399
"489","CABU5-42111",39.973877,-79.03339,77,117,33,8497,254,-100,354,163,-38,182,-38,1106,109,73,13,321,233,312,233
"490","CABU5-17145",38.085106,-89.36835,129,120,31,9176,317,-62,379,129,5,243,5,1051,109,58,17,315,210,275,210
"491","CABU5-47021",36.26673,-87.07984,140,135,37,8251,318,-45,363,139,200,242,29,1277,136,76,15,367,254,296,334
"492","CABU5-48185",30.548859,-95.978546,196,124,38,6809,352,34,318,234,280,280,104,1087,129,62,21,318,230,230,248
"493","CABU5-42027",40.914265,-77.8185,95,114,31,8913,284,-81,365,187,-24,207,-24,991,107,62,15,301,198,291,198
"494","CABU5-17191",38.43167,-88.42348,125,120,31,9192,312,-66,378,124,0,238,0,1074,116,60,19,331,218,276,218
"495","CABU5-47093",35.9925,-83.93741,141,124,36,7902,308,-31,339,52,199,240,36,1279,133,75,15,353,256,327,340
"496","CABU5-22067",32.818016,-91.799736,176,126,38,7455,337,7,330,176,230,269,77,1383,144,78,19,404,251,283,400
"497","CABU5-29159",38.72629,-93.28413,121,123,30,9634,316,-83,399,219,-10,240,-10,1019,124,36,34,348,128,316,128
"498","CABU5-21185",38.397015,-85.44396,125,125,34,8615,306,-56,362,122,188,232,9,1163,124,71,17,351,244,312,253
"499","CABU5-21139",37.21152,-88.34677,138,121,33,8628,315,-48,363,138,200,244,20,1243,127,77,15,370,254,298,299
"500","CABU5-47075",35.58009,-89.28644,154,121,34,8260,326,-25,351,155,213,257,43,1326,135,73,19,403,249,279,352
"501","CABU5-40089",34.113228,-94.76633,164,136,37,7835,339,-21,360,162,58,261,58,1292,164,68,22,407,261,282,261
"502","CABU5-29013",38.258053,-94.33941,128,128,31,9490,325,-77,402,181,-1,246,-1,1043,141,36,38,360,120,337,120
"503","CABU5-09001",41.2255,-73.371025,101,108,30,8644,280,-72,352,88,-13,210,-13,1213,112,85,8,330,284,292,284
"504","CABU5-42013",40.470516,-78.35084,94,119,32,8744,282,-81,363,183,-23,204,-23,999,102,64,15,303,198,287,198
"505","CABU5-21089",38.542263,-82.920586,118,131,35,8437,299,-65,364,204,128,223,5,1070,115,70,15,318,230,311,232
"506","CABU5-21187",38.527004,-84.829735,121,121,33,8671,300,-61,361,117,4,228,4,1130,119,72,16,340,240,307,240
"507","CABU5-48051",30.49335,-96.62141,201,122,38,6795,357,43,314,237,285,285,111,985,127,49,27,311,199,199,217
"508","CABU5-20031",38.23747,-95.73457,128,129,31,9705,327,-82,409,226,-4,248,-4,952,146,26,46,359,88,343,88
"509","CABU5-29167",37.616783,-93.40052,129,131,33,9131,322,-74,396,180,5,242,5,1076,125,41,27,346,161,296,161
"510","CABU5-36087",41.14975,-74.026695,103,109,30,8884,286,-74,360,92,-15,215,-15,1236,116,82,10,328,269,320,269
"511","CABU5-29203",37.15971,-91.403275,132,143,36,8723,324,-70,394,133,13,240,13,1116,117,56,19,335,218,282,218
"512","CABU5-21145",37.05623,-88.716995,140,120,32,8713,319,-45,364,140,202,248,22,1250,126,78,14,370,257,295,306
"513","CABU5-36065",43.240623,-75.43813,77,112,28,9616,274,-114,388,188,-41,197,-51,1098,105,72,10,293,234,289,253
"514","49853",38.5668,-95.3184,129,124,31,9611,324,-76,400,226,-1,248,-1,975,143,30,43,359,98,338,98
"515","50093",37.833,-95.9882,133,131,32,9576,331,-78,409,228,2,251,2,952,134,26,43,348,93,327,93
"516","326687",38.9181,-94.9792,128,117,29,9643,321,-72,393,227,-1,248,-1,961,139,29,44,361,94,340,94
