"","catalogNumber","lat","lon","bio1","bio2","bio3","bio4","bio5","bio6","bio7","bio8","bio9","bio10","bio11","bio12","bio13","bio14","bio15","bio16","bio17","bio18","bio19"
"2","2724798",67.95,-137.8,-106,92,19,14064,162,-319,481,86,-263,86,-263,248,49,9,60,117,28,117,28
"4","88677",66.75,-179,-105,66,17,11004,89,-285,374,34,-157,38,-233,385,58,14,42,156,47,144,79
"5","135326",64.645836,-143.1635,-82,130,24,14620,198,-337,535,104,-164,104,-267,205,50,5,83,125,18,125,23
"6","47015",61.07,-154.06,-8,105,28,9462,184,-182,366,103,-72,115,-125,488,85,19,51,218,62,197,78
"7","24070",68.48,-154.05,-118,104,20,14845,153,-364,517,56,-149,77,-300,243,56,8,63,117,32,116,36
"8","139304",62.54222,-142.49222,-49,123,24,13424,198,-295,493,117,-113,117,-223,374,73,11,59,180,41,180,53
"10","11461",65.36,-146.59,-70,106,21,14699,194,-310,504,118,-156,118,-255,264,50,7,61,136,31,136,42
"11","139049",64.84778,-162.3036,-48,76,20,11170,151,-221,372,88,3,100,-178,426,99,14,67,216,54,166,72
"12","138751",64.85,-162.29666,-48,76,20,11170,151,-221,372,88,3,100,-178,426,99,14,67,216,54,166,72
"13","83146",65.25,-143.39,-78,126,23,14998,204,-335,539,113,-165,113,-267,202,44,5,75,113,19,113,25
"14","88679",65.95,-171.16,-79,59,18,9555,80,-245,325,40,-131,40,-198,337,56,16,42,140,50,140,57
"16","83148",64.89,-142.81,-95,127,23,14578,186,-345,531,92,-182,92,-277,199,50,5,89,125,19,125,21
"17","13331",64.84,-146.97,-40,107,21,14800,212,-293,505,144,-119,144,-232,335,55,9,51,150,42,150,63
"18","84960",63.04,-146.06,-53,122,25,12755,192,-282,474,108,-121,108,-214,255,60,4,83,153,19,153,28
"20","30389",60.68,-153.7,-38,97,29,8403,144,-186,330,67,-57,76,-135,588,90,27,38,235,93,218,112
"21","8599",64.86,-163.7,-40,75,20,10577,149,-209,358,90,-70,100,-164,392,87,15,66,201,51,158,61
"22","41047",63.61,-137.6,-43,114,22,13857,214,-299,513,128,-115,128,-226,323,52,12,45,136,41,136,58
"24","133555",64.6155,-143.93983,-79,127,24,14415,198,-327,525,105,-160,105,-259,215,50,5,82,127,21,127,26
"25","20386",64.23,-159.75,-57,83,20,11847,155,-242,397,85,-75,98,-200,365,85,15,69,193,49,172,52
"27","88667",69.55,172,-147,97,19,15141,130,-375,505,56,-191,56,-317,179,34,5,59,84,19,84,33
"29","9283",62.48,171.86,-85,89,21,11479,140,-265,405,61,-122,72,-211,460,72,24,37,175,76,168,98
"30","50100",67.25,-155.04,-98,104,20,14603,164,-336,500,70,-116,93,-277,321,70,12,60,152,48,146,49
"31","88170",64.86,-146.71,-40,108,21,14729,213,-292,505,143,-119,143,-230,323,55,9,54,149,39,149,57
"32","91444",65.36,-146.48,-69,108,21,14745,196,-311,507,119,-155,119,-255,260,49,7,63,133,30,133,41
"33","99636",61.65,-138.7,-49,125,26,12337,181,-293,474,102,-117,102,-213,272,61,8,73,149,27,149,32
"34","20295",64.03,-159.81,-40,84,21,11850,169,-229,398,100,-54,113,-186,354,83,15,70,190,46,165,49
"35","89104",64.83,-174.5,-54,61,19,9055,107,-208,315,26,-97,63,-161,566,70,25,35,192,78,162,106
"36","88669",69.68,170.31,-155,101,19,15713,133,-387,520,56,-197,56,-332,176,33,5,61,84,17,84,32
"37","11840",59.58,-160.95,-13,76,24,8844,153,-159,312,95,-84,102,-121,671,124,25,51,292,87,246,104
"38","81854",59.44,-161.34,-11,74,24,8721,153,-155,308,55,-81,103,-117,716,131,26,51,312,91,260,107
"39","135325",64.87817,-143.97433,-74,127,23,14724,205,-327,532,113,-157,113,-260,215,47,6,75,121,22,121,27
"42","6568",65.38,-163.11,-65,73,19,10869,132,-234,366,71,-103,80,-188,379,85,13,65,195,51,156,61
"43","20347",64.05,-159.96,-40,83,21,11725,167,-226,393,99,-55,112,-184,352,84,14,72,192,44,166,47
"44","88668",65.83,-175.66,-69,62,18,9645,100,-232,332,53,-114,55,-183,468,61,20,35,167,61,147,87
"49","130275",65.73333,-147.48334,-55,106,20,14901,209,-298,507,133,-142,133,-245,281,48,7,55,132,32,132,48
"52","88680",68.03,166.25,-149,104,19,16071,145,-384,529,64,-183,64,-335,218,41,7,56,102,23,102,40
"53","83147",64.66,-143.27,-89,128,24,14430,190,-339,529,95,-172,95,-270,204,51,5,85,127,19,127,22
"54","145655",65.38828,-147.24379,-57,103,20,14777,204,-297,501,130,-142,130,-245,291,51,7,56,140,34,140,51
"55","49464",67.88333,-136.0667,-110,84,17,14020,153,-319,472,62,-266,82,-266,257,46,12,48,109,38,108,38
"56","29706",62.868057,-135.89833,-42,128,23,14117,216,-325,541,127,-106,127,-234,281,56,7,56,130,29,130,49
"57","V119700",64.083336,-141.75,-63,131,23,15080,214,-333,547,124,-144,124,-259,231,56,5,82,137,17,137,23
"59","CAN 381454",67.883,-136.067,-110,84,17,14020,153,-319,472,62,-266,82,-266,257,46,12,48,109,38,108,38
"60","CAN 342491",63.967,-135.7,-53,120,22,13942,207,-323,530,120,-125,120,-235,306,54,9,49,134,38,134,56
"61","CAN 24596",63.25,-130.033,-90,118,24,12845,159,-325,484,75,-170,75,-250,435,72,23,40,179,71,179,77
"64","50506",64.46667,-146.75,-38,108,21,14180,209,-282,491,139,-113,139,-220,329,60,9,58,161,37,161,53
"68","CAN 381443",67.95,-137.8,-106,92,19,14064,162,-319,481,86,-263,86,-263,248,49,9,60,117,28,117,28
"69","CAN 279513",61.65,-138.7,-49,125,26,12337,181,-293,474,102,-117,102,-213,272,61,8,73,149,27,149,32
"70","9283",62.48,171.86,-85,89,21,11479,140,-265,405,61,-122,72,-211,460,72,24,37,175,76,168,98
"72","89104",64.83,-174.5,-54,61,19,9055,107,-208,315,26,-97,63,-161,566,70,25,35,192,78,162,106
"73","83148",64.89,-142.81,-95,127,23,14578,186,-345,531,92,-182,92,-277,199,50,5,89,125,19,125,21
"74","130275",65.73333,-147.48334,-55,106,20,14901,209,-298,507,133,-142,133,-245,281,48,7,55,132,32,132,48
"75","139049",64.84778,-162.3036,-48,76,20,11170,151,-221,372,88,3,100,-178,426,99,14,67,216,54,166,72
"76","145655",65.38828,-147.24379,-57,103,20,14777,204,-297,501,130,-142,130,-245,291,51,7,56,140,34,140,51
"78","11840",59.58,-160.95,-13,76,24,8844,153,-159,312,95,-84,102,-121,671,124,25,51,292,87,246,104
"79","24070",68.48,-154.05,-118,104,20,14845,153,-364,517,56,-149,77,-300,243,56,8,63,117,32,116,36
"80","91444",65.36,-146.48,-69,108,21,14745,196,-311,507,119,-155,119,-255,260,49,7,63,133,30,133,41
"81","88667",69.55,172,-147,97,19,15141,130,-375,505,56,-191,56,-317,179,34,5,59,84,19,84,33
"82","88669",69.68,170.31,-155,101,19,15713,133,-387,520,56,-197,56,-332,176,33,5,61,84,17,84,32
"84","11461",65.36,-146.59,-70,106,21,14699,194,-310,504,118,-156,118,-255,264,50,7,61,136,31,136,42
"86","47015",61.07,-154.06,-8,105,28,9462,184,-182,366,103,-72,115,-125,488,85,19,51,218,62,197,78
"88","88677",66.75,-179,-105,66,17,11004,89,-285,374,34,-157,38,-233,385,58,14,42,156,47,144,79
"89","133555",64.6155,-143.93983,-79,127,24,14415,198,-327,525,105,-160,105,-259,215,50,5,82,127,21,127,26
"90","30389",60.68,-153.7,-38,97,29,8403,144,-186,330,67,-57,76,-135,588,90,27,38,235,93,218,112
"91","8599",64.86,-163.7,-40,75,20,10577,149,-209,358,90,-70,100,-164,392,87,15,66,201,51,158,61
"92","138751",64.85,-162.29666,-48,76,20,11170,151,-221,372,88,3,100,-178,426,99,14,67,216,54,166,72
"94","83147",64.66,-143.27,-89,128,24,14430,190,-339,529,95,-172,95,-270,204,51,5,85,127,19,127,22
"95","135325",64.87817,-143.97433,-74,127,23,14724,205,-327,532,113,-157,113,-260,215,47,6,75,121,22,121,27
"96","83146",65.25,-143.39,-78,126,23,14998,204,-335,539,113,-165,113,-267,202,44,5,75,113,19,113,25
"97","88679",65.95,-171.16,-79,59,18,9555,80,-245,325,40,-131,40,-198,337,56,16,42,140,50,140,57
"98","139304",62.54222,-142.49222,-49,123,24,13424,198,-295,493,117,-113,117,-223,374,73,11,59,180,41,180,53
"99","140352",64.645836,-143.1635,-82,130,24,14620,198,-337,535,104,-164,104,-267,205,50,5,83,125,18,125,23
"101","20295",64.03,-159.81,-40,84,21,11850,169,-229,398,100,-54,113,-186,354,83,15,70,190,46,165,49
"102","50100",67.25,-155.04,-98,104,20,14603,164,-336,500,70,-116,93,-277,321,70,12,60,152,48,146,49
"103","13331",64.84,-146.97,-40,107,21,14800,212,-293,505,144,-119,144,-232,335,55,9,51,150,42,150,63
"105","20347",64.05,-159.96,-40,83,21,11725,167,-226,393,99,-55,112,-184,352,84,14,72,192,44,166,47
"107","81854",59.44,-161.34,-11,74,24,8721,153,-155,308,55,-81,103,-117,716,131,26,51,312,91,260,107
"113","88668",65.83,-175.66,-69,62,18,9645,100,-232,332,53,-114,55,-183,468,61,20,35,167,61,147,87
"114","88170",64.86,-146.71,-40,108,21,14729,213,-292,505,143,-119,143,-230,323,55,9,54,149,39,149,57
"115","20386",64.23,-159.75,-57,83,20,11847,155,-242,397,85,-75,98,-200,365,85,15,69,193,49,172,52
"118","88680",68.03,166.25,-149,104,19,16071,145,-384,529,64,-183,64,-335,218,41,7,56,102,23,102,40
"119","84960",63.04,-146.06,-53,122,25,12755,192,-282,474,108,-121,108,-214,255,60,4,83,153,19,153,28
"120","6568",65.38,-163.11,-65,73,19,10869,132,-234,366,71,-103,80,-188,379,85,13,65,195,51,156,61
"121","41047",63.61,-137.6,-43,114,22,13857,214,-299,513,128,-115,128,-226,323,52,12,45,136,41,136,58
"122","50506",64.46667,-146.75,-38,108,21,14180,209,-282,491,139,-113,139,-220,329,60,9,58,161,37,161,53
