"","catalogNumber","lat","lon","bio1","bio2","bio3","bio4","bio5","bio6","bio7","bio8","bio9","bio10","bio11","bio12","bio13","bio14","bio15","bio16","bio17","bio18","bio19"
"1","JEPS63677",38.0475,-120.20028,120,143,45,6316,306,-9,315,48,203,204,48,1157,205,4,80,569,24,32,569
"2","JEPS25166",38.020004,-122.7282,133,115,56,3380,244,39,205,95,172,176,90,1015,216,2,90,554,13,18,549
"3","JEPS94186",39.8219,-122.6646,136,160,46,6503,337,-6,343,65,222,222,60,807,154,2,82,414,19,19,409
"4","JEPS88991",40.7757,-122.4364,129,154,45,6635,331,-10,341,56,216,216,50,1364,242,7,77,677,40,40,658
"5","JEPS105632",39.903614,-121.62112,133,145,45,6212,320,2,318,66,215,215,61,1307,251,2,82,666,23,23,664
"6","JEPS105660",39.955555,-121.29195,100,157,47,6193,298,-36,334,27,181,181,27,1082,205,3,78,547,28,28,547
"7","JEPS104180",40.40111,-122.084724,168,143,41,6958,364,23,341,88,259,259,84,777,140,4,73,377,28,28,372
"8","JEPS63674",38.29194,-122.45694,146,152,55,4419,301,28,273,90,199,201,90,766,171,1,92,426,8,13,426
"9","UC1116254",34.08333,-118.75,162,117,54,3467,276,63,213,125,203,211,123,472,102,0,97,274,4,10,267
"10","JEPS88461",40.2957,-122.1117,167,142,41,6940,362,23,339,87,257,257,83,733,132,3,73,357,25,25,351
"11","JEPS110409",39.411945,-122.63472,134,165,47,6346,336,-9,345,61,219,219,61,756,154,2,85,401,15,15,401
"12","JEPS106383",39.853333,-122.67166,110,155,47,6105,306,-21,327,47,191,192,41,1056,191,3,80,534,26,38,523
"13","ORE17453",42.4873,-124.1931,99,109,52,3637,222,13,209,63,146,149,58,1854,320,11,72,913,72,89,850
"14","WILLU29389",42.4546,-123.0204,113,150,47,6032,309,-9,318,43,193,193,42,652,115,8,65,321,42,42,291
"15","ORE16800",43.5731,-121.9972,50,145,44,6254,247,-82,329,-18,133,133,-25,1035,180,19,65,508,81,81,468
"16","WILLU76B",42.4255,-123.2371,106,149,47,5819,300,-11,311,40,183,183,38,773,139,8,69,390,42,42,356
"17","ORE17446",45.4564,-123.8428,98,96,52,3278,199,17,182,62,138,141,58,2302,363,37,61,1060,161,169,988
"18","ORE17454",42.9487,-123.3581,114,138,48,5182,287,5,282,56,182,183,53,962,171,8,70,484,47,54,443
"19","WILLU19977",44.1708,-123.6183,95,110,45,4584,238,-2,240,44,154,156,40,1936,338,19,69,950,103,114,880
"20","WILLU7987",42.6875,-123.9266,93,121,49,4340,240,-3,243,48,150,152,44,1568,276,10,73,787,62,78,726
"21","WILLU22483",43.0242,-124.0058,110,116,50,3972,243,14,229,67,161,163,63,1542,270,9,73,768,60,74,713
"22","WILLU8372",42.0471,-123.6311,103,149,48,5525,291,-14,305,41,176,176,37,1375,253,7,78,720,45,45,670
"23","ORE17934",44.1396,-122.5608,96,124,44,5297,265,-12,277,36,165,166,32,1722,273,21,60,789,120,120,713
"24","OSC80741",42.2508,-122.7869,110,153,47,6084,306,-18,324,38,190,190,37,551,93,8,58,254,45,45,224
"25","WILLU17503",45.1785,-121.0858,101,146,42,6828,304,-38,342,20,187,190,16,366,58,8,53,165,36,38,151
"26","WILLU13229",43.7677,-121.6333,62,151,44,6410,262,-78,340,-9,144,147,-16,596,103,17,59,283,61,66,264
"28","OSC185009",44.8407,-119.8061,93,154,44,6627,299,-49,348,16,177,181,12,341,41,12,31,116,46,57,101
"30","ORE119706",43.475,-123.5431,113,126,47,4863,274,10,264,59,176,178,55,1320,235,10,71,665,60,70,603
"31","WILLU31976",44.0697,-122.9675,114,115,43,5051,273,11,262,57,180,182,53,1237,199,15,62,580,85,86,522
"32","OSC50639",44.7599,-121.2676,97,157,45,6561,305,-40,345,21,181,185,17,415,63,10,52,187,44,47,168
"33","WILLU9304",42.0256,-124.1419,110,107,53,3437,224,24,200,74,153,156,70,2015,346,10,74,993,70,87,933
"34","ORE17448",43.7617,-122.9078,94,121,44,5151,257,-12,269,37,162,163,33,1515,246,18,61,703,101,107,628
"35","OSC189583",44.0873,-121.3139,79,159,47,6055,281,-53,334,11,158,161,7,280,43,11,45,120,36,47,111
"37","OSC185241",43.4858,-123.9351,106,107,49,3905,233,17,216,64,156,159,60,1636,286,12,71,814,72,83,752
"38","OSC178869",45.8196,-123.7708,96,95,49,3606,204,12,192,58,141,145,54,2259,362,36,62,1048,154,168,986
"39","OSC178872",45.0041,-118.9513,65,158,43,6727,275,-87,362,-14,149,153,-21,461,57,16,33,168,62,74,148
"40","OSC179968",44.6809,-118.7633,62,162,43,6907,277,-94,371,-18,148,153,-26,454,59,16,33,167,63,76,149
"41","ORE17452",44.3974,-123.8647,104,102,48,3980,227,15,212,61,154,158,57,2274,393,22,69,1108,119,128,1038
"42","WILLU31974",44.9792,-122.7541,110,113,43,5194,264,2,262,50,177,178,46,1277,204,19,58,576,97,101,533
"43","OSC178048",42.1226,-123.1504,93,156,47,5993,292,-34,326,25,173,173,22,750,137,8,68,375,46,46,341
"44","WILLU27249",42.4692,-122.8037,118,149,45,6254,316,-8,324,45,201,201,43,566,95,8,59,265,44,44,235
"45","OSC159767",42.6616,-122.703,106,150,47,5949,301,-16,317,38,185,185,36,806,134,10,61,379,55,57,336
"46","OSC1974",45.5038,-122.3089,113,105,41,5286,264,8,256,52,181,181,47,1616,249,24,55,711,133,136,666
"47","ORE17445",45.3618,-122.6839,113,111,42,5326,268,6,262,52,183,183,48,1133,186,18,58,524,92,92,480
"48","WILLU7020",42.9511,-123.3631,114,138,48,5182,287,5,282,56,182,183,53,962,171,8,70,484,47,54,443
"49","OSC189230",42.3498,-124.3458,106,96,54,2981,205,30,175,78,143,147,73,2005,340,12,71,969,80,96,908
"51","OSC146241",43.279,-123.0791,107,134,47,5304,281,-3,284,46,176,176,43,1333,226,13,66,643,76,76,567
"52","ORE17450",42.3757,-123.8088,96,134,49,4949,263,-8,271,42,161,162,39,1432,257,8,75,734,52,68,677
"53","ORE17451",45.4347,-123.7355,92,102,49,3811,212,5,207,51,140,143,47,2364,393,32,65,1127,145,159,1051
"54","ORE17444",43.9729,-122.5256,90,125,44,5445,261,-22,283,28,161,161,24,1657,267,21,61,769,114,117,695
"55","WILLU31977",42.8111,-123.5944,99,133,48,4983,267,-6,273,44,165,166,41,1215,218,8,73,620,50,63,567
"56","ORE17854B",44.2839,-121.2607,82,162,46,6291,289,-57,346,10,163,166,6,271,40,10,43,113,36,46,105
"57","OSC82555",42.4585,-123.0187,113,150,47,6032,309,-9,318,43,193,193,42,652,115,8,65,321,42,42,291
"58","ORE17447",42.9928,-122.8474,102,141,46,5682,288,-13,301,38,177,177,35,1079,179,12,64,516,66,66,458
"59","OSC185010",45.0037,-118.9921,65,158,43,6727,275,-87,362,-14,149,153,-21,461,57,16,33,168,62,74,148
"61","OSC92636",42.4167,-122.8333,118,149,45,6254,316,-8,324,45,201,201,43,566,95,8,59,265,44,44,235
"63","WILLU2467",44.8514,-123.1856,112,124,45,5195,279,6,273,52,179,180,49,1148,206,12,70,573,62,68,539
"64","OSC177922",42.9603,-123.8111,98,125,49,4595,252,-2,254,49,159,161,45,1425,255,9,74,724,57,71,662
"65","OSC153212",44.4107,-123.5671,102,113,45,4826,252,1,251,48,164,166,44,1668,295,17,69,822,91,101,764
"66","1663387",41.85,-123.92,103,123,51,4176,243,6,237,58,157,159,54,1912,336,9,76,964,62,79,898
"67","217454",38.441708,-122.53813,137,142,51,4826,301,25,276,79,198,200,79,1057,228,2,90,579,12,20,579
"68","1114499",37.4625,-119.916664,143,157,45,6596,342,0,342,65,229,230,65,801,147,2,82,407,13,19,407
"69","1090371",36.86111,-119.03333,140,142,43,6692,327,-1,328,71,229,229,62,709,136,2,81,368,12,23,362
"70","982016",41.554165,-123.90389,89,132,51,4560,243,-15,258,41,148,151,37,1592,280,8,75,803,55,70,748
"71","211273",38.591515,-122.596436,138,154,51,5122,313,15,298,77,204,204,77,1059,227,2,90,582,11,20,582
"72","1089978",36.96389,-119.41944,161,145,43,6835,354,19,335,91,250,250,79,579,109,1,83,302,7,7,292
"73","257362",37.911,-122.6056,132,101,55,3125,229,46,183,98,168,172,93,998,205,2,88,535,13,18,525
"74","394323",37.025,-122.058334,137,126,58,3267,250,36,214,96,175,179,96,794,174,2,91,443,9,14,443
"75","1031828",37.46,-119.92028,146,158,46,6637,346,3,343,67,233,233,67,752,138,2,82,383,11,11,383
"76","54910",39.2644,-123.594,118,121,57,3168,235,26,209,83,157,159,78,1093,204,3,82,561,19,32,556
"77","32369",45.72972,-121.525276,104,119,40,6360,276,-19,295,30,186,186,24,948,171,9,72,489,50,50,459
"78","181872",43.03,-124.08,110,116,50,3972,243,14,229,67,161,163,63,1542,270,9,73,768,60,74,713
"79","7474",45.71528,-121.4575,98,122,40,6517,277,-28,305,22,182,182,16,865,159,8,73,449,47,47,422
"82","187215",44.753334,-122.513336,97,110,43,4944,248,-3,251,42,161,162,37,1955,307,25,59,880,141,141,813
"168","V190943",42.833332,-123.61667,99,133,48,4983,267,-6,273,44,165,166,41,1215,218,8,73,620,50,63,567
"169","ORE17854",44.2839,-121.2607,82,162,46,6291,289,-57,346,10,163,166,6,271,40,10,43,113,36,46,105
"170","OSC185008",44.8407,-119.8061,93,154,44,6627,299,-49,348,16,177,181,12,341,41,12,31,116,46,57,101
"172","ORE119699",43.475,-123.5431,113,126,47,4863,274,10,264,59,176,178,55,1320,235,10,71,665,60,70,603
"175","OSC192676",44.1396,-122.5608,96,124,44,5297,265,-12,277,36,165,166,32,1722,273,21,60,789,120,120,713
"177","181872",43.03,-124.08,110,116,50,3972,243,14,229,67,161,163,63,1542,270,9,73,768,60,74,713
"178","32370",45.72972,-121.525276,104,119,40,6360,276,-19,295,30,186,186,24,948,171,9,72,489,50,50,459
"180","51455",45.71528,-121.4575,98,122,40,6517,277,-28,305,22,182,182,16,865,159,8,73,449,47,47,422
"203","32370",45.72972,-121.525276,104,119,40,6360,276,-19,295,30,186,186,24,948,171,9,72,489,50,50,459
"204","51455",45.71528,-121.4575,98,122,40,6517,277,-28,305,22,182,182,16,865,159,8,73,449,47,47,422
