"","catalogNumber","lat","lon","bio1","bio2","bio3","bio4","bio5","bio6","bio7","bio8","bio9","bio10","bio11","bio12","bio13","bio14","bio15","bio16","bio17","bio18","bio19"
"1","MT00002440",45.466667,-73.933334,62,104,25,10654,266,-148,414,182,-69,193,-82,930,96,61,13,268,195,264,211
"3","MT00172295",45.432,-75.749,59,99,23,10977,264,-154,418,193,-76,193,-91,863,84,54,14,248,170,248,188
"4","MT00119454",47.083332,-70.78333,46,98,23,10672,251,-159,410,178,-35,178,-98,1037,111,65,18,321,200,321,239
"5","MT00119500",43.546944,-92.881386,69,114,25,11353,281,-159,440,207,-87,207,-87,815,111,20,50,327,72,327,72
"6","MT00166850",45.35189,-73.653,65,104,25,10682,269,-145,414,185,-66,197,-80,949,99,60,14,277,194,273,212
"7","MT00119463",48.366665,-89.583336,23,125,26,11313,246,-218,464,151,-115,161,-131,721,87,29,31,250,113,248,113
"8","MT00020197",45.641666,-75.166664,55,101,24,10888,258,-160,418,188,-79,188,-94,915,91,59,13,263,185,263,204
"10","MT00166804",45.372433,-73.62395,65,104,25,10682,269,-145,414,185,-66,197,-80,949,99,60,14,277,194,273,212
"11","MT00119439",45.466667,-73.916664,62,103,24,10675,265,-148,413,182,-69,193,-83,937,97,61,13,271,197,267,213
"12","MT00020170",45.629444,-75.187225,55,100,23,10927,258,-161,419,188,-80,188,-95,912,91,59,13,263,184,263,203
"14","MT00020767",45.655834,-75.65056,51,99,23,10999,255,-166,421,185,-85,185,-100,909,88,58,13,261,183,261,202
"16","MT00119520",45.366665,-76.15,55,104,24,10881,259,-161,420,177,-80,187,-94,827,79,53,13,236,167,233,185
"17","MT00119437",46.308334,-72.475,51,107,24,10934,260,-169,429,173,-28,185,-98,1017,102,61,15,297,201,296,229
"23","MT00011613",45.493057,-75.736115,59,99,23,10977,264,-154,418,193,-76,193,-91,863,84,54,14,248,170,248,188
"25","MT00020185",45.631943,-75.18166,55,100,23,10927,258,-161,419,188,-80,188,-95,912,91,59,13,263,184,263,203
"28","MT00002788",45.25,-73,62,109,26,10530,266,-151,417,192,-68,192,-81,976,106,53,18,295,180,295,192
"30","MT00119501",45.1625,-90.02778,49,121,27,11050,265,-180,445,171,-103,183,-103,823,111,23,44,315,86,307,86
"31","34726",36.3833,-84.9333,127,123,36,7820,292,-48,340,127,183,223,21,1394,139,84,12,384,293,354,355
"33","1069873",39.697,-76.133,116,111,31,8707,295,-60,355,204,14,226,1,1111,109,71,12,317,239,314,243
"34","1087915",40.862,-73.879,117,93,27,8739,291,-49,340,102,3,228,3,1149,107,79,9,309,259,296,259
"35","TRTE0000579",44.266293,-78.369,61,106,27,9855,257,-133,390,82,-60,183,-71,806,76,54,11,218,169,213,180
"36","120632",43.996395,-79.62461,67,99,26,9620,260,-113,373,178,-53,186,-61,816,85,53,13,237,168,234,184
"37","100139557",36.76,-92.33,134,141,35,8761,325,-69,394,134,15,243,15,1077,117,52,19,324,206,266,206
"38","3552175",36.67,-91.7,131,141,36,8712,322,-69,391,131,13,239,13,1134,119,62,17,343,235,270,235
"39","2784360",37.93,-91.98,129,133,33,9025,321,-72,393,180,7,241,7,1048,124,47,22,322,177,287,177
"40","2782820",38.73,-93.3,121,123,30,9634,316,-83,399,219,-10,240,-10,1019,124,36,34,348,128,316,128
"41","3529017",37.54,-90.85,129,139,35,8686,319,-69,388,130,10,236,10,1117,113,59,18,331,218,285,218
"42","3500848",39.74,-93.47,117,123,30,9900,316,-92,408,218,-19,238,-19,951,115,30,37,326,111,310,111
"43","3535061",36.74,-91.04,132,144,36,8711,326,-66,392,133,195,241,15,1191,123,77,16,356,265,276,269
"45","3545357",39.65,-93.06,117,120,29,9769,312,-89,401,217,-17,236,-17,997,119,35,34,337,125,317,125
"46","3155923",38.47,-90.8,126,133,33,9220,320,-78,398,126,-1,239,-1,991,110,51,19,294,180,266,180
"48","3555542",37.16,-91.17,131,144,36,8728,324,-72,396,133,12,239,12,1132,116,59,18,337,230,283,230
"50","3545143",38.82,-91.43,123,130,32,9427,319,-80,399,218,-5,240,-5,992,116,43,24,313,163,281,163
"51","3292188",36.78,-94.37,135,130,34,8545,318,-57,375,182,20,241,20,1113,127,46,27,359,170,303,170
"52","3537197",38.06,-92.58,132,135,34,9008,324,-71,395,182,9,243,9,1049,125,42,25,327,162,285,162
"53","3545526",39.63,-92.33,117,122,30,9783,314,-88,402,216,-17,237,-17,993,117,35,33,336,125,315,125
"54","1898949",37.43,-90.13,125,134,34,8926,317,-70,387,126,4,236,4,1154,119,69,16,345,242,294,242
"55","3511596",39.55,-92.49,117,118,29,9763,312,-87,399,216,-17,236,-17,1009,120,37,34,343,127,320,127
"57","3545747",38.66,-90.83,125,130,32,9333,318,-80,398,219,-3,240,-3,972,108,48,20,295,172,268,172
"58","3545647",37.44,-93.19,131,128,33,8969,320,-67,387,180,10,242,10,1079,123,44,25,339,169,291,169
"59","2784258",38.64,-90.28,131,118,30,9414,320,-65,385,227,4,248,4,968,102,50,19,292,179,269,179
"60","2783341",36.49,-90.08,147,120,32,8917,333,-41,374,148,210,258,26,1217,131,74,19,381,249,258,294
"61","2783620",36.83,-94.6,141,130,34,8583,326,-51,377,189,26,248,26,1099,128,45,28,353,163,300,163
"63","3545304",39.52,-94.65,119,127,30,9909,318,-94,412,221,-17,241,-17,948,124,28,45,361,94,343,94
"64","3527447",40.11,-91.72,111,117,28,10134,310,-98,408,214,-28,235,-28,964,117,36,33,324,128,309,128
"65","1056312",38.62,-90.68,124,128,32,9333,317,-80,397,218,-4,239,-4,976,108,48,20,296,174,269,174
"66","3502127",40.31,-93.21,106,124,30,10032,308,-104,412,209,-31,229,-31,1079,120,51,24,341,178,321,178
"67","3545901",40.33,-95.25,107,127,29,10408,312,-112,424,215,-36,234,-36,872,111,22,48,328,75,327,75
"68","3517537",40.47,-95.58,107,127,29,10474,313,-113,426,216,-36,235,-36,856,110,21,48,328,74,325,74
"69","3511973",38.05,-91.22,124,144,35,8996,321,-82,403,176,1,235,1,1034,116,50,20,309,184,278,184
"70","3545172",40.56,-94.53,105,123,29,10266,310,-107,417,211,-35,232,-35,887,112,21,47,331,76,330,76
"72","31859",49.97278,-98.29195,26,118,23,13090,264,-232,496,184,-153,184,-153,466,79,13,59,219,48,219,48
"73","43592",50.585,-99.534164,11,121,24,12766,246,-245,491,164,-165,164,-165,499,80,18,52,220,61,220,61
"74","48637",50.566387,-96.2175,21,105,21,13039,250,-235,485,178,-136,178,-158,512,80,17,50,220,63,220,65
"75","15162",49.3875,-98.88472,26,127,25,12735,264,-228,492,180,-118,180,-148,465,75,16,57,212,51,212,51
"76","52301",49.4474,-100.6884,29,126,25,12640,268,-223,491,182,-144,182,-144,438,73,15,57,202,49,202,49
"77","15160",49.809586,-97.13274,22,116,23,13132,257,-237,494,179,-159,179,-159,516,83,17,53,231,59,231,59
"78","68166",49.190834,-95.395,20,117,23,12864,252,-242,494,174,-158,174,-158,563,92,17,56,254,58,254,58
"80","24107",49.668068,-96.64604,21,113,23,12989,254,-235,489,177,-158,177,-158,513,83,15,55,229,57,229,57
"81","29397",50.543888,-99.990555,6,120,24,12640,239,-247,486,158,-167,158,-167,506,81,18,53,228,62,228,62
"82","56260",49.96232,-98.29296,26,118,23,13090,264,-232,496,184,-153,184,-153,466,79,13,59,219,48,219,48
"85","QFA0395755",46.05,-75.816666,40,109,25,11058,248,-187,435,174,-96,174,-112,931,92,60,14,274,188,274,206
"86","QFA0187130",46.783333,-71.275,47,99,23,10716,256,-160,416,180,-32,180,-97,1114,117,72,18,339,216,339,264
"87","QFA0417793",46.725,-71.333336,47,100,24,10725,254,-162,416,179,-33,179,-99,1107,116,71,17,337,215,337,259
"88","QFA0395756",45.333332,-73.96667,64,106,25,10601,267,-145,412,183,-66,194,-80,918,98,59,14,270,189,266,204
"89","QFA0417791",46.729168,-71.52361,47,102,24,10764,253,-165,418,179,-33,179,-100,1093,114,69,17,331,212,331,253
"90","QFA0395757",45.49472,-74.025,62,104,25,10666,264,-149,413,181,-70,192,-83,931,96,61,13,268,195,265,211
"91","QFA0417792",46.819443,-71.318054,47,99,23,10716,256,-160,416,180,-32,180,-97,1114,117,72,18,339,216,339,264
"92","QFA0456781",46.871666,-71.07528,45,97,23,10678,252,-160,412,177,-35,177,-99,1095,117,69,18,339,210,339,256
"93","QFA0456780",46.961945,-70.92861,45,98,23,10687,251,-160,411,177,-35,177,-100,1075,115,68,18,333,207,333,249
"94","458493",41.85,-87.65,100,98,25,9848,288,-91,379,222,-32,222,-32,919,100,38,27,298,146,298,146
"97","1595273",41.8333,-87.85,98,106,27,10005,291,-99,390,221,-37,221,-37,927,103,36,28,302,142,302,142
"99","69357",48.17,-84.59,12,121,26,11064,225,-226,451,135,-68,146,-139,887,107,48,22,277,160,251,184
"100","30556",42.044086,-82.57561,96,92,25,9497,281,-77,358,215,-19,215,-29,859,85,50,16,250,169,250,177
"101","ECS017830",44.9825,-64.0475,63,100,28,8671,245,-106,351,-19,145,172,-50,1324,143,90,17,418,278,280,392
"102","ECS020591",45.63028,-63.92611,54,98,27,8903,238,-119,357,-30,89,166,-62,1205,125,87,13,364,265,273,341
"103","69666",46.3506,-74.06987,26,113,26,10850,234,-198,432,158,-54,158,-123,1119,108,72,14,319,223,319,259
"104","54332",46.03468,-66.57147,49,108,27,9997,249,-151,400,4,-27,174,-85,1107,111,81,10,314,245,274,285
"105","ECS023962",47.53,-84.52,21,110,26,10415,220,-196,416,105,-57,146,-121,981,108,57,20,300,177,266,229
"106","52533",46.333332,-74.5,27,107,25,10854,231,-194,425,160,-52,160,-121,1111,108,71,14,319,222,319,255
"107","ECS021544",46.1901,-62.415,60,87,25,8803,239,-106,345,30,140,172,-52,1115,124,77,17,351,238,250,300
"108","ECS021329",46.1302,-60.19032,57,82,25,7967,222,-95,317,-9,124,160,-42,1448,157,89,17,456,291,302,386
"109","ECS017113",45.22727,-63.60534,59,101,28,8703,241,-113,354,-22,141,169,-54,1303,140,89,16,406,277,283,380
"110","71134",45.413616,-71.624954,41,118,28,10308,244,-173,417,167,-86,167,-100,1067,123,58,20,336,199,336,218
"111","70457",55.17,-77.46,-48,89,20,12252,152,-287,439,92,-213,92,-213,636,90,23,45,258,73,258,73
"112","ECS018179",45.66977,-61.23282,58,85,26,8220,224,-102,326,-11,128,163,-46,1434,166,93,18,458,296,305,360
"113","51856",45.966667,-74.333336,34,103,24,10662,233,-181,414,164,-45,164,-111,1092,105,72,12,304,227,304,254
"114","ECS021541",46.2146,-62.4208,59,86,24,8821,238,-107,345,29,140,171,-53,1113,124,77,17,350,238,250,298
"115","ECS016873",45.413517,-63.088123,55,103,29,8644,238,-117,355,-27,86,163,-58,1253,131,87,14,382,273,284,350
"116","ECS025093",45.004166,-63.92,63,101,28,8700,245,-107,352,-19,145,173,-50,1314,141,89,17,415,276,279,389
"119","26139",46.40043,-75.033875,36,106,24,11121,239,-193,432,170,-44,170,-118,1002,102,63,16,301,199,301,221
"120","ECS019997",45.4246,-63.25274,55,103,28,8725,239,-118,357,-27,87,164,-59,1229,129,86,14,374,268,278,344
"121","ECS017965",45.67784,-63.90357,58,98,27,8898,240,-116,356,-26,92,169,-58,1161,120,84,13,350,256,265,326
"122","26138",45.50889,-73.55417,64,105,25,10808,269,-148,417,185,-69,197,-83,977,98,64,13,277,205,274,226
"125","51866",46.272243,-72.51093,52,107,24,10948,261,-169,430,174,-27,186,-98,1010,101,62,14,293,202,292,229
"126","342875",39.3528,-94.9392,125,122,30,9672,320,-77,397,224,-6,244,-6,938,134,25,48,367,88,350,88
"127","341801",42.707,-92.452,78,116,26,11122,287,-148,435,193,-75,213,-75,867,117,21,47,340,78,339,78
"128","106656",37.5087,-94.8244,136,125,31,9333,330,-65,395,188,11,253,11,1091,140,38,35,372,134,329,134
"129","356577",38.599,-91.2308,126,133,33,9248,321,-75,396,179,0,241,0,982,113,45,23,305,165,274,165
"130","51624",38.8031,-95.1861,126,118,29,9597,319,-75,394,224,-2,246,-2,970,145,29,45,365,94,344,94
"131","51692",38.8039,-95.1768,126,118,29,9597,319,-75,394,224,-2,246,-2,970,145,29,45,365,94,344,94
"132","51620",37.1697,-94.642,141,123,32,8939,327,-51,378,190,22,253,22,1077,131,39,32,361,146,308,146
"133","343882",38.3747,-94.6608,128,125,31,9601,324,-79,403,181,-3,246,-3,1027,145,34,40,361,113,339,113
"135","102012",38.3996,-94.7933,129,126,31,9618,327,-78,405,183,-2,248,-2,1020,146,33,40,361,111,338,111
"136","102870",37.0165,-94.7262,142,126,33,8769,328,-49,377,190,25,252,25,1082,130,42,30,354,151,303,151
"137","348265",38.1944,-94.6131,130,128,31,9595,328,-78,406,184,0,249,0,1039,143,36,38,361,118,337,118
"138","51693",37.5087,-94.8153,136,125,31,9333,330,-65,395,188,11,253,11,1091,140,38,35,372,134,329,134
"139","326670",38.7958,-94.6917,125,115,29,9628,316,-76,392,222,-5,244,-5,978,141,31,44,364,98,340,98
"140","326660",38.8007,-95.1533,127,118,29,9588,320,-74,394,224,-2,246,-2,974,145,29,44,366,95,345,95
"141","328011",38.7417,-94.9667,127,119,30,9621,321,-74,395,225,-2,247,-2,981,146,31,44,363,99,343,99
"142","51668",37.1044,-94.6302,141,124,32,8866,327,-49,376,189,23,253,23,1081,129,41,31,358,151,306,151
"143","332966",41.2083,-96.3439,102,126,29,10549,311,-116,427,212,-40,234,-40,770,111,16,52,306,58,292,58
"146","332545",41.2137,-96.3509,102,126,29,10549,311,-116,427,212,-40,234,-40,770,111,16,52,306,58,292,58
"147","374069",38.7848,-95.151,127,118,29,9588,320,-74,394,224,-2,246,-2,974,145,29,44,366,95,345,95
"148","337869",38.9911,-94.5186,125,114,29,9696,315,-75,390,223,-5,245,-5,964,133,31,43,358,100,336,100
"149","355724",38.8213,-92.1379,123,120,30,9484,315,-77,392,176,-6,241,-6,974,120,39,28,322,144,288,144
"150","51619",38.4202,-94.7908,129,124,30,9609,325,-78,403,183,-2,247,-2,1014,147,33,41,360,109,339,109
"151","210792",43.8415,-103.389,73,153,37,8836,291,-119,410,162,-37,190,-37,483,92,8,70,252,31,215,31
"152","116399",41.4115,-96.5068,100,127,29,10579,311,-118,429,211,-43,232,-43,781,113,16,51,308,62,289,62
"153","106665",37.0238,-94.7351,142,126,33,8769,328,-49,377,190,25,252,25,1082,130,42,30,354,151,303,151
"154","51691",38.4782,-95.36,128,125,31,9624,324,-78,402,225,-2,247,-2,972,143,29,43,357,97,337,97
"155","345609",41.5446,-81.4729,93,103,28,9083,274,-84,358,183,-18,205,-28,990,97,55,15,280,193,280,199
"157","348336",38.3747,-94.6472,128,125,31,9601,324,-79,403,181,-3,246,-3,1027,145,34,40,361,113,339,113
"158","374125",38.416,-94.6549,128,125,31,9601,324,-79,403,181,-3,246,-3,1027,145,34,40,361,113,339,113
"159","210762",43.9137,-103.632,60,146,37,8347,270,-117,387,144,-30,172,-42,542,95,13,61,263,49,227,49
"161","51621",38.8176,-95.1861,126,118,29,9597,319,-75,394,224,-2,246,-2,970,145,29,45,365,94,344,94
"162","327885",38.6042,-94.75,125,120,30,9629,319,-78,397,222,-5,244,-5,1002,145,32,42,363,105,341,105
"163","342660",38.4731,-95.36,128,125,31,9624,324,-78,402,225,-2,247,-2,972,143,29,43,357,97,337,97
"164","342654",39.3719,-94.8953,125,121,30,9692,320,-77,397,225,-6,244,-6,938,131,26,47,365,90,348,90
"165","350171",44.2828,-85.8589,70,112,29,9479,270,-111,381,143,-46,188,-55,854,108,39,24,278,148,243,158
"169","51682",39.1878,-94.8588,127,118,29,9627,322,-72,394,226,-2,246,-2,969,132,28,45,365,94,343,94
"170","311840",38.8316,-94.6382,124,115,29,9638,314,-77,391,221,-6,243,-6,977,140,31,43,361,100,338,100
"171","342906",39.1592,-94.7936,127,113,29,9670,319,-70,389,226,-2,247,-2,967,132,29,44,362,96,340,96
"172","88425",44.052143,-73.178566,72,120,29,10002,277,-135,412,185,-50,196,-63,901,103,49,20,275,161,274,169
"173","CONN00096696",42.02777,-72.10888,80,120,31,9048,271,-109,380,37,-29,194,-41,1226,114,89,6,326,287,302,295
"174","CONN00097063",42.55,-73.23333,67,116,30,9277,261,-122,383,163,-45,183,-57,1146,108,76,11,319,245,318,250
"175","CONN00096709",41.78444,-72.33944,86,116,31,8770,270,-97,367,44,-20,196,-31,1221,115,85,7,323,281,301,285
"176","CONN00096717",41.99388,-73.20194,71,111,29,9116,256,-115,371,118,-40,184,-52,1256,114,90,7,332,283,329,289
"177","CONN00096698",41.39472,-73.45388,95,113,31,8789,278,-84,362,83,-11,205,-22,1220,113,85,8,325,278,303,279
"178","CONN00096680",42.34916,-78.2275,68,122,32,9016,261,-116,377,179,-43,179,-54,960,112,50,22,294,165,294,175
"179","CONN00061209",41.905,-72.70194,97,119,31,9136,291,-88,379,144,-13,212,-25,1158,105,81,7,305,265,290,268
"180","CONN00096700",41.98555,-73.40166,80,125,32,9106,274,-110,384,194,-30,194,-42,1155,107,76,9,313,249,313,253
"181","CONN00096705",41.4825,-73.40944,95,116,31,8831,279,-87,366,83,-11,206,-23,1203,112,83,8,320,272,302,273
"183","CONN00096697",41.84722,-73.29111,75,114,30,9044,260,-112,372,122,-35,187,-47,1238,112,87,7,327,276,326,281
"184","CONN00096886",41.72777,-72.84083,96,117,31,8977,286,-87,373,84,-12,209,-24,1215,111,86,7,321,280,297,284
"186","CONN00166729",42.18416,-71.70805,87,120,31,9002,276,-102,378,43,178,200,-33,1176,114,90,6,317,282,283,290
"187","CONN00096716",41.48888,-71.81277,97,103,30,8274,267,-71,338,15,177,202,-11,1202,120,82,11,334,265,268,308
"189","CONN00096708",41.44277,-73.0625,95,110,30,8764,277,-81,358,82,-10,206,-21,1231,113,88,7,330,287,297,289
"190","CONN00096706",41.29638,-73.14666,101,104,29,8660,277,-70,347,86,-13,210,-13,1194,110,86,8,325,282,285,282
"191","CONN00096673",44.75055,-72.01833,38,114,27,10165,239,-170,409,163,-86,163,-100,1142,128,64,19,357,213,357,232
"192","CONN00096676",42.11555,-74.05805,77,115,30,9214,266,-112,378,171,-35,192,-47,1132,111,74,11,316,242,304,245
"193","CONN00096707",41.82111,-72.57666,95,118,31,8944,285,-87,372,140,-12,208,-24,1162,107,81,7,304,267,290,270
"194","CONN00141369",41.86644,-72.16526,85,119,31,8876,272,-102,374,43,-22,197,-34,1225,116,88,6,328,287,299,294
"195","CONN00096695",41.79055,-72.44277,88,116,31,8855,274,-94,368,46,-18,200,-30,1212,113,85,7,318,279,300,283
"196","CONN00096699",42.03333,-73.36333,79,126,32,9106,275,-112,387,193,-31,193,-43,1140,106,75,10,310,245,310,250
"197","CONN00169375",41.94861,-73.19861,71,111,29,9116,256,-115,371,118,-40,184,-52,1256,114,90,7,332,283,329,289
"198","CONN00096678",44.75694,-72.02638,38,114,27,10165,239,-170,409,163,-86,163,-100,1142,128,64,19,357,213,357,232
"199","CONN00096713",42.04527,-73.35444,79,126,32,9106,275,-112,387,193,-31,193,-43,1140,106,75,10,310,245,310,250
"200","CONN00096899",41.67166,-72.94916,89,116,31,8959,278,-94,372,79,-19,202,-30,1241,113,88,7,326,285,306,289
"201","CONN00096900",41.84361,-73.32916,75,114,30,9044,260,-112,372,122,-35,187,-47,1238,112,87,7,327,276,326,281
"202","CONN00096702",41.59638,-72.94777,89,112,30,8896,274,-91,365,78,-18,201,-29,1261,115,90,7,332,291,309,295
"203","CONN00096681",41.62777,-79.01638,72,123,33,8850,263,-108,371,182,-36,182,-47,1140,121,65,16,340,224,340,226
"205","CONN00096711",41.86055,-72.00722,84,119,31,8851,271,-102,373,42,-23,196,-34,1238,118,90,6,333,293,299,300
"206","CONN00096847",41.42,-72.69944,98,106,29,8716,280,-74,354,84,-6,209,-16,1225,114,89,7,326,289,292,293
"207","CONN00096714",41.65722,-72.66055,99,112,30,8846,286,-78,364,86,-7,211,-18,1184,109,84,7,312,275,289,278
"208","CONN00096674",42.71194,-73.20361,73,122,30,9424,272,-123,395,170,-42,190,-54,1102,105,70,12,310,228,310,233
"209","CONN00096712",41.52777,-71.80972,93,106,30,8402,267,-78,345,9,175,200,-17,1230,122,86,10,340,275,277,314
"210","CONN00096701",41.91666,-72.45833,90,119,31,8953,279,-95,374,135,-18,203,-29,1180,109,82,7,308,270,296,274
"211","CONN00096672",42.29888,-73.99861,84,123,31,9364,282,-110,392,180,-29,201,-41,1023,102,64,13,294,212,283,214
"212","CONN00096897",41.72472,-73.47694,85,120,31,8992,273,-103,376,175,-24,197,-36,1178,108,80,9,316,257,314,260
"213","CONN00096675",42.06805,-73.50916,79,124,32,9130,273,-111,384,172,-31,193,-43,1119,104,73,10,308,238,308,242
"214","CONN00096703",41.985,-73.42277,77,122,32,9070,269,-112,381,191,-32,191,-44,1159,107,77,9,315,250,315,254
"215","CONN00097077",44.83111,-73.27361,68,111,27,10236,269,-140,409,195,-58,195,-70,825,97,43,23,264,141,264,147
"216","CONN00096715",41.92111,-73.06055,80,120,31,9162,272,-110,382,128,-31,195,-43,1227,112,87,7,324,277,316,283
"217","CONN00096704",41.40222,-72.48305,100,104,30,8526,276,-70,346,14,208,208,-12,1218,117,91,8,327,285,285,301
"219","CONN00096679",43.86666,-73.10777,71,123,29,9935,277,-136,413,184,-50,195,-63,949,107,53,19,287,173,285,182
"220","CONN00096710",41.26444,-72.78694,104,102,29,8562,279,-63,342,88,212,212,-8,1146,108,86,8,305,271,271,277
"221","CONN00096718",41.43972,-72.01555,98,108,30,8422,273,-76,349,13,204,204,-13,1231,121,86,10,338,278,278,312
"223","CONN00096864",41.30805,-72.92805,104,102,29,8586,278,-65,343,88,212,212,-9,1141,108,84,8,307,271,271,272
"224","CONN00097064",38.50361,-90.67583,123,129,32,9258,316,-79,395,217,-3,238,-3,990,109,51,19,296,180,269,180
"225","CONN00165437",42.60416,-72.55694,78,131,32,9470,280,-126,406,127,-36,196,-50,1127,103,79,8,299,252,296,260
"226","YPM CBS 008065",41.605,-72.88,97,115,31,8915,285,-83,368,85,-10,210,-21,1217,111,87,7,323,281,295,286
"227","YPM CBS 008045",41.8911,-72.171,85,119,31,8851,272,-101,373,43,-22,196,-33,1218,115,86,7,325,283,299,290
"228","YPM YU 100736",41.33894,-72.95925,100,106,30,8675,278,-72,350,86,-4,210,-14,1189,111,86,7,321,281,284,281
"229","YPM CBS 008068",42.0223,-73.2936,78,124,32,9152,273,-113,386,192,-32,192,-45,1163,108,78,9,314,252,314,258
"231","YPM CBS 008057",41.9801,-73.1962,71,111,29,9116,256,-115,371,118,-40,184,-52,1256,114,90,7,332,283,329,289
"232","YPM CBS 008049",41.8475,-73.3298,75,114,30,9044,260,-112,372,122,-35,187,-47,1238,112,87,7,327,276,326,281
"235","YPM CBS 030136",41.6153,-72.1433,93,116,31,8623,276,-88,364,52,202,202,-21,1230,120,91,8,334,288,288,303
"236","YPM YU 037719",41.3792,-72.5783,98,103,29,8546,274,-72,346,58,206,206,-14,1235,118,92,8,330,290,290,303
"237","YPM YU 037716",42.0081,-73.1147,70,114,30,9168,258,-117,375,118,-40,185,-53,1237,114,89,7,327,278,325,284
"238","YPM CBS 008050",41.4797,-72.3942,95,107,30,8564,273,-77,350,56,204,204,-17,1243,120,92,8,334,291,291,306
"239","YPM CBS 008062",41.6978,-72.0881,91,119,32,8709,276,-93,369,50,-15,200,-25,1224,118,89,7,331,291,291,298
"240","YPM CBS 008047",41.5161,-72.759,99,110,30,8833,284,-77,361,86,-7,211,-18,1219,112,88,7,324,284,293,288
"241","YPM CBS 008059",41.4314,-73.135,93,110,30,8774,275,-84,359,81,-12,204,-23,1239,115,88,7,332,288,302,289
"242","YPM CBS 008067",41.5583,-73.036,94,113,30,8826,279,-86,365,82,-12,205,-23,1229,113,87,7,327,285,300,287
"243","YPM CBS 008048",41.7599,-72.9591,87,117,31,9038,276,-99,375,133,-22,200,-34,1246,113,89,7,327,286,310,290
"244","YPM CBS 008058",41.1186,-73.4228,104,108,30,8606,282,-69,351,90,-10,213,-10,1201,110,83,8,326,281,292,281
"245","YPM YU 037724",41.9861,-73.4258,77,122,32,9070,269,-112,381,191,-32,191,-44,1159,107,77,9,315,250,315,254
"246","YPM CBS 008061",41.986,-73.4257,77,122,32,9070,269,-112,381,191,-32,191,-44,1159,107,77,9,315,250,315,254
"247","YPM CBS 008060",41.5988,-72.5891,99,112,30,8846,286,-78,364,86,-7,211,-18,1184,109,84,7,312,275,289,278
"249","YPM CBS 008053",42.0042,-72.9489,75,117,30,9182,266,-114,380,123,-36,190,-48,1244,115,90,7,329,282,320,288
"250","YPM CBS 008052",42.0043,-72.9489,75,117,30,9182,266,-114,380,123,-36,190,-48,1244,115,90,7,329,282,320,288
"251","YPM CBS 008066",41.9875,-72.3123,83,119,31,8967,272,-103,375,40,-25,196,-37,1211,113,86,6,319,279,302,284
"252","3075115",38.89944,-77.0575,133,115,32,8546,311,-42,353,241,20,241,20,1021,104,70,12,292,223,292,223
"253","1870615",38.9725,-77.14917,128,119,33,8549,307,-48,355,236,14,236,14,1034,102,70,11,291,223,291,223
"254","2614776",38.97389,-77.19167,126,119,33,8523,305,-50,355,234,13,234,13,1025,101,69,12,288,219,288,219
"255","608614",38.99861,-77.25417,126,120,33,8513,305,-51,356,233,13,233,13,1018,100,69,11,285,218,285,218
"256","1769728",38.91028,-76.96639,130,114,32,8486,307,-43,350,238,19,238,19,1046,107,71,12,300,228,300,228
"257","3150359",38.96944,-77.17667,126,119,33,8523,305,-50,355,234,13,234,13,1025,101,69,12,288,219,288,219
"259","3410165",39.47333,-76.98528,115,118,32,8602,298,-61,359,202,1,224,1,1086,108,73,10,302,238,289,238
"260","642455",38.96694,-76.86222,128,117,33,8458,305,-46,351,235,16,235,16,1067,107,71,12,303,230,303,230
"262","2163870",38.97611,-77.23528,126,119,33,8523,305,-50,355,234,13,234,13,1025,101,69,12,288,219,288,219
"263","2098031",39.57889,-77.3325,113,123,33,8632,298,-66,364,159,-2,222,-2,1022,100,70,11,286,219,277,219
"264","687774",38.98667,-77.005,128,117,33,8529,306,-47,353,236,15,236,15,1053,104,71,12,297,227,297,227
"265","3453484",39.23194,-76.70083,130,116,32,8635,312,-44,356,240,17,240,17,1082,105,75,11,298,241,298,241
"267","3230388",38.88222,-77.0575,133,115,32,8546,311,-42,353,241,20,241,20,1021,104,70,12,292,223,292,223
"269","3409622",38.99806,-77.28861,126,120,33,8513,305,-51,356,233,13,233,13,1018,100,69,11,285,218,285,218
"270","3406868",38.93,-77.11444,128,119,33,8549,307,-48,355,236,14,236,14,1034,102,70,11,291,223,291,223
"272","222717",38.895,-77.03667,133,115,32,8546,311,-42,353,241,20,241,20,1021,104,70,12,292,223,292,223
"277","3464610",39.13167,-77.52778,123,123,33,8561,307,-55,362,210,10,231,10,996,98,67,12,281,210,280,210
"278","3410163",39.66083,-77.00556,112,119,32,8659,296,-65,361,157,-3,221,-3,1061,104,71,10,294,232,281,232
"279","3382753",39.50944,-76.16444,122,114,32,8628,300,-53,353,230,20,230,8,1117,106,72,11,316,243,316,246
"280","3369174",38.86722,-77.165,128,116,33,8505,305,-46,351,236,16,236,16,1033,104,71,11,293,224,293,224
"281","2618943",39.05361,-77.28917,125,121,33,8535,305,-52,357,211,11,232,11,1009,99,68,12,284,214,283,214
"282","3405230",38.89194,-77.06111,133,115,32,8546,311,-42,353,241,20,241,20,1021,104,70,12,292,223,292,223
"283","3409911",38.71889,-77.11028,132,115,33,8421,305,-41,346,231,20,238,20,998,105,71,11,286,225,283,225
"285","1089184",39.05083,-76.89694,127,118,33,8501,307,-48,355,213,15,235,15,1074,105,71,12,300,232,300,232
"286","363378",39.01222,-77.16139,124,119,33,8517,304,-51,355,211,11,232,11,1043,103,71,12,293,223,291,223
"289","895301",38.97861,-76.91694,130,117,33,8530,309,-45,354,238,17,238,17,1053,106,71,12,299,228,299,228
"290","3385762",38.96944,-77.38639,124,121,33,8503,304,-52,356,232,11,232,11,1016,99,69,11,283,217,283,217
"292","2163984",39.27583,-77.53944,119,122,33,8611,303,-58,361,207,5,228,5,989,97,66,12,281,206,278,206
"294","1872420",38.93917,-76.93417,130,117,33,8530,309,-45,354,238,17,238,17,1053,106,71,12,299,228,299,228
"296","3208260",38.90583,-76.94056,130,114,32,8486,307,-43,350,238,19,238,19,1046,107,71,12,300,228,300,228
"300","2164555",38.97917,-77.23611,126,119,33,8523,305,-50,355,234,13,234,13,1025,101,69,12,288,219,288,219
"301","3594221",38.93572,-77.28309,126,120,33,8513,305,-51,356,233,13,233,13,1018,100,69,11,285,218,285,218
"304","1898072",38.82417,-77.71111,124,124,34,8460,303,-56,359,209,11,230,11,1031,102,70,12,286,216,286,216
"305","608599",39.41944,-76.78056,117,116,32,8609,299,-58,357,205,3,226,3,1118,111,76,10,309,248,296,248
"307","3385770",38.61833,-77.125,133,115,33,8356,304,-39,343,231,22,238,22,1001,106,71,11,286,226,285,226
"308","3504495",38.865665,-77.0455,133,115,32,8546,311,-42,353,241,20,241,20,1021,104,70,12,292,223,292,223
"309","CONN00096876",41.84361,-73.32916,75,114,30,9044,260,-112,372,122,-35,187,-47,1238,112,87,7,327,276,326,281
"310","CONN00062094",41.905,-72.70194,97,119,31,9136,291,-88,379,144,-13,212,-25,1158,105,81,7,305,265,290,268
"313","67434",50.543888,-99.990555,6,120,24,12640,239,-247,486,158,-167,158,-167,506,81,18,53,228,62,228,62
"315","341803",42.707,-92.452,78,116,26,11122,287,-148,435,193,-75,213,-75,867,117,21,47,340,78,339,78
"316","51622",37.1697,-94.642,141,123,32,8939,327,-51,378,190,22,253,22,1077,131,39,32,361,146,308,146
"317","51694",37.5087,-94.8153,136,125,31,9333,330,-65,395,188,11,253,11,1091,140,38,35,372,134,329,134
"318","348266",38.1944,-94.6131,130,128,31,9595,328,-78,406,184,0,249,0,1039,143,36,38,361,118,337,118
"322","51695",37.0165,-94.7262,142,126,33,8769,328,-49,377,190,25,252,25,1082,130,42,30,354,151,303,151
"324","327872",38.7958,-94.6917,125,115,29,9628,316,-76,392,222,-5,244,-5,978,141,31,44,364,98,340,98
"327","MT00119465",48.366665,-89.583336,23,125,26,11313,246,-218,464,151,-115,161,-131,721,87,29,31,250,113,248,113
"328","MT00002420",45.466667,-73.933334,62,104,25,10654,266,-148,414,182,-69,193,-82,930,96,61,13,268,195,264,211
"329","MT00119440",45.466667,-73.916664,62,103,24,10675,265,-148,413,182,-69,193,-83,937,97,61,13,271,197,267,213
"333","3150281",38.96944,-77.17667,126,119,33,8523,305,-50,355,234,13,234,13,1025,101,69,12,288,219,288,219
"334","3410164",38.9725,-77.14917,128,119,33,8549,307,-48,355,236,14,236,14,1034,102,70,11,291,223,291,223
"335","3201773",38.93,-77.11444,128,119,33,8549,307,-48,355,236,14,236,14,1034,102,70,11,291,223,291,223
"336","3410192",39.47333,-76.98528,115,118,32,8602,298,-61,359,202,1,224,1,1086,108,73,10,302,238,289,238
"337","2607138",38.895,-77.03667,133,115,32,8546,311,-42,353,241,20,241,20,1021,104,70,12,292,223,292,223
"339","3230389",38.88222,-77.0575,133,115,32,8546,311,-42,353,241,20,241,20,1021,104,70,12,292,223,292,223
"341","643618",39.05083,-76.89694,127,118,33,8501,307,-48,355,213,15,235,15,1074,105,71,12,300,232,300,232
"347","YPM CBS 008054",41.3792,-72.5783,98,103,29,8546,274,-72,346,58,206,206,-14,1235,118,92,8,330,290,290,303
"349","ECS010642",46.05,-75.816666,40,109,25,11058,248,-187,435,174,-96,174,-112,931,92,60,14,274,188,274,206
"350","2783731",38.73,-93.3,121,123,30,9634,316,-83,399,219,-10,240,-10,1019,124,36,34,348,128,316,128
"353","817328",38.895,-77.03667,133,115,32,8546,311,-42,353,241,20,241,20,1021,104,70,12,292,223,292,223
"354","608606",38.99861,-77.25417,126,120,33,8513,305,-51,356,233,13,233,13,1018,100,69,11,285,218,285,218
"355","3150363",38.96944,-77.17667,126,119,33,8523,305,-50,355,234,13,234,13,1025,101,69,12,288,219,288,219
"356","1769781",38.91028,-76.96639,130,114,32,8486,307,-43,350,238,19,238,19,1046,107,71,12,300,228,300,228
"359","YPM CBS 008064",41.605,-72.88,97,115,31,8915,285,-83,368,85,-10,210,-21,1217,111,87,7,323,281,295,286
