"","catalogNumber","lat","lon","bio1","bio2","bio3","bio4","bio5","bio6","bio7","bio8","bio9","bio10","bio11","bio12","bio13","bio14","bio15","bio16","bio17","bio18","bio19"
"1","2162901",38.86639,-76.98417,130,114,32,8486,307,-43,350,238,19,238,19,1046,107,71,12,300,228,300,228
"2","CONN00162699",41.33833,-72.96083,100,106,30,8675,278,-72,350,86,-4,210,-14,1189,111,86,7,321,281,284,281
"3","888058",37.891,-77.491,137,127,36,8086,309,-41,350,238,29,238,29,1076,106,77,10,301,244,301,244
"4","3574682",37.11,-91.19,131,144,36,8728,324,-72,396,133,12,239,12,1132,116,59,18,337,230,283,230
"5","100139382",37.17,-90.12,130,133,34,8913,320,-65,385,131,9,241,9,1185,125,75,16,359,258,291,258
"7","100229344",36.84,-89.91,142,121,32,9013,328,-48,376,142,205,254,19,1220,132,75,18,380,256,274,284
"9","100139359",37.18,-90.16,130,133,34,8913,320,-65,385,131,9,241,9,1185,125,75,16,359,258,291,258
"12","1199486",37.39,-91.28,132,138,35,8638,320,-67,387,133,14,238,14,1096,115,54,20,329,201,284,201
"15","100197398",38.99,-75.92,129,115,33,8327,306,-40,346,235,20,235,20,1102,112,77,11,310,252,310,252
"17","100139384",37.17,-90.12,130,133,34,8913,320,-65,385,131,9,241,9,1185,125,75,16,359,258,291,258
"18","100139379",37.18,-90.16,130,133,34,8913,320,-65,385,131,9,241,9,1185,125,75,16,359,258,291,258
