"","catalogNumber","lat","lon","bio1","bio2","bio3","bio4","bio5","bio6","bio7","bio8","bio9","bio10","bio11","bio12","bio13","bio14","bio15","bio16","bio17","bio18","bio19"
"1","1119167",37.036945,-119.003334,56,120,43,5560,216,-59,275,-4,131,132,-4,780,143,8,75,384,29,44,384
"2","388479",38.457672,-122.867744,137,149,58,3941,280,24,256,86,183,186,86,1036,228,2,91,577,12,20,577
"4","909525",40.04111,-121.46,68,140,44,6058,255,-58,313,9,148,149,0,1179,203,6,72,558,46,51,553
"5","1089471",37.073055,-119.09917,81,129,44,5805,250,-39,289,20,160,161,19,868,162,5,80,444,21,35,436
"7","233713",40.9526,-122.7378,113,165,47,6514,322,-28,350,39,198,198,35,1026,183,7,75,513,40,40,498
"9","865721",39.59139,-121.1375,103,147,47,5947,288,-23,311,35,182,182,35,1363,275,2,82,720,27,34,720
"10","909527",40.055,-121.53889,84,149,46,6096,276,-46,322,14,165,165,14,1027,187,4,75,502,33,33,502
"14","864837",38.78611,-120.140274,54,137,44,6148,232,-78,310,-5,135,137,-16,1080,187,12,71,514,53,59,512
"15","1152149",39.578335,-121.136665,112,148,47,5923,297,-16,313,44,190,190,44,1474,302,2,84,786,26,26,786
"16","1152010",36.93222,-118.97111,67,124,43,5730,232,-50,282,6,145,146,6,767,143,7,77,383,26,41,383
"17","1118900",34.13,-116.84333,60,142,47,5691,229,-69,298,-2,110,137,-2,759,128,6,69,368,53,91,368
"18","909526",39.890835,-121.415276,111,153,46,6140,304,-23,327,38,191,191,38,1071,209,2,80,552,22,22,552
"20","1034084",34.191666,-116.78333,71,151,48,5895,247,-67,314,7,125,150,4,671,113,5,69,324,48,63,318
"24","JEPS110425",39.745834,-121.07583,85,140,45,6120,270,-40,310,16,166,167,16,1342,249,5,78,668,39,45,668
"25","JEPS87493",39.5764,-121.139,112,148,47,5923,297,-16,313,44,190,190,44,1474,302,2,84,786,26,26,786
"26","JEPS105281",39.95,-121.4675,78,144,45,6073,267,-49,316,10,159,159,10,1098,199,5,75,536,37,44,536
"27","JEPS109548",37.5175,-119.318054,56,133,45,5715,225,-67,292,-5,133,134,-7,727,129,9,73,350,33,44,349
"28","JEPS95507",39.6053,-121.0646,100,144,46,5987,284,-26,310,32,179,179,32,1423,277,4,81,733,33,40,733
"29","JEPS100669",38.300835,-119.78445,43,134,44,6000,215,-86,301,-13,123,123,-24,913,155,14,69,425,53,60,424
"31","JEPS106372",40.04333,-121.504166,84,149,46,6096,276,-46,322,14,165,165,14,1027,187,4,75,502,33,33,502
"32","JEPS95438",39.5187,-121.2321,119,148,46,6010,306,-12,318,48,198,198,48,1480,298,2,84,778,23,23,778
"33","JEPS105619",36.795277,-118.967224,90,127,43,5991,261,-33,294,27,171,172,25,849,163,4,81,438,19,34,432
"34","JEPS100487",39.623333,-121.19028,107,148,47,5931,293,-20,313,39,185,186,39,1306,267,2,83,696,24,32,696
"35","JEPS95361",39.6197,-121.0646,100,144,46,5987,284,-26,310,32,179,179,32,1423,277,4,81,733,33,40,733
"36","JEPS94302",39.9807,-121.4181,78,144,45,6073,267,-49,316,10,159,159,10,1098,199,5,75,536,37,44,536
"37","JEPS63697",37.9964,-119.4324,33,132,45,5808,202,-91,293,-31,111,112,-31,734,125,15,66,338,51,59,338
"38","JEPS110342",40.1275,-121.491104,67,143,45,6087,256,-61,317,7,148,148,-2,1156,196,7,70,541,49,54,534
"39","JEPS95336",39.7352,-121.0274,85,140,45,6120,270,-40,310,16,166,167,16,1342,249,5,78,668,39,45,668
"40","JEPS105283",39.956844,-121.46102,78,144,45,6073,267,-49,316,10,159,159,10,1098,199,5,75,536,37,44,536
"41","JEPS109547",37.484444,-119.68472,111,148,46,6255,299,-21,320,46,194,196,40,1003,183,4,80,501,21,30,501
"42","dbsn291742",34.19167,-116.78333,71,151,48,5895,247,-67,314,7,125,150,4,671,113,5,69,324,48,63,318
"44","185888",37.67,-119.683334,91,143,45,6154,274,-40,314,26,173,174,21,963,171,6,77,470,29,37,469
"150","191756",39.578335,-121.136665,112,148,47,5923,297,-16,313,44,190,190,44,1474,302,2,84,786,26,26,786
"151","187160",34.13,-116.84333,60,142,47,5691,229,-69,298,-2,110,137,-2,759,128,6,69,368,53,91,368
"152","185888",37.67,-119.683334,91,143,45,6154,274,-40,314,26,173,174,21,963,171,6,77,470,29,37,469
"154","388480",38.457672,-122.867744,137,149,58,3941,280,24,256,86,183,186,86,1036,228,2,91,577,12,20,577
"162","187160",34.13,-116.84333,60,142,47,5691,229,-69,298,-2,110,137,-2,759,128,6,69,368,53,91,368
