"","catalogNumber","lat","lon","bio1","bio2","bio3","bio4","bio5","bio6","bio7","bio8","bio9","bio10","bio11","bio12","bio13","bio14","bio15","bio16","bio17","bio18","bio19"
"1","CAN 455212",45.367,-75.9,59,101,24,10918,263,-155,418,181,-76,192,-90,844,81,53,13,240,168,239,186
"2","CAN 521716",46.326,-81.606,39,109,26,10333,241,-173,414,120,-90,165,-100,842,98,49,18,260,165,223,177
"3","CONN00107382",42.29888,-73.99861,84,123,31,9364,282,-110,392,180,-29,201,-41,1023,102,64,13,294,212,283,214
"4","CONN00107370",41.53944,-72.39694,93,110,30,8621,273,-82,355,53,202,202,-21,1247,119,91,7,333,296,296,303
"5","CONN00107381",43.23166,-71.56,75,130,32,9511,278,-128,406,28,-39,194,-53,1014,103,70,9,279,223,260,233
"6","CONN00107372",41.77305,-72.7375,98,117,31,9031,290,-85,375,143,-10,212,-22,1165,106,81,7,307,266,290,270
"9","CONN00143822",42.07722,-71.62944,90,119,31,8875,277,-96,373,47,179,202,-28,1195,118,90,7,325,280,283,298
"10","CONN00107371",41.79055,-72.44277,88,116,31,8855,274,-94,368,46,-18,200,-30,1212,113,85,7,318,279,300,283
"11","CONN00107374",41.18222,-73.26833,102,105,30,8608,278,-70,348,87,-12,210,-12,1203,111,85,8,328,283,289,283
"12","CONN00107379",41.99138,-72.70166,95,120,31,9222,291,-92,383,143,-16,211,-28,1153,105,80,7,303,263,291,266
"14","CONN00070238",42.55,-72.51666,79,129,32,9408,280,-122,402,129,-34,197,-48,1126,102,79,8,298,252,296,259
"15","CONN00166723",42.55555,-72.0675,70,121,31,9190,262,-124,386,25,-41,185,-54,1131,106,81,7,296,259,295,265
"16","CONN00107377",41.51691,-71.80833,93,106,30,8402,267,-78,345,9,175,200,-17,1230,122,86,10,340,275,277,314
"17","CONN00107376",41.58888,-71.87333,92,111,31,8541,270,-85,355,5,176,200,-21,1240,122,89,9,339,284,284,312
"18","CONN00107387",45.5925,-84.67333,59,109,28,9635,256,-133,389,135,-62,178,-68,792,99,34,24,254,136,224,141
"19","CONN00107385",42.58194,-72.49305,71,125,31,9340,269,-127,396,120,-41,188,-55,1180,108,84,8,314,265,311,272
"20","CONN00095393",42.25833,-72.57444,85,123,31,9250,280,-108,388,134,-26,201,-39,1118,101,79,7,295,253,291,257
"21","CONN00107380",44.23944,-69.18333,71,111,29,9248,260,-119,379,29,187,187,-52,1188,131,82,14,356,255,255,295
"22","CONN00107386",39.95361,-74.19833,115,110,31,8365,291,-55,346,216,6,222,6,1164,118,83,11,320,275,313,275
"23","CONN00107378",41.59638,-72.94777,89,112,30,8896,274,-91,365,78,-18,201,-29,1261,115,90,7,332,291,309,295
"25","3538",45.5667,-84.6833,60,111,28,9627,259,-132,391,136,-60,180,-67,790,98,34,24,253,136,224,143
"26","36005",45.85,-73.23333,57,109,25,10898,266,-161,427,190,-77,190,-92,971,97,61,13,274,200,274,220
"28","MT00013908",44.65445,-77.8856,56,105,26,10076,253,-145,398,78,-68,180,-80,855,83,58,11,236,182,219,195
"29","MT00063546",46.016666,-77.45,47,114,25,11119,262,-179,441,182,-91,182,-105,840,86,49,18,250,158,250,168
"30","MT00172683",45.533333,-75.96667,48,102,24,10953,252,-170,422,181,-88,181,-102,897,86,58,13,255,182,255,201
"31","ECS024933",44.27393,-64.84285,63,84,28,7334,210,-85,295,-3,127,153,-33,1354,152,84,20,438,267,277,410
"32","ECS018169",44.033333,-64.715836,61,78,28,6779,195,-79,274,2,139,145,-27,1357,154,76,21,438,260,270,407
"33","121751",36.845276,-84.32083,128,132,37,7945,300,-50,350,208,186,227,21,1279,126,79,12,356,275,333,313
"34","121765",35.416668,-84.28,140,136,39,7619,309,-33,342,54,197,235,38,1420,153,85,15,410,289,346,389
"35","CONN00107373",41.18222,-73.26833,102,105,30,8608,278,-70,348,87,-12,210,-12,1203,111,85,8,328,283,289,283
