"","catalogNumber","lat","lon","bio1","bio2","bio3","bio4","bio5","bio6","bio7","bio8","bio9","bio10","bio11","bio12","bio13","bio14","bio15","bio16","bio17","bio18","bio19"
"2","103672",60.783333,-137.58333,-27,140,29,11802,205,-272,477,101,-16,114,-187,318,41,9,37,112,36,108,76
"3","512091",28.995832,-102.6,154,128,47,5016,280,11,269,203,96,211,83,473,95,9,71,245,40,205,45
"4","35787",49.6167,-116.7833,57,107,32,7715,247,-86,333,-33,151,158,-40,742,98,42,30,275,133,149,251
"5","3511",51.22861,-115.49472,2,127,33,8353,200,-183,383,85,-52,107,-105,561,80,29,31,201,104,192,117
"7","89658",49.980278,-114.40083,10,130,34,7925,204,-175,379,48,-29,110,-90,627,85,36,25,210,122,190,138
"8","85062",52.45,-116.0833,4,134,33,8366,203,-198,401,107,-39,107,-104,585,98,20,56,267,78,267,79
"9","3987",52.9725,-113.96472,21,137,31,10299,225,-210,435,144,-40,144,-118,489,94,17,66,249,57,249,62
"10","3579",53.71111,-113.21778,25,120,27,11012,234,-195,429,157,-41,157,-124,447,88,16,67,235,53,235,59
"11","3270",52.470554,-116.07528,4,134,33,8366,203,-198,401,107,-39,107,-104,585,98,20,56,267,78,267,79
"12","89778",50.656113,-115.13695,-2,123,32,8214,191,-186,377,37,11,101,-106,643,85,38,23,209,132,189,158
"13","111180",52.95,-115.5833,17,146,34,9551,223,-202,425,133,-89,133,-113,556,106,16,66,277,63,277,65
"14","127951",53.49766,-113.217,21,117,27,10839,225,-197,422,151,-43,151,-125,456,90,16,67,240,53,240,59
"15","89820",49.6333,-114.7833,19,128,34,7883,215,-157,372,-71,114,119,-81,755,81,47,18,225,152,179,219
"16","3510",53.16028,-117.095276,11,129,33,8598,205,-176,381,117,-42,117,-103,560,96,20,56,261,75,261,80
"20","89710",60.7167,-135.05,-10,108,24,11004,204,-231,435,110,-3,125,-158,271,37,9,40,107,36,103,54
"21","3578",49.48528,-113.9475,44,133,36,7984,243,-125,368,126,-4,146,-59,506,71,29,34,183,88,166,89
"22","3278",53.9167,-122.75,39,121,31,8689,231,-149,380,145,-5,145,-78,635,65,28,22,190,105,190,159
"23","3271",49.024723,-111.298615,54,142,34,9248,269,-143,412,148,-67,171,-67,323,63,9,63,150,34,136,34
"26","89626",54.2333,-125.75,20,115,30,8542,200,-177,377,-83,20,123,-97,481,55,20,25,155,78,137,139
"27","94243",55.06861,-114.04,5,118,25,11829,219,-251,470,143,-56,143,-158,512,92,21,58,249,68,249,84
"31","89843",60.7528,-137.5069,-27,140,29,11802,205,-272,477,101,-16,114,-187,318,41,9,37,112,36,108,76
"32","89646",54.9833,-123.0333,24,110,29,9027,217,-157,374,-84,25,136,-97,678,71,24,22,206,115,186,195
"33","111588",50.138332,-110.611115,49,138,30,10798,277,-182,459,183,-13,183,-94,326,56,14,47,135,45,135,48
"34","23765",54.448612,-110.02861,11,118,25,11977,230,-232,462,154,-129,154,-152,444,82,14,62,224,53,224,56
"35","112514",53.46667,-112.7833,19,121,28,11012,227,-203,430,150,-46,150,-130,448,86,15,67,234,52,234,58
"36","35971",51.5333,-116.5167,-23,108,31,7709,162,-186,348,75,-74,75,-120,702,81,44,19,218,135,218,174
"37","102998",53.91667,-119.95,-12,101,31,7635,158,-163,321,85,-63,85,-107,756,87,39,21,246,148,246,179
"38","89824",51.4997,-116.4722,-11,112,31,7915,179,-180,359,89,-61,89,-112,682,78,41,19,210,129,210,173
"39","35972",49.8833,-119.4833,81,120,33,8091,279,-74,353,164,37,185,-25,350,38,20,20,104,66,101,91
"40","89700",50.284443,-114.58056,-4,124,33,7952,186,-186,372,32,-43,96,-104,633,89,35,27,216,119,199,138
"41","23332",54.443054,-112.77111,13,127,28,11182,231,-214,445,147,-54,147,-139,467,89,17,66,239,57,239,61
"42","124995",53.28237,-114.4501,23,142,32,10238,230,-209,439,146,-36,146,-116,506,99,18,66,259,59,259,64
"43","106838",52.88333,-116.9333,-3,123,33,8348,188,-182,370,100,-54,100,-113,569,94,21,52,256,81,256,86
"45","120089",53.2668,-114.5302,23,143,32,10225,231,-209,440,145,-35,145,-116,508,99,18,66,260,59,260,64
"49","111589",49.648335,-110.005,17,134,30,10263,240,-200,440,123,-40,146,-117,398,68,17,44,161,56,157,66
"50","89695",49.66528,-110.1075,16,132,30,10146,236,-199,435,120,-40,143,-117,409,69,18,43,165,57,160,67
"53","89703",116.558395,52.879723,NA,NA,NA,NA,NA,NA,NA,NA,NA,NA,NA,NA,NA,NA,NA,NA,NA,NA,NA
"55","89709",60.17472,-129.6189,-31,125,26,12537,201,-277,478,103,-19,120,-200,528,62,21,24,166,87,159,131
"56","120088",53.26833,-114.5367,23,143,32,10225,231,-209,440,145,-35,145,-116,508,99,18,66,260,59,260,64
"58","3275",53.634445,-114.0325,23,123,28,10448,227,-199,426,149,-38,149,-117,495,95,19,64,253,60,253,68
"61","39990",54.7283,-115.3545,-5,125,28,10442,198,-235,433,120,-67,120,-146,576,105,22,62,290,75,290,78
"62","46258",49.13389,-114.155,3,126,35,7528,197,-160,357,36,65,100,-90,692,84,43,19,214,154,184,172
"63","3273",49.5667,-110.1333,21,135,30,10294,245,-197,442,127,-37,150,-114,385,66,17,44,158,54,152,62
"64","35789",51.20111,-115.66278,-5,123,32,8155,190,-185,375,76,-58,98,-108,583,80,32,28,202,110,194,125
"65","84655",49.17577,-113.189316,48,136,35,8446,251,-137,388,134,-61,156,-61,416,77,16,54,179,53,165,53
"66","89699",50.101665,-114.442276,-2,125,33,7876,189,-183,372,34,-40,97,-100,638,88,36,26,216,122,196,139
"67","35788",51.083332,-114.166664,31,131,33,8948,228,-168,396,143,-20,143,-85,442,83,15,59,202,52,202,55
"68","3027",53.182777,-117.01611,16,132,34,8720,212,-174,386,124,-37,124,-99,577,100,21,56,270,74,270,81
"69","116466",48.85,-111.1167,29,135,34,8922,238,-159,397,119,-85,144,-85,403,72,14,55,178,50,159,50
"73","79655",50.68333,-115.1167,-3,123,32,8238,190,-188,378,36,10,100,-108,634,86,37,25,209,129,191,152
"74","128403",49.08861,-114.13111,3,126,35,7528,197,-160,357,36,65,100,-90,692,84,43,19,214,154,184,172
"76","34832",51.045834,-114.0575,33,132,33,9039,231,-167,398,146,-71,146,-84,427,82,14,61,200,47,200,49
"77","3272",49.170277,-114.05055,4,126,35,7566,197,-160,357,38,-37,102,-89,667,85,40,21,213,142,185,157
"79","39016",49.398056,-114.57139,7,126,34,7661,202,-161,363,42,101,105,-88,727,83,46,17,214,155,182,195
"80","38176",52.967777,-117.32139,-14,116,32,8114,170,-182,352,87,-65,87,-119,574,91,23,47,249,86,249,93
"85","103634",41.20941,-106.789764,45,155,39,8349,263,-128,391,83,-59,154,-59,378,42,22,18,115,70,103,70
"86","120236",52.99361,-114.727776,20,148,34,9893,225,-210,435,139,-92,139,-114,524,103,17,67,264,60,264,61
"89","76864",49.08333,-113.85,28,133,36,7768,228,-139,367,67,-24,129,-70,599,79,36,24,193,127,173,135
"91","111179",54.71667,-115.8167,-3,125,29,10142,198,-224,422,119,-65,119,-139,590,106,22,61,295,76,295,81
"92","100916",53.4825,-112.9947,19,120,28,10937,227,-201,428,150,-44,150,-128,453,87,16,67,236,53,236,58
"93","3279",47.65,-120.4333,46,116,34,7641,238,-99,337,-44,142,144,-50,730,127,16,62,357,70,72,327
"95","101241",53.45333,-113.0231,20,119,27,10914,226,-200,426,151,-44,151,-127,453,88,16,68,237,53,237,59
"98","35032",51.4333,-116.3,-12,114,31,7930,179,-184,363,88,-62,88,-113,653,79,38,22,209,122,209,156
"99","34830",49.6667,-109.50075,21,138,30,10579,249,-205,454,130,-37,153,-118,378,66,16,45,155,53,153,64
"101","35786",51.795555,-114.63778,20,134,33,9395,218,-185,403,116,-37,135,-106,503,89,18,57,227,64,227,69
"105","42047",54.809444,-111.41194,6,122,26,11649,223,-233,456,144,-63,144,-153,468,87,15,62,234,57,234,60
"108","79350",50.56667,-115.2167,-33,111,31,7633,150,-200,350,-3,-70,63,-127,676,88,41,22,219,140,200,158
"111","89697",49.635277,-114.50306,20,129,34,7852,216,-158,374,59,82,119,-80,695,81,44,17,207,151,180,182
"113","25369",52.614166,-116.34333,4,131,33,8383,202,-190,392,107,-42,107,-105,583,98,20,54,266,81,266,82
"115","3276",49.264168,-113.8575,37,133,36,7880,236,-133,369,118,-10,138,-64,535,76,31,31,188,99,170,102
"117","43967",49.0667,-120.7833,21,109,33,7328,200,-122,322,-65,114,114,-72,734,112,34,43,313,113,113,287
"119","35030",53.95,-106.3667,-4,121,25,12722,227,-255,482,149,-155,149,-175,465,80,16,54,215,60,215,62
"121","111587",49.633335,-110.208336,15,131,30,10064,234,-197,431,118,-40,141,-116,413,70,18,44,167,58,161,68
"122","3269",55.366665,-115.03333,5,125,26,11704,219,-255,474,142,-61,142,-157,504,92,18,61,252,60,252,71
"125","40893",54.91667,-117.8167,11,125,28,10880,219,-227,446,138,-45,138,-139,533,83,23,48,239,77,239,98
"126","79681",49.0045,-113.46498,39,137,36,7937,239,-136,375,119,-62,141,-62,482,81,23,44,192,75,173,75
"127","57144",53.75,-116.55,21,138,34,9343,224,-180,404,134,-34,134,-105,569,110,18,67,292,65,292,71
"128","3512",50.1025,-114.44361,-2,125,33,7876,189,-183,372,34,-40,97,-100,638,88,36,26,216,122,196,139
"130","103633",43.537415,-111.30689,32,149,37,8637,255,-147,402,70,138,143,-78,484,55,31,17,141,103,113,129
"131","85445",53.58333,-113.6667,26,117,27,10670,228,-193,421,154,-37,154,-117,474,93,17,66,246,57,246,65
"132","WILLU3605",42.618,-118.4791,89,168,43,7377,311,-74,385,120,181,188,-2,236,26,8,26,72,38,47,61
"133","OSC56093",45.3333,-117.0003,34,149,40,7369,246,-124,370,-51,126,129,-61,578,69,22,28,197,86,105,186
"134","WILLU22499",42.2933,-121.6681,70,153,43,6845,279,-75,354,-7,159,160,-13,383,64,7,53,172,37,45,157
"135","OSC97168",45.1443,-117.3176,-1,143,39,7040,205,-153,358,-77,90,91,-88,728,95,26,34,270,101,120,257
"136","OSC73660",45.3469,-121.3385,69,116,39,6197,244,-51,295,-1,150,150,-7,1094,180,16,61,515,83,83,484
"137","ORE16840",44.5374,-118.6026,37,161,42,7076,252,-126,378,-45,125,129,-54,514,72,18,37,199,70,84,182
"138","ORE17089",45.1734,-117.3402,-5,141,39,6950,198,-155,353,-79,85,86,-90,756,100,27,35,283,104,123,269
"139","OSC195813",44.1523,-117.645,50,155,39,8077,275,-120,395,-43,151,156,-53,411,56,15,34,155,58,72,144
"140","OSC186891",44.9751,-120.8438,81,139,42,6616,277,-53,330,5,167,170,1,420,59,12,42,173,51,56,154
"141","WILLU25297",45.2347,-117.3172,-8,141,39,6930,195,-158,353,-81,82,83,-92,769,101,27,34,286,106,125,272
"142","OSC184859",45.2569,-117.1768,28,148,40,7243,238,-128,366,-54,119,121,-64,589,71,23,28,202,88,107,191
"143","WILLU5491",44.1251,-122.0829,73,133,42,6107,261,-49,310,5,154,154,0,1507,259,21,65,728,103,103,673
"144","ORE16872",43.7281,-121.2099,26,137,43,6111,216,-100,316,-37,108,108,-44,804,127,21,52,360,81,81,327
"145","OSC185046",44.3267,-118.6763,11,152,41,6868,218,-145,363,-65,98,101,-75,578,80,21,36,222,79,92,205
"146","OSC195802",44.3418,-118.7785,51,164,43,7107,269,-111,380,-31,139,144,-40,429,56,17,32,156,63,76,140
"147","OSC80724",43.5858,-122.6519,66,125,43,5614,241,-45,286,5,140,141,0,1697,285,20,65,818,105,112,742
"148","WILLU11637",45.5594,-116.8322,57,145,39,7400,268,-96,364,-28,150,153,-37,546,59,23,25,169,86,105,157
"149","WILLU6136",43.7789,-119.2059,59,163,42,7351,277,-105,382,-28,150,155,-36,317,40,13,30,114,48,56,104
"150","WILLU13408",42.8211,-118.4596,65,164,43,7162,282,-94,376,-17,156,160,-23,306,34,11,26,96,48,59,85
"151","WILLU29384",44.3314,-118.9519,55,166,43,7052,274,-109,383,-27,142,147,-35,384,48,16,28,133,60,71,119
"152","ORE17352",45.0722,-117.5126,37,148,40,7391,249,-120,369,-48,130,133,-57,530,68,20,31,190,77,96,178
"153","OSC201265",45.0887,-119.8943,74,141,42,6478,271,-62,333,0,158,160,-5,418,54,14,35,153,54,63,135
"154","OSC204284",42.1064,-117.5587,53,169,43,7397,281,-111,392,-29,148,152,-36,348,40,13,28,115,51,64,105
"155","ORE17355",42.8891,-122.1381,34,124,43,5751,210,-75,285,-21,114,114,-29,1461,245,18,66,700,89,89,649
"156","OSC79423",45.6753,-117.9449,56,136,39,6956,261,-84,345,-23,145,147,-31,724,102,19,43,290,79,93,273
"157","OSC178087",42.6714,-118.5847,22,154,43,6771,230,-126,356,-49,111,113,-58,451,53,18,27,150,69,81,137
"158","OSC206539",45.3037,-118.1269,64,135,38,7060,268,-79,347,-16,154,156,-24,608,84,17,39,235,70,86,220
"159","WILLU10388",43.4625,-121.6944,61,161,45,6588,271,-84,355,-13,145,149,-20,597,105,15,62,291,58,61,267
"160","OSC197069",45.1579,-118.8347,61,155,42,6782,271,-90,361,-18,146,150,-25,490,63,16,36,184,63,75,164
"161","WILLU6348",45.1538,-117.1917,2,145,40,7082,208,-152,360,-75,92,94,-86,720,94,26,34,265,100,119,253
"162","OSC73663",45.7883,-117.8386,59,139,40,6953,264,-83,347,-22,146,149,-29,721,100,19,42,289,79,91,270
"163","OSC112133",45.0589,-117.2741,13,147,40,7236,222,-143,365,-68,105,106,-78,655,85,24,33,240,92,111,228
"164","ORE16880",45.2497,-122.1667,90,103,41,5099,240,-6,246,34,156,158,29,2130,335,26,60,969,149,150,908
"165","ORE17354",42.2369,-123.8006,78,129,48,4833,239,-25,264,28,142,144,23,1402,249,9,74,709,57,72,652
"166","OSC30106",42.8601,-122.295,49,134,44,5939,234,-69,303,-12,130,130,-19,1270,217,15,67,618,79,79,567
"167","OSC225841",44.4073,-120.2626,49,155,44,6627,256,-96,352,-27,134,136,-33,472,66,18,37,187,65,76,162
"168","OSC101598",44.9843,-117.3716,50,152,40,7703,267,-112,379,-40,145,149,-50,460,58,18,30,162,69,87,151
"169","WILLU6292",44.9624,-118.2294,4,140,40,6842,205,-145,350,-71,92,93,-81,722,103,24,39,286,92,109,268
"170","OSC173156",44.9485,-121.2268,70,133,42,6230,257,-55,312,-1,151,153,-6,696,106,15,52,309,69,71,283
"171","OSC159167",43.9445,-121.8799,41,128,41,6058,225,-82,307,-23,122,122,-30,1328,227,23,63,639,104,104,593
"172","OSC172948",42.609,-121.3008,58,164,45,6535,270,-87,357,-15,143,144,-21,477,74,12,48,202,50,59,185
"173","WILLU5476",42.0808,-122.7161,63,145,45,6065,254,-65,319,-3,144,144,-8,782,135,10,62,371,57,57,337
"174","OSC189984",45.2692,-118.5443,57,132,38,6909,258,-84,342,-20,146,148,-28,648,93,16,43,262,69,84,243
"175","WILLU6322",45.0286,-118.134,44,144,40,7136,252,-107,359,-37,135,137,-45,591,84,20,39,232,75,93,216
"176","OSC22761",44.5118,-120.5443,46,147,43,6388,246,-90,336,-26,129,130,-32,547,77,18,41,223,69,79,197
"177","OSC163401",42.6894,-118.5732,31,156,43,6849,241,-120,361,-42,120,123,-51,424,49,17,27,140,65,77,127
"178","OSC178111",42.6714,-118.5617,31,156,43,6849,241,-120,361,-42,120,123,-51,424,49,17,27,140,65,77,127
"179","OSC109524",42.4206,-119.9153,88,160,43,7123,304,-63,367,8,179,184,2,267,29,10,25,82,40,50,75
"180","WILLU6336",45.0415,-117.2166,9,147,40,7210,218,-147,365,-71,101,102,-82,677,88,24,34,250,94,113,237
"181","OSC171479",45.3396,-116.7292,38,149,40,7383,251,-120,371,-46,131,134,-56,619,73,23,28,207,91,110,196
"182","OSC159345",43.2743,-117.2527,80,167,42,7754,310,-86,396,-11,177,184,-17,306,33,11,28,98,43,55,90
"183","WILLU25830",42.0222,-123.4578,70,138,47,5343,246,-43,289,13,141,142,9,1113,197,9,71,557,55,64,511
"184","WILLU10387",44.2264,-121.8875,43,121,40,6008,224,-75,299,-20,124,124,-26,1567,268,25,64,754,117,118,701
"187","ORE4459",42.4359,-119.7277,45,150,43,6651,249,-96,345,-25,133,134,-33,394,44,15,27,124,58,70,112
"188","ORE16870",42.3994,-119.7794,59,153,43,6803,267,-85,352,-14,149,151,-21,362,40,13,27,115,52,63,104
"189","WILLU10525",44.2845,-118.6792,11,152,41,6868,218,-145,363,-65,98,101,-75,578,80,21,36,222,79,92,205
"190","ORE16846",45.2357,-117.3802,-5,141,39,6950,198,-155,353,-79,85,86,-90,756,100,27,35,283,104,123,269
"191","ORE98745",42.4443,-117.3485,72,174,43,7626,306,-96,402,-15,169,175,-21,296,32,11,28,93,43,56,84
"192","ORE16849",44.3895,-122.0217,62,121,41,5915,240,-53,293,-3,141,141,-8,1806,309,24,65,872,120,120,810
"193","OSC63524",42.7372,-118.6467,22,154,43,6771,230,-126,356,-49,111,113,-58,451,53,18,27,150,69,81,137
"194","WILLU17233",45.7685,-117.4286,57,148,41,7089,268,-92,360,-26,146,149,-33,576,70,21,30,204,81,96,189
"195","OSC170324",44.8686,-118.0438,42,148,40,7266,253,-113,366,-42,134,136,-50,537,73,20,36,204,74,91,189
"196","OSC143756",42.6839,-118.5725,31,156,43,6849,241,-120,361,-42,120,123,-51,424,49,17,27,140,65,77,127
"199","ORE18050",43.9766,-122.1719,62,128,42,5940,244,-57,301,-3,141,141,-9,1609,275,22,65,778,109,109,716
"200","ORE17906",44.1141,-121.6179,30,124,41,5925,210,-88,298,-31,110,110,-38,1276,212,24,60,600,106,106,556
"201","OSC94731",42.7437,-118.6487,22,154,43,6771,230,-126,356,-49,111,113,-58,451,53,18,27,150,69,81,137
"202","ORE16879",44.6028,-118.4956,45,164,42,7273,265,-120,385,-40,135,140,-48,503,72,18,39,199,68,83,182
"204","OSC223361",42.2802,-122.5522,66,144,44,6170,258,-64,322,-2,148,148,-7,846,148,10,63,405,58,58,364
"205","OSC74840",42.9297,-122.15,33,123,43,5711,208,-76,284,-22,113,113,-29,1528,257,19,66,735,92,92,682
"206","OSC185003",44.3288,-118.7914,20,156,42,6953,231,-139,370,-58,108,112,-67,527,72,20,35,200,74,86,183
"208","OSC178658",45.2554,-117.377,1,141,39,6952,204,-149,353,-74,91,91,-85,732,95,26,34,270,101,120,257
"209","ORE3541",44.7876,-118.257,27,150,40,7092,237,-130,367,-53,117,119,-63,600,86,20,39,238,78,94,221
"210","ORE16978",45.2311,-117.2581,-8,141,39,6930,195,-158,353,-81,82,83,-92,769,101,27,34,286,106,125,272
"211","OSC98040",45.13,-117.2971,-1,143,39,7040,205,-153,358,-77,90,91,-88,728,95,26,34,270,101,120,257
"212","OSC185829",45.193,-117.1991,-5,143,40,6991,200,-156,356,-80,86,86,-91,753,98,27,34,278,104,124,265
"213","OSC185048",44.9592,-118.2321,4,140,40,6842,205,-145,350,-71,92,93,-81,722,103,24,39,286,92,109,268
"214","OSC185047",44.9767,-119.7174,61,147,43,6453,262,-78,340,-12,144,147,-18,464,59,16,34,171,61,72,151
"215","OSC177452",42.7738,-118.5626,33,157,43,6912,245,-119,364,-41,123,126,-50,404,47,16,27,133,62,74,121
"217","OSC73661",45.8441,-117.9644,40,130,38,6835,238,-98,336,-38,128,129,-45,770,108,20,43,310,85,99,291
"218","OSC171495",45.3129,-116.7211,55,149,39,7621,271,-104,375,-32,150,154,-42,570,67,21,29,192,82,100,181
"219","OSC73659",45.2485,-118.892,57,149,42,6752,263,-91,354,-21,142,145,-28,535,71,16,38,206,65,77,186
"220","OSC112184",44.3981,-121.6355,64,145,44,6141,260,-66,326,-6,144,146,-10,815,137,17,61,388,72,74,364
"221","ORE49311",45.2167,-117.2375,-5,143,40,6991,200,-156,356,-80,86,86,-91,753,98,27,34,278,104,124,265
"223","WILLU29465",45.4306,-116.6811,21,148,40,7163,230,-135,365,-59,112,114,-69,688,83,26,29,234,101,122,222
"224","ORE3073",44.0992,-121.6275,30,124,41,5925,210,-88,298,-31,110,110,-38,1276,212,24,60,600,106,106,556
"225","OSC97173",45.0437,-117.3537,23,148,40,7326,233,-135,368,-60,115,117,-70,603,78,22,33,220,85,104,208
"226","WILLU12437",42.5575,-118.5739,80,167,43,7254,299,-81,380,68,171,177,-9,258,29,9,25,77,42,51,67
"229","OSC182507",43.7252,-118.7819,53,162,42,7494,272,-112,384,-35,146,151,-43,336,42,13,31,120,49,57,112
"230","WILLU22502",44.4606,-121.64,66,142,44,6130,261,-61,322,-3,146,148,-8,883,147,17,61,419,76,77,392
"231","ORE16839",42.647,-118.5963,28,156,43,6831,237,-122,359,-44,117,120,-53,426,49,17,26,140,66,78,127
"232","ORE115369",42.6947,-118.5972,22,154,43,6771,230,-126,356,-49,111,113,-58,451,53,18,27,150,69,81,137
"233","OSC193700",44.5593,-121.5837,67,137,43,6112,257,-58,315,-2,146,148,-7,981,162,18,61,464,82,83,433
"235","WILLU1652",44.2464,-117.5161,91,150,37,8720,321,-84,405,-14,198,205,-21,293,40,10,35,110,42,53,100
"236","OSC215198",45.1617,-117.0366,23,149,40,7385,236,-136,372,-60,116,119,-71,628,79,23,31,224,89,108,213
"237","OSC215301",45.2078,-117.0678,26,149,40,7353,238,-132,370,-57,118,121,-68,616,76,23,30,217,89,108,206
"238","ORE16876",44.6304,-121.4825,81,149,45,6257,280,-50,330,9,162,165,5,597,95,13,56,275,58,60,253
"239","ORE18016",45.2825,-121.7338,49,96,37,5528,201,-54,255,-9,122,124,-15,2062,337,27,61,956,147,154,903
"240","WILLU6332",44.9126,-118.0626,42,148,40,7266,253,-113,366,-42,134,136,-50,537,73,20,36,204,74,91,189
"241","OSC98149",45.2753,-117.3846,1,141,39,6952,204,-149,353,-74,91,91,-85,732,95,26,34,270,101,120,257
"242","ORE16854",42.6186,-118.4972,89,168,43,7377,311,-74,385,120,181,188,-2,236,26,8,26,72,38,47,61
"243","OSC98163",45.1876,-117.2991,-8,141,39,6930,195,-158,353,-81,82,83,-92,769,101,27,34,286,106,125,272
"244","WILLU22526",42.7047,-121.9947,66,155,44,6517,273,-72,345,-7,151,152,-13,681,117,10,63,329,52,56,300
"245","ORE18054",42.9002,-122.2666,49,134,44,5939,234,-69,303,-12,130,130,-19,1270,217,15,67,618,79,79,567
"247","WILLU22452",45.0411,-117.3299,13,147,40,7236,222,-143,365,-68,105,106,-78,655,85,24,33,240,92,111,228
"248","ORE16367",43.8303,-119.2288,59,163,42,7351,277,-105,382,-28,150,155,-36,317,40,13,30,114,48,56,104
"250","WILLU22464",45.1658,-117.3016,-1,143,39,7040,205,-153,358,-77,90,91,-88,728,95,26,34,270,101,120,257
"251","OSC178078",42.6278,-118.6044,28,156,43,6831,237,-122,359,-44,117,120,-53,426,49,17,26,140,66,78,127
"252","WILLU17696",45.212,-117.3697,-5,141,39,6950,198,-155,353,-79,85,86,-90,756,100,27,35,283,104,123,269
"253","OSC170320",44.6806,-117.3728,40,151,39,7780,258,-125,383,-50,137,140,-60,500,67,18,34,186,71,87,175
"254","OSC159018",44.0917,-121.9456,62,131,42,6108,249,-62,311,-6,143,143,-11,1397,241,21,65,677,101,101,628
"255","WILLU13220",45.2139,-117.1978,-5,143,40,6991,200,-156,356,-80,86,86,-91,753,98,27,34,278,104,124,265
"256","WILLU22450",45.032,-117.3313,13,147,40,7236,222,-143,365,-68,105,106,-78,655,85,24,33,240,92,111,228
"257","CAN 19589",56.017,-121.883,26,109,27,10187,221,-172,393,149,-32,149,-113,497,80,18,45,210,73,210,92
"259","CAN 275776",57.383,-122.8,-15,109,26,10834,193,-222,415,118,-78,118,-158,511,86,23,46,219,78,219,87
"260","CAN 275798",57.233,-122.717,-9,108,26,10685,196,-213,409,122,-71,122,-150,517,86,24,44,219,80,219,88
"261","CAN 19590",56.033,-121.917,23,108,27,10037,216,-172,388,145,-35,145,-113,508,81,20,45,213,77,213,93
"262","CAN 19584",54.083,-125.017,23,117,32,8430,206,-154,360,-79,-24,126,-91,484,53,19,25,151,78,143,136
"263","CAN 411313",57.75,-124.783,-37,110,27,10131,167,-236,403,89,-97,89,-168,487,79,16,42,199,66,199,105
"264","CAN 19586",53.967,-122.75,39,121,31,8689,231,-149,380,145,-5,145,-78,635,65,28,22,190,105,190,159
"265","CAN 412218",57.867,-126.4,-35,115,28,9868,170,-236,406,88,-91,88,-163,470,72,14,38,182,63,182,111
"267","225309",41.92,-111.65,15,144,37,8132,229,-150,379,-70,118,122,-84,550,55,32,16,160,108,109,158
"268","189573",40.58,-110.88,22,139,37,7962,227,-144,371,-66,127,127,-75,566,58,34,15,165,113,113,163
"270","205019",39.14,-117.36,70,179,44,7411,295,-105,400,53,165,169,-20,237,27,16,15,72,53,57,54
"272","228451",42.33,-111.58,20,147,37,8345,239,-150,389,-68,125,129,-83,494,48,30,13,138,102,105,137
"273","205871",40.62,-115.4,19,149,40,7314,229,-138,367,-53,116,117,-66,553,59,29,22,168,93,105,164
"274","197791",40.92,-110.28,17,135,36,8099,224,-144,368,-6,125,125,-79,446,43,33,7,123,105,105,109
"275","229788",41.99,-111.52,24,148,37,8321,243,-147,390,6,128,133,-79,484,46,28,14,135,98,99,132
"277","231752",41.75,-111.69,25,145,37,8131,241,-142,383,-61,132,132,-75,569,57,30,19,167,105,105,165
"278","228974",38.51,-106.75,19,187,40,9256,245,-217,462,127,64,133,-107,395,50,24,23,132,78,120,98
"279","207243",40.6765,-105.3543,63,153,41,7702,268,-105,373,141,-31,166,-31,384,59,11,49,161,36,144,36
"280","174182",40.62246,-105.92612,-9,137,39,7495,185,-163,348,-31,1,90,-99,677,68,43,13,195,147,180,155
"281","173822",40.4231,-106.8046,34,174,40,8775,264,-161,425,-65,102,145,-81,516,48,38,7,137,124,126,132
"282","173797",38.7615,-107.101,0,167,40,8417,208,-208,416,101,36,106,-108,562,57,31,17,160,112,143,150
"283","174170",39.6296,-108.3406,47,159,39,8364,265,-142,407,33,-58,157,-58,478,50,30,13,134,107,113,107
"284","173791",39.1304,-107.5825,25,166,40,8200,237,-173,410,126,-79,131,-79,435,46,28,15,131,94,118,94
"285","174175",38.61198,-106.89113,22,191,40,9398,253,-216,469,131,69,137,-106,383,46,23,21,124,75,112,98
"286","174171",39.6878,-107.9643,44,167,40,8254,263,-148,411,30,-60,152,-60,476,48,31,11,133,109,114,109
"287","173799",38.8191,-106.5447,-1,169,40,8639,207,-215,422,103,37,108,-113,511,58,31,19,157,104,145,130
"288","174168",37.7278,-108.1321,10,158,42,7189,203,-165,368,99,38,103,-78,783,85,34,22,238,134,202,202
"289","174200",40.2306,-107.0884,18,156,40,8083,227,-159,386,0,29,123,-82,541,51,39,8,143,130,135,133
"290","174172",39.5692,-107.2506,55,176,40,8687,284,-149,433,122,-40,166,-58,426,38,29,9,114,102,103,102
"291","173786",39.6931,-105.8008,-19,127,37,7592,165,-176,341,-41,-8,82,-110,759,80,46,16,224,159,190,186
"292","206873",37.7489,-107.7154,-5,160,43,7248,187,-185,372,84,23,88,-94,833,92,37,22,253,142,216,214
"293","174177",38.66817,-106.61926,-17,151,39,8013,176,-206,382,81,15,86,-117,670,71,38,17,193,136,178,175
"294","204845",40.5901,-105.4701,33,149,41,7369,233,-125,358,107,-55,131,-55,471,61,21,36,173,66,165,66
"295","174174",38.6674,-106.6114,-17,151,39,8013,176,-206,382,81,15,86,-117,670,71,38,17,193,136,178,175
"297","207078",37.6839,-107.9144,-4,157,42,7177,186,-180,366,85,24,89,-91,842,92,37,22,254,144,217,218
"298","173798",38.56993,-106.9221,29,195,40,9547,265,-212,477,139,79,145,-103,327,44,20,26,116,65,104,76
"299","173795",38.97602,-106.99791,-9,157,39,8193,192,-205,397,91,24,95,-112,619,62,35,16,170,126,155,168
"300","202623",40.7194,-105.9367,-9,136,39,7456,184,-160,344,-31,1,89,-98,671,67,43,13,193,146,180,152
"301","173807",40.5205,-105.8917,-9,137,39,7471,184,-163,347,-31,1,89,-98,683,69,43,13,198,146,181,158
"302","203932",37.4433,-107.1222,25,182,43,8024,235,-182,417,122,61,127,-79,596,75,27,26,196,101,166,137
"303","204848",40.1369,-105.5683,10,147,41,7231,203,-149,352,-10,20,106,-76,626,66,38,18,187,129,176,134
"304","174201",38.2228,-106.5902,8,172,40,8507,215,-205,420,109,47,114,-104,512,64,29,23,169,97,152,122
"305","174188",40.5875,-108.9206,58,164,38,8911,290,-137,427,47,-56,174,-56,304,32,16,20,89,53,79,53
"306","173788",39.0104,-107.9386,10,151,40,7739,208,-169,377,-53,86,111,-85,724,85,34,19,207,146,153,192
"307","173785",39.6709,-105.5959,7,147,40,7469,201,-159,360,-12,16,105,-84,617,65,38,18,181,128,176,132
"308","174183",40.5756,-105.8489,-9,137,39,7471,184,-163,347,-31,1,89,-98,683,69,43,13,198,146,181,158
"309","209441",38.8911,-106.8228,-10,158,39,8249,190,-209,399,90,23,95,-115,608,62,35,16,172,124,158,162
"310","173790",39.1477,-107.5956,15,160,40,7975,219,-176,395,113,47,118,-85,536,57,30,15,148,118,132,126
"311","173815",40.86509,-108.77492,40,155,38,8510,263,-139,402,24,-66,152,-66,338,36,20,17,99,64,89,64
"312","173789",38.7911,-107.73,95,170,39,8850,321,-111,432,161,-21,208,-21,308,34,18,18,96,65,73,65
"314","174166",37.008,-105.191,-1,148,42,6924,180,-168,348,84,-72,89,-87,735,106,41,34,271,135,266,135
"315","173818",39.4116,-105.7653,14,160,41,7874,218,-170,388,116,-85,116,-85,454,62,24,33,163,77,163,77
"316","174181",40.7196,-105.5242,42,152,41,7540,247,-121,368,118,-49,143,-49,420,57,16,41,162,50,154,50
"317","202162",37.2454,-107.4985,47,178,42,7974,259,-158,417,144,82,149,-56,595,74,24,26,191,94,159,146
"318","207191",39.5407,-105.3604,26,161,42,7434,226,-149,375,124,-65,124,-65,509,69,21,36,184,73,184,73
"319","173806",40.5787,-105.4034,47,151,42,7331,247,-112,359,121,-41,145,-41,429,59,16,44,168,50,159,50
"320","174167",37.6547,-108.2954,44,163,42,7567,248,-137,385,137,76,143,-50,619,69,26,22,192,107,161,154
"321","207303",37.8429,-108.2693,26,160,42,7376,225,-151,376,117,56,122,-65,693,75,31,20,211,125,179,174
"322","173811",40.6046,-105.4701,33,149,41,7369,233,-125,358,107,-55,131,-55,471,61,21,36,173,66,165,66
"323","173793",38.6245,-107.39319,4,169,41,8222,212,-200,412,104,40,109,-101,573,61,31,17,169,115,150,143
"325","174165",40.7371,-107.3462,36,162,39,8706,262,-152,414,24,-61,149,-75,466,44,33,8,127,109,112,110
"326","208478",40.113,-105.4153,53,158,43,7295,253,-114,367,126,-36,150,-36,443,59,17,39,165,57,157,57
"327","174136",39.5417,-106.4321,3,153,40,7934,205,-177,382,101,16,106,-95,525,54,34,14,150,117,144,129
"328","174180",40.6335,-105.8489,0,143,40,7542,198,-158,356,-20,10,99,-91,633,63,41,14,182,138,175,138
"329","204850",40.4308,-105.8111,-15,133,39,7441,175,-165,340,-37,-4,84,-103,719,75,44,14,212,152,187,168
"330","206884",37.5815,-107.9506,30,172,44,7405,232,-158,390,120,61,125,-64,686,79,30,22,216,117,183,172
"332","174190",40.4569,-108.8257,59,169,38,9101,294,-145,439,49,-59,177,-59,317,33,17,19,91,57,82,57
"333","203983",37.2706,-106.9092,30,178,43,7908,237,-172,409,126,65,131,-72,603,75,27,25,194,99,164,144
"334","173824",38.2074,-106.6747,11,177,41,8676,222,-208,430,114,51,119,-104,479,61,27,24,161,91,144,112
"335","174179",40.523,-105.9627,3,149,40,7651,206,-161,367,-15,13,104,-90,620,61,41,12,173,137,170,140
"336","174202",38.3683,-106.3075,3,161,40,8239,203,-197,400,102,39,107,-103,531,68,33,23,177,107,164,122
"337","174196",39.8583,-107.75,32,163,40,8156,247,-155,402,16,113,138,-70,510,51,34,10,140,121,123,121
"338","174169",39.5457,-106.7427,15,166,40,8236,228,-178,406,116,50,120,-89,459,47,32,12,134,106,127,111
"339","174138",40.6625,-105.8489,0,143,40,7542,198,-158,356,-20,10,99,-91,633,63,41,14,182,138,175,138
"341","202163",37.2595,-107.4985,45,180,42,7976,257,-162,419,142,80,147,-59,605,74,25,25,193,97,161,148
"342","174187",40.9275,-108.8866,36,150,38,8428,255,-138,393,18,-68,147,-68,345,37,20,17,101,66,92,66
"343","174135",37.0413,-106.2633,21,164,43,7527,216,-164,380,113,55,118,-74,616,81,33,25,205,110,184,141
"344","174199",39.7023,-108.6604,45,153,37,8488,262,-141,403,30,-61,157,-61,471,49,30,12,131,105,113,105
"345","201891",37.4206,-108.3498,66,158,40,8016,275,-118,393,165,101,171,-35,514,58,19,24,158,86,130,124
"346","173784",38.9235,-106.0344,7,163,40,8202,212,-189,401,107,-97,112,-97,432,62,24,32,160,79,156,79
"348","174189",40.4423,-108.8447,64,170,38,9276,302,-143,445,56,-57,184,-57,297,32,16,21,86,52,76,52
"350","174191",37.9754,-107.58463,-12,156,42,7295,177,-191,368,78,15,82,-101,851,90,39,21,250,151,216,221
"351","173782",40.1392,-105.3666,53,158,43,7295,253,-114,367,126,-36,150,-36,443,59,17,39,165,57,157,57
"352","173801",40.5575,-106.5889,12,154,40,7993,222,-156,378,111,-78,116,-87,555,53,38,9,149,128,148,129
"353","204846",40.5322,-105.4132,47,151,42,7331,247,-112,359,121,-41,145,-41,429,59,16,44,168,50,159,50
"354","204849",40.5466,-105.7732,-3,141,40,7461,192,-159,351,-24,7,95,-92,651,66,41,15,190,139,178,144
"355","174178",38.018,-107.3375,-9,163,42,7669,187,-200,387,85,22,89,-104,759,83,37,20,229,138,199,191
"356","207242",40.5322,-105.6405,-7,135,39,7342,184,-157,341,-29,3,91,-93,670,70,41,17,201,140,187,142
"357","174192",39.3393,-106.1172,-32,122,36,7502,147,-185,332,-58,-19,67,-120,776,78,48,16,215,165,201,195
"358","174203",38.239,-106.5589,8,169,40,8419,213,-201,414,109,47,114,-102,512,64,30,23,169,98,153,121
"360","207077",37.4645,-108.0232,-1,151,42,7036,186,-168,354,87,26,91,-86,861,95,36,24,261,139,222,228
"361","173810",40.9039,-105.4669,51,151,40,7732,258,-114,372,129,-42,155,-42,388,57,13,46,159,40,145,40
"362","269516",37.5084,-108.1321,20,161,43,7249,216,-157,373,109,49,114,-69,741,83,31,23,229,124,193,190
"363","173803",37.0246,-107.50695,81,181,41,8532,306,-131,437,146,121,190,-31,391,51,15,28,131,63,105,93
"364","173804",39.09673,-106.36261,5,161,40,8086,209,-186,395,105,19,110,-95,478,57,31,20,152,106,145,112
"365","205835",38.925,-107.3031,41,181,40,8832,269,-176,445,146,84,153,-76,383,40,24,14,115,83,102,90
"366","269916",39.38058,-105.09839,58,180,45,7527,268,-131,399,158,-34,158,-34,457,68,11,48,184,44,184,44
"367","207319",37.7849,-108.1226,17,164,43,7288,215,-162,377,107,46,112,-73,733,80,33,21,225,130,191,185
"368","173802",40.7487,-106.6479,-1,142,39,7699,199,-158,357,-21,10,100,-94,624,59,44,9,170,144,160,150
"369","207283",37.5669,-108.4587,67,157,39,8067,277,-117,394,166,101,172,-35,506,56,19,23,154,86,126,121
"370","204851",40.1803,-105.5871,-14,131,38,7384,173,-165,338,-37,-4,84,-101,741,79,44,16,223,154,192,172
"371","209588",40.078335,-105.45722,36,159,43,7296,237,-132,369,109,-53,133,-53,495,58,26,28,164,82,161,82
"372","173813",40.5597,-105.2571,66,153,41,7603,269,-101,370,144,-26,168,-26,396,62,11,49,165,37,147,37
"373","173805",40.7341,-105.5242,42,152,41,7540,247,-121,368,118,-49,143,-49,420,57,16,41,162,50,154,50
"374","207299",37.6547,-108.2772,44,163,42,7567,248,-137,385,137,76,143,-50,619,69,26,22,192,107,161,154
"375","173823",40.157,-106.897,30,165,41,8339,245,-157,402,131,-64,137,-76,455,47,29,12,131,101,128,101
"376","173800",38.7903,-106.5818,-1,169,40,8639,207,-215,422,103,37,108,-113,511,58,31,19,157,104,145,130
"379","174204",38.2388,-106.5629,8,169,40,8419,213,-201,414,109,47,114,-102,512,64,30,23,169,98,153,121
"380","204847",40.648,-105.6784,-7,136,39,7384,185,-157,342,-29,3,91,-94,666,68,41,16,197,140,185,144
"381","173783",38.8191,-106.3407,-20,143,38,7810,169,-198,367,77,10,82,-115,679,74,41,18,200,145,188,169
"382","173787",39.6467,-105.4552,33,165,43,7402,236,-143,379,131,-58,131,-58,486,64,21,35,173,71,173,71
"383","174197",40.1128,-107.0692,10,152,40,7949,214,-164,378,-10,21,113,-88,557,53,40,9,147,131,141,138
"384","174184",37.1849,-105.1273,2,148,41,7068,185,-168,353,88,-72,94,-86,707,102,38,35,262,126,259,126
"385","207222",39.8778,-105.6429,0,141,40,7407,190,-160,350,-20,10,98,-89,685,73,41,16,205,142,180,158
"389","V234273",49.05111,-119.85944,-5,104,32,7310,175,-145,320,-88,57,90,-95,481,61,29,23,163,98,113,151
"391","V98962",57.233334,-122.71667,-9,108,26,10685,196,-213,409,122,-71,122,-150,517,86,24,44,219,80,219,88
"393","V116193",49.683334,-115.98333,33,113,31,8299,230,-133,363,-66,-13,139,-74,610,69,37,22,196,125,148,180
"395","V149846",49.066666,-120.78333,21,109,33,7328,200,-122,322,-65,114,114,-72,734,112,34,43,313,113,113,287
"397","V169101",51.183334,-122.98333,-9,121,34,7253,167,-181,348,83,-55,83,-98,432,49,23,24,139,74,139,116
"402","V42615",49.433334,-119.75,59,116,32,8051,255,-97,352,162,14,162,-45,297,33,16,23,89,56,89,79
"404","V193350",49.05,-120.833336,16,105,33,7147,191,-122,313,-67,108,108,-73,801,121,36,43,340,120,120,312
"405","V14712",51.733334,-122.95,25,144,36,8293,218,-177,395,127,-18,127,-84,335,47,14,36,128,49,128,77
"408","V155855",57.583332,-128.78334,-39,111,30,8750,151,-214,365,64,-93,72,-150,522,68,17,31,180,75,177,128
"409","V152365",54.066666,-121.666664,15,116,31,8399,201,-168,369,-87,13,119,-96,897,94,42,18,263,165,243,255
"413","V98956",57.383335,-122.8,-15,109,26,10834,193,-222,415,118,-78,118,-158,511,86,23,46,219,78,219,87
"414","V13932",49.416668,-117.3,44,100,30,7639,232,-94,326,-43,139,143,-51,821,107,45,30,302,140,162,277
"416","V169919",51.183334,-122.96667,-9,121,34,7253,167,-181,348,83,-55,83,-98,432,49,23,24,139,74,139,116
"420","V74744",49.083332,-124.38333,65,83,36,4974,199,-26,225,13,130,132,8,1908,310,45,60,871,153,173,809
"421","V166235",54.766666,-128.61667,11,83,29,6593,164,-113,277,-30,39,98,-69,1026,133,48,34,371,158,197,326
"423","V221673",50.233334,-114.833336,1,123,33,7975,192,-180,372,37,12,101,-100,677,86,41,21,215,142,190,170
"425","V226027",50.666668,-115.583336,-9,117,32,7955,183,-182,365,69,-62,91,-109,644,80,39,20,198,134,186,163
"426","V13938",49.033333,-119.15,50,121,34,8015,249,-106,355,91,5,153,-53,357,40,21,21,105,74,99,94
"429","V13946",54.233334,-125.75,20,115,30,8542,200,-177,377,-83,20,123,-97,481,55,20,25,155,78,137,139
"430","V90446",52.466667,-113.916664,19,133,31,10178,221,-201,422,141,-41,141,-118,466,86,14,66,235,52,235,56
"431","UNA00066553",40.45016,-111.5837,44,139,37,7987,253,-119,372,-42,151,151,-53,765,88,35,31,255,111,111,251
"432","363198",45.1639,-119.278,43,142,41,6506,241,-99,340,-31,126,128,-38,565,75,18,37,218,70,82,196
"433","209762",43.8811,-103.582,61,147,37,8368,272,-117,389,144,-41,173,-41,544,97,12,63,268,46,232,46
"434","357638",40.9917,-118.098,97,175,42,8056,332,-80,412,3,198,205,-2,216,23,7,27,67,30,40,63
"435","321246",44.0126,-103.827,55,135,35,8370,262,-115,377,139,-34,168,-46,589,96,18,53,263,66,223,66
"436","316962",45.0709,-111.153,5,145,36,8586,226,-170,396,42,75,117,-103,672,74,44,17,196,140,167,175
"437","209774",45.7257,-110.97,45,142,37,8052,257,-125,382,81,-55,151,-55,585,83,28,33,216,99,164,99
"438","319043",45.0836,-111.153,-3,144,37,8352,213,-175,388,31,65,105,-107,707,77,46,17,205,148,175,185
"439","362917",44.7428,-118.598,21,151,41,6858,228,-134,362,-56,108,110,-65,616,87,21,38,242,81,95,223
"440","209753",43.8114,-103.592,62,150,38,8369,274,-119,393,145,-29,173,-41,517,92,11,64,257,43,223,43
"441","209760",43.8457,-103.564,61,147,37,8368,272,-117,389,144,-41,173,-41,544,97,12,63,268,46,232,46
"442","209763",43.8234,-103.491,70,155,38,8562,287,-116,403,156,-34,185,-34,503,94,9,70,261,35,226,35
"443","363103",45.0414,-118.624,32,143,40,6793,235,-117,352,-44,119,120,-53,648,93,20,41,260,78,93,240
"444","368729",41.0269,-115.081,51,165,41,7932,277,-125,402,37,152,156,-47,363,41,18,23,108,60,71,102
"446","315989",45.0485,-111.283,3,144,36,8625,223,-173,396,41,110,115,-106,683,74,45,17,197,140,166,182
"447","209782",44.4135,-103.875,58,125,33,8626,264,-112,376,95,-34,174,-47,643,100,25,47,277,86,215,86
"448","209761",43.8074,-103.745,58,145,37,8358,269,-119,388,142,-32,170,-44,531,92,13,61,256,49,222,49
"450","209752",44.0988,-103.755,56,132,35,8385,261,-114,375,90,-34,168,-46,609,98,20,52,265,72,223,72
"451","363189",44.7114,-118.563,17,149,41,6890,223,-138,361,-60,105,107,-70,627,89,21,39,248,82,96,229
"452","209785",44.2676,-103.869,55,126,33,8501,259,-113,372,90,-35,169,-48,637,99,24,47,274,83,219,83
"453","209781",44.3485,-103.945,59,126,33,8683,265,-113,378,96,-35,175,-48,623,97,25,47,269,84,209,84
"454","03548",37.951668,-111.65,48,155,40,7807,252,-132,384,145,79,150,-49,356,51,16,29,126,63,107,80
"455","00312",40.455833,-111.59722,44,139,37,7987,253,-119,372,-42,151,151,-53,765,88,35,31,255,111,111,251
"456","00894",39.586113,-111.704445,38,147,38,8113,249,-137,386,-51,117,145,-63,536,58,29,17,160,107,108,153
"457","00917",39.96361,-111.62278,38,143,37,8159,247,-135,382,-52,145,145,-64,623,69,32,22,196,110,110,191
"458","04014",39.90167,-111.683334,34,141,37,8038,241,-137,378,-55,140,140,-65,629,70,32,21,197,114,114,190
"459","00684",39.935833,-111.63167,38,143,37,8159,247,-135,382,-52,145,145,-64,623,69,32,22,196,110,110,191
"460","11438",41.923332,-111.65639,15,144,37,8132,229,-150,379,-70,118,122,-84,550,55,32,16,160,108,109,158
"462","01029",40.39389,-111.638336,40,139,37,7968,248,-123,371,-47,146,146,-57,761,87,36,29,252,115,115,248
"464","07470",41.95361,-113.31917,54,146,36,8373,276,-121,397,86,121,164,-51,393,46,26,16,117,81,98,100
"465","01261",38.317223,-112.389725,16,159,42,7372,221,-153,374,-65,41,114,-72,563,64,27,20,158,111,141,145
"466","07040",39.337223,-111.52111,73,160,38,8722,299,-118,417,63,186,186,-40,320,32,19,12,87,69,69,79
"468","04418",40.558887,-111.51028,39,139,37,7897,246,-123,369,-47,144,144,-57,785,90,35,31,264,112,112,262
"469","09840",40.519722,-111.654724,23,128,36,7632,220,-128,348,-60,125,125,-66,898,108,41,33,308,129,129,302
"471","08075",40.558056,-110.80444,1,127,36,7678,196,-152,348,-84,75,104,-88,677,74,39,18,206,134,134,201
"472","00938",39.114445,-111.48194,12,137,38,7655,209,-151,360,-73,38,114,-79,575,61,30,16,163,115,136,155
"473","CONN00107555",38.03194,-107.31194,9,179,42,8188,217,-204,421,107,45,112,-97,576,71,30,23,192,109,167,130
"474","3331280",40.99,-118.1,97,175,42,8056,332,-80,412,3,198,205,-2,216,23,7,27,67,30,40,63
"476","1645161",49.05,-120.98,23,106,33,7128,197,-115,312,-60,114,114,-67,855,132,36,46,372,120,120,341
"477","1726614",39.77,-105.75,-7,136,38,7548,182,-168,350,-28,3,92,-98,709,75,43,16,211,148,182,168
"479","1899586",39.95,-105.81,23,163,41,7798,230,-159,389,9,34,124,-76,528,52,33,13,148,113,144,123
"480","2998911",39.91,-105.63,0,141,40,7407,190,-160,350,-20,10,98,-89,685,73,41,16,205,142,180,158
"481","2763953",69.25,-53.48,NA,NA,NA,NA,NA,NA,NA,NA,NA,NA,NA,NA,NA,NA,NA,NA,NA,NA,NA
"482","1645240",49.03,-120.73,26,113,34,7516,209,-122,331,-63,121,121,-71,672,103,32,42,286,106,106,262
"545","dbsn166458",32.701,-109.88447,82,149,47,6079,248,-64,312,155,108,162,8,714,130,14,57,322,63,278,178
"546","dbsn304195",34.1016,-109.5368,57,162,47,6454,236,-104,340,136,84,142,-23,647,107,19,51,280,67,235,150
"547","dbsn294798",34.54886,-111.16325,87,154,43,7144,276,-77,353,176,116,182,-1,600,88,11,43,225,58,183,163
"548","29192",47.28472,-120.44055,29,102,33,7135,205,-104,309,-53,121,121,-59,923,153,20,58,433,89,89,398
"549","51574",43.003334,-116.72853,46,160,41,7545,269,-116,385,-37,143,147,-46,442,54,15,34,160,57,71,150
"550","5867",46.9513,-121.58505,26,78,33,5538,164,-71,235,-32,98,102,-36,2620,416,46,60,1215,204,223,1131
"551","29200",47.33389,-120.57611,51,114,34,7486,239,-92,331,-38,146,147,-43,728,126,15,61,355,68,70,326
"552","48651",47.336388,-121.68222,67,88,37,5224,206,-28,234,9,134,136,5,2344,339,53,51,1007,227,234,925
"553","51169",44.207935,-113.7018,10,164,39,8362,236,-177,413,92,-40,117,-97,360,46,20,24,120,74,109,80
"554","51209",44.75417,-116.28306,27,155,40,7644,247,-138,385,-58,122,127,-70,685,92,21,36,257,88,104,248
"555","51553",44.691433,-114.04822,58,166,38,8804,296,-133,429,146,-33,170,-57,245,37,11,37,94,39,81,45
"557","30347",48.540554,-118.81333,55,131,35,8088,262,-103,365,-43,153,159,-49,392,48,22,24,126,74,91,114
"558","51289",45.809082,-115.47348,43,163,42,7473,262,-126,388,-44,134,140,-52,724,86,32,26,232,114,136,224
"559","7431",48.645557,-119.83028,39,123,34,8177,238,-123,361,-60,139,142,-66,399,54,22,28,144,72,84,133
"560","51332",43.80167,-115.12583,26,173,40,8464,261,-163,424,-70,128,133,-85,491,69,19,39,192,69,79,188
"561","51285",43.71116,-115.635666,60,161,39,8362,294,-113,407,-36,163,168,-48,543,84,14,49,234,57,66,224
"562","29532",47.548332,-121.10167,27,80,30,6231,177,-82,259,-42,108,110,-47,1945,324,36,61,925,161,171,856
"563","51597",43.917385,-115.592865,35,168,40,8169,268,-142,410,-58,135,140,-70,569,82,18,42,229,71,81,220
"564","51330",44.09722,-116.005104,48,161,40,8078,279,-121,400,-44,148,153,-55,601,86,16,44,245,68,78,234
"565","51227",44.5837,-114.76563,15,174,41,8162,245,-172,417,-79,113,119,-91,461,52,26,22,144,88,103,140
"566","51321",42.076073,-114.59333,60,162,40,7876,287,-112,399,90,160,165,-38,314,40,17,24,99,57,70,81
"567","30330",48.815483,-118.72246,50,125,34,8031,253,-106,359,-46,110,153,-52,420,49,24,22,129,83,106,117
"570","51275",42.986202,-116.77425,46,162,41,7513,270,-117,387,-36,142,146,-46,436,53,15,33,156,57,71,146
"571","5244",45.207832,-117.06783,26,149,40,7353,238,-132,370,-57,118,121,-68,616,76,23,30,217,89,108,206
"572","51322",43.254227,-112.034515,65,143,34,8990,291,-118,409,109,173,180,-53,306,38,17,21,99,60,70,73
"574","51255",44.66889,-111.28639,1,151,36,8889,227,-183,410,-99,110,115,-112,679,76,41,21,213,128,151,208
"577","29198",47.440277,-120.61,60,122,35,7554,254,-85,339,-30,157,157,-35,710,129,13,66,361,61,61,331
"578","108326",46.55972,-120.62083,91,140,39,7583,293,-62,355,-2,183,189,-6,263,44,6,56,123,27,32,114
"579","51265",44.65639,-115.54417,10,170,42,7738,235,-167,402,-77,105,109,-89,626,80,26,30,222,96,111,215
"580","51266",45.10278,-116.18472,16,157,41,7319,232,-146,378,-64,108,112,-75,731,94,26,32,259,103,122,250
"581","51248",43.76194,-114.65222,-1,168,41,8041,223,-184,407,-90,98,102,-103,518,64,27,27,177,89,103,177
"582","51288",46.70697,-115.55766,57,148,40,7466,275,-94,369,-29,150,155,-36,816,107,29,32,295,114,127,280
"583","29193",48.61111,-119.86417,21,116,33,7843,214,-132,346,-72,119,121,-78,469,65,26,30,175,83,95,161
"585","51281",44.03162,-114.83613,10,176,41,8301,242,-181,423,-84,110,115,-98,478,62,23,30,169,79,91,167
"590","51558",44.7675,-114.69056,-8,169,42,7771,215,-186,401,-94,88,92,-106,540,59,32,19,164,107,123,160
"591","51279",46.09333,-115.23556,24,158,41,7373,242,-139,381,-59,116,120,-68,680,80,32,23,215,117,136,207
"594","51239",44.05814,-116.126816,62,160,39,8178,294,-107,401,-33,162,168,-43,575,84,14,47,240,60,69,227
"596","51267",44.03972,-114.585,-24,163,41,7688,193,-198,391,-105,72,75,-119,597,69,33,23,193,110,126,191
"598","159020",47.67363,-115.36475,48,140,37,7582,265,-104,369,-39,143,147,-46,778,105,29,35,296,115,129,277
"599","7531",46.872223,-121.50833,35,83,33,5717,179,-67,246,-27,109,112,-31,2379,382,40,60,1115,184,201,1036
"600","51260",44.882484,-114.695045,30,170,41,8165,261,-153,414,-66,128,134,-76,445,48,26,20,133,88,103,127
"601","6593",48.57427,-120.820915,13,104,33,7044,187,-122,309,-68,104,104,-74,1014,164,34,52,460,122,122,424
"602","51237",44.67194,-115.83667,22,162,41,7680,246,-147,393,-63,117,122,-75,658,86,23,34,240,92,107,231
"603","7599",46.220276,-122.13556,58,96,39,5304,207,-39,246,2,128,130,-3,2682,434,37,63,1269,183,202,1186
"604","7430",47.325,-120.525276,23,97,32,6921,194,-105,299,-56,113,113,-61,1084,179,23,58,509,103,103,469
"605","52915",48.529167,-118.54222,36,118,33,7869,235,-115,350,-57,133,137,-63,471,58,26,25,158,86,106,143
"606","51287",44.91111,-116.09778,46,155,39,7793,270,-118,388,-41,142,148,-52,679,93,20,38,256,84,99,250
"608","51264",45.62056,-115.7,0,160,42,7146,213,-164,377,-78,90,93,-88,786,98,33,27,265,124,144,256
"609","29197",47.650555,-120.4575,46,116,34,7641,238,-99,337,-44,142,144,-50,730,127,16,62,357,70,72,327
"610","7364",45.859444,-120.54222,90,129,38,7154,286,-47,333,5,181,184,1,348,60,7,59,170,32,34,152
"612","51290",42.14732,-113.08665,39,145,37,8239,259,-132,391,69,106,147,-63,462,50,30,16,130,92,106,127
"613","51571",45.705555,-115.5736,27,163,42,7423,245,-142,387,-57,119,124,-67,748,92,32,27,248,116,138,240
"615","147178",48.69137,-120.63212,9,106,33,7230,187,-130,317,-74,102,102,-80,806,125,33,45,348,115,116,320
"618","29196",48.725277,-118.965836,41,122,34,7951,240,-114,354,-54,102,143,-61,394,46,23,23,122,78,99,111
"619","33245",48.506966,-120.75563,13,104,33,7044,187,-122,309,-68,104,104,-74,1014,164,34,52,460,122,122,424
"621","51277",43.47607,-113.58727,37,156,37,8953,268,-151,419,-64,108,153,-78,396,46,20,25,128,69,86,126
"625","51310",43.820072,-114.47716,14,168,40,8254,241,-171,412,-79,115,120,-91,460,57,24,28,157,79,93,157
"626","6509",45.26246,-117.17709,28,148,40,7243,238,-128,366,-54,119,121,-64,589,71,23,28,202,88,107,191
"628","51286",45.29083,-116.24667,6,156,41,7146,219,-154,373,-71,97,99,-82,763,97,29,30,267,112,131,256
"629","51546",44.84742,-114.28276,2,168,41,7926,227,-177,404,37,-52,104,-99,449,52,28,18,136,99,119,113
"630","26545",48.78639,-118.728615,50,125,34,8031,253,-106,359,-46,110,153,-52,420,49,24,22,129,83,106,117
"634","189093",44.20662,-118.6418,36,164,42,7289,255,-131,386,-48,127,131,-57,441,60,17,34,166,64,76,151
"635","51242",43.91472,-113.6125,29,165,38,8884,260,-168,428,117,38,142,-87,312,40,16,24,103,63,93,73
"642","51283",42.75222,-116.9225,54,166,42,7516,281,-110,391,-29,150,155,-37,390,45,14,30,135,53,66,125
"645","3823",45.0945,-117.0066,23,149,40,7385,236,-136,372,-60,116,119,-71,628,79,23,31,224,89,108,213
"649","33542",48.692017,-119.941,4,108,32,7457,188,-140,328,-83,99,99,-89,539,74,30,31,202,97,107,186
"650","51257",47.03167,-116.57083,55,129,37,7066,256,-85,341,-26,144,147,-33,859,117,27,39,334,108,122,315
"651","51282",43.573822,-115.171394,31,170,40,8491,266,-156,422,-64,134,139,-80,495,72,18,42,201,64,74,195
"654","51568",43.48406,-115.470825,36,165,39,8346,269,-144,413,-56,139,144,-71,518,77,17,44,215,62,72,207
"656","51291",44.660767,-114.22625,44,166,39,8615,278,-144,422,130,-46,154,-68,283,39,15,29,99,53,87,60
"658","7432",46.24917,-122.186386,38,87,37,5104,177,-54,231,-14,104,108,-18,2949,472,44,62,1379,208,228,1290
"659","183597",46.23473,-113.57106,33,156,40,7628,252,-130,382,68,-48,133,-62,388,55,18,32,140,69,121,70
"660","51263",46.783607,-116.20003,62,137,38,7252,269,-84,353,-22,152,157,-29,912,126,29,39,353,112,124,341
"662","51278",44.4425,-114.92722,-6,172,42,7874,219,-189,408,-93,90,95,-107,550,66,28,25,183,98,112,179
"663","51205",43.805195,-114.208916,-10,162,40,7917,208,-188,396,-96,56,92,-109,522,58,30,21,162,100,117,161
"666","7367",48.983055,-121.06778,51,104,34,6978,221,-82,303,-31,140,140,-38,1105,178,35,55,513,117,117,464
"671","27011",44.407333,-120.262665,49,155,44,6627,256,-96,352,-27,134,136,-33,472,66,18,37,187,65,76,162
"672","51244",45.879723,-121.98,85,106,39,5694,245,-23,268,21,159,160,16,2473,431,24,69,1221,134,151,1155
"673","50756",43.69158,-114.66444,-4,167,41,7983,218,-185,403,-91,95,98,-105,538,67,28,28,185,92,106,184
"674","51261",44.21139,-114.945,16,180,41,8449,251,-180,431,-82,116,122,-96,457,60,22,29,162,76,88,159
"676","174433",47.067467,-120.96253,32,89,32,6503,191,-85,276,-41,116,118,-46,1459,244,26,61,696,122,126,645
"677","51225",45.17583,-113.895,66,161,37,8840,300,-124,424,154,-25,178,-51,266,41,13,36,101,44,87,49
"678","51328",44.42694,-115.27556,8,173,41,7951,237,-175,412,-82,105,110,-94,566,71,25,29,199,91,105,194
"682","179102",48.77667,-119.94,8,110,33,7552,193,-139,332,-80,103,105,-87,498,67,30,28,182,94,105,167
"683","176753",47.295616,-121.4574,47,79,32,5843,190,-55,245,-18,122,125,-23,2249,362,41,58,1036,188,203,962
"689","82629",46.079723,-117.16861,84,136,39,7229,290,-58,348,-1,176,179,-6,489,54,19,26,159,73,87,145
"690","6138",45.1286,-116.8342,39,152,40,7637,256,-124,380,-48,134,138,-59,582,72,21,31,206,82,101,195
"694","7366",48.07861,-121.47444,49,88,34,5829,198,-56,254,-16,125,126,-21,2070,328,45,57,953,180,200,876
"696","5136",45.1617,-117.03665,23,149,40,7385,236,-136,372,-60,116,119,-71,628,79,23,31,224,89,108,213
"698","7429",48.121666,-120.305,9,106,33,7321,191,-130,321,-75,104,104,-81,821,130,27,49,363,102,102,334
"707","51199",47.18444,-117.68111,86,129,37,7409,289,-55,344,-3,178,182,-8,401,56,15,38,157,51,60,142
"725","51215",43.916668,-111.333336,44,151,36,8980,272,-141,413,89,152,159,-72,465,53,28,20,135,90,104,131
"740","178699",48.611668,-119.94334,6,109,33,7487,191,-139,330,-81,101,102,-87,550,77,29,33,210,95,105,193
"751","117031",40.2001,-106.0348,10,159,40,7978,218,-170,388,113,21,113,-91,553,54,36,11,150,122,150,132
"752","not recorded / 5991 / P005",25.05,-106.317,131,126,59,2943,236,23,213,157,134,162,88,1298,279,14,79,730,69,428,235
"753","26985",51.819,-100.883,-2,108,22,12684,228,-245,473,151,-175,151,-175,512,81,18,50,224,65,224,65
"754","43235",50.65833,-99.9,4,118,24,12604,236,-247,483,155,-169,155,-169,516,83,19,52,230,64,230,64
"755","22265",50.883335,-100.25,7,117,24,12647,239,-243,482,159,-166,159,-166,517,83,19,50,227,65,227,65
"756","37445",51.584,-100.833,-1,109,23,12692,229,-244,473,152,-174,152,-174,513,81,19,50,224,66,224,66
"757","37446",51.817,-100.9,-2,108,22,12684,228,-245,473,151,-175,151,-175,512,81,18,50,224,65,224,65
"758","47189",51.466667,-100.71667,-1,108,22,12648,228,-245,473,151,-174,151,-174,523,83,19,50,227,68,227,68
"759","329709",38.1484,-119.4005,21,131,44,5821,191,-103,294,-31,100,100,-42,699,115,19,61,314,61,68,297
"760","1151862",37.7365,-118.273,5,127,43,5836,175,-117,292,-57,56,84,-59,504,74,20,42,198,71,83,191
"761","342302",37.129,-118.4765,16,119,42,5638,178,-100,278,-42,64,93,-45,559,93,15,57,245,58,70,238
"762","342254",37.130726,-118.50939,-5,111,41,5369,149,-119,268,-57,38,69,-63,710,116,18,57,309,71,87,302
"763","864799",36.478054,-118.206665,14,112,41,5517,171,-99,270,-41,61,90,-46,684,115,14,61,309,59,77,306
"764","259886",37.6567,-119.0609,34,130,44,5730,201,-89,290,-29,111,111,-29,558,94,15,61,251,47,56,251
"765","394736",36.5861,-118.2326,93,141,42,6739,280,-53,333,14,184,184,14,369,66,7,67,177,27,27,177
"766","454260",37.505234,-118.16512,33,136,42,6281,213,-104,317,-38,91,118,-38,346,50,15,38,132,54,58,132
"767","511429",36.7767,-118.3237,88,142,42,6678,274,-58,332,9,177,177,9,369,66,8,66,176,28,28,176
"768","308667",38.1401,-119.438,16,126,44,5704,181,-105,286,-33,93,94,-46,780,130,20,63,356,63,70,335
"769","348902",41.6847,-120.3003,47,149,43,6657,250,-95,345,-22,136,136,-30,488,60,13,37,175,55,55,161
"770","313152",37.4355,-118.7468,10,120,43,5581,172,-107,279,-47,85,87,-51,578,95,17,56,251,61,71,242
"771","342349",37.13719,-118.51639,-5,111,41,5369,149,-119,268,-57,38,69,-63,710,116,18,57,309,71,87,302
"772","776826",41.3334,-121.0178,79,167,45,6738,289,-76,365,4,166,168,-4,428,56,7,44,164,40,46,154
"773","102438",36.03735,-105.27443,68,175,47,6905,259,-113,372,158,-19,158,-19,479,93,17,63,229,54,229,54
"774","73290",33.427,-107.9,78,191,51,6733,267,-104,371,159,67,166,-7,447,94,11,73,246,45,206,74
"775","102808",33.4628,-105.7935,74,143,46,6271,234,-75,309,147,65,155,-5,580,124,16,69,303,75,282,101
"777","108921",35.7794,-106.43657,58,157,43,7117,247,-114,361,144,92,150,-32,568,92,32,41,230,98,213,115
"778","107370",36.16,-105.59,48,166,45,6883,236,-129,365,131,-26,137,-39,558,97,29,47,238,90,232,90
"779","102489",32.79,-105.63,87,139,46,6096,242,-60,302,157,79,166,10,543,115,12,70,288,63,267,92
"780","85779",35.82067,-106.62557,63,163,43,7268,258,-113,371,151,98,158,-29,522,85,28,42,213,87,195,105
"781","69198",35.758007,-105.63551,47,159,46,6497,227,-116,343,126,-21,133,-33,624,109,32,49,273,100,264,103
"782","101456",36.9274,-106.3527,13,157,43,7209,202,-162,364,101,44,106,-77,742,93,37,25,236,127,211,181
"783","14957",32.39,-106.53,132,167,46,7117,313,-43,356,215,126,225,43,332,69,6,73,182,29,160,53
"784","80161",35.920135,-105.57862,8,144,45,6130,177,-141,318,84,-52,89,-66,829,129,50,40,328,153,317,159
"785","101444",36.537613,-106.32175,28,163,43,7218,221,-151,372,116,59,121,-63,653,93,35,30,226,116,208,151
"786","100961",35.164837,-106.36909,91,158,42,7509,287,-83,370,180,130,190,-3,443,73,23,46,190,74,171,84
"787","95115",35.79548,-106.29844,98,155,41,7859,293,-80,373,191,-1,200,-1,377,68,18,51,171,58,157,58
"788","86149",35.167076,-108.107285,65,170,44,7463,264,-116,380,156,99,163,-29,427,73,17,47,183,55,155,93
"789","44521",36.009357,-106.849915,40,166,44,7169,236,-138,374,128,73,133,-51,602,91,31,35,226,95,204,137
"790","67496",33.46099,-105.73688,88,150,46,6486,254,-68,322,164,80,172,6,505,108,14,71,269,64,251,82
"792","81107",36.75,-105.275,22,166,44,7192,214,-161,375,109,-70,115,-70,594,94,31,40,234,99,231,99
"793","69201",35.870018,-105.66021,31,154,45,6352,207,-128,335,109,-34,114,-47,702,117,39,45,293,120,283,125
"794","107369",36.74,-105.5,23,167,44,7255,217,-161,378,111,-69,117,-69,580,91,32,38,224,101,218,101
"796","68203",35.886322,-106.29848,87,149,40,7685,277,-88,365,178,-11,187,-11,425,75,21,49,190,69,174,69
"797","106652",36.636,-106.201,37,168,43,7537,236,-152,388,128,71,134,-60,546,82,32,31,197,102,183,117
"798","106509",36.605,-105.413,18,162,44,6986,205,-159,364,102,-71,108,-71,644,100,35,39,250,113,245,113
"799","108919",35.92652,-106.70788,45,168,45,7087,240,-133,373,131,78,137,-45,594,92,32,37,228,97,209,131
"801","108910",35.82673,-106.43532,58,157,43,7117,247,-114,361,144,92,150,-32,568,92,32,41,230,98,213,115
"802","101364",35.94983,-106.52033,42,161,44,6983,232,-131,363,127,74,133,-46,630,97,34,37,241,105,222,139
"803","97323",35.28932,-107.58232,53,161,44,7150,245,-119,364,139,85,146,-37,503,85,22,47,216,69,187,107
"805","52242",35.171,-108.146,65,170,44,7463,264,-116,380,156,99,163,-29,427,73,17,47,183,55,155,93
"806","101363",35.90489,-106.48456,47,159,44,6976,235,-124,359,131,79,138,-41,614,97,34,39,241,105,224,130
"807","69199",35.9618,-106.624466,43,164,44,7024,235,-132,367,128,75,134,-46,617,95,33,37,236,102,217,136
"808","58781",36.18,-105.53,40,166,45,6846,227,-137,364,123,-34,128,-47,584,101,30,47,246,95,241,95
"809","101362",35.86447,-106.51889,37,158,44,6829,223,-131,354,120,67,125,-49,675,103,36,37,257,112,237,150
"810","101461",36.533005,-106.31486,28,163,43,7218,221,-151,372,116,59,121,-63,653,93,35,30,226,116,208,151
"813","80160",35.919907,-105.5783,8,144,45,6130,177,-141,318,84,-52,89,-66,829,129,50,40,328,153,317,159
"814","52999",35.153286,-108.107475,62,171,45,7370,260,-119,379,152,95,158,-31,444,76,18,46,190,58,162,96
"815","53001",33.46,-105.77,74,143,46,6271,234,-75,309,147,65,155,-5,580,124,16,69,303,75,282,101
"816","102261",32.825,-105.647,87,139,46,6096,242,-60,302,157,79,166,10,543,115,12,70,288,63,267,92
"817","58770",34.25,-108.69,80,203,51,7040,283,-111,394,167,110,172,-8,359,76,12,70,189,38,158,58
"818","58780",35.96,-106.71,45,168,45,7087,240,-133,373,131,78,137,-45,594,92,32,37,228,97,209,131
"819","50257",36.5972,-105.45,7,154,44,6776,188,-160,348,90,-63,95,-77,729,109,43,35,273,137,266,138
"820","JEPS107498",39.317497,-120.64,84,136,44,6081,263,-42,305,16,164,166,16,1638,300,7,78,818,45,50,818
"821","JEPS25951",38.222927,-119.95362,66,138,44,6132,245,-64,309,-3,148,149,-3,1032,180,10,74,495,43,51,495
"822","JEPS81264",37.845,-119.36917,26,128,44,5682,191,-96,287,-24,102,103,-36,714,121,17,65,327,54,62,314
"823","JEPS28353",40.45866,-121.45081,44,136,44,6004,228,-80,308,-11,126,126,-21,1065,157,11,61,462,68,68,434
"824","UC1133362",37.7887,-119.3506,18,122,43,5535,179,-99,278,-28,92,94,-43,770,131,18,65,354,56,66,339
"825","JEPS27757",37.26756,-118.77651,2,113,41,5387,157,-113,270,-50,74,76,-57,700,116,18,59,310,65,78,301
"826","UC1028658",38.588528,-119.78518,55,143,44,6319,238,-84,322,-8,139,139,-18,786,131,14,66,362,54,54,359
"827","UC1133361",39.5121,-120.5213,60,144,44,6285,248,-76,324,-2,143,144,-12,1177,203,10,72,562,52,56,556
"828","UC1133499",40.7212,-121.0988,59,156,45,6487,261,-85,346,-9,144,145,-18,717,102,10,55,297,54,58,288
"829","UC1136940",40.7359,-121.1364,59,156,45,6487,261,-85,346,-9,144,145,-18,717,102,10,55,297,54,58,288
"830","JEPS103105",39.978058,-121.45833,78,144,45,6073,267,-49,316,10,159,159,10,1098,199,5,75,536,37,44,536
"831","UC1133359",38.8141,-120.052,46,134,43,6129,221,-85,306,-12,127,129,-23,1063,180,14,69,499,59,64,493
"832","JEPS86370",41.1014,-120.2166,40,152,43,6651,245,-105,350,-27,129,129,-36,489,61,14,36,174,57,67,161
"833","JEPS95634",39.7497,-120.8413,74,139,44,6185,261,-53,314,14,157,158,5,1299,231,7,75,633,45,50,628
"834","MT00121721",56.016666,-121.88333,26,109,27,10187,221,-172,393,149,-32,149,-113,497,80,18,45,210,73,210,92
"835","MT00169464",49.116665,-120.85,20,107,33,7229,196,-121,317,-65,112,112,-72,751,113,35,42,317,116,116,291
"847","dbsn166458",32.701,-109.88447,82,149,47,6079,248,-64,312,155,108,162,8,714,130,14,57,322,63,278,178
"848","dbsn294798",34.54886,-111.16325,87,154,43,7144,276,-77,353,176,116,182,-1,600,88,11,43,225,58,183,163
"849","dbsn304195",34.1016,-109.5368,57,162,47,6454,236,-104,340,136,84,142,-23,647,107,19,51,280,67,235,150
"850","MT00169464",49.116665,-120.85,20,107,33,7229,196,-121,317,-65,112,112,-72,751,113,35,42,317,116,116,291
"851","MT00121721",56.016666,-121.88333,26,109,27,10187,221,-172,393,149,-32,149,-113,497,80,18,45,210,73,210,92
"852","JEPS27757",37.26756,-118.77651,2,113,41,5387,157,-113,270,-50,74,76,-57,700,116,18,59,310,65,78,301
"853","101363",35.90489,-106.48456,47,159,44,6976,235,-124,359,131,79,138,-41,614,97,34,39,241,105,224,130
"854","67497",33.46099,-105.73688,88,150,46,6486,254,-68,322,164,80,172,6,505,108,14,71,269,64,251,82
"855","69200",35.9618,-106.624466,43,164,44,7024,235,-132,367,128,75,134,-46,617,95,33,37,236,102,217,136
"856","101362",35.86447,-106.51889,37,158,44,6829,223,-131,354,120,67,125,-49,675,103,36,37,257,112,237,150
"859","not recorded / 5991 / P005",25.05,-106.317,131,126,59,2943,236,23,213,157,134,162,88,1298,279,14,79,730,69,428,235
"862","173820",40.4231,-106.8046,34,174,40,8775,264,-161,425,-65,102,145,-81,516,48,38,7,137,124,126,132
"863","174134",39.6709,-105.5959,7,147,40,7469,201,-159,360,-12,16,105,-84,617,65,38,18,181,128,176,132
"865","173808",40.5205,-105.8917,-9,137,39,7471,184,-163,347,-31,1,89,-98,683,69,43,13,198,146,181,158
"866","173814",40.5597,-105.2571,66,153,41,7603,269,-101,370,144,-26,168,-26,396,62,11,49,165,37,147,37
"868","174137",38.66817,-106.61926,-17,151,39,8013,176,-206,382,81,15,86,-117,670,71,38,17,193,136,178,175
"869","206871",37.7489,-107.7154,-5,160,43,7248,187,-185,372,84,23,88,-94,833,92,37,22,253,142,216,214
"874","CAN 19588",56.017,-121.883,26,109,27,10187,221,-172,393,149,-32,149,-113,497,80,18,45,210,73,210,92
"876","51266",45.10278,-116.18472,16,157,41,7319,232,-146,378,-64,108,112,-75,731,94,26,32,259,103,122,250
"877","51239",44.05814,-116.126816,62,160,39,8178,294,-107,401,-33,162,168,-43,575,84,14,47,240,60,69,227
"878","5136",45.1617,-117.03665,23,149,40,7385,236,-136,372,-60,116,119,-71,628,79,23,31,224,89,108,213
"880","51280",43.003334,-116.72853,46,160,41,7545,269,-116,385,-37,143,147,-46,442,54,15,34,160,57,71,150
"881","51225",45.17583,-113.895,66,161,37,8840,300,-124,424,154,-25,178,-51,266,41,13,36,101,44,87,49
"882","176753",47.295616,-121.4574,47,79,32,5843,190,-55,245,-18,122,125,-23,2249,362,41,58,1036,188,203,962
"883","7366",48.07861,-121.47444,49,88,34,5829,198,-56,254,-16,125,126,-21,2070,328,45,57,953,180,200,876
"884","51264",45.62056,-115.7,0,160,42,7146,213,-164,377,-78,90,93,-88,786,98,33,27,265,124,144,256
"885","29199",47.440277,-120.61,60,122,35,7554,254,-85,339,-30,157,157,-35,710,129,13,66,361,61,61,331
"886","51281",44.03162,-114.83613,10,176,41,8301,242,-181,423,-84,110,115,-98,478,62,23,30,169,79,91,167
"887","6509",45.26246,-117.17709,28,148,40,7243,238,-128,366,-54,119,121,-64,589,71,23,28,202,88,107,191
"888","51287",44.91111,-116.09778,46,155,39,7793,270,-118,388,-41,142,148,-52,679,93,20,38,256,84,99,250
"890","51568",43.48406,-115.470825,36,165,39,8346,269,-144,413,-56,139,144,-71,518,77,17,44,215,62,72,207
"891","51328",44.42694,-115.27556,8,173,41,7951,237,-175,412,-82,105,110,-94,566,71,25,29,199,91,105,194
"892","51267",44.03972,-114.585,-24,163,41,7688,193,-198,391,-105,72,75,-119,597,69,33,23,193,110,126,191
"894","51260",44.882484,-114.695045,30,170,41,8165,261,-153,414,-66,128,134,-76,445,48,26,20,133,88,103,127
"895","51244",45.879723,-121.98,85,106,39,5694,245,-23,268,21,159,160,16,2473,431,24,69,1221,134,151,1155
"897","51282",43.573822,-115.171394,31,170,40,8491,266,-156,422,-64,134,139,-80,495,72,18,42,201,64,74,195
"898","52915",48.529167,-118.54222,36,118,33,7869,235,-115,350,-57,133,137,-63,471,58,26,25,158,86,106,143
"899","51209",44.75417,-116.28306,27,155,40,7644,247,-138,385,-58,122,127,-70,685,92,21,36,257,88,104,248
"900","51278",44.4425,-114.92722,-6,172,42,7874,219,-189,408,-93,90,95,-107,550,66,28,25,183,98,112,179
"902","51322",43.254227,-112.034515,65,143,34,8990,291,-118,409,109,173,180,-53,306,38,17,21,99,60,70,73
"903","51237",44.67194,-115.83667,22,162,41,7680,246,-147,393,-63,117,122,-75,658,86,23,34,240,92,107,231
"904","82629",46.079723,-117.16861,84,136,39,7229,290,-58,348,-1,176,179,-6,489,54,19,26,159,73,87,145
"907","29193",48.61111,-119.86417,21,116,33,7843,214,-132,346,-72,119,121,-78,469,65,26,30,175,83,95,161
"908","6138",45.1286,-116.8342,39,152,40,7637,256,-124,380,-48,134,138,-59,582,72,21,31,206,82,101,195
"911","48651",47.336388,-121.68222,67,88,37,5224,206,-28,234,9,134,136,5,2344,339,53,51,1007,227,234,925
"914","29191",47.33389,-120.57611,51,114,34,7486,239,-92,331,-38,146,147,-43,728,126,15,61,355,68,70,326
"915","51285",43.71116,-115.635666,60,161,39,8362,294,-113,407,-36,163,168,-48,543,84,14,49,234,57,66,224
"917","51310",43.820072,-114.47716,14,168,40,8254,241,-171,412,-79,115,120,-91,460,57,24,28,157,79,93,157
"920","51277",43.47607,-113.58727,37,156,37,8953,268,-151,419,-64,108,153,-78,396,46,20,25,128,69,86,126
"921","51177",44.21139,-114.945,16,180,41,8449,251,-180,431,-82,116,122,-96,457,60,22,29,162,76,88,159
"922","51558",44.7675,-114.69056,-8,169,42,7771,215,-186,401,-94,88,92,-106,540,59,32,19,164,107,123,160
"923","51265",44.65639,-115.54417,10,170,42,7738,235,-167,402,-77,105,109,-89,626,80,26,30,222,96,111,215
"924","51283",42.75222,-116.9225,54,166,42,7516,281,-110,391,-29,150,155,-37,390,45,14,30,135,53,66,125
"926","174433",47.067467,-120.96253,32,89,32,6503,191,-85,276,-41,116,118,-46,1459,244,26,61,696,122,126,645
"928","5244",45.207832,-117.06783,26,149,40,7353,238,-132,370,-57,118,121,-68,616,76,23,30,217,89,108,206
"929","51242",43.91472,-113.6125,29,165,38,8884,260,-168,428,117,38,142,-87,312,40,16,24,103,63,93,73
"933","7432",46.24917,-122.186386,38,87,37,5104,177,-54,231,-14,104,108,-18,2949,472,44,62,1379,208,228,1290
"937","51291",44.660767,-114.22625,44,166,39,8615,278,-144,422,130,-46,154,-68,283,39,15,29,99,53,87,60
"939","51205",43.805195,-114.208916,-10,162,40,7917,208,-188,396,-96,56,92,-109,522,58,30,21,162,100,117,161
"941","51255",44.66889,-111.28639,1,151,36,8889,227,-183,410,-99,110,115,-112,679,76,41,21,213,128,151,208
"962","209784",45.7257,-110.97,45,142,37,8052,257,-125,382,81,-55,151,-55,585,83,28,33,216,99,164,99
"964","209751",44.0126,-103.827,55,135,35,8370,262,-115,377,139,-34,168,-46,589,96,18,53,263,66,223,66
"966","ORE16878",44.3895,-122.0217,62,121,41,5915,240,-53,293,-3,141,141,-8,1806,309,24,65,872,120,120,810
"967","WILLU6346",45.1538,-117.1917,2,145,40,7082,208,-152,360,-75,92,94,-86,720,94,26,34,265,100,119,253
"968","WILLU12437",42.5575,-118.5739,80,167,43,7254,299,-81,380,68,171,177,-9,258,29,9,25,77,42,51,67
"969","ORE17906",44.1141,-121.6179,30,124,41,5925,210,-88,298,-31,110,110,-38,1276,212,24,60,600,106,106,556
"970","WILLU13408",42.8211,-118.4596,65,164,43,7162,282,-94,376,-17,156,160,-23,306,34,11,26,96,48,59,85
"971","WILLU5491",44.1251,-122.0829,73,133,42,6107,261,-49,310,5,154,154,0,1507,259,21,65,728,103,103,673
"972","OSC73661",45.8441,-117.9644,40,130,38,6835,238,-98,336,-38,128,129,-45,770,108,20,43,310,85,99,291
"973","OSC225841",44.4073,-120.2626,49,155,44,6627,256,-96,352,-27,134,136,-33,472,66,18,37,187,65,76,162
"974","OSC97173",45.0437,-117.3537,23,148,40,7326,233,-135,368,-60,115,117,-70,603,78,22,33,220,85,104,208
"975","ORE16978",45.2311,-117.2581,-8,141,39,6930,195,-158,353,-81,82,83,-92,769,101,27,34,286,106,125,272
"976","OSC143756",42.6839,-118.5725,31,156,43,6849,241,-120,361,-42,120,123,-51,424,49,17,27,140,65,77,127
"977","ORE107083",42.4443,-117.3485,72,174,43,7626,306,-96,402,-15,169,175,-21,296,32,11,28,93,43,56,84
"978","WILLU25991",45.6753,-117.9449,56,136,39,6956,261,-84,345,-23,145,147,-31,724,102,19,43,290,79,93,273
"979","OSC195813",44.1523,-117.645,50,155,39,8077,275,-120,395,-43,151,156,-53,411,56,15,34,155,58,72,144
"980","WILLU3177",43.7789,-119.2059,59,163,42,7351,277,-105,382,-28,150,155,-36,317,40,13,30,114,48,56,104
"981","WILLU6292",44.9624,-118.2294,4,140,40,6842,205,-145,350,-71,92,93,-81,722,103,24,39,286,92,109,268
"983","OSC185829",45.193,-117.1991,-5,143,40,6991,200,-156,356,-80,86,86,-91,753,98,27,34,278,104,124,265
"986","ORE3541",44.7876,-118.257,27,150,40,7092,237,-130,367,-53,117,119,-63,600,86,20,39,238,78,94,221
"987","ORE16880",45.2497,-122.1667,90,103,41,5099,240,-6,246,34,156,158,29,2130,335,26,60,969,149,150,908
"988","OSC184859",45.2569,-117.1768,28,148,40,7243,238,-128,366,-54,119,121,-64,589,71,23,28,202,88,107,191
"989","WILLU25443",45.2347,-117.3172,-8,141,39,6930,195,-158,353,-81,82,83,-92,769,101,27,34,286,106,125,272
"990","OSC170320",44.6806,-117.3728,40,151,39,7780,258,-125,383,-50,137,140,-60,500,67,18,34,186,71,87,175
"991","ORE16367",43.8303,-119.2288,59,163,42,7351,277,-105,382,-28,150,155,-36,317,40,13,30,114,48,56,104
"992","OSC201265",45.0887,-119.8943,74,141,42,6478,271,-62,333,0,158,160,-5,418,54,14,35,153,54,63,135
"993","OSC185046",44.3267,-118.6763,11,152,41,6868,218,-145,363,-65,98,101,-75,578,80,21,36,222,79,92,205
"994","OSC56093",45.3333,-117.0003,34,149,40,7369,246,-124,370,-51,126,129,-61,578,69,22,28,197,86,105,186
"997","OSC197069",45.1579,-118.8347,61,155,42,6782,271,-90,361,-18,146,150,-25,490,63,16,36,184,63,75,164
"998","OSC215198",45.1617,-117.0366,23,149,40,7385,236,-136,372,-60,116,119,-71,628,79,23,31,224,89,108,213
"1000","OSC215301",45.2078,-117.0678,26,149,40,7353,238,-132,370,-57,118,121,-68,616,76,23,30,217,89,108,206
"1001","512091",28.995832,-102.6,154,128,47,5016,280,11,269,203,96,211,83,473,95,9,71,245,40,205,45
"1010","117031",40.2001,-106.0348,10,159,40,7978,218,-170,388,113,21,113,-91,553,54,36,11,150,122,150,132
"1011","7470",41.95361,-113.31917,54,146,36,8373,276,-121,397,86,121,164,-51,393,46,26,16,117,81,98,100
"1012","312",40.455833,-111.59722,44,139,37,7987,253,-119,372,-42,151,151,-53,765,88,35,31,255,111,111,251
"1013","938",39.114445,-111.48194,12,137,38,7655,209,-151,360,-73,38,114,-79,575,61,30,16,163,115,136,155
"1014","4418",40.558887,-111.51028,39,139,37,7897,246,-123,369,-47,144,144,-57,785,90,35,31,264,112,112,262
"1015","3545",37.951668,-111.65,48,155,40,7807,252,-132,384,145,79,150,-49,356,51,16,29,126,63,107,80
"1017","894",39.586113,-111.704445,38,147,38,8113,249,-137,386,-51,117,145,-63,536,58,29,17,160,107,108,153
"1018","8075",40.558056,-110.80444,1,127,36,7678,196,-152,348,-84,75,104,-88,677,74,39,18,206,134,134,201
"1019","1029",40.39389,-111.638336,40,139,37,7968,248,-123,371,-47,146,146,-57,761,87,36,29,252,115,115,248
"1020","684",39.935833,-111.63167,38,143,37,8159,247,-135,382,-52,145,145,-64,623,69,32,22,196,110,110,191
"1021","917",39.96361,-111.62278,38,143,37,8159,247,-135,382,-52,145,145,-64,623,69,32,22,196,110,110,191
"1022","1261",38.317223,-112.389725,16,159,42,7372,221,-153,374,-65,41,114,-72,563,64,27,20,158,111,141,145
"1024","7040",39.337223,-111.52111,73,160,38,8722,299,-118,417,63,186,186,-40,320,32,19,12,87,69,69,79
"1025","1960",39.90167,-111.683334,34,141,37,8038,241,-137,378,-55,140,140,-65,629,70,32,21,197,114,114,190
"1026","9840",40.519722,-111.654724,23,128,36,7632,220,-128,348,-60,125,125,-66,898,108,41,33,308,129,129,302
"1029","89707",60.17472,-129.6189,-31,125,26,12537,201,-277,478,103,-19,120,-200,528,62,21,24,166,87,159,131
"1030","3580",52.470554,-116.07528,4,134,33,8366,203,-198,401,107,-39,107,-104,585,98,20,56,267,78,267,79
"1031","89822",49.6333,-114.7833,19,128,34,7883,215,-157,372,-71,114,119,-81,755,81,47,18,225,152,179,219
"1032","89623",54.2333,-125.75,20,115,30,8542,200,-177,377,-83,20,123,-97,481,55,20,25,155,78,137,139
"1033","89829",51.22861,-115.49472,2,127,33,8353,200,-183,383,85,-52,107,-105,561,80,29,31,201,104,192,117
"1034","35979",53.71111,-113.21778,25,120,27,11012,234,-195,429,157,-41,157,-124,447,88,16,67,235,53,235,59
"1035","89784",60.7167,-135.05,-10,108,24,11004,204,-231,435,110,-3,125,-158,271,37,9,40,107,36,103,54
"1039","128404",49.13389,-114.155,3,126,35,7528,197,-160,357,36,65,100,-90,692,84,43,19,214,154,184,172
"1040","89844",60.7528,-137.5069,-27,140,29,11802,205,-272,477,101,-16,114,-187,318,41,9,37,112,36,108,76
"1041","3582",50.101665,-114.442276,-2,125,33,7876,189,-183,372,34,-40,97,-100,638,88,36,26,216,122,196,139
"1042","89825",51.4997,-116.4722,-11,112,31,7915,179,-180,359,89,-61,89,-112,682,78,41,19,210,129,210,173
"1045","89694",49.66528,-110.1075,16,132,30,10146,236,-199,435,120,-40,143,-117,409,69,18,43,165,57,160,67
"1053","103672",60.783333,-137.58333,-27,140,29,11802,205,-272,477,101,-16,114,-187,318,41,9,37,112,36,108,76
"1055","221715",41.92,-111.65,15,144,37,8132,229,-150,379,-70,118,122,-84,550,55,32,16,160,108,109,158
"1064","51261",44.21139,-114.945,16,180,41,8449,251,-180,431,-82,116,122,-96,457,60,22,29,162,76,88,159
"1065","51553",44.691433,-114.04822,58,166,38,8804,296,-133,429,146,-33,170,-57,245,37,11,37,94,39,81,45
"1066","51341",45.62056,-115.7,0,160,42,7146,213,-164,377,-78,90,93,-88,786,98,33,27,265,124,144,256
"1067","29195",48.725277,-118.965836,41,122,34,7951,240,-114,354,-54,102,143,-61,394,46,23,23,122,78,99,111
"1068","51280",43.003334,-116.72853,46,160,41,7545,269,-116,385,-37,143,147,-46,442,54,15,34,160,57,71,150
"1069","178699",48.611668,-119.94334,6,109,33,7487,191,-139,330,-81,101,102,-87,550,77,29,33,210,95,105,193
"1070","51597",43.917385,-115.592865,35,168,40,8169,268,-142,410,-58,135,140,-70,569,82,18,42,229,71,81,220
"1071","51571",45.705555,-115.5736,27,163,42,7423,245,-142,387,-57,119,124,-67,748,92,32,27,248,116,138,240
"1072","51330",44.09722,-116.005104,48,161,40,8078,279,-121,400,-44,148,153,-55,601,86,16,44,245,68,78,234
"1073","82629",46.079723,-117.16861,84,136,39,7229,290,-58,348,-1,176,179,-6,489,54,19,26,159,73,87,145
"1074","51227",44.5837,-114.76563,15,174,41,8162,245,-172,417,-79,113,119,-91,461,52,26,22,144,88,103,140
"1076","51259",42.986202,-116.77425,46,162,41,7513,270,-117,387,-36,142,146,-46,436,53,15,33,156,57,71,146
"1077","179102",48.77667,-119.94,8,110,33,7552,193,-139,332,-80,103,105,-87,498,67,30,28,182,94,105,167
"1078","7431",48.645557,-119.83028,39,123,34,8177,238,-123,361,-60,139,142,-66,399,54,22,28,144,72,84,133
"1079","51288",46.70697,-115.55766,57,148,40,7466,275,-94,369,-29,150,155,-36,816,107,29,32,295,114,127,280
"1081","51257",47.03167,-116.57083,55,129,37,7066,256,-85,341,-26,144,147,-33,859,117,27,39,334,108,122,315
"1086","29192",47.28472,-120.44055,29,102,33,7135,205,-104,309,-53,121,121,-59,923,153,20,58,433,89,89,398
"1088","51199",47.18444,-117.68111,86,129,37,7409,289,-55,344,-3,178,182,-8,401,56,15,38,157,51,60,142
"1090","26545",48.78639,-118.728615,50,125,34,8031,253,-106,359,-46,110,153,-52,420,49,24,22,129,83,106,117
"1092","51263",46.783607,-116.20003,62,137,38,7252,269,-84,353,-22,152,157,-29,912,126,29,39,353,112,124,341
"1095","6593",48.57427,-120.820915,13,104,33,7044,187,-122,309,-68,104,104,-74,1014,164,34,52,460,122,122,424
"1100","50756",43.69158,-114.66444,-4,167,41,7983,218,-185,403,-91,95,98,-105,538,67,28,28,185,92,106,184
"1103","27011",44.407333,-120.262665,49,155,44,6627,256,-96,352,-27,134,136,-33,472,66,18,37,187,65,76,162
"1109","WILLU6291",45.0286,-118.134,44,144,40,7136,252,-107,359,-37,135,137,-45,591,84,20,39,232,75,93,216
"1110","ORE16847",45.2357,-117.3802,-5,141,39,6950,198,-155,353,-79,85,86,-90,756,100,27,35,283,104,123,269
"1112","OSC97994",44.9843,-117.3716,50,152,40,7703,267,-112,379,-40,145,149,-50,460,58,18,30,162,69,87,151
"1114","ORE98745",42.4443,-117.3485,72,174,43,7626,306,-96,402,-15,169,175,-21,296,32,11,28,93,43,56,84
