"","catalogNumber","lat","lon","bio1","bio2","bio3","bio4","bio5","bio6","bio7","bio8","bio9","bio10","bio11","bio12","bio13","bio14","bio15","bio16","bio17","bio18","bio19"
"1","JEPS31861",35.81194,-118.69929,143,147,44,6610,330,-3,333,75,231,231,66,493,90,2,80,254,11,11,244
"2","JEPS45918",34.19444,-117.75,137,149,46,6050,316,-2,318,74,216,220,67,693,133,2,89,385,11,25,366
"4","UC1076546",37.95067,-119.82831,93,145,45,6299,278,-42,320,20,177,177,20,930,160,6,75,445,33,40,445
"5","UC1010737",37.32667,-119.01667,42,124,44,5578,204,-75,279,-17,117,118,-18,672,119,12,69,318,39,51,315
"6","108239",32.76,-109.79,170,184,48,7509,363,-16,379,260,207,267,75,290,54,6,62,140,21,115,69
"7","75173",31.75,-110.84,130,137,45,6028,288,-11,299,201,159,209,56,634,132,9,68,313,43,266,155
"8","577357",35.2324,-115.3003,140,126,38,7361,324,-5,329,62,167,239,53,277,41,5,43,95,29,74,90
"9","1007752",35.233334,-115.3,140,126,38,7361,324,-5,329,62,167,239,53,277,41,5,43,95,29,74,90
"10","1121403",34.15869,-116.74575,85,154,48,5980,264,-56,320,21,140,165,17,644,108,4,69,311,45,58,304
"11","930340",34.629444,-118.53139,147,128,42,6320,318,16,302,81,230,233,74,381,74,1,88,210,7,14,201
"12","276186",33.530556,-116.42889,113,148,47,6078,292,-21,313,49,168,195,45,577,95,3,67,278,39,54,266
"13","82768",35.34,-115.31139,176,132,37,7940,369,16,353,276,209,281,79,169,26,3,41,57,18,47,52
"14","731079",35.22378,-115.39949,135,127,38,7318,319,-10,329,57,161,233,48,290,42,5,43,101,30,76,95
"15","409379",34.2822,-117.6382,74,136,46,5722,241,-52,293,13,123,153,12,798,144,4,81,418,33,55,408
"16","1132869",36.223057,-117.10111,92,140,41,7138,283,-58,341,17,162,188,8,298,44,7,49,123,36,48,123
"18","490513",33.833,-116.55,204,171,47,6632,399,42,357,124,266,291,124,186,34,1,66,89,11,19,89
"19","864911",34.15222,-116.74722,85,154,48,5980,264,-56,320,21,140,165,17,644,108,4,69,311,45,58,304
"20","1124932",34.604443,-118.55666,147,128,42,6320,318,16,302,81,230,233,74,381,74,1,88,210,7,14,201
"21","972012",34.59722,-118.47945,146,128,41,6435,318,13,305,79,230,234,72,358,70,1,88,197,7,14,189
"22","402728",34.9484,-115.5289,158,124,37,7335,340,13,327,80,185,256,71,258,38,4,44,91,26,66,87
"23","235785",34.2623,-116.8267,96,162,48,6218,281,-54,335,29,154,179,23,586,100,3,71,286,38,46,282
"24","1128833",35.6525,-118.068886,111,138,42,6612,296,-26,322,41,173,199,34,377,65,4,73,186,21,22,183
"25","dbsn136934",33.5767,-111.3543,197,154,43,7484,383,31,352,105,228,294,105,433,57,6,45,143,31,105,143
"26","dbsn136933",35.4144,-114.1994,162,140,40,7658,353,4,349,81,192,263,69,187,26,3,41,62,19,49,56
"27","dbsn301150",31.7185,-110.8735,130,137,45,6028,288,-11,299,201,159,209,56,634,132,9,68,313,43,266,155
"28","dbsn136936",33.5767,-111.3537,197,154,43,7484,383,31,352,105,228,294,105,433,57,6,45,143,31,105,143
"29","dbsn136931",33.74881,-111.50684,195,162,44,7468,387,26,361,104,225,293,104,418,52,6,45,138,30,97,138
"30","dbsn306261",28.37111,-109.0475,168,162,56,4420,311,23,288,216,158,222,112,966,280,7,110,649,43,618,128
"31","dbsn306260",26.96333,-108.97167,221,171,57,4345,367,72,295,267,213,272,163,688,200,4,111,481,19,404,88
"33","dbsn136937",33.7773,-110.9537,118,157,45,6813,301,-42,343,203,145,208,35,634,97,11,47,230,51,189,189
"173","343057",34.3417,-116.908,138,164,46,6647,334,-15,349,69,200,226,59,427,73,2,70,207,25,26,204
"174","365127",33.0336,-108.16,101,191,51,6722,291,-77,368,182,132,189,17,454,92,10,71,241,43,204,85
"175","343033",34.2088,-116.731,75,152,47,5971,253,-64,317,11,130,156,8,644,107,5,67,308,48,63,302
"176","365128",33.0304,-108.158,101,191,51,6722,291,-77,368,182,132,189,17,454,92,10,71,241,43,204,85
"177","365129",33.03,-108.162,101,191,51,6722,291,-77,368,182,132,189,17,454,92,10,71,241,43,204,85
"179","167463",31.067223,-115.48333,92,124,49,4569,233,-18,251,42,90,157,42,656,127,3,77,339,21,135,339
"180","187105",34.27,-117.621666,74,136,46,5722,241,-52,293,13,123,153,12,798,144,4,81,418,33,55,408
"182","187105",34.27,-117.621666,74,136,46,5722,241,-52,293,13,123,153,12,798,144,4,81,418,33,55,408
"184","dbsn136932",33.5767,-111.3537,197,154,43,7484,383,31,352,105,228,294,105,433,57,6,45,143,31,105,143
"210","CAAL7-06029",35.338497,-118.72491,168,150,43,6984,359,14,345,96,260,260,84,305,55,1,78,157,8,8,144
"211","CAAL7-06053",36.23931,-121.31062,136,169,60,3916,289,11,278,94,184,188,89,440,83,1,88,236,5,11,230
"212","CAAL7-06071",34.82825,-116.191345,204,160,41,7935,409,25,384,303,239,308,106,93,14,1,45,33,8,25,30
"213","CAAL7-06073",33.02056,-116.771866,160,153,51,5095,327,32,295,107,226,231,102,479,88,3,81,253,18,26,235
"214","CAAL7-06107",36.227814,-118.79661,162,152,43,6880,356,10,346,91,253,253,80,521,97,1,81,271,10,10,261
"215","CAAL7-04015",35.708233,-113.753334,130,153,42,7422,327,-29,356,224,158,229,41,292,43,7,39,101,35,84,82
"216","CAAL7-32023",38.049847,-116.45109,70,156,42,7363,275,-95,370,-8,96,168,-19,263,27,16,15,76,57,67,71
"217","CAAL7-06065",33.727917,-115.977295,189,163,45,7170,387,25,362,115,215,284,103,168,22,1,45,62,13,36,61
"218","CAAL7-04003",31.890821,-109.73695,163,178,50,6764,346,-10,356,243,197,250,78,336,81,5,82,192,24,168,64
"219","CAAL7-49053",37.278484,-113.51674,90,156,41,7662,296,-77,373,8,119,192,-3,428,54,13,29,141,68,93,125
"220","CAAL7-04007",33.797287,-110.81815,163,164,44,7524,356,-11,367,256,195,261,69,447,70,8,46,160,35,130,134
"221","CAAL7-06079",35.381634,-120.445526,138,170,56,4586,309,6,303,90,197,199,84,576,113,1,89,319,4,14,310
"222","CAAL7-06083",33.96583,-120.0975,141,94,61,2135,218,64,154,117,161,169,117,437,91,0,97,254,1,4,254
"223","CAAL7-32003",36.20175,-115.02281,190,152,38,8664,398,3,395,102,231,303,81,95,12,2,37,30,11,22,28
