"","catalogNumber","lat","lon","bio1","bio2","bio3","bio4","bio5","bio6","bio7","bio8","bio9","bio10","bio11","bio12","bio13","bio14","bio15","bio16","bio17","bio18","bio19"
"3","V-157715",68.7055,-134.1285,-101,82,16,14922,170,-321,491,82,-223,100,-268,204,39,7,52,91,24,82,32
"4","CAN 18727",68.333,-132.333,-102,86,17,14972,170,-326,496,78,-225,97,-277,213,37,9,48,89,30,87,35
"5","CAN 268380",62.85,-121.383,-48,102,19,15502,221,-315,536,143,-144,143,-251,329,50,15,42,136,46,136,52
"6","CAN 535543",68.533,-132.667,-95,84,16,15036,177,-319,496,86,-219,104,-271,204,36,8,47,85,27,81,33
"7","CAN 18868",66.233,-135,-74,102,19,14766,198,-321,519,120,-86,120,-255,333,43,17,32,114,54,114,64
"8","CAN 18796",68.833,-134.75,-98,81,16,14852,169,-318,487,85,-219,102,-264,194,40,5,60,93,19,80,29
"10","V111256",61.866665,-121.36667,-35,110,20,15502,233,-307,540,154,-125,154,-239,355,54,17,42,146,51,146,56
"11","V204482",68.25,-135.9,-103,83,17,14425,163,-319,482,74,-222,93,-266,238,44,10,52,104,31,97,35
"12","V110467",68.23333,-134.83333,-90,86,17,15136,181,-321,502,93,-206,114,-258,221,42,6,55,99,24,84,37
"13","V90247",62.85,-121.38333,-48,102,19,15502,221,-315,536,143,-144,143,-251,329,50,15,42,136,46,136,52
"15","MT00170516",62.45,-114.36667,-56,92,17,15409,204,-325,529,118,-172,136,-257,280,41,11,42,111,37,102,45
"17","MT00170518",66.23333,-135,-74,102,19,14766,198,-321,519,120,-86,120,-255,333,43,17,32,114,54,114,64
"18","MT00170514",60.816666,-113.25,-37,102,19,14441,212,-304,516,122,-139,139,-230,319,45,13,41,123,40,116,52
"23","MT00170517",60.85,-115.7,-38,99,19,14184,199,-300,499,121,-138,136,-225,337,46,16,36,127,49,124,58
"24","38734",63.96,-144.33,-50,130,25,13874,215,-296,511,124,-121,124,-226,265,55,7,68,142,26,142,35
"25","65740",62.95,-155.6,-34,107,22,13469,203,-270,473,113,-110,135,-207,440,82,18,54,206,55,187,73
"26","41078",64.13,-138.55,-55,107,21,13991,206,-301,507,119,-135,119,-238,358,53,15,40,143,50,143,66
"28","38731",64.07,-141.93,-59,132,23,15182,219,-332,551,128,-138,128,-257,226,54,4,84,133,16,133,23
"29","13422",64.76,-147.03,-38,108,21,14765,212,-293,505,144,-21,144,-230,345,56,10,50,153,43,153,66
"30","52277",63.56,-151.89,-32,97,22,12691,199,-241,440,108,-108,131,-190,398,82,15,61,193,50,192,62
"31","87186",64.83,-147.73,-29,108,21,14470,222,-277,499,150,-107,150,-217,326,51,10,45,136,41,136,64
"33","142751",65.94272,-146.31258,-51,112,20,15707,223,-312,535,147,-140,147,-252,247,39,7,48,105,30,105,46
"36","38732",65.01,-147.48,-50,99,20,14508,204,-285,489,132,-133,132,-237,308,54,7,57,148,35,148,54
"40","78158",65.66667,-128.8167,-68,110,19,16396,225,-337,562,141,-177,141,-275,311,48,12,44,128,43,128,54
"41","MT00170512",68.23333,-134.83333,-90,86,17,15136,181,-321,502,93,-206,114,-258,221,42,6,55,99,24,84,37
"45","87186",64.83,-147.73,-29,108,21,14470,222,-277,499,150,-107,150,-217,326,51,10,45,136,41,136,64
"46","65740",62.95,-155.6,-34,107,22,13469,203,-270,473,113,-110,135,-207,440,82,18,54,206,55,187,73
"47","142751",65.94272,-146.31258,-51,112,20,15707,223,-312,535,147,-140,147,-252,247,39,7,48,105,30,105,46
"48","13422",64.76,-147.03,-38,108,21,14765,212,-293,505,144,-21,144,-230,345,56,10,50,153,43,153,66
"49","38732",65.01,-147.48,-50,99,20,14508,204,-285,489,132,-133,132,-237,308,54,7,57,148,35,148,54
"50","52277",63.56,-151.89,-32,97,22,12691,199,-241,440,108,-108,131,-190,398,82,15,61,193,50,192,62
"51","38734",63.96,-144.33,-50,130,25,13874,215,-296,511,124,-121,124,-226,265,55,7,68,142,26,142,35
"52","41078",64.13,-138.55,-55,107,21,13991,206,-301,507,119,-135,119,-238,358,53,15,40,143,50,143,66
"55","38731",64.07,-141.93,-59,132,23,15182,219,-332,551,128,-138,128,-257,226,54,4,84,133,16,133,23
