"","catalogNumber","lat","lon","bio1","bio2","bio3","bio4","bio5","bio6","bio7","bio8","bio9","bio10","bio11","bio12","bio13","bio14","bio15","bio16","bio17","bio18","bio19"
"1","CAN 529640",45.333,-72.256,46,111,26,10480,250,-168,418,174,-83,174,-97,1099,122,59,19,337,207,337,224
"2","CAN 22309",43.117,-79.067,84,93,26,9253,268,-85,353,158,-29,201,-36,887,94,60,12,243,195,233,207
"3","CAN 116273",45.383,-75.683,59,98,23,10962,263,-153,416,182,-76,193,-90,868,84,54,14,249,170,248,188
"4","CAN 505111",43.117,-81.8,77,95,26,9331,262,-92,354,194,-37,194,-45,903,85,59,10,246,190,246,203
"5","CAN 504981",42.483,-81.667,87,97,27,9287,271,-84,355,202,-27,202,-36,910,91,53,15,257,181,257,195
"6","CAN 116274",45.317,-75.083,61,101,24,10774,264,-150,414,181,-72,193,-86,904,92,58,14,264,181,259,200
"7","CAN 505046",42.45,-81.7,87,97,27,9287,271,-84,355,202,-27,202,-36,910,91,53,15,257,181,257,195
"8","CAN 22310",42.667,-81.217,76,96,27,9101,254,-96,350,188,-36,188,-45,946,94,53,15,261,190,261,204
"9","CAN 22306",44.033,-77.733,71,100,26,9690,261,-118,379,27,-48,191,-59,832,85,56,11,232,181,201,194
"13","YPM CBS 008016",41.4798,-72.3943,95,107,30,8564,273,-77,350,56,204,204,-17,1243,120,92,8,334,291,291,306
"14","YPM CBS 008022",41.986,-73.4257,77,122,32,9070,269,-112,381,191,-32,191,-44,1159,107,77,9,315,250,315,254
"15","YPM CBS 008025",41.9945,-72.6788,95,120,31,9222,291,-92,383,143,-16,211,-28,1153,105,80,7,303,263,291,266
"16","YPM YU 037709",41.367,-72.717,100,104,29,8642,278,-70,348,85,209,209,-14,1207,114,89,7,321,286,286,291
"17","YPM CBS 008015",41.7664,-72.4391,88,116,31,8855,274,-94,368,46,-18,200,-30,1212,113,85,7,318,279,300,283
"18","YPM YU 037707",41.8475,-73.3298,75,114,30,9044,260,-112,372,122,-35,187,-47,1238,112,87,7,327,276,326,281
"19","YPM CBS 008024",41.605,-72.88,97,115,31,8915,285,-83,368,85,-10,210,-21,1217,111,87,7,323,281,295,286
"20","YPM YU 037705",41.7636,-72.6153,98,118,31,9000,290,-84,374,143,-9,212,-21,1142,104,80,6,300,263,285,265
"21","YPM CBS 008019",41.5271,-73.1228,91,113,31,8830,274,-90,364,79,-16,202,-27,1239,114,87,7,327,285,307,287
"23","YPM YU 037713",41.2739,-72.9669,104,102,29,8586,278,-65,343,88,212,212,-9,1141,108,84,8,307,271,271,272
"24","YPM YU 037702",41.3307,-72.9718,104,102,29,8586,278,-65,343,88,212,212,-9,1141,108,84,8,307,271,271,272
"25","YPM CBS 008017",41.7288,-72.841,96,117,31,8977,286,-87,373,84,-12,209,-24,1215,111,86,7,321,280,297,284
"26","YPM YU 037706",41.4061,-72.4831,100,104,30,8526,276,-70,346,14,208,208,-12,1218,117,91,8,327,285,285,301
"27","YPM YU 037712",41.3062,-73.5019,95,109,30,8756,275,-82,357,83,-11,205,-22,1244,115,86,8,332,284,308,284
"28","YPM YU 037711",41.3961,-72.9217,100,106,30,8675,278,-72,350,86,-4,210,-14,1189,111,86,7,321,281,284,281
"29","YPM CBS 008021",41.5224,-72.0008,97,113,31,8539,276,-81,357,57,205,205,-16,1232,121,87,9,337,280,280,310
"33","YPM CBS 008026",41.5583,-73.036,94,113,30,8826,279,-86,365,82,-12,205,-23,1229,113,87,7,327,285,300,287
"34","YPM CBS 008013",41.7664,-72.4392,88,116,31,8855,274,-94,368,46,-18,200,-30,1212,113,85,7,318,279,300,283
"35","YPM CBS 008018",41.6153,-72.1433,93,116,31,8623,276,-88,364,52,202,202,-21,1230,120,91,8,334,288,288,303
"36","YPM CBS 030233",41.3114,-72.9247,104,102,29,8586,278,-65,343,88,212,212,-9,1141,108,84,8,307,271,271,272
"37","3371749",38.9725,-77.14917,128,119,33,8549,307,-48,355,236,14,236,14,1034,102,70,11,291,223,291,223
"38","3385773",38.61833,-77.125,133,115,33,8356,304,-39,343,231,22,238,22,1001,106,71,11,286,226,285,226
"39","1734362",38.86639,-77.70639,119,120,33,8476,298,-59,357,205,6,226,6,1048,105,70,12,294,217,292,217
"40","608600",39.41944,-76.78056,117,116,32,8609,299,-58,357,205,3,226,3,1118,111,76,10,309,248,296,248
"41","1727877",38.82417,-77.71111,124,124,34,8460,303,-56,359,209,11,230,11,1031,102,70,12,286,216,286,216
"42","3409599",39.38917,-76.35694,130,116,32,8675,312,-46,358,240,28,240,16,1114,108,74,12,313,248,313,248
"44","615774",38.96944,-77.17667,126,119,33,8523,305,-50,355,234,13,234,13,1025,101,69,12,288,219,288,219
"45","3383730",38.3875,-77.38,134,123,34,8284,311,-42,353,239,24,239,24,1031,104,73,10,287,231,287,231
"47","245751",38.895,-77.03667,133,115,32,8546,311,-42,353,241,20,241,20,1021,104,70,12,292,223,292,223
"48","685009",38.99194,-77.07083,128,117,33,8529,306,-47,353,236,15,236,15,1053,104,71,12,297,227,297,227
"53","3452392",39.23194,-76.70083,130,116,32,8635,312,-44,356,240,17,240,17,1082,105,75,11,298,241,298,241
"54","1727878",38.89056,-77.58111,127,124,34,8506,308,-52,360,234,14,234,14,1000,99,68,11,277,214,277,214
"55","895387",39.09917,-76.84861,125,117,32,8549,306,-49,355,212,13,234,13,1090,107,73,11,302,237,298,237
"56","3142631",38.89944,-77.0575,133,115,32,8546,311,-42,353,241,20,241,20,1021,104,70,12,292,223,292,223
"57","1929349",38.82361,-77.71333,124,124,34,8460,303,-56,359,209,11,230,11,1031,102,70,12,286,216,286,216
"58","3409626",39.40222,-76.36556,130,116,32,8675,312,-46,358,240,28,240,16,1114,108,74,12,313,248,313,248
"59","393273",38.935,-77.04722,128,117,33,8529,306,-47,353,236,15,236,15,1053,104,71,12,297,227,297,227
"63","642280",38.95472,-77.0375,128,117,33,8529,306,-47,353,236,15,236,15,1053,104,71,12,297,227,297,227
"65","3303311",38.97611,-77.23528,126,119,33,8523,305,-50,355,234,13,234,13,1025,101,69,12,288,219,288,219
"67","3117705",38.97778,-77.04361,128,117,33,8529,306,-47,353,236,15,236,15,1053,104,71,12,297,227,297,227
"68","3409601",39.42278,-76.88889,117,118,32,8608,300,-59,359,204,3,226,3,1097,109,74,10,304,243,291,243
"69","3099757",39.01444,-77.055,124,118,33,8525,304,-51,355,211,12,232,12,1066,105,72,11,299,229,296,229
"72","2618941",38.9775,-77.19472,126,119,33,8523,305,-50,355,234,13,234,13,1025,101,69,12,288,219,288,219
"75","3326317",38.9025,-77.67444,119,120,33,8476,298,-59,357,205,6,226,6,1048,105,70,12,294,217,292,217
"76","363420",38.96889,-77.14278,128,119,33,8549,307,-48,355,236,14,236,14,1034,102,70,11,291,223,291,223
"77","3406857",38.93,-77.11444,128,119,33,8549,307,-48,355,236,14,236,14,1034,102,70,11,291,223,291,223
"81","2618942",38.97222,-77.16861,126,119,33,8523,305,-50,355,234,13,234,13,1025,101,69,12,288,219,288,219
"82","3099758",38.97,-77.17944,126,119,33,8523,305,-50,355,234,13,234,13,1025,101,69,12,288,219,288,219
"83","MT00020408",45.36111,-71.86833,47,117,27,10443,253,-169,422,175,-81,175,-96,1064,120,58,19,330,201,330,221
"84","MT00051869",45.114723,-72.25806,50,114,27,10405,256,-163,419,178,-77,178,-91,1070,119,58,19,332,200,332,215
"86","MT00051879",46.308334,-72.475,51,107,24,10934,260,-169,429,173,-28,185,-98,1017,102,61,15,297,201,296,229
"87","MT00009336",46.733334,-71.4,47,100,24,10725,254,-162,416,179,-33,179,-99,1107,116,71,17,337,215,337,259
"88","MT00020297",45.648888,-75.037224,55,101,24,10867,258,-160,418,188,-79,188,-93,920,92,60,13,265,187,265,206
"89","MT00050505",45.15,-72.38333,50,113,27,10418,254,-163,417,178,-78,178,-92,1080,120,58,19,333,201,333,217
"90","MT00020206",45.64528,-75.15583,55,101,24,10888,258,-160,418,188,-79,188,-94,915,91,59,13,263,185,263,204
"92","345794",41.5446,-81.4729,93,103,28,9083,274,-84,358,183,-18,205,-28,990,97,55,15,280,193,280,199
"93","350202",44.2828,-85.8589,70,112,29,9479,270,-111,381,143,-46,188,-55,854,108,39,24,278,148,243,158
"94","34774",41.1167,-80,87,124,33,8839,277,-95,372,176,-32,196,-32,1061,114,60,17,323,207,323,207
"95","3523222",37.08,-89.64,140,120,31,9035,325,-51,376,141,203,252,17,1205,130,75,17,372,258,280,276
"97","2784106",44.02,-73.17,72,120,29,10002,277,-135,412,185,-50,196,-63,901,103,49,20,275,161,274,169
"99","2783335",41.45,-75.72,77,112,30,8947,263,-102,365,169,-31,189,-42,1050,105,65,15,309,209,302,209
"100","CONN00095565",41.985,-73.42277,77,122,32,9070,269,-112,381,191,-32,191,-44,1159,107,77,9,315,250,315,254
"101","CONN00095549",41.47611,-73.23694,95,113,31,8791,278,-84,362,83,-10,206,-21,1218,113,85,7,326,281,299,282
"102","CONN00095574",41.67472,-72.8575,96,117,31,8977,286,-87,373,84,-12,209,-24,1215,111,86,7,321,280,297,284
"103","CONN00095566",41.75916,-72.67277,98,117,31,9031,290,-85,375,143,-10,212,-22,1165,106,81,7,307,266,290,270
"104","CONN00095582",43.37888,-84.65972,79,113,29,9657,282,-105,387,189,-49,200,-49,790,91,33,27,250,124,240,124
"105","CONN00095572",41.76194,-72.74194,98,117,31,9031,290,-85,375,143,-10,212,-22,1165,106,81,7,307,266,290,270
"106","CONN00095575",41.26583,-73.30138,98,108,30,8670,276,-77,353,84,-7,207,-17,1230,115,87,8,334,288,296,288
"107","CONN00095577",41.30805,-72.92805,104,102,29,8586,278,-65,343,88,212,212,-9,1141,108,84,8,307,271,271,272
"108","CONN00095569",41.92916,-72.91388,82,118,31,9153,274,-106,380,130,-28,197,-41,1238,113,89,7,327,283,313,288
"109","CONN00095570",41.43972,-72.01555,98,108,30,8422,273,-76,349,13,204,204,-13,1231,121,86,10,338,278,278,312
"110","CONN00095550",41.96166,-73.33388,80,125,32,9106,274,-110,384,194,-30,194,-42,1155,107,76,9,313,249,313,253
"111","CONN00095556",42.01416,-72.17416,78,117,31,8998,266,-110,376,35,-31,191,-42,1236,115,89,6,326,287,308,293
"112","CONN00095551",41.99083,-72.15722,81,119,31,8937,270,-106,376,38,-26,194,-38,1235,116,89,6,330,290,302,297
"114","CONN00095571",41.78222,-72.61194,98,118,31,9000,290,-84,374,143,-9,212,-21,1142,104,80,6,300,263,285,265
"115","CONN00095585",42.49055,-76.29777,72,108,29,9031,260,-103,363,164,-38,185,-47,983,103,57,17,283,184,283,192
"116","CONN00149939",43.00027,-75.5,71,112,29,9479,266,-118,384,180,-45,189,-56,1100,105,68,12,299,226,297,238
"117","CONN00095573",41.78861,-72.45305,88,116,31,8855,274,-94,368,46,-18,200,-30,1212,113,85,7,318,279,300,283
"119","CONN00095561",41.72472,-73.47694,85,120,31,8992,273,-103,376,175,-24,197,-36,1178,108,80,9,316,257,314,260
"120","CONN00095564",41.3025,-73.38333,96,109,30,8709,276,-79,355,84,-8,206,-19,1239,116,87,8,335,288,300,288
"121","CONN00095552",41.98472,-73.28194,73,116,30,9090,261,-114,375,121,-37,187,-49,1220,111,85,8,324,270,324,276
"122","CONN00095581",42.30083,-72.58777,87,125,31,9299,284,-108,392,136,-25,203,-38,1116,101,79,7,296,252,289,257
"123","CONN00095567",41.84361,-73.32916,75,114,30,9044,260,-112,372,122,-35,187,-47,1238,112,87,7,327,276,326,281
"124","CONN00095560",41.35694,-72.76805,101,104,29,8643,279,-69,348,86,210,210,-13,1188,111,88,7,318,282,282,285
"125","CONN00095578",41.24277,-73.20055,104,103,29,8607,280,-66,346,89,-9,213,-9,1170,107,83,8,319,276,281,276
"126","CONN00095562",41.39472,-73.45388,95,113,31,8789,278,-84,362,83,-11,205,-22,1220,113,85,8,325,278,303,279
"127","CONN00140124",41.91611,-73.30972,75,114,30,9044,260,-112,372,122,-35,187,-47,1238,112,87,7,327,276,326,281
"128","CONN00095580",42.48777,-72.5375,80,127,32,9320,277,-118,395,129,-33,196,-46,1132,102,79,7,300,254,297,260
"129","CONN00095584",42.68333,-72.7,69,125,31,9445,268,-131,399,119,-46,186,-59,1217,113,87,8,325,274,315,284
"130","CONN00095576",41.3325,-73.20722,98,105,30,8653,275,-74,349,84,-16,208,-16,1221,113,87,8,332,287,292,287
"131","CONN00137265",41.58805,-73.45694,91,121,32,8969,280,-97,377,181,-17,203,-30,1162,107,79,8,310,254,306,257
"132","CONN00095568",41.59638,-72.94777,89,112,30,8896,274,-91,365,78,-18,201,-29,1261,115,90,7,332,291,309,295
"133","CONN00152393",41.84305,-71.98583,87,121,32,8856,275,-100,375,45,-19,199,-31,1219,117,89,7,329,290,292,297
"134","CONN00095579",41.92694,-73.37583,80,125,32,9106,274,-110,384,194,-30,194,-42,1155,107,76,9,313,249,313,253
"135","CONN00117728",41.875,-72.66666,97,119,31,9099,291,-87,378,144,-11,213,-23,1135,103,79,7,298,260,285,263
"137","CONN00095557",41.81444,-73.29111,77,114,30,9002,262,-108,370,124,-32,190,-43,1240,113,87,7,327,277,324,281
"138","CONN00095555",41.28888,-72.68166,104,102,29,8546,279,-64,343,65,212,212,-8,1163,110,87,7,309,275,275,283
"139","CONN00095583",42.06666,-72.86138,80,119,30,9222,273,-111,384,129,-31,196,-44,1228,113,88,7,325,279,313,284
"140","CONN00095559",41.98944,-73.09583,73,114,30,9133,261,-114,375,121,-37,187,-49,1250,114,90,7,330,283,325,289
"141","CONN00048870",41.50888,-72.54361,96,109,30,8708,279,-78,357,55,-8,207,-18,1226,116,89,7,325,290,293,295
"142","CONN00095563",41.96166,-73.30833,73,116,30,9090,261,-114,375,121,-37,187,-49,1220,111,85,8,324,270,324,276
"143","CONN00095558",41.98333,-73.42111,77,122,32,9070,269,-112,381,191,-32,191,-44,1159,107,77,9,315,250,315,254
"144","71939",45.465034,-75.73631,59,99,23,10977,264,-154,418,193,-76,193,-91,863,84,54,14,248,170,248,188
"145","YPM CBS 008023",41.605,-72.88,97,115,31,8915,285,-83,368,85,-10,210,-21,1217,111,87,7,323,281,295,286
"147","YPM YU 037710",41.367,-72.717,100,104,29,8642,278,-70,348,85,209,209,-14,1207,114,89,7,321,286,286,291
"149","CONN00095554",41.98472,-73.28194,73,116,30,9090,261,-114,375,121,-37,187,-49,1220,111,85,8,324,270,324,276
"150","CONN00095553",41.985,-73.42277,77,122,32,9070,269,-112,381,191,-32,191,-44,1159,107,77,9,315,250,315,254
"153","CAN 505284",42.45,-81.7,87,97,27,9287,271,-84,355,202,-27,202,-36,910,91,53,15,257,181,257,195
"154","CAN 22308",44.033,-77.733,71,100,26,9690,261,-118,379,27,-48,191,-59,832,85,56,11,232,181,201,194
"157","1785777",38.82417,-77.71111,124,124,34,8460,303,-56,359,209,11,230,11,1031,102,70,12,286,216,286,216
"158","1677594",38.86639,-77.70639,119,120,33,8476,298,-59,357,205,6,226,6,1048,105,70,12,294,217,292,217
"159","3150355",38.96944,-77.17667,126,119,33,8523,305,-50,355,234,13,234,13,1025,101,69,12,288,219,288,219
"163","1677629",38.86639,-77.70639,119,120,33,8476,298,-59,357,205,6,226,6,1048,105,70,12,294,217,292,217
"164","1727881",38.82417,-77.71111,124,124,34,8460,303,-56,359,209,11,230,11,1031,102,70,12,286,216,286,216
"165","817612",38.895,-77.03667,133,115,32,8546,311,-42,353,241,20,241,20,1021,104,70,12,292,223,292,223
"167","2163880",38.97611,-77.23528,126,119,33,8523,305,-50,355,234,13,234,13,1025,101,69,12,288,219,288,219
