"","catalogNumber","lat","lon","bio1","bio2","bio3","bio4","bio5","bio6","bio7","bio8","bio9","bio10","bio11","bio12","bio13","bio14","bio15","bio16","bio17","bio18","bio19"
"1","MT00173064",49.766666,-87.76667,0,125,25,12283,234,-265,499,147,-87,147,-170,796,94,33,32,267,113,267,143
"2","MT00025449",55.716667,-77.1,-47,87,19,12221,152,-284,436,93,-212,93,-212,579,85,20,48,241,64,241,64
"3","MT00013856",44.44576,-78.12093,59,106,26,9964,255,-139,394,80,-64,182,-75,831,80,56,10,227,176,215,188
"5","QFA0249230",50.22028,-63.54861,14,84,23,9212,183,-175,358,39,-60,128,-110,1000,102,49,20,300,170,277,215
"6","QFA0222499",50.211945,-63.74917,14,85,23,9204,184,-174,358,40,-60,128,-109,995,101,49,20,297,172,276,213
"7","QFA0482824",50.209442,-63.558056,14,84,23,9212,183,-175,358,39,-60,128,-110,1000,102,49,20,300,170,277,215
"9","QFA0237730",49.783333,-63.316666,15,76,22,8738,178,-159,337,40,-57,125,-100,1030,104,53,18,302,185,279,228
"10","QFA0589357",50.2125,-63.816944,14,85,23,9216,185,-174,359,89,-61,129,-109,995,102,49,20,298,173,277,211
"14","QFA0570645",48.520832,-64.22639,32,82,22,9275,211,-147,358,-3,-45,150,-89,1088,112,71,11,310,250,270,277
"15","QFA0570646",48.52639,-64.24722,32,82,22,9275,211,-147,358,-3,-45,150,-89,1088,112,71,11,310,250,270,277
"21","QFA0237731",49.85,-64.25,15,84,24,8976,187,-162,349,89,-60,129,-102,1020,102,54,16,297,195,280,220
"22","QFA0589356",50.25861,-63.174442,12,87,23,9361,187,-178,365,37,-61,129,-113,977,100,45,22,296,159,278,203
"24","QFA0589358",50.200832,-63.33167,14,85,23,9257,186,-174,360,39,-60,129,-110,981,100,46,21,296,162,276,207
"25","QFA0201696",49.61667,-63.8,21,74,22,8582,181,-147,328,-9,-52,129,-90,1010,99,55,15,288,193,272,229
"26","QFA0393306",50.22389,-63.5925,14,84,23,9213,183,-175,358,39,-60,128,-110,999,102,49,20,299,171,277,214
"28","QFA0570648",48.53611,-64.647224,26,85,23,9508,210,-158,368,-12,-53,147,-99,1153,117,77,10,327,265,288,291
"29","QFA0466546",52.55,-67.433334,-39,101,22,12150,181,-278,459,100,-186,112,-204,983,124,49,27,340,172,328,185
"30","QFA0450920",52.783333,-67.083336,-40,102,22,12170,180,-279,459,99,-131,111,-205,934,118,46,27,323,162,312,177
"33","QFA0570647",48.533333,-64.25,32,82,22,9275,211,-147,358,-3,-45,150,-89,1088,112,71,11,310,250,270,277
"36","QFA0589360",48.888058,-68.79222,21,97,23,10308,221,-185,406,138,-57,149,-120,920,90,62,13,263,186,255,219
"38","67641",62.95,-141.6,-58,124,23,15198,207,-332,539,127,-130,127,-257,272,66,5,84,159,20,159,25
"39","68392",67.13,-162.9,-63,69,17,11674,142,-244,386,86,-168,91,-197,236,51,9,70,129,27,103,33
"40","86730",64.71,-148.16,-29,112,22,14053,222,-269,491,146,-105,146,-209,307,55,8,59,149,31,149,47
"41","53730",67.77,-150.48,-116,112,21,14432,163,-348,511,78,-138,78,-287,273,54,10,63,138,34,138,41
"42","20883",61.11,-153.85,-11,104,28,9437,181,-184,365,101,-74,113,-127,494,84,19,48,216,65,197,82
"43","132919",68.066666,-145.05,-108,99,19,14882,158,-339,497,63,-218,87,-289,158,29,5,53,73,19,72,26
"45","146157",62.405666,-141.95183,-68,120,24,13158,176,-308,484,97,-135,97,-236,393,82,13,66,201,44,201,52
"46","77122",67.43,-154.08,-121,110,21,14770,152,-362,514,74,-145,74,-300,323,71,12,62,153,48,153,49
"47","84522",63.27,-149.8,-49,90,24,10252,157,-217,374,71,-60,89,-168,543,90,21,52,246,72,237,89
"48","140962",68.683334,-141.25,-131,90,19,13701,122,-343,465,52,-251,52,-287,167,36,5,72,88,18,88,20
"49","129992",66.46667,-141.5,-79,116,21,15313,202,-337,539,118,-182,118,-270,224,39,7,58,108,24,108,31
"50","143575",61.724834,-141.3685,-54,115,25,11858,168,-277,445,94,-116,94,-206,642,102,28,42,261,92,261,108
"51","35285",64.02,-145.71,-27,109,23,13118,213,-253,466,139,-97,139,-192,312,65,7,73,174,24,174,33
"52","10993",65.88,-147.25,-69,107,21,14880,199,-310,509,122,-158,122,-256,266,47,7,57,130,31,130,45
"53","85502",63.41,-150.5,-46,95,23,10873,170,-226,396,80,-53,99,-175,548,94,22,52,249,74,237,91
"54","87242",64.83,-147.41,-33,107,21,14755,216,-288,504,149,-16,149,-226,342,53,9,46,143,42,143,72
"56","87176",64.83,-147.73,-29,108,21,14470,222,-277,499,150,-107,150,-217,326,51,10,45,136,41,136,64
"57","15183",65.28,-148.16,-45,105,21,14403,214,-277,491,137,-127,137,-228,288,54,7,63,147,28,147,42
"58","148418",66.816666,-144.35,-70,111,20,16114,211,-332,543,106,-171,135,-274,179,29,6,48,77,22,72,33
"59","133711",68.683334,-141.21666,-131,90,19,13701,122,-343,465,52,-251,52,-287,167,36,5,72,88,18,88,20
"60","71280",67.97,-161.16,-83,69,17,12051,127,-268,395,69,-122,77,-221,217,48,8,68,118,26,99,31
"61","88391",64.18,-145.88,-29,110,23,13520,215,-261,476,141,-101,141,-200,313,63,7,69,168,26,168,37
"62","147664",64.21667,-145.93333,-28,109,22,13529,215,-261,476,142,-100,142,-200,313,62,7,68,167,26,167,37
"63","56687",63.83,-150.27,-36,101,23,11880,191,-237,428,97,-36,118,-181,506,89,19,55,235,65,227,79
"64","11976",64.68,-148.21,-30,112,22,14034,221,-269,490,145,-107,145,-210,304,55,8,60,150,30,150,45
"65","18421",66.98,-142.82,-81,110,20,15213,193,-331,524,115,-184,115,-270,188,33,6,56,87,21,87,28
"67","56261",62.99,-152.03,-53,99,24,11211,165,-241,406,77,-60,95,-187,440,81,17,54,201,60,200,74
"68","61780",61.61,-144.55,-18,117,28,10678,194,-220,414,101,-10,116,-154,614,76,25,33,220,87,203,132
"69","131831",67.166664,-141.66667,-89,109,20,15145,187,-338,525,107,-196,107,-275,203,37,6,59,97,22,97,29
"70","11525",66.23,-146.5,-51,112,20,15772,224,-312,536,118,-142,148,-252,245,39,7,46,103,30,101,47
"71","85073",63.73,-151.71,-30,98,21,12893,203,-243,446,111,-106,135,-191,401,82,15,62,195,50,193,61
"72","11587",66.11,-148.11,-47,117,22,14982,222,-297,519,143,-135,143,-237,282,50,8,56,131,30,131,45
"73","12352",67.15,-142.15,-84,109,20,15093,189,-333,522,111,-190,111,-271,195,35,6,55,91,21,91,29
"75","60991",61.38,-142.75,-17,102,27,9628,170,-200,370,48,-14,105,-139,995,121,44,30,338,161,297,214
"77","131302",66.73333,-143.56667,-72,112,20,15611,205,-329,534,127,-172,127,-268,186,31,6,51,82,21,82,30
"79","63334",61.38,-149.05,-4,90,28,8114,168,-148,316,51,-10,104,-100,614,84,27,32,223,92,184,142
"82","12444",64.99,-141,-68,126,23,14824,209,-327,536,119,-159,119,-257,267,53,8,65,140,26,140,35
"83","66510",62.56,-153.61,-33,108,25,11566,181,-242,423,116,-103,116,-178,397,85,13,72,215,41,215,45
"85","139978",69.73333,-155.25,-113,85,18,13805,130,-339,469,52,-150,68,-280,169,40,5,67,87,20,82,22
"87","64190",61.91,-154.41,-40,106,26,10735,167,-234,401,99,-155,99,-173,467,94,19,65,233,57,233,61
"88","49422",67.11,-158.3,-72,81,18,13169,155,-276,431,84,-94,100,-232,254,55,9,61,127,35,115,38
"89","71568",67.98,-161.92,-76,68,17,11937,132,-260,392,76,-116,82,-213,209,47,7,71,116,23,95,29
"90","99565",64.95,-138.23334,-83,113,23,13573,184,-306,490,94,-90,94,-246,368,56,16,46,160,51,160,65
"92","76798",67.43,-150.08,-83,117,22,14680,195,-325,520,111,-186,111,-261,280,53,10,59,134,32,134,41
"93","38595",61.01,-138.6,-64,115,27,10542,146,-270,416,70,-130,70,-199,413,72,17,47,183,60,183,70
"94","13178",64.47,-148.09,-30,113,23,13727,217,-266,483,142,-105,142,-205,319,57,9,59,155,33,155,49
"95","98947",68.45,-138.75,-116,92,18,14193,153,-332,485,76,-276,76,-276,215,46,7,68,107,23,107,23
"96","34725",68.35,-139.21,-120,94,18,14446,153,-343,496,75,-282,75,-283,210,45,7,66,105,24,105,24
"97","137159",69.03333,-148.76666,-105,114,22,14662,171,-347,518,90,-222,90,-282,203,40,7,62,97,22,97,28
"98","15070",65.35,-141.05,-89,123,23,14771,192,-341,533,102,-184,102,-273,245,51,7,71,135,24,135,31
"99","84977",63.38,-145.74,-51,119,25,12898,195,-278,473,113,-120,113,-213,263,61,5,85,158,20,158,28
"101","11192",64.68,-148.2,-30,112,22,14034,221,-269,490,145,-107,145,-210,304,55,8,60,150,30,150,45
"102","86988",64.75,-147.5,-32,108,21,14622,216,-285,501,148,-14,148,-223,340,53,9,46,143,42,143,70
"103","85425",63.58,-149.51,-56,93,23,10648,156,-232,388,86,-66,86,-181,473,84,17,58,223,58,223,74
"104","98908",60.783333,-137.63333,-26,139,29,11774,205,-270,475,101,-16,115,-186,325,42,10,36,115,38,110,76
"105","24061",67.41,-153.71,-99,117,21,15281,179,-354,533,75,-115,100,-288,321,69,12,59,149,45,145,50
"106","71453",67.96,-161.61,-84,68,17,11947,125,-267,392,68,-125,74,-220,216,48,8,68,118,26,99,30
"110","15106",65.46,-143.68,-58,125,22,15480,224,-323,547,137,-145,137,-256,212,38,6,59,103,22,103,31
"111","83136",65.05,-141.36,-50,128,23,14816,225,-311,536,136,-138,136,-241,275,51,8,62,136,26,136,37
"112","12099",64.66,-148.26,-30,113,23,13941,220,-269,489,144,-107,144,-208,307,56,8,63,154,30,154,45
"114","141565",69.21667,-148.75,-107,112,21,14663,168,-349,517,88,-225,88,-284,194,39,7,60,93,21,93,26
"115","38914",63.82,-150.01,-35,101,23,11750,190,-234,424,96,-35,118,-178,504,88,19,54,233,64,227,79
"116","133893",68.833336,-143.5,-148,84,18,13365,94,-356,450,29,-268,29,-301,150,31,5,68,80,19,80,21
"117","131589",67.13333,-142.13333,-84,109,20,15093,189,-333,522,111,-190,111,-271,195,35,6,55,91,21,91,29
"118","98911",60.916668,-138.71666,-61,114,27,10343,145,-264,409,70,-127,70,-194,458,75,20,42,192,69,192,80
"119","49369",67.19,-156.63,-88,90,19,13869,154,-309,463,73,-109,93,-258,281,60,10,59,135,42,128,43
"120","86736",64.71,-148.18,-30,112,22,14034,221,-269,490,145,-107,145,-210,304,55,8,60,150,30,150,45
"121","81111",64.29,-141.41,-61,129,23,14973,214,-329,543,125,-144,125,-256,250,56,6,77,141,20,141,27
"122","73806",63.41,-150.78,-39,98,23,11313,181,-228,409,90,-42,110,-176,536,94,21,52,244,72,230,89
"124","81155",64.31,-141.36,-61,129,23,14973,214,-329,543,125,-144,125,-256,250,56,6,77,141,20,141,27
"125","118183",52.38895,-116.3566,1,127,32,8260,197,-191,388,103,-50,103,-106,589,91,23,47,252,88,252,93
"126","27822",53.458332,-117.7975,16,128,33,8529,206,-175,381,121,-35,121,-97,532,85,23,50,237,77,237,85
"127","35129",53.71111,-113.21778,25,120,27,11012,234,-195,429,157,-41,157,-124,447,88,16,67,235,53,235,59
"129","98737",59.61667,-117.1667,-24,117,22,14174,226,-287,513,145,-110,145,-215,373,56,18,41,155,55,155,61
"130","3135",51.033333,-115.05,12,130,32,8792,210,-187,397,99,-35,121,-103,579,86,32,31,209,108,191,128
"131","118184",53.01237,-116.6281,14,135,34,8807,214,-180,394,122,-39,122,-103,576,103,19,59,276,73,276,76
"132","118185",52.05153,-116.4098,4,126,32,8336,202,-185,387,108,-46,108,-105,592,82,27,37,230,94,230,113
"133","102486",53.53527,-113.0506,19,120,28,10925,227,-200,427,150,-47,150,-128,454,88,16,68,237,54,237,60
"134","103077",53.55,-118.5833,-15,104,32,7670,157,-167,324,82,-67,82,-111,645,86,34,31,240,115,240,132
"135","35123",53.534443,-113.49028,27,112,26,10805,229,-190,419,157,-37,157,-118,455,91,15,69,240,53,240,60
"136","121783",52.39273,-116.3544,1,127,32,8260,197,-191,388,103,-50,103,-106,589,91,23,47,252,88,252,93
"137","121778",52.16462,-116.4813,-5,122,32,8179,189,-188,377,97,-56,97,-111,607,83,28,37,236,98,236,115
"138","3139",53.357777,-113.25083,22,117,27,10781,224,-196,420,151,-41,151,-123,457,90,16,67,239,53,239,59
"139","90962",52.68333,-117.9,9,116,31,8522,198,-168,366,115,-39,115,-104,535,70,27,33,201,84,201,113
"140","41027",51.21667,-115.8,-3,122,32,8115,193,-181,374,78,-55,100,-106,587,78,32,26,198,110,192,131
"141","3140",53.428333,-113.49194,26,115,27,10788,227,-192,419,155,-38,155,-119,457,91,16,67,240,53,240,59
"142","123277",51.31667,-116.0167,-5,119,32,8054,189,-181,370,75,-56,96,-108,617,78,34,23,200,114,199,144
"143","119699",52.01167,-116.6267,-17,114,31,7983,172,-188,360,84,-67,84,-119,641,82,34,30,232,111,232,135
"144","35855",51.177776,-115.57361,4,127,33,8312,203,-179,382,88,-49,109,-102,550,78,28,31,196,101,189,114
"146","123273",51.05,-115.5333,-13,119,32,8021,178,-191,369,65,-68,88,-114,618,83,36,25,208,124,196,139
"147","121781",52.17341,-116.4914,9,129,32,8448,209,-183,392,113,-41,113,-102,577,84,25,41,235,88,235,103
"148","104496",51.12361,-115.55583,-2,124,32,8216,194,-184,378,80,-55,102,-107,584,80,32,27,201,112,191,128
"150","3141",49.5667,-110.1333,21,135,30,10294,245,-197,442,127,-37,150,-114,385,66,17,44,158,54,152,62
"151","41026",51.16667,-115.5667,4,127,33,8312,203,-179,382,88,-49,109,-102,550,78,28,31,196,101,189,114
"152","96108",54.75,-116,-2,125,29,10027,199,-218,417,119,-63,119,-136,588,105,22,61,293,76,293,81
"153","112669",54.84612,-112.4819,13,126,27,11474,230,-221,451,149,-55,149,-144,459,89,15,65,235,52,235,59
"154","112856",60.98333,-138.1416,-37,121,27,11181,178,-260,438,100,-100,100,-187,355,55,13,42,144,47,144,67
"155","46266",49.076946,-113.928055,10,128,35,7586,205,-154,359,44,-33,108,-85,662,83,40,20,208,145,181,159
"156","120356",62.08333,-127.5833,-67,106,23,12314,166,-293,459,89,-143,89,-223,562,83,29,36,216,93,216,98
"157","85435",53.58333,-113.6667,26,117,27,10670,228,-193,421,154,-37,154,-117,474,93,17,66,246,57,246,65
"158","57097",53.75,-116.55,21,138,34,9343,224,-180,404,134,-34,134,-105,569,110,18,67,292,65,292,71
"160","119698",52.0121,-116.6268,-17,114,31,7983,172,-188,360,84,-67,84,-119,641,82,34,30,232,111,232,135
"161","121782",52.03423,-116.3758,4,126,32,8336,202,-185,387,108,-46,108,-105,592,82,27,37,230,94,230,113
"162","35125",53.505833,-113.56194,28,112,26,10772,229,-190,419,158,-36,158,-117,461,92,16,67,241,55,241,61
"163","118182",52.04052,-116.4027,4,126,32,8336,202,-185,387,108,-46,108,-105,592,82,27,37,230,94,230,113
"164","83087",61.25,-124.45,-42,107,21,14063,209,-289,498,130,-122,130,-225,444,77,18,48,198,63,198,65
"165","28571",52.171944,-116.48,9,129,32,8448,209,-183,392,113,-41,113,-102,577,84,25,41,235,88,235,103
"167","123275",52.45,-117.45,-17,109,31,8069,166,-176,342,84,-67,84,-123,593,79,30,32,222,98,222,125
"168","78278",65.63333,-128.2167,-68,111,20,16145,223,-331,554,138,-176,138,-271,316,50,12,46,134,43,134,54
"169","95849",60.93333,-137.95,-39,125,28,11273,180,-266,446,99,-102,99,-190,337,52,12,40,136,45,136,66
"170","119697",52.04667,-116.391,4,126,32,8336,202,-185,387,108,-46,108,-105,592,82,27,37,230,94,230,113
"172","35854",51.200554,-115.63472,-5,123,32,8155,190,-185,375,76,-58,98,-108,583,80,32,28,202,110,194,125
"174","49513",60.83333,-116.6167,-36,115,21,14710,221,-307,528,143,-134,143,-231,329,47,17,36,128,51,128,57
"176","101624",52.004257,-116.45609,-6,120,32,8150,188,-187,375,96,-56,96,-111,614,82,30,34,232,102,232,121
"177","103138",53.56741,-113.82209,27,119,28,10643,229,-194,423,154,-36,154,-117,478,94,18,66,247,57,247,65
"179","85719",52.2167,-116.8333,-25,110,31,7812,159,-190,349,73,-76,73,-125,649,84,34,31,240,113,240,133
"180","71739",50.86667,-114.75,13,129,32,8620,208,-184,392,98,-33,119,-99,567,89,29,35,212,96,199,115
"182","57410",53.690174,-114.10003,25,124,28,10463,230,-198,428,150,-36,150,-116,494,94,19,64,253,60,253,70
"185","41730",52.91667,-117.7667,-15,110,32,7989,165,-177,342,86,-65,86,-118,582,83,29,37,231,95,231,112
"186","123272",52.55,-117.65,-8,111,31,8223,177,-172,349,95,-57,95,-116,573,76,29,32,214,94,214,121
"187","27174",53.61028,-115.57445,18,142,32,10107,226,-206,432,138,-94,138,-121,563,107,17,67,287,65,287,70
"188","82799",60.15,-127.4167,-34,119,23,13433,205,-308,513,124,-97,124,-217,471,67,20,32,173,72,173,98
"189","30382",65.18333,-123.4667,-70,90,17,15335,197,-318,515,124,-245,124,-265,289,45,11,48,122,36,122,40
"190","98037",53.690178,114.10617,-51,151,25,15702,233,-357,590,143,-220,143,-261,369,109,2,115,264,8,264,9
"192","112855",53.06667,-117.2833,0,123,33,8374,189,-178,367,104,-50,104,-110,551,91,21,52,248,77,248,85
"194","119700",52.0357,-116.3769,4,126,32,8336,202,-185,387,108,-46,108,-105,592,82,27,37,230,94,230,113
"195","27378",58.65,-124.6667,-46,112,27,10704,166,-248,414,88,-113,88,-183,491,88,18,50,218,67,218,91
"196","104412",53.954723,-115.138054,17,138,31,10523,227,-216,443,142,-39,142,-127,523,100,19,67,272,62,272,68
"198","29707",62.0306,-132.6042,-49,134,25,13131,198,-319,517,110,-107,110,-223,293,55,9,51,130,36,130,49
"199","37597",49.635277,-114.50306,20,129,34,7852,216,-158,374,59,82,119,-80,695,81,44,17,207,151,180,182
"200","3147",58.831944,-122.543335,-14,128,25,13722,232,-278,510,149,-83,149,-200,442,78,18,54,204,58,204,61
"201","55715",58.91667,-111.4167,-20,114,21,14193,226,-297,523,150,-107,150,-213,377,63,14,45,158,50,158,56
"202","35130",54.0911,-112.6144,17,132,29,11241,237,-209,446,151,-52,151,-136,447,87,14,68,235,50,235,55
"204","71979",51.75,-115.1667,-2,131,33,8705,193,-203,396,84,-50,105,-117,563,93,25,46,236,85,227,92
"205","123271",52.983334,-118.1,0,112,31,8176,182,-171,353,102,-49,102,-107,570,74,30,31,211,94,211,121
"206","38874",52.45861,-115.03667,19,146,34,9575,222,-197,419,136,-87,136,-111,527,102,15,67,256,57,256,57
"207","27270",60.7167,-135.05,-10,108,24,11004,204,-231,435,110,-3,125,-158,271,37,9,40,107,36,103,54
"208","71948",51.66667,-115.1667,-2,131,33,8705,193,-203,396,84,-50,105,-117,563,93,25,46,236,85,227,92
"209","105132",51.29972,-115.9225,-6,120,32,8046,188,-183,371,74,-57,96,-108,604,78,33,24,200,112,197,138
"210","78277",68.78333,-145.5333,-147,94,19,13945,111,-362,473,40,-180,40,-308,159,31,5,64,83,20,83,24
"211","121251",53.06667,-118.0833,12,118,31,8477,199,-171,370,117,-37,117,-100,524,72,26,36,206,80,206,103
"213","121784",56.01193,-116.6236,-2,130,27,11823,224,-251,475,137,-70,137,-163,459,74,20,49,209,63,209,76
"214","111570",49.633335,-110.208336,15,131,30,10064,234,-197,431,118,-40,141,-116,413,70,18,44,167,58,161,68
"215","100137",51.608612,-115.810555,-26,116,31,7889,161,-204,365,52,-67,73,-126,623,89,33,33,229,113,226,121
"217","3133",52.470554,-116.07528,4,134,33,8366,203,-198,401,107,-39,107,-104,585,98,20,56,267,78,267,79
"219","3136",52.877777,-118.08305,24,120,31,8770,215,-167,382,132,-24,132,-93,486,64,22,35,187,72,187,99
"220","79441",50.61667,-115.1167,-2,123,32,8214,191,-186,377,37,11,101,-106,643,85,38,23,209,132,189,158
"221","99967",51.733334,-115.53333,-11,126,32,8329,182,-203,385,72,-55,93,-118,585,90,28,40,231,97,226,103
"222","35126",53.76139,-113.084724,23,123,28,11073,236,-199,435,155,-43,155,-127,447,87,16,67,235,53,235,58
"223","121776",52.04257,-116.3797,4,126,32,8336,202,-185,387,108,-46,108,-105,592,82,27,37,230,94,230,113
"224","72134",53.024723,-112.824165,22,117,27,10949,225,-202,427,154,-39,154,-125,446,82,16,64,228,53,228,60
"225","3146",50.8847,-100.0475,2,115,24,12555,232,-246,478,153,-169,153,-169,532,85,19,51,233,67,233,67
"227","3145",62.450195,-114.36794,-56,92,17,15409,204,-325,529,118,-172,136,-257,280,41,11,42,111,37,102,45
"228","86533",61.350132,-117.65138,-38,114,21,15044,230,-310,540,128,-139,145,-238,290,43,15,33,108,48,105,56
"229","123279",51.21667,-115.85,-12,118,32,7977,181,-186,367,68,-64,89,-112,618,80,35,24,203,119,198,142
"231","78276",65.88333,-128.2167,-75,108,19,16227,218,-336,554,133,-186,133,-277,302,48,12,46,129,41,129,51
"232","71796",50.66667,-115.0833,-24,116,32,7884,162,-199,361,53,-62,75,-122,648,89,38,26,218,126,202,144
"233","78280",65.63333,-128.8833,-68,111,19,16276,224,-336,560,139,-176,139,-273,315,49,13,43,130,44,130,54
"234","121780",52.38792,-116.3406,1,127,32,8260,197,-191,388,103,-50,103,-106,589,91,23,47,252,88,252,93
"235","102038",55.58333,-110.5167,0,119,25,12246,222,-253,475,145,-145,145,-168,465,85,16,59,226,58,226,61
"236","123686",54.11111,-119.928055,2,106,31,7988,178,-159,337,102,-48,102,-100,700,82,35,24,235,130,235,161
"237","41028",52.88333,-118.15,17,117,31,8585,206,-167,373,123,-30,123,-96,518,66,26,31,191,80,191,111
"240","41025",51.36667,-116.1,-3,119,31,8074,192,-180,372,98,-54,98,-107,618,77,34,23,201,113,201,145
"241","27891",56.7264,-111.3803,3,126,25,13053,237,-263,500,156,-69,156,-178,439,81,14,57,211,50,211,60
"249","123278",51.21667,-115.9833,-19,114,31,7833,170,-189,359,59,-72,80,-117,645,81,38,22,208,126,203,151
"250","30381",68.83319,-136.41933,-97,81,17,14148,164,-307,471,79,-256,94,-256,218,45,7,62,105,22,95,22
"251","41731",51.29167,-115.5333,-10,122,32,8171,183,-192,375,71,-54,93,-114,590,84,33,30,211,111,203,121
"252","107854",50.989166,-114.11361,32,132,33,8926,230,-167,397,144,-18,144,-83,442,83,15,58,200,53,200,56
"253","35853",51.176388,-115.554726,4,127,33,8312,203,-179,382,88,-49,109,-102,550,78,28,31,196,101,189,114
"254","100906",54.91167,-113.5347,15,113,25,11319,224,-217,441,150,-48,150,-139,490,92,21,61,243,64,243,74
"255","28595",52.071667,-116.406944,4,126,32,8336,202,-185,387,108,-46,108,-105,592,82,27,37,230,94,230,113
"259","56114",52.86667,-118,-6,110,31,8090,175,-173,348,95,-56,95,-112,574,77,30,33,217,94,217,118
"260","3149",65.282,-126.83102,-60,114,21,15356,224,-305,529,137,-161,137,-251,319,52,12,50,142,41,142,52
"261","V-148044",54.5038,-84.6616,-38,104,21,13272,197,-298,495,114,-207,122,-217,552,83,20,46,226,66,223,73
"263","ORE16646",45.2858,-117.302,5,143,40,7013,209,-147,356,-72,95,96,-82,715,92,26,33,261,101,120,248
"264","WILLU25303",45.2347,-117.3172,-8,141,39,6930,195,-158,353,-81,82,83,-92,769,101,27,34,286,106,125,272
"265","OSC172957",45.284,-117.3096,5,143,40,7013,209,-147,356,-72,95,96,-82,715,92,26,33,261,101,120,248
"266","OSC173252",45.2535,-117.2851,5,143,40,7013,209,-147,356,-72,95,96,-82,715,92,26,33,261,101,120,248
"267","ORE16647",45.2714,-117.302,5,143,40,7013,209,-147,356,-72,95,96,-82,715,92,26,33,261,101,120,248
"269","OSC140564",45.2873,-117.2995,5,143,40,7013,209,-147,356,-72,95,96,-82,715,92,26,33,261,101,120,248
"270","ORE4028",45.302,-117.2995,5,143,40,7013,209,-147,356,-72,95,96,-82,715,92,26,33,261,101,120,248
"272","OSC173541",44.7834,-118.3128,27,150,40,7092,237,-130,367,-53,117,119,-63,600,86,20,39,238,78,94,221
"274","ORE49234",45.2572,-117.3223,5,143,40,7013,209,-147,356,-72,95,96,-82,715,92,26,33,261,101,120,248
"276","OSC125055",45.3002,-117.3021,5,143,40,7013,209,-147,356,-72,95,96,-82,715,92,26,33,261,101,120,248
"279","2717783",49.77,-87.77,0,125,25,12283,234,-265,499,147,-87,147,-170,796,94,33,32,267,113,267,143
"282","V174513",48.45,-90.48333,19,126,27,11395,238,-225,463,157,-137,157,-137,722,96,25,42,279,91,279,91
"283","V162479",58.066666,-125.066666,-54,110,27,9945,151,-246,397,72,-116,72,-179,498,85,17,45,211,70,211,104
"284","V182448",51.333332,-116.75,-7,108,30,7910,183,-170,353,-100,-54,94,-108,741,81,46,18,225,146,202,215
"285","V141403",51.716667,-122.95,25,144,36,8293,218,-177,395,127,-18,127,-84,335,47,14,36,128,49,128,77
"286","V171533",67.916664,-133.98334,-86,94,17,15616,197,-326,523,25,-205,122,-269,266,41,12,38,102,39,91,49
"287","V232830",51.421944,-117.058334,21,114,30,8656,220,-155,375,-86,23,130,-93,733,90,40,25,250,128,188,235
"288","V170218",52.133335,-122,48,116,31,8489,237,-128,365,153,4,153,-65,437,54,19,30,155,64,155,101
"289","V98755",57.083332,-122.583336,-9,106,26,10395,192,-206,398,119,-70,119,-145,527,87,24,44,222,82,222,91
"290","V163680",58.666668,-124.88333,-26,115,27,11014,189,-235,424,110,-91,110,-169,480,84,16,48,210,61,210,89
"291","V13670",50.333332,-115.85,39,121,31,8481,240,-139,379,-63,-8,146,-72,557,63,29,21,169,105,152,157
"293","V234026",54.877777,-120.19722,11,112,29,9182,199,-178,377,123,-43,123,-111,607,79,27,33,228,100,228,129
"294","V235057",54.766666,-120.54444,7,111,30,8868,192,-175,367,116,-46,116,-110,663,82,29,29,236,114,236,152
"297","V183631",49.833332,-115.75,51,120,31,8745,253,-127,380,-56,6,162,-64,518,60,28,22,156,99,140,143
"298","V142396",48.833332,-88.683334,10,117,25,11477,231,-234,465,139,-71,149,-147,784,90,34,29,263,125,260,132
"299","V160276",58.666668,-122.7,-13,127,25,13520,231,-272,503,148,-80,148,-195,448,79,19,52,205,59,205,64
"300","V155849",57.583332,-128.78334,-39,111,30,8750,151,-214,365,64,-93,72,-150,522,68,17,31,180,75,177,128
"301","V111261",61.283333,-119.78333,-32,114,21,15163,235,-306,541,152,-123,152,-234,328,51,16,39,133,49,133,54
"302","V210614",61.016666,-138.55,-43,117,27,10962,167,-261,428,92,-108,92,-190,398,66,16,44,169,55,169,68
"304","V181553",59.033333,-125.833336,-41,116,27,10652,172,-247,419,92,-106,92,-178,489,85,16,47,211,66,211,96
"305","V181600",60.03,-134.42,-31,113,27,9971,171,-234,405,81,-32,92,-166,297,38,8,35,109,37,105,72
"306","V160225",58.816666,-123.48333,-9,120,25,12919,225,-252,477,145,-76,145,-182,454,80,19,52,205,58,205,68
"308","V98756",58.516666,-124.566666,-43,112,26,10816,170,-247,417,92,-109,92,-182,492,87,18,48,217,67,217,91
"309","V181596",61.37,-133.03,-41,125,26,11854,189,-285,474,103,-100,103,-200,304,54,9,47,128,38,128,54
"311","V90252",62.083332,-127.583336,-81,104,23,11899,148,-297,445,72,-158,72,-229,568,87,30,37,223,96,223,99
"315","V159828",50.733334,-121.583336,38,103,31,7632,214,-114,328,-54,-6,136,-59,428,51,23,23,142,80,110,133
"317","V223826",50.25,-115.833336,39,120,31,8462,240,-138,378,-63,-8,146,-71,562,63,30,21,171,108,151,159
"318","V220741",62.016666,-132.6,-49,134,25,13131,198,-319,517,110,-107,110,-223,293,55,9,51,130,36,130,49
"322","V37158",61.75,-113,-48,98,18,14864,207,-315,522,119,-158,136,-244,292,40,12,41,113,37,104,49
"325","V220746",60.694443,-135.04028,-10,108,24,11004,204,-231,435,110,-3,125,-158,271,37,9,40,107,36,103,54
"326","V103265",59.933334,-128.46666,-34,120,22,13996,209,-318,527,129,-98,129,-228,445,60,18,32,158,65,158,92
"327","173598",38.6846,-106.3595,-18,145,38,7870,172,-200,372,79,12,84,-115,670,75,40,18,200,140,187,167
"329","032242",45.306526,-81.73365,56,85,24,9044,229,-117,346,134,34,168,-61,821,85,53,15,235,169,205,212
"330","166411",45.24372,-81.57428,57,85,24,9056,229,-116,345,-28,35,168,-61,848,87,55,16,244,173,209,224
"332","CONN00102609",48.15722,-65.85388,41,91,23,9881,232,-149,381,165,-38,165,-90,988,97,62,12,278,205,278,225
"333","CONN00102610",48.28333,-68.86666,26,93,23,10182,222,-172,394,142,-52,153,-112,950,93,65,12,271,198,262,226
"335","27112",58.63139,-93.81416,-75,89,17,14090,172,-327,499,94,-251,97,-259,420,62,15,43,166,49,158,52
"336","40811",58.75,-94.11667,-76,89,17,14109,172,-327,499,94,-252,97,-260,418,61,15,43,164,49,156,52
"337","69814",58.466946,-93.209724,-73,90,17,14144,175,-326,501,97,-248,101,-258,420,62,14,45,170,47,161,51
"338","26536",51.529167,-100.39333,15,115,23,12844,249,-236,485,169,-161,169,-161,482,79,16,51,211,59,211,59
"339","23401",57.001667,-92.30583,-54,97,19,14124,193,-313,506,111,-227,119,-243,458,67,15,47,191,51,184,55
"340","14590",52.235832,-101.20722,15,116,23,12942,252,-234,486,171,-162,171,-162,447,71,15,52,200,53,200,53
"341","69133",51.183613,-97.62556,2,134,25,13286,249,-272,521,159,-83,159,-183,524,78,19,44,213,75,213,76
"343","14594",50.884724,-100.047775,2,115,24,12555,232,-246,478,153,-169,153,-169,532,85,19,51,233,67,233,67
"344","57159",58.735832,-93.789444,-76,88,17,14128,171,-327,498,94,-252,97,-260,417,61,14,44,165,48,157,51
"345","73153",57.35123,-93.52361,-60,97,19,14147,190,-317,507,106,-232,114,-248,453,67,15,47,187,50,181,54
"346","42368",58.783333,-94.183334,-76,89,17,14157,173,-328,501,95,-252,98,-260,414,61,15,43,163,48,155,52
"347","29827",53.98722,-100.93472,-1,110,21,13529,241,-264,505,164,-161,164,-185,459,70,15,50,198,54,198,54
"348","27163",54.386,-101.379,-2,103,20,13638,238,-262,500,164,-163,164,-188,465,73,16,52,203,55,203,57
"349","71682",52.868057,-99.077774,2,98,20,13471,235,-253,488,167,-181,167,-181,471,70,15,50,202,54,202,54
"350","71703",52.141666,-98.85,5,108,21,13550,243,-258,501,169,-180,169,-180,459,72,14,49,196,54,196,54
"351","71129",58.788055,-94.200836,-76,89,17,14157,173,-328,501,95,-252,98,-260,414,61,15,43,163,48,155,52
"352","70033",58.673332,-93.256,-75,89,17,14126,172,-327,499,94,-251,98,-260,412,61,14,45,166,46,157,50
"353","66737",56.243332,-96.29833,-40,110,21,14229,215,-306,521,134,-207,134,-232,489,76,17,47,205,58,205,62
"354","31868",56.34722,-94.70778,-44,109,20,14317,213,-309,522,117,-214,131,-237,471,74,16,50,202,51,200,57
"355","66741",56.14639,-96.59361,-38,112,21,14209,217,-304,521,136,-204,136,-230,490,77,17,48,207,58,207,61
"356","14591",51.76889,-98.63472,6,113,22,13663,246,-264,510,170,-182,170,-182,449,72,13,49,191,53,191,53
"358","71696",51.368057,-98.4875,6,119,23,13594,246,-269,515,168,-181,168,-181,449,74,12,49,191,53,191,53
"359","71643",53.47972,-99.10139,-1,97,19,13550,234,-256,490,165,-162,165,-185,472,68,15,50,202,55,202,55
"360","66722",56.16611,-96.494446,-38,111,21,14216,218,-304,522,136,-204,136,-230,487,76,17,48,206,58,206,61
"361","14593",53.121113,-100.32972,5,105,21,13304,241,-249,490,167,-176,167,-176,466,70,15,52,203,53,203,53
"362","69090",58.66639,-93.1875,-75,90,18,14120,173,-327,500,95,-250,99,-259,415,61,14,45,168,46,159,50
"364","30374",49.87908,-96.06563,21,108,22,12950,251,-234,485,177,-136,177,-157,521,84,16,53,230,60,230,60
"365","71653",51.16611,-97.595276,2,134,25,13271,249,-271,520,160,-83,160,-182,526,79,19,44,215,75,215,76
"366","67168",49.545277,-95.57056,20,112,22,12902,251,-239,490,175,-158,175,-158,551,89,17,54,245,61,245,61
"367","14592",54.298332,-97.54389,-11,102,20,14035,234,-276,510,160,-175,160,-203,479,71,17,49,206,60,206,65
"368","66564",56.245556,-96.29611,-40,110,21,14229,215,-306,521,134,-207,134,-232,489,76,17,47,205,58,205,62
"369","65728",48.29398,-68.86544,26,93,23,10182,222,-172,394,142,-52,153,-112,950,93,65,12,271,198,262,226
"370","48455",52.550003,-103.90049,3,113,23,12984,236,-252,488,159,-173,159,-173,453,71,16,50,198,59,198,59
"371","CAN 275817",57.083,-122.583,-9,106,26,10395,192,-205,397,119,-70,119,-145,530,88,25,44,224,84,224,89
"372","CAN 275813",57.233,-122.717,-9,108,26,10685,196,-213,409,122,-71,122,-150,517,86,24,44,219,80,219,88
"373","CAN 21410",56.017,-123.65,-2,105,27,9566,192,-190,382,116,-57,116,-129,571,72,23,26,193,95,193,139
"375","CAN 479573",61.617,-125.983,-55,108,21,13569,192,-303,495,112,-133,112,-231,481,76,23,40,199,74,199,81
"376","CAN 479569",61.217,-123.617,-47,105,21,14264,206,-292,498,128,-231,128,-231,434,78,16,52,200,59,200,59
"379","CAN 410391",58.45,-124.883,-39,113,27,10578,171,-241,412,93,-103,93,-175,488,85,16,48,212,65,212,94
"380","CAN 448082",48.583,-86.3,19,103,25,10188,200,-202,402,105,-58,138,-121,818,94,47,19,252,154,237,170
"381","CAN 275812",58.517,-124.567,-43,112,26,10816,170,-247,417,92,-109,92,-182,492,87,18,48,217,67,217,91
"382","CAN 479580",61.867,-126.633,-55,109,22,13373,190,-301,491,111,-132,111,-228,503,76,25,38,200,79,200,86
"383","CAN 21386",62.183,-123.333,-34,104,19,15482,234,-298,532,155,-122,155,-237,374,61,14,48,165,48,165,54
"384","CAN 21402",59.417,-126.167,-17,121,25,12326,211,-265,476,130,-79,130,-183,468,73,16,38,185,65,185,98
"385","CAN 21380",65.183,-123.467,-70,90,17,15335,197,-318,515,124,-245,124,-265,289,45,11,48,122,36,122,40
"386","CAN 479567",61.467,-125.633,-44,110,21,13923,206,-298,504,127,-121,127,-226,464,74,22,42,193,69,193,78
"387","CAN 479942",61.167,-123.8,-27,107,20,14711,229,-281,510,150,-189,150,-220,422,73,15,49,189,56,189,58
"388","CAN 479570",61.533,-125.367,-48,108,21,13921,202,-299,501,123,-128,123,-230,462,75,21,43,196,68,196,75
"389","CAN 479566",61.467,-125.717,-46,110,21,13839,203,-299,502,124,-123,124,-227,469,75,22,41,195,70,195,78
"390","CAN 21378",66.883,-118.6,-87,78,16,14074,151,-319,470,78,-209,90,-264,231,41,9,51,102,29,91,33
"391","CAN 479565",61.433,-125.8,-50,109,21,13683,197,-301,498,118,-127,118,-228,474,76,23,41,197,72,197,81
"393","CAN 21389",68.333,-131.333,-103,85,17,14905,166,-329,495,76,-225,93,-279,197,35,8,50,86,26,84,32
"397","CAN 21411",56.033,-121.917,23,108,27,10037,216,-172,388,145,-35,145,-113,508,81,20,45,213,77,213,93
"400","CAN 479564",61.517,-125.35,-48,108,21,13921,202,-299,501,123,-128,123,-230,462,75,21,43,196,68,196,75
"402","CAN 479583",61.883,-127.483,-84,104,23,11862,145,-300,445,68,-161,68,-231,564,87,30,36,223,96,223,99
"404","CAN 479584",61.833,-126.567,-62,108,22,13158,180,-304,484,102,-139,102,-231,508,78,26,38,204,81,204,88
"406","CAN 479574",61.717,-125.9,-59,108,21,13553,188,-305,493,109,-138,109,-234,481,77,23,41,201,74,201,80
"407","CAN 199989",65.717,-118.9,-73,81,16,14589,173,-319,492,94,-190,110,-261,248,42,9,47,104,33,95,40
"408","CAN 446563",52.95,-83.167,-21,113,22,12995,215,-284,499,135,-186,135,-198,589,90,23,45,238,75,238,85
"409","CAN 482888",61.167,-123.633,-47,105,21,14264,206,-292,498,128,-231,128,-231,434,78,16,52,200,59,200,59
"410","CAN 279331",62.75,-109.1,-71,91,17,15433,188,-343,531,109,-261,120,-270,257,40,10,45,106,32,101,37
"412","CAN 446508",55.867,-86.8,-44,98,19,13596,193,-302,495,114,-215,121,-226,482,74,15,50,206,52,199,58
"415","CAN 479582",61.717,-126.033,-46,110,21,13888,204,-300,504,125,-123,125,-227,474,73,23,40,193,72,193,80
"417","CAN 482868",68.583,-144.833,-142,92,19,13995,114,-357,471,44,-174,44,-306,153,30,5,66,80,19,80,23
"419","CAN 21409",56.067,-123.65,-2,105,27,9566,192,-190,382,116,-57,116,-129,571,72,23,26,193,95,193,139
"420","CAN 21408",56.05,-123.667,1,106,27,9637,197,-189,386,120,-53,120,-127,563,70,23,26,189,93,189,138
"421","CAN 268383",62.083,-127.583,-67,106,23,12314,166,-293,459,89,-143,89,-223,562,83,29,36,216,93,216,98
"422","CAN 297349",58.667,-124.45,-27,115,26,11409,192,-241,433,113,-92,113,-176,478,85,17,50,212,62,212,84
"423","CAN 21387",68.333,-133.5,-92,93,18,15410,190,-322,512,91,-216,114,-272,247,41,11,42,97,35,93,43
"426","CAN 479572",61.633,-125.25,-59,106,21,13732,190,-303,493,111,-141,111,-236,461,77,21,45,201,69,201,73
"427","CAN 199988",66.083,-118.033,-71,79,16,14502,170,-317,487,94,-191,110,-259,232,40,7,49,97,30,86,37
"428","CAN 479579",61.583,-125.883,-64,107,21,13282,181,-306,487,102,-142,102,-234,486,79,24,42,204,76,204,82
"429","CAN 329671",63.95,-103.883,-108,87,16,15503,161,-365,526,80,-297,89,-301,223,38,6,59,106,21,98,22
"430","CAN 279332",62.583,-111.517,-67,95,18,15117,193,-332,525,107,-183,122,-263,287,42,12,42,114,38,109,49
"431","CAN 465716",52.267,-116.833,-39,105,31,7620,140,-198,338,58,-91,58,-134,662,87,34,33,249,116,249,131
"432","50348",64.28333,-146.5,-35,108,22,13833,209,-274,483,138,-109,138,-211,315,61,8,64,163,31,163,44
"435","27306",63.716667,-148.86667,-37,113,27,11039,185,-229,414,107,-105,107,-171,390,80,10,67,204,39,204,54
"440","OSC126454",45.2858,-117.302,5,143,40,7013,209,-147,356,-72,95,96,-82,715,92,26,33,261,101,120,248
"442","ORE16647",45.2714,-117.302,5,143,40,7013,209,-147,356,-72,95,96,-82,715,92,26,33,261,101,120,248
"443","OSC140564",45.2873,-117.2995,5,143,40,7013,209,-147,356,-72,95,96,-82,715,92,26,33,261,101,120,248
"445","ORE49234",45.2572,-117.3223,5,143,40,7013,209,-147,356,-72,95,96,-82,715,92,26,33,261,101,120,248
"446","35124",62.450195,-114.36794,-56,92,17,15409,204,-325,529,118,-172,136,-257,280,41,11,42,111,37,102,45
"447","30037",64.75,-147.5,-32,108,21,14622,216,-285,501,148,-14,148,-223,340,53,9,46,143,42,143,70
"448","27820",53.458332,-117.7975,16,128,33,8529,206,-175,381,121,-35,121,-97,532,85,23,50,237,77,237,85
"449","35851",53.71111,-113.21778,25,120,27,11012,234,-195,429,157,-41,157,-124,447,88,16,67,235,53,235,59
"450","3143",51.177776,-115.57361,4,127,33,8312,203,-179,382,88,-49,109,-102,550,78,28,31,196,101,189,114
"451","3142",49.5667,-110.1333,21,135,30,10294,245,-197,442,127,-37,150,-114,385,66,17,44,158,54,152,62
"453","3138",53.505833,-113.56194,28,112,26,10772,229,-190,419,158,-36,158,-117,461,92,16,67,241,55,241,61
"455","3134",53.534443,-113.49028,27,112,26,10805,229,-190,419,157,-37,157,-118,455,91,15,69,240,53,240,60
"457","3137",52.983334,-118.1,0,112,31,8176,182,-171,353,102,-49,102,-107,570,74,30,31,211,94,211,121
"459","57098",53.75,-116.55,21,138,34,9343,224,-180,404,134,-34,134,-105,569,110,18,67,292,65,292,71
"466","V13669",50.333332,-115.85,39,121,31,8481,240,-139,379,-63,-8,146,-72,557,63,29,21,169,105,152,157
"467","V98753",57.083332,-122.583336,-9,106,26,10395,192,-206,398,119,-70,119,-145,527,87,24,44,222,82,222,91
"470","V98752",60.783333,-137.63333,-26,139,29,11774,205,-270,475,101,-16,115,-186,325,42,10,36,115,38,110,76
"471","65728",48.29398,-68.86544,26,93,23,10182,222,-172,394,142,-52,153,-112,950,93,65,12,271,198,262,226
"472","75164",63.83,-150.27,-36,101,23,11880,191,-237,428,97,-36,118,-181,506,89,19,55,235,65,227,79
"474","63449",61.38,-149.05,-4,90,28,8114,168,-148,316,51,-10,104,-100,614,84,27,32,223,92,184,142
"476","140964",68.683334,-141.25,-131,90,19,13701,122,-343,465,52,-251,52,-287,167,36,5,72,88,18,88,20
"477","12309",64.68,-148.21,-30,112,22,14034,221,-269,490,145,-107,145,-210,304,55,8,60,150,30,150,45
"487","14587",58.63139,-93.81416,-75,89,17,14090,172,-327,499,94,-251,97,-259,420,62,15,43,166,49,158,52
"488","14593",53.121113,-100.32972,5,105,21,13304,241,-249,490,167,-176,167,-176,466,70,15,52,203,53,203,53
"490","QFA0201614",49.85,-64.25,15,84,24,8976,187,-162,349,89,-60,129,-102,1020,102,54,16,297,195,280,220
"491","QFA0589359",50.200832,-63.33167,14,85,23,9257,186,-174,360,39,-60,129,-110,981,100,46,21,296,162,276,207
"492","QFA0237729",49.61667,-63.8,21,74,22,8582,181,-147,328,-9,-52,129,-90,1010,99,55,15,288,193,272,229
"494","QFA0249241",50.22028,-63.54861,14,84,23,9212,183,-175,358,39,-60,128,-110,1000,102,49,20,300,170,277,215
"495","QFA0387000",50.209442,-63.558056,14,84,23,9212,183,-175,358,39,-60,128,-110,1000,102,49,20,300,170,277,215
"496","QFA0237730",49.783333,-63.316666,15,76,22,8738,178,-159,337,40,-57,125,-100,1030,104,53,18,302,185,279,228
"497","QFA0589360",48.888058,-68.79222,21,97,23,10308,221,-185,406,138,-57,149,-120,920,90,62,13,263,186,255,219
"500","QFA0466546",52.55,-67.433334,-39,101,22,12150,181,-278,459,100,-186,112,-204,983,124,49,27,340,172,328,185
"502","QFA0570646",48.52639,-64.24722,32,82,22,9275,211,-147,358,-3,-45,150,-89,1088,112,71,11,310,250,270,277
"503","QFA0570647",48.533333,-64.25,32,82,22,9275,211,-147,358,-3,-45,150,-89,1088,112,71,11,310,250,270,277
"507","QFA0570645",48.520832,-64.22639,32,82,22,9275,211,-147,358,-3,-45,150,-89,1088,112,71,11,310,250,270,277
"510","QFA0393306",50.22389,-63.5925,14,84,23,9213,183,-175,358,39,-60,128,-110,999,102,49,20,299,171,277,214
"512","QFA0589355",50.2125,-63.816944,14,85,23,9216,185,-174,359,89,-61,129,-109,995,102,49,20,298,173,277,211
"515","QFA0450920",52.783333,-67.083336,-40,102,22,12170,180,-279,459,99,-131,111,-205,934,118,46,27,323,162,312,177
"516","QFA0222499",50.211945,-63.74917,14,85,23,9204,184,-174,358,40,-60,128,-109,995,101,49,20,297,172,276,213
"520","QFA0589356",50.25861,-63.174442,12,87,23,9361,187,-178,365,37,-61,129,-113,977,100,45,22,296,159,278,203
"521","QFA0570648",48.53611,-64.647224,26,85,23,9508,210,-158,368,-12,-53,147,-99,1153,117,77,10,327,265,288,291
"523","32242",45.306526,-81.73365,56,85,24,9044,229,-117,346,134,34,168,-61,821,85,53,15,235,169,205,212
"526","27306",63.716667,-148.86667,-37,113,27,11039,185,-229,414,107,-105,107,-171,390,80,10,67,204,39,204,54
"529","CAN 275815",58.517,-124.567,-43,112,26,10816,170,-247,417,92,-109,92,-182,492,87,18,48,217,67,217,91
"530","CAN 21387",68.333,-133.5,-92,93,18,15410,190,-322,512,91,-216,114,-272,247,41,11,42,97,35,93,43
"531","CAN 21385",62.183,-123.333,-34,104,19,15482,234,-298,532,155,-122,155,-237,374,61,14,48,165,48,165,54
"534","CAN 21378",66.883,-118.6,-87,78,16,14074,151,-319,470,78,-209,90,-264,231,41,9,51,102,29,91,33
"539","CAN 479930",61.867,-126.633,-55,109,22,13373,190,-301,491,111,-132,111,-228,503,76,25,38,200,79,200,86
"541","CAN 21389",68.333,-131.333,-103,85,17,14905,166,-329,495,76,-225,93,-279,197,35,8,50,86,26,84,32
"545","CAN 21381",65.183,-123.467,-70,90,17,15335,197,-318,515,124,-245,124,-265,289,45,11,48,122,36,122,40
"547","MT00025449",55.716667,-77.1,-47,87,19,12221,152,-284,436,93,-212,93,-212,579,85,20,48,241,64,241,64
"548","MT00173064",49.766666,-87.76667,0,125,25,12283,234,-265,499,147,-87,147,-170,796,94,33,32,267,113,267,143
"550","MT00013856",44.44576,-78.12093,59,106,26,9964,255,-139,394,80,-64,182,-75,831,80,56,10,227,176,215,188
"551","V-148044",54.5038,-84.6616,-38,104,21,13272,197,-298,495,114,-207,122,-217,552,83,20,46,226,66,223,73
"553","20883",61.11,-153.85,-11,104,28,9437,181,-184,365,101,-74,113,-127,494,84,19,48,216,65,197,82
"554","49422",67.11,-158.3,-72,81,18,13169,155,-276,431,84,-94,100,-232,254,55,9,61,127,35,115,38
"556","60991",61.38,-142.75,-17,102,27,9628,170,-200,370,48,-14,105,-139,995,121,44,30,338,161,297,214
"558","131589",67.13333,-142.13333,-84,109,20,15093,189,-333,522,111,-190,111,-271,195,35,6,55,91,21,91,29
"559","137159",69.03333,-148.76666,-105,114,22,14662,171,-347,518,90,-222,90,-282,203,40,7,62,97,22,97,28
"560","71280",67.97,-161.16,-83,69,17,12051,127,-268,395,69,-122,77,-221,217,48,8,68,118,26,99,31
"561","12309",64.68,-148.21,-30,112,22,14034,221,-269,490,145,-107,145,-210,304,55,8,60,150,30,150,45
"562","75164",63.83,-150.27,-36,101,23,11880,191,-237,428,97,-36,118,-181,506,89,19,55,235,65,227,79
"563","85502",63.41,-150.5,-46,95,23,10873,170,-226,396,80,-53,99,-175,548,94,22,52,249,74,237,91
"564","24061",67.41,-153.71,-99,117,21,15281,179,-354,533,75,-115,100,-288,321,69,12,59,149,45,145,50
"565","141565",69.21667,-148.75,-107,112,21,14663,168,-349,517,88,-225,88,-284,194,39,7,60,93,21,93,26
"566","143575",61.724834,-141.3685,-54,115,25,11858,168,-277,445,94,-116,94,-206,642,102,28,42,261,92,261,108
"568","138375",68.066666,-145.05,-108,99,19,14882,158,-339,497,63,-218,87,-289,158,29,5,53,73,19,72,26
"569","12444",64.99,-141,-68,126,23,14824,209,-327,536,119,-159,119,-257,267,53,8,65,140,26,140,35
"570","86730",64.71,-148.16,-29,112,22,14053,222,-269,491,146,-105,146,-209,307,55,8,59,149,31,149,47
"572","140964",68.683334,-141.25,-131,90,19,13701,122,-343,465,52,-251,52,-287,167,36,5,72,88,18,88,20
"573","73806",63.41,-150.78,-39,98,23,11313,181,-228,409,90,-42,110,-176,536,94,21,52,244,72,230,89
"574","53730",67.77,-150.48,-116,112,21,14432,163,-348,511,78,-138,78,-287,273,54,10,63,138,34,138,41
"575","15070",65.35,-141.05,-89,123,23,14771,192,-341,533,102,-184,102,-273,245,51,7,71,135,24,135,31
"576","87242",64.83,-147.41,-33,107,21,14755,216,-288,504,149,-16,149,-226,342,53,9,46,143,42,143,72
"577","34725",68.35,-139.21,-120,94,18,14446,153,-343,496,75,-282,75,-283,210,45,7,66,105,24,105,24
"578","68392",67.13,-162.9,-63,69,17,11674,142,-244,386,86,-168,91,-197,236,51,9,70,129,27,103,33
"579","11525",66.23,-146.5,-51,112,20,15772,224,-312,536,118,-142,148,-252,245,39,7,46,103,30,101,47
"581","15183",65.28,-148.16,-45,105,21,14403,214,-277,491,137,-127,137,-228,288,54,7,63,147,28,147,42
"582","148418",66.816666,-144.35,-70,111,20,16114,211,-332,543,106,-171,135,-274,179,29,6,48,77,22,72,33
"583","99565",64.95,-138.23334,-83,113,23,13573,184,-306,490,94,-90,94,-246,368,56,16,46,160,51,160,65
"584","77122",67.43,-154.08,-121,110,21,14770,152,-362,514,74,-145,74,-300,323,71,12,62,153,48,153,49
"585","38595",61.01,-138.6,-64,115,27,10542,146,-270,416,70,-130,70,-199,413,72,17,47,183,60,183,70
"586","64190",61.91,-154.41,-40,106,26,10735,167,-234,401,99,-155,99,-173,467,94,19,65,233,57,233,61
"587","35285",64.02,-145.71,-27,109,23,13118,213,-253,466,139,-97,139,-192,312,65,7,73,174,24,174,33
"588","38914",63.82,-150.01,-35,101,23,11750,190,-234,424,96,-35,118,-178,504,88,19,54,233,64,227,79
"589","61780",61.61,-144.55,-18,117,28,10678,194,-220,414,101,-10,116,-154,614,76,25,33,220,87,203,132
"590","76798",67.43,-150.08,-83,117,22,14680,195,-325,520,111,-186,111,-261,280,53,10,59,134,32,134,41
"591","133893",68.833336,-143.5,-148,84,18,13365,94,-356,450,29,-268,29,-301,150,31,5,68,80,19,80,21
"592","71453",67.96,-161.61,-84,68,17,11947,125,-267,392,68,-125,74,-220,216,48,8,68,118,26,99,30
"593","98908",60.783333,-137.63333,-26,139,29,11774,205,-270,475,101,-16,115,-186,325,42,10,36,115,38,110,76
"594","63334",61.38,-149.05,-4,90,28,8114,168,-148,316,51,-10,104,-100,614,84,27,32,223,92,184,142
"595","133711",68.683334,-141.21666,-131,90,19,13701,122,-343,465,52,-251,52,-287,167,36,5,72,88,18,88,20
"596","13178",64.47,-148.09,-30,113,23,13727,217,-266,483,142,-105,142,-205,319,57,9,59,155,33,155,49
"597","86988",64.75,-147.5,-32,108,21,14622,216,-285,501,148,-14,148,-223,340,53,9,46,143,42,143,70
"599","11192",64.68,-148.2,-30,112,22,14034,221,-269,490,145,-107,145,-210,304,55,8,60,150,30,150,45
"600","88391",64.18,-145.88,-29,110,23,13520,215,-261,476,141,-101,141,-200,313,63,7,69,168,26,168,37
"601","11587",66.11,-148.11,-47,117,22,14982,222,-297,519,143,-135,143,-237,282,50,8,56,131,30,131,45
"602","81155",64.31,-141.36,-61,129,23,14973,214,-329,543,125,-144,125,-256,250,56,6,77,141,20,141,27
"603","131302",66.73333,-143.56667,-72,112,20,15611,205,-329,534,127,-172,127,-268,186,31,6,51,82,21,82,30
"604","84522",63.27,-149.8,-49,90,24,10252,157,-217,374,71,-60,89,-168,543,90,21,52,246,72,237,89
"605","131831",67.166664,-141.66667,-89,109,20,15145,187,-338,525,107,-196,107,-275,203,37,6,59,97,22,97,29
"608","84977",63.38,-145.74,-51,119,25,12898,195,-278,473,113,-120,113,-213,263,61,5,85,158,20,158,28
"609","71568",67.98,-161.92,-76,68,17,11937,132,-260,392,76,-116,82,-213,209,47,7,71,116,23,95,29
"610","147664",64.21667,-145.93333,-28,109,22,13529,215,-261,476,142,-100,142,-200,313,62,7,68,167,26,167,37
"611","15106",65.46,-143.68,-58,125,22,15480,224,-323,547,137,-145,137,-256,212,38,6,59,103,22,103,31
"612","56261",62.99,-152.03,-53,99,24,11211,165,-241,406,77,-60,95,-187,440,81,17,54,201,60,200,74
"614","87176",64.83,-147.73,-29,108,21,14470,222,-277,499,150,-107,150,-217,326,51,10,45,136,41,136,64
"615","49369",67.19,-156.63,-88,90,19,13869,154,-309,463,73,-109,93,-258,281,60,10,59,135,42,128,43
"617","12352",67.15,-142.15,-84,109,20,15093,189,-333,522,111,-190,111,-271,195,35,6,55,91,21,91,29
"618","139978",69.73333,-155.25,-113,85,18,13805,130,-339,469,52,-150,68,-280,169,40,5,67,87,20,82,22
"619","85073",63.73,-151.71,-30,98,21,12893,203,-243,446,111,-106,135,-191,401,82,15,62,195,50,193,61
"622","129992",66.46667,-141.5,-79,116,21,15313,202,-337,539,118,-182,118,-270,224,39,7,58,108,24,108,31
"623","83136",65.05,-141.36,-50,128,23,14816,225,-311,536,136,-138,136,-241,275,51,8,62,136,26,136,37
"624","85425",63.58,-149.51,-56,93,23,10648,156,-232,388,86,-66,86,-181,473,84,17,58,223,58,223,74
"625","146157",62.405666,-141.95183,-68,120,24,13158,176,-308,484,97,-135,97,-236,393,82,13,66,201,44,201,52
"628","67641",62.95,-141.6,-58,124,23,15198,207,-332,539,127,-130,127,-257,272,66,5,84,159,20,159,25
"629","98911",60.916668,-138.71666,-61,114,27,10343,145,-264,409,70,-127,70,-194,458,75,20,42,192,69,192,80
"631","18421",66.98,-142.82,-81,110,20,15213,193,-331,524,115,-184,115,-270,188,33,6,56,87,21,87,28
"632","10993",65.88,-147.25,-69,107,21,14880,199,-310,509,122,-158,122,-256,266,47,7,57,130,31,130,45
"633","12099",64.66,-148.26,-30,113,23,13941,220,-269,489,144,-107,144,-208,307,56,8,63,154,30,154,45
"636","81111",64.29,-141.41,-61,129,23,14973,214,-329,543,125,-144,125,-256,250,56,6,77,141,20,141,27
"637","66510",62.56,-153.61,-33,108,25,11566,181,-242,423,116,-103,116,-178,397,85,13,72,215,41,215,45
"638","86736",64.71,-148.18,-30,112,22,14034,221,-269,490,145,-107,145,-210,304,55,8,60,150,30,150,45
"639","98947",68.45,-138.75,-116,92,18,14193,153,-332,485,76,-276,76,-276,215,46,7,68,107,23,107,23
"640","CACO10-46081",44.363728,-103.790855,62,126,33,8643,267,-110,377,99,-31,178,-44,667,104,27,46,288,92,217,92
"641","CACO10-41049",45.421673,-119.56655,93,135,40,6711,288,-43,331,15,179,182,11,352,44,10,35,126,42,51,112
"642","CACO10-08019",39.687706,-105.63586,7,147,40,7469,201,-159,360,-12,16,105,-84,617,65,38,18,181,128,176,132
"643","CACO10-26033",46.317753,-84.51852,46,106,26,9875,247,-146,393,126,-78,167,-85,842,101,41,22,265,149,241,163
"644","CACO10-41063",45.57748,-117.17291,49,149,40,7258,260,-105,365,-36,139,142,-45,498,53,22,24,154,82,102,142
"645","CACO10-26041",45.775352,-86.87298,54,95,25,9673,242,-132,374,169,-74,174,-74,763,89,30,29,255,117,248,117
"646","CACO10-55003",46.708332,-90.558464,49,117,27,10465,258,-167,425,170,-94,177,-94,818,103,27,35,289,112,288,112
"647","CACO10-08117",39.618526,-106.10784,1,149,39,7797,199,-174,373,98,12,102,-95,560,58,34,15,157,119,154,135
"648","CACO10-41023",44.497814,-119.00301,81,163,43,6895,299,-72,371,2,168,173,-4,350,40,14,27,115,54,67,99
"649","CACO10-30013",47.310528,-111.35132,67,139,35,8314,278,-114,392,150,-38,175,-38,375,67,13,55,169,46,139,46
"650","CACO10-56035",42.761066,-109.91962,15,179,39,9264,254,-195,449,109,-88,133,-106,279,37,15,27,95,51,84,52
"651","CACO10-26047",45.58308,-84.98067,61,105,27,9530,253,-128,381,138,-59,179,-64,799,100,34,24,260,137,225,143
"652","CACO10-55029",45.020683,-87.00997,65,97,25,9614,256,-121,377,180,-63,184,-63,768,91,29,29,254,116,245,116
"653","CACO10-08015",38.737034,-106.175995,2,158,40,8127,203,-191,394,101,37,107,-100,516,66,35,23,173,113,164,113
"654","CACO10-46093",44.566383,-102.71348,76,144,32,10435,307,-139,446,182,-59,211,-59,415,80,8,67,205,30,170,30
"655","CACO10-30031",45.55805,-111.173515,50,139,35,8338,265,-122,387,87,-54,159,-54,534,80,23,37,206,80,153,80
"656","CACO10-30063",47.040997,-113.925446,13,140,38,7424,223,-140,363,-69,107,111,-77,630,68,36,20,188,126,146,180
"657","CAN 21381",65.183,-123.467,-70,90,17,15335,197,-318,515,124,-245,124,-265,289,45,11,48,122,36,122,40
"658","CAN 275810",57.083,-122.583,-9,106,26,10395,192,-205,397,119,-70,119,-145,530,88,25,44,224,84,224,89
"661","50348",64.28333,-146.5,-35,108,22,13833,209,-274,483,138,-109,138,-211,315,61,8,64,163,31,163,44
"663","OSC126454",45.2858,-117.302,5,143,40,7013,209,-147,356,-72,95,96,-82,715,92,26,33,261,101,120,248
"664","OSC180291",45.2858,-117.3223,5,143,40,7013,209,-147,356,-72,95,96,-82,715,92,26,33,261,101,120,248
"666","ORE4034",45.2873,-117.2995,5,143,40,7013,209,-147,356,-72,95,96,-82,715,92,26,33,261,101,120,248
"668","V-148038",54.5038,-84.6616,-38,104,21,13272,197,-298,495,114,-207,122,-217,552,83,20,46,226,66,223,73
