"","catalogNumber","lat","lon","bio1","bio2","bio3","bio4","bio5","bio6","bio7","bio8","bio9","bio10","bio11","bio12","bio13","bio14","bio15","bio16","bio17","bio18","bio19"
"1","CAN 21618",41.967,-82.517,96,91,25,9505,280,-77,357,216,-18,216,-29,865,86,49,16,253,168,253,177
"2","CAN 21645",56.05,-123.667,1,106,27,9637,197,-189,386,120,-53,120,-127,563,70,23,26,189,93,189,138
"3","CAN 448326",44.867,-81.033,61,91,25,9186,240,-113,353,-28,41,174,-60,942,104,63,17,287,193,221,259
"4","CAN 21643",59.383,-126.15,-21,120,26,11868,203,-258,461,122,-84,122,-180,474,76,16,41,192,65,192,98
"5","CAN 448864",51.283,-84.8,-8,121,24,12865,232,-271,503,148,-168,148,-184,726,92,35,31,256,117,256,122
"6","CAN 540225",44.35,-77.733,63,102,26,9972,258,-133,391,84,-60,186,-71,846,84,58,11,233,184,208,197
"7","CAN 498894",42.667,-81.5,78,96,27,9185,259,-93,352,192,-35,192,-44,934,92,54,14,258,189,258,203
"10","CAN 440997",48.917,-88.767,11,120,25,11655,237,-238,475,141,-71,152,-149,764,88,33,30,258,122,256,126
"11","CAN 434599",48.567,-89.733,15,126,26,11527,241,-229,470,155,-142,155,-142,742,89,30,32,260,113,260,113
"12","CAN 466015",44.55,-80.383,62,100,27,9505,253,-116,369,-32,-15,179,-63,914,98,62,15,269,190,225,246
"13","CAN 448097",48.583,-86.3,19,103,25,10188,200,-202,402,105,-58,138,-121,818,94,47,19,252,154,237,170
"14","CAN 549203",44.917,-76.483,57,104,25,10554,258,-152,410,137,-74,186,-86,845,81,56,11,232,178,221,196
"15","CAN 21653",63.183,-139.6,-57,122,22,15260,212,-339,551,127,-133,127,-261,288,59,9,62,145,28,145,39
"16","CAN 455219",45.367,-75.9,59,101,24,10918,263,-155,418,181,-76,192,-90,844,81,53,13,240,168,239,186
"19","CAN 447441",56.25,-88.783,-50,95,19,13829,190,-308,498,111,-221,119,-235,486,73,15,50,208,53,199,58
"20","CAN 263857",58.983,-125.767,-17,119,28,10662,193,-222,415,114,-82,114,-156,483,83,14,47,208,59,208,93
"21","CAN 457045",45.25,-76.167,55,106,25,10806,260,-158,418,176,-79,187,-92,810,77,52,13,231,165,225,182
"22","CAN 501930",45.033,-75.8,60,99,24,10705,260,-148,408,181,-72,191,-86,862,83,55,13,246,173,237,192
"23","CAN 447562",49.983,-81.533,5,116,24,12466,236,-247,483,144,-88,156,-165,816,97,40,27,271,133,265,150
"24","CAN 340888",59.383,-124.917,-9,118,25,12310,219,-239,458,139,-75,139,-172,466,80,17,48,202,59,202,81
"26","CAN 497299",45.533,-76.7,53,110,25,10984,265,-167,432,176,-83,188,-96,831,80,55,12,234,170,233,185
"27","CAN 537208",45.092,-75.9,59,100,24,10774,261,-151,412,180,-74,191,-88,848,82,54,13,242,171,235,189
"28","CAN 434528",49.317,-86.05,6,124,25,11761,229,-250,479,136,-81,148,-154,799,94,44,26,257,143,256,143
"29","CAN 487507",51.967,-98.833,5,110,21,13583,244,-260,504,169,-181,169,-181,458,73,14,49,195,55,195,55
"30","CAN 487941",52.867,-99.033,2,98,20,13471,235,-253,488,167,-181,167,-181,471,70,15,50,202,54,202,54
"31","CAN 21633",59.458,-108.458,-31,104,19,14855,219,-313,532,150,-129,150,-232,345,53,14,43,140,49,140,53
"33","CAN 436984",43.233,-81.867,79,95,26,9311,263,-90,353,189,-35,195,-43,887,83,59,10,242,186,241,199
"34","CAN 429684",53.367,-104.033,6,117,23,13209,242,-250,492,163,-174,163,-174,452,72,14,56,207,51,207,51
"36","CAN 21634",51.117,-106.583,27,119,25,12230,260,-214,474,153,-120,175,-139,334,62,12,55,150,46,149,49
"37","CAN 439852",47.883,-66.967,29,114,27,10349,240,-181,421,159,-49,159,-110,1005,103,66,15,289,202,289,251
"38","CAN 537233",50.733,-104.65,21,121,25,12402,254,-225,479,149,-147,172,-147,399,71,14,55,181,52,176,52
"39","35289",64.02,-145.71,-27,109,23,13118,213,-253,466,139,-97,139,-192,312,65,7,73,174,24,174,33
"40","71069",63.76,-145.03,-39,128,25,13505,218,-279,497,130,-107,130,-211,309,60,8,65,159,30,159,41
"41","24069",65.73,-147.48,-55,106,20,14901,209,-298,507,133,-142,133,-245,281,48,7,55,132,32,132,48
"42","18385",66.98,-142.82,-81,110,20,15213,193,-331,524,115,-184,115,-270,188,33,6,56,87,21,87,28
"43","85106",63.58,-151.38,-33,100,22,12293,196,-240,436,103,-31,125,-186,455,87,17,57,214,59,207,74
"44","71022",63.85,-144.88,-36,129,25,13702,223,-281,504,134,-105,134,-211,313,58,9,59,155,32,155,44
"45","142425",63.897217,-144.85417,-36,129,25,13702,223,-281,504,134,-105,134,-211,313,58,9,59,155,32,155,44
"46","56690",63.83,-150.27,-36,101,23,11880,191,-237,428,97,-36,118,-181,506,89,19,55,235,65,227,79
"47","130462",64.01667,-145.73334,-27,109,23,13118,213,-253,466,139,-97,139,-192,312,65,7,73,174,24,174,33
"49","76785",67.43,-150.08,-83,117,22,14680,195,-325,520,111,-186,111,-261,280,53,10,59,134,32,134,41
"50","158708",65.596,-143.04929,-73,124,22,15243,209,-333,542,121,-164,121,-266,203,40,5,67,106,20,106,28
"51","130265",65.73333,-147.48334,-55,106,20,14901,209,-298,507,133,-142,133,-245,281,48,7,55,132,32,132,48
"52","85394",63.78,-149.53,-42,101,24,11414,180,-235,415,108,-44,108,-179,456,82,15,58,218,55,218,68
"53","15105",65.46,-143.68,-58,125,22,15480,224,-323,547,137,-145,137,-256,212,38,6,59,103,22,103,31
"54","71013",63.83,-144.83,-37,129,25,13609,222,-280,502,133,-105,133,-210,306,58,9,62,153,31,153,42
"55","38919",62.49,-152.42,-44,103,26,10543,164,-227,391,78,-51,95,-171,441,74,17,47,189,62,184,81
"56","76791",67.43,-150.06,-83,117,22,14680,195,-325,520,111,-186,111,-261,280,53,10,59,134,32,134,41
"57","66538",62.56,-153.61,-33,108,25,11566,181,-242,423,116,-103,116,-178,397,85,13,72,215,41,215,45
"58","129077",66.46667,-141.5,-79,116,21,15313,202,-337,539,118,-182,118,-270,224,39,7,58,108,24,108,31
"59","158674",66.1695,-141.493,-78,119,22,15259,204,-336,540,118,-179,118,-269,229,41,7,60,114,24,114,31
"60","3507068",36.66,-93.3,135,141,36,8595,324,-64,388,182,18,242,18,1098,121,51,21,338,194,285,194
"61","2767843",37.87,-91.07,126,141,35,8837,319,-76,395,127,5,235,5,1057,113,52,19,313,193,281,193
"62","263469",37.87,-90.2,126,131,33,9058,316,-71,387,125,3,239,3,1074,113,57,18,317,209,282,209
"63","2722698",37.93,-91.98,129,133,33,9025,321,-72,393,180,7,241,7,1048,124,47,22,322,177,287,177
"64","2721271",42.66,-77.05,81,113,30,9074,272,-96,368,195,-30,195,-38,832,91,43,21,252,143,252,146
"66","1378641",35.87,-82.8,124,135,40,7381,290,-46,336,199,79,217,26,1123,118,70,15,318,230,318,258
"67","2721095",59.46,-108.46,-31,104,19,14855,219,-313,532,150,-129,150,-232,345,53,14,43,140,49,140,53
"68","3529592",37.73,-92.05,128,138,34,8908,320,-75,395,179,7,239,7,1071,121,50,20,322,189,285,189
"69","3545634",38.35,-92.4,128,127,32,9256,320,-74,394,180,2,243,2,1013,126,39,28,330,150,286,150
"70","2722878",53.37,-104.03,6,117,23,13209,242,-250,492,163,-174,163,-174,452,72,14,56,207,51,207,51
"71","3569965",39.05,-90.95,122,128,32,9415,317,-79,396,217,-7,238,-7,961,108,42,24,301,157,277,157
"72","3154954",38.77,-91.83,120,126,31,9545,316,-84,400,217,-10,239,-10,990,119,40,26,318,154,285,154
"73","3504756",36.52,-92.6,142,142,36,8542,333,-56,389,142,26,248,26,1086,121,54,19,326,209,263,209
"74","3545122",36.72,-94.36,136,132,34,8545,320,-58,378,184,20,242,20,1109,126,47,26,355,173,299,173
"75","3545512",38.67,-91.8,123,129,32,9512,319,-83,402,177,-7,241,-7,985,119,40,25,315,156,280,156
"76","2722761",49.68,-88,1,127,25,12249,237,-265,502,148,-85,148,-168,794,94,33,32,265,111,265,146
"77","2721007",38.09,-90.69,125,137,34,9047,318,-77,395,126,1,237,1,1026,111,54,19,305,193,271,193
"78","2722158",44.02,-73.17,72,120,29,10002,277,-135,412,185,-50,196,-63,901,103,49,20,275,161,274,169
"79","3541937",38.73,-92.7,126,121,30,9497,319,-76,395,179,-4,243,-4,1012,129,34,32,339,136,295,136
"83","3556682",36.52,-93.84,133,130,34,8581,315,-61,376,180,17,239,17,1135,126,50,23,356,192,299,192
"84","3545421",38.25,-93.59,127,130,32,9326,323,-75,398,179,1,244,1,1050,126,38,32,352,140,316,140
"85","3545146",38.82,-91.43,123,130,32,9427,319,-80,399,218,-5,240,-5,992,116,43,24,313,163,281,163
"86","3544084",39.03,-91.22,121,127,32,9439,316,-79,395,217,-7,238,-7,968,112,42,25,310,152,284,152
"88","100139505",38.27,-91,126,138,34,9104,321,-77,398,178,2,239,2,1014,112,51,19,301,184,272,184
"90","KR-M-0002856 / 488084 / 20700",43.35,-81.75,76,96,27,9273,260,-93,353,35,-38,192,-45,906,84,63,9,243,199,238,219
"91","ECS030676",46.95639,-60.56833,40,71,23,7897,201,-106,307,-23,106,144,-58,1375,152,88,17,433,283,300,348
"92","YPM YU 037230",41.9861,-73.4258,77,122,32,9070,269,-112,381,191,-32,191,-44,1159,107,77,9,315,250,315,254
"93","YPM YU 037229",41.96,-73.31,73,116,30,9090,261,-114,375,121,-37,187,-49,1220,111,85,8,324,270,324,276
"94","YPM CBS 007173",41.6041,-73.4216,91,121,32,8969,280,-97,377,181,-17,203,-30,1162,107,79,8,310,254,306,257
"95","YPM CBS 007177",41.605,-72.88,97,115,31,8915,285,-83,368,85,-10,210,-21,1217,111,87,7,323,281,295,286
"97","YPM CBS 007174",41.986,-73.4257,77,122,32,9070,269,-112,381,191,-32,191,-44,1159,107,77,9,315,250,315,254
"98","YPM YU 037225",41.7586,-73.2036,77,113,30,9007,262,-108,370,123,-32,190,-44,1259,114,89,7,331,284,325,288
"101","YPM YU 037226",41.5161,-72.759,99,110,30,8833,284,-77,361,86,-7,211,-18,1219,112,88,7,324,284,293,288
"103","YPM YU 037232",41.73,-73.4539,85,120,31,8992,273,-103,376,175,-24,197,-36,1178,108,80,9,316,257,314,260
"106","YPM YU 037227",41.8575,-73.4376,80,121,31,9050,270,-109,379,172,-29,193,-42,1165,107,78,9,316,252,316,256
"107","YPM CBS 007169",41.4622,-72.6831,98,106,29,8716,280,-74,354,84,-6,209,-16,1225,114,89,7,326,289,292,293
"108","YPM CBS 008737",41.6042,-73.4217,91,121,32,8969,280,-97,377,181,-17,203,-30,1162,107,79,8,310,254,306,257
"111","YPM CBS 007170",41.7414,-73.1931,82,115,30,8985,268,-103,371,128,-26,195,-38,1244,113,87,7,326,280,319,284
"112","CONN00055952",40.68694,-75.21888,102,123,33,8816,295,-75,370,206,-2,215,-14,1157,112,74,11,324,252,319,252
"113","CONN00103190",41.72527,-73.57583,85,120,31,9008,274,-102,376,176,-23,198,-35,1154,106,78,9,312,250,311,253
"114","CONN00103148",41.58916,-73.44611,91,121,32,8969,280,-97,377,181,-17,203,-30,1162,107,79,8,310,254,306,257
"115","CONN00103192",42.79444,-73.22333,69,120,30,9436,266,-126,392,166,-46,187,-58,1135,109,72,12,317,234,317,240
"116","CONN00103202",43.79805,-73.0875,71,124,29,9913,278,-136,414,184,-50,195,-62,968,108,55,18,289,180,287,189
"117","CONN00103141",41.985,-73.42277,77,122,32,9070,269,-112,381,191,-32,191,-44,1159,107,77,9,315,250,315,254
"118","CONN00103196",48.52138,-64.23972,32,82,22,9275,211,-147,358,-3,-45,150,-89,1088,112,71,11,310,250,270,277
"119","CONN00103142",41.58694,-73.40833,87,118,31,8936,274,-98,372,133,-20,199,-32,1199,111,82,8,318,265,312,267
"121","CONN00136263",43.15472,-77.61583,86,105,28,9289,277,-90,367,157,-28,204,-35,810,82,48,15,229,157,228,161
"122","CONN00055954",46.89055,-71.14527,46,98,23,10699,254,-160,414,179,-34,179,-99,1102,118,70,18,340,212,340,260
"123","CONN00103186",43.25916,-89.80888,76,118,27,10732,284,-145,429,195,-72,207,-72,797,100,25,40,293,89,292,89
"124","CONN00103197",46.82888,-67.73583,40,112,26,10477,245,-173,418,158,-39,169,-102,975,101,62,15,287,193,284,218
"126","CONN00103205",37.63,-79.54305,127,132,38,7858,300,-45,345,208,23,226,23,1041,103,71,11,289,224,281,224
"127","CONN00103184",43.25472,-73.09861,62,122,30,9629,262,-139,401,182,-55,182,-67,1163,120,72,13,327,237,327,245
"128","CONN00137729",41.96166,-73.30833,73,116,30,9090,261,-114,375,121,-37,187,-49,1220,111,85,8,324,270,324,276
"130","CONN00139382",41.96083,-73.36527,80,125,32,9106,274,-110,384,194,-30,194,-42,1155,107,76,9,313,249,313,253
"131","CONN00103187",44.47583,-73.21222,71,112,27,10155,274,-135,409,197,-54,197,-66,856,100,44,23,273,146,273,151
"133","CONN00103200",42.12888,-83.86222,88,109,28,9523,281,-95,376,206,-26,206,-40,835,89,44,20,252,153,252,154
"134","CONN00068745",41.96459,-73.37407,80,125,32,9106,274,-110,384,194,-30,194,-42,1155,107,76,9,313,249,313,253
"137","CONN00103151",42.02861,-73.35277,79,126,32,9106,275,-112,387,193,-31,193,-43,1140,106,75,10,310,245,310,250
"142","CONN00103206",48.91666,-66.18333,-1,83,21,10055,189,-193,382,117,-81,127,-134,1188,114,71,13,338,243,331,267
"143","CONN00133815",42.03333,-73.36333,79,126,32,9106,275,-112,387,193,-31,193,-43,1140,106,75,10,310,245,310,250
"144","CONN00103201",45.08333,-72.36555,54,115,27,10412,260,-159,419,182,-74,182,-88,1044,116,57,19,324,193,324,208
"145","CONN00103207",42.28333,-81.86666,92,98,27,9361,280,-80,360,209,-22,209,-31,885,88,52,15,252,177,252,189
"146","CONN00103150",41.57916,-73.49555,92,118,31,8888,279,-93,372,137,-15,203,-27,1181,109,81,8,313,261,306,263
"148","CONN00103203",44.75055,-72.01833,38,114,27,10165,239,-170,409,163,-86,163,-100,1142,128,64,19,357,213,357,232
"149","CONN00103144",41.43166,-72.73694,98,106,29,8716,280,-74,354,84,-6,209,-16,1225,114,89,7,326,289,292,293
"150","CONN00103145",41.95472,-73.445,77,122,32,9070,269,-112,381,191,-32,191,-44,1159,107,77,9,315,250,315,254
"151","CONN00103154",41.95583,-73.36305,80,125,32,9106,274,-110,384,194,-30,194,-42,1155,107,76,9,313,249,313,253
"154","CONN00103152",42.04,-73.05944,75,118,30,9200,266,-115,381,123,-37,190,-49,1233,114,88,7,326,277,321,284
"155","CONN00103198",48.10138,-66.11388,28,93,23,10150,224,-168,392,148,-96,157,-106,1056,103,62,12,298,219,297,236
"157","CONN00103143",41.73555,-73.47388,85,120,31,8992,273,-103,376,175,-24,197,-36,1178,108,80,9,316,257,314,260
"158","CONN00103204",44.01527,-73.16722,72,120,29,10002,277,-135,412,185,-50,196,-63,901,103,49,20,275,161,274,169
"160","CONN00103189",44.71333,-72.05361,39,116,28,10125,241,-169,410,164,-84,164,-98,1126,126,63,19,352,210,352,229
"163","CONN00103195",44.31444,-73.23916,69,116,28,10048,273,-136,409,194,-54,194,-66,888,103,46,22,279,153,279,159
"164","CONN00103194",37.53944,-84.22583,126,123,34,8258,299,-54,353,210,135,228,15,1233,126,73,14,355,269,335,286
"165","CONN00103185",41.95861,-73.36277,80,125,32,9106,274,-110,384,194,-30,194,-42,1155,107,76,9,313,249,313,253
"167","CONN00142696",41.92277,-73.43305,77,122,32,9070,269,-112,381,191,-32,191,-44,1159,107,77,9,315,250,315,254
"168","CONN00103156",41.67583,-73.50944,85,120,31,9008,274,-102,376,176,-23,198,-35,1154,106,78,9,312,250,311,253
"169","CONN00103149",41.4825,-73.40944,95,116,31,8831,279,-87,366,83,-11,206,-23,1203,112,83,8,320,272,302,273
"170","MT00099355",49.516666,-57.866665,36,81,24,8208,202,-127,329,-35,8,140,-68,1105,115,59,19,334,206,282,264
"172","MT00013875",43.16389,-81.64212,76,97,27,9318,261,-94,355,186,-38,192,-47,920,87,60,10,249,195,248,212
"173","MT00100397",50.133335,-57.633335,31,75,23,8051,184,-132,316,102,3,133,-72,1057,109,57,17,301,201,291,248
"174","MT00002398",45.466667,-73.933334,62,104,25,10654,266,-148,414,182,-69,193,-82,930,96,61,13,268,195,264,211
"175","MT00099354",49.466667,-57.783333,34,82,24,8230,203,-129,332,-36,6,140,-69,1121,117,60,19,340,209,284,270
"177","UNA00000821",33.01667,-87.06667,170,130,40,7136,327,2,325,91,223,259,75,1458,163,77,19,448,273,344,423
"178","UNA00065564",36.27,-87.1,141,138,37,8241,320,-45,365,140,201,243,30,1282,137,76,16,369,254,296,336
"179","UNA00059166",33.05556,-87.03333,170,130,40,7136,327,2,325,91,223,259,75,1458,163,77,19,448,273,344,423
"180","UNA00056484",32.59222,-88.05695,174,135,41,7150,332,4,328,95,226,262,78,1406,162,82,21,432,264,318,409
"181","QFA0006782",49.61667,-62.6,20,78,23,8746,184,-153,337,-12,-53,129,-95,1025,106,56,17,301,189,271,234
"182","QFA0417707",48.533333,-64.2375,32,82,22,9275,211,-147,358,-3,-45,150,-89,1088,112,71,11,310,250,270,277
"184","QFA0222501",50.211945,-63.74917,14,85,23,9204,184,-174,358,40,-60,128,-109,995,101,49,20,297,172,276,213
"185","QFA0591132",50.2125,-63.816944,14,85,23,9216,185,-174,359,89,-61,129,-109,995,102,49,20,298,173,277,211
"187","QFA0466551",52.533333,-67.433334,-39,101,22,12150,181,-278,459,100,-186,112,-204,983,124,49,27,340,172,328,185
"188","QFA0570654",48.533333,-64.25,32,82,22,9275,211,-147,358,-3,-45,150,-89,1088,112,71,11,310,250,270,277
"190","QFA0393307",50.22389,-63.5925,14,84,23,9213,183,-175,358,39,-60,128,-110,999,102,49,20,299,171,277,214
"191","QFA0237986",48.783333,-63.316666,NA,NA,NA,NA,NA,NA,NA,NA,NA,NA,NA,NA,NA,NA,NA,NA,NA,NA,NA
"192","QFA0570653",48.494446,-64.5625,32,85,23,9452,215,-151,366,-4,-46,152,-92,1118,115,75,11,319,258,276,286
"195","QFA0466550",52.516666,-67.433334,-39,101,22,12150,181,-278,459,100,-186,112,-204,983,124,49,27,340,172,328,185
"197","QFA0591130",50.24917,-63.158054,14,86,23,9244,188,-174,362,39,-59,130,-109,972,100,45,22,295,158,276,202
"198","QFA0201697",49.61667,-63.433334,17,72,22,8551,175,-152,327,-14,-56,124,-95,1044,104,56,16,302,195,279,236
"199","QFA0240424",49.783333,-63.316666,15,76,22,8738,178,-159,337,40,-57,125,-100,1030,104,53,18,302,185,279,228
"200","QFA0249233",50.22028,-63.54861,14,84,23,9212,183,-175,358,39,-60,128,-110,1000,102,49,20,300,170,277,215
"202","QFA0566502",50.28528,-63.78611,12,87,23,9329,185,-179,364,88,-63,128,-113,990,101,48,20,298,171,278,208
"204","QFA0007062",49.70639,-62.92472,17,77,22,8753,181,-156,337,42,-55,127,-98,1026,106,53,18,303,184,276,228
"205","QFA0406844",49.316666,-63.216667,25,71,22,8406,182,-139,321,-4,-47,131,-83,1020,102,57,15,297,197,267,239
"206","20594",46.88418,-60.50534,47,74,23,7925,210,-100,310,-17,114,151,-51,1337,148,85,18,424,274,290,340
"207","40107",45.253456,-63.470734,59,103,29,8668,242,-113,355,-22,140,168,-54,1252,133,86,15,386,270,277,359
"208","23035",46.764652,-60.6844,39,75,23,8072,205,-112,317,-27,109,144,-62,1392,155,89,18,440,286,302,352
"209","22473",45.6433,-61.9093,60,94,27,8449,238,-104,342,-14,136,167,-46,1318,147,86,18,419,273,284,372
"210","ECS018860",46.149082,-60.641727,58,84,25,8147,225,-99,324,-10,129,162,-45,1402,157,88,18,450,286,298,361
"211","45028",46.12266,-60.64804,58,84,25,8147,225,-99,324,-10,129,162,-45,1402,157,88,18,450,286,298,361
"212","25160",46.965134,-60.559803,40,71,23,7897,201,-106,307,-23,106,144,-58,1375,152,88,17,433,283,300,348
"215","22257",51.29139,-98.422775,7,119,23,13564,247,-269,516,168,-180,168,-180,447,74,12,50,191,53,191,53
"216","27962",50.019,-96.884,19,115,23,13152,254,-241,495,176,-162,176,-162,522,82,17,52,230,62,230,62
"217","22263",54.242,-101.496,0,105,20,13617,240,-262,502,165,-161,165,-186,457,72,16,50,200,55,200,57
"218","33862",53.583332,-101.4,1,111,22,13372,242,-259,501,163,-181,163,-181,456,72,15,51,201,53,201,53
"219","26972",51.133335,-100.5,15,118,24,12789,249,-237,486,168,-160,168,-160,488,80,17,51,214,61,214,61
"221","22258",51.383335,-98.48333,6,119,23,13594,246,-269,515,168,-181,168,-181,449,74,12,49,191,53,191,53
"223","71679",51.368057,-98.4875,6,119,23,13594,246,-269,515,168,-181,168,-181,449,74,12,49,191,53,191,53
"225","22260",53.163216,-99.26981,2,95,19,13393,233,-249,482,166,-180,166,-180,474,70,15,52,205,52,205,52
"227","26553",51.133335,-100.48333,15,118,24,12789,249,-237,486,168,-160,168,-160,488,80,17,51,214,61,214,61
"229","69145",50.7225,-97.618614,8,129,25,13263,252,-261,513,166,-176,166,-176,522,80,18,47,222,69,222,69
"230","71654",51.16611,-97.595276,2,134,25,13271,249,-271,520,160,-83,160,-182,526,79,19,44,215,75,215,76
"232","22259",51.9658,-100.6643,12,113,23,12912,246,-237,483,167,-165,167,-165,473,76,16,51,208,58,208,58
"233","62148",49.879166,-96.20472,21,109,22,12941,251,-235,486,176,-136,176,-158,516,83,16,52,228,60,228,60
"234","22261",53.091858,-100.10793,5,104,21,13307,240,-248,488,167,-176,167,-176,469,70,15,51,204,53,204,53
"235","22264",51.76889,-98.63472,6,113,22,13663,246,-264,510,170,-182,170,-182,449,72,13,49,191,53,191,53
"236","68171",49.196945,-95.37945,20,117,23,12864,252,-242,494,174,-158,174,-158,563,92,17,56,254,58,254,58
"237","71669",52.868057,-99.077774,2,98,20,13471,235,-253,488,167,-181,167,-181,471,70,15,50,202,54,202,54
"238","126816",50.771137,-111.462234,38,141,29,11108,268,-204,472,172,-21,172,-110,311,53,11,56,142,39,142,39
"239","105139",52.877777,-118.08305,24,120,31,8770,215,-167,382,132,-24,132,-93,486,64,22,35,187,72,187,99
"240","40611",53.08333,-118,-10,111,32,8031,170,-175,345,91,-60,91,-114,581,81,30,36,227,95,227,114
"241","30602",59.11639,-112.42028,-21,114,21,14055,225,-294,519,148,-107,148,-212,375,62,15,45,158,47,158,58
"242","52873",51.974445,-116.74555,-4,117,31,8211,189,-179,368,99,-52,99,-111,642,78,36,27,223,111,223,146
"243","78915",65.88333,-128.0833,-74,109,19,16132,217,-333,550,132,-185,132,-275,303,48,12,46,130,41,130,51
"244","35807",51.5333,-116.5167,-23,108,31,7709,162,-186,348,75,-74,75,-120,702,81,44,19,218,135,218,174
"245","105138",51.268055,-115.58222,-10,122,32,8171,183,-192,375,71,-54,93,-114,590,84,33,30,211,111,203,121
"246","3242",69.280556,-134.13756,-106,75,15,14572,156,-315,471,76,-231,90,-268,172,36,5,61,83,18,74,21
"249","49497",60.833447,-116.651405,-36,114,21,14733,222,-307,529,143,-136,143,-232,326,47,17,36,126,51,126,57
"250","3237",54.3342,-114.7747,13,130,28,10924,224,-225,449,142,-47,142,-136,497,94,19,66,259,60,259,68
"251","3238",52.983334,-118.1,0,112,31,8176,182,-171,353,102,-49,102,-107,570,74,30,31,211,94,211,121
"253","100004",51.033333,-115.05,12,130,32,8792,210,-187,397,99,-35,121,-103,579,86,32,31,209,108,191,128
"254","35037",52.1167,-106.6333,20,120,24,12700,256,-230,486,172,-132,172,-153,356,61,14,54,160,49,160,50
"255","3240",51.2914,-98.4228,7,119,23,13564,247,-269,516,168,-180,168,-180,447,74,12,50,191,53,191,53
"256","83086",61.25,-124.45,-42,107,21,14063,209,-289,498,130,-122,130,-225,444,77,18,48,198,63,198,65
"257","90977",52.61667,-117.85,10,115,31,8535,199,-167,366,116,-38,116,-104,548,70,28,30,200,87,200,121
"259","102488",53.54555,-113.4361,27,112,26,10805,229,-190,419,157,-37,157,-118,455,91,15,69,240,53,240,60
"260","105137",51.12361,-115.55583,-2,124,32,8216,194,-184,378,80,-55,102,-107,584,80,32,27,201,112,191,128
"261","3236",59.45833,-108.4583,-31,104,19,14855,219,-313,532,150,-129,150,-232,345,53,14,43,140,49,140,53
"262","35803",51.176388,-115.554726,4,127,33,8312,203,-179,382,88,-49,109,-102,550,78,28,31,196,101,189,114
"263","121787",52.0402,-116.4126,4,126,32,8336,202,-185,387,108,-46,108,-105,592,82,27,37,230,94,230,113
"264","35808",45.04171,-73.07458,65,108,26,10471,268,-146,414,194,-64,194,-77,940,105,49,20,290,168,290,177
"265","35054",53.71111,-113.21778,25,120,27,11012,234,-195,429,157,-41,157,-124,447,88,16,67,235,53,235,59
"267","120476",51.01667,-114.4833,25,132,33,8867,222,-174,396,115,-24,136,-90,490,86,20,49,206,69,202,77
"272","V12-186-9",51.045834,-114.0575,33,132,33,9039,231,-167,398,146,-71,146,-84,427,82,14,61,200,47,200,49
"275","78510",65.63333,-128.2167,-68,111,20,16145,223,-331,554,138,-176,138,-271,316,50,12,46,134,43,134,54
"278","41476",53.18667,-118.04694,3,116,32,8256,187,-173,360,106,-47,106,-105,550,78,28,38,220,88,220,104
"281","3241",65.282,-126.83102,-60,114,21,15356,224,-305,529,137,-161,137,-251,319,52,12,50,142,41,142,52
"282","100212",53.09778,-117.99416,22,125,32,8703,215,-172,387,129,-26,129,-93,493,71,23,41,204,72,204,90
"285","118188",52.04893,-116.4116,4,126,32,8336,202,-185,387,108,-46,108,-105,592,82,27,37,230,94,230,113
"288","105140",51.9675,-116.72305,-4,117,31,8211,189,-179,368,99,-52,99,-111,642,78,36,27,223,111,223,146
"289","35804",43.11028,-79.264725,85,92,26,9211,268,-83,351,195,-28,201,-35,866,88,57,12,235,188,229,201
"291","121788",56.01193,-116.6236,-2,130,27,11823,224,-251,475,137,-70,137,-163,459,74,20,49,209,63,209,76
"293","30671",60.550117,-116.134705,-34,117,22,14619,221,-306,527,144,-131,144,-228,344,49,17,39,137,53,137,57
"295","231390",43.816666,-79.58056,75,96,25,9590,267,-103,370,187,-44,195,-52,792,83,52,13,231,162,227,173
"296","032270",45.115147,-81.285095,59,88,25,9172,235,-116,351,-28,38,172,-61,885,94,58,17,262,180,213,238
"297","086487",44.63074,-81.28072,65,86,25,9024,237,-104,341,-21,-12,176,-52,909,97,58,17,273,184,222,248
"298","032268",45.17588,-81.33547,56,88,25,9166,232,-119,351,-31,35,169,-64,879,91,58,16,256,180,214,233
"299","032267",44.73307,-81.26311,64,86,25,9031,237,-106,343,-21,-13,175,-53,909,98,59,17,273,185,220,248
"300","166412",45.24372,-81.57428,57,85,24,9056,229,-116,345,-28,35,168,-61,848,87,55,16,244,173,209,224
"301","254282",44.318996,-79.3,65,102,26,9726,259,-121,380,177,-11,185,-65,820,82,50,13,232,165,229,193
"309","032265",44.98533,-81.38094,61,86,24,9044,234,-111,345,-24,40,172,-57,883,94,57,17,262,179,214,239
"310","032271",44.73855,-81.13923,62,90,25,9103,240,-109,349,-25,43,174,-57,947,103,63,17,287,194,226,259
"312","V13853",50.333332,-115.85,39,121,31,8481,240,-139,379,-63,-8,146,-72,557,63,29,21,169,105,152,157
"313","V13842",48.75,-86.25,13,106,25,10492,199,-215,414,99,-66,136,-131,830,96,47,20,255,156,245,166
"314","V229934",51.421665,-116.44722,-11,112,31,7915,179,-180,359,89,-61,89,-112,682,78,41,19,210,129,210,173
"316","V162480",58.066666,-125.066666,-54,110,27,9945,151,-246,397,72,-116,72,-179,498,85,17,45,211,70,211,104
"317","V181552",59.033333,-125.833336,-41,116,27,10652,172,-247,419,92,-106,92,-178,489,85,16,47,211,66,211,96
"318","V225784",50.295,-115.28667,2,120,32,8033,195,-176,371,39,67,103,-100,680,81,43,19,204,147,181,183
"320","V111266",61.966667,-123.416664,-40,104,19,15173,224,-299,523,145,-208,145,-238,390,66,15,50,175,52,175,55
"321","V161061",59.166668,-125.916664,-30,117,27,11040,185,-245,430,106,-96,106,-174,487,83,16,46,208,65,208,95
"322","V58586",50.15,-115.816666,44,121,31,8556,245,-135,380,-60,-3,151,-69,547,62,29,21,166,105,147,154
"326","V217592",53.033333,-119.25,14,110,30,8261,201,-160,361,-88,14,116,-95,695,73,38,18,206,125,186,198
"328","V103287",59.383335,-126.01667,-14,120,25,12025,211,-253,464,130,-77,130,-175,471,76,16,41,191,63,191,95
"334","V143103",48.158333,-66.354164,32,95,23,10180,229,-168,397,160,-93,160,-103,1008,100,58,13,288,207,288,226
"335","1433080",41.95,-88.4333,86,115,28,10294,287,-121,408,213,-54,213,-54,934,109,33,32,318,128,318,128
"340","178591",48.93075,-117.33809,57,110,31,7981,256,-89,345,-36,155,161,-43,757,99,37,32,282,117,140,257
"342","103155",44.48962,-73.162384,68,111,27,10124,271,-137,408,194,-56,194,-68,898,104,45,23,286,153,286,158
"343","50701",41.9915,-80.31066,87,102,28,9040,269,-87,356,200,-24,200,-32,1064,104,59,16,302,200,302,212
"344","335182",42.3541,-96.5065,91,129,29,10944,305,-135,440,204,-57,226,-57,690,105,14,53,290,53,266,53
"345","354891",42.8353,-100.203,88,145,32,10373,315,-128,443,195,-47,221,-47,525,86,9,63,251,35,225,35
"346","208131",43.648,-103.88,73,156,37,9044,297,-121,418,165,-40,192,-40,435,77,9,65,217,34,186,34
"347","350166",44.2828,-85.8589,70,112,29,9479,270,-111,381,143,-46,188,-55,854,108,39,24,278,148,243,158
"348","332458",42.6766,-99.7112,91,140,31,10548,317,-126,443,200,-47,226,-47,558,88,10,60,259,37,232,37
"349","354885",42.8641,-100.262,87,147,33,10352,315,-130,445,194,-47,220,-47,513,85,9,64,248,33,222,33
"350","363853",36.6275,-93.4581,135,139,36,8571,322,-64,386,182,19,241,19,1103,121,50,22,342,193,288,193
"351","341494",42.908,-85.261,83,114,29,9689,284,-103,387,194,-34,204,-46,883,101,38,24,270,148,260,154
"352","208133",43.5696,-103.941,79,161,36,9477,311,-125,436,175,-41,203,-41,399,71,8,65,199,29,169,29
"353","355726",38.8213,-92.1379,123,120,30,9484,315,-77,392,176,-6,241,-6,974,120,39,28,322,144,288,144
"354","340489",43.491,-85.48,76,117,30,9674,280,-109,389,148,-41,197,-52,863,102,36,25,273,145,248,147
"355","QFA0417706",48.533333,-64.2375,32,82,22,9275,211,-147,358,-3,-45,150,-89,1088,112,71,11,310,250,270,277
"357","032269",45.17588,-81.33547,56,88,25,9166,232,-119,351,-31,35,169,-64,879,91,58,16,256,180,214,233
"359","038521",44.73307,-81.26311,64,86,25,9031,237,-106,343,-21,-13,175,-53,909,98,59,17,273,185,220,248
"361","35086",46.764652,-60.6844,39,75,23,8072,205,-112,317,-27,109,144,-62,1392,155,89,18,440,286,302,352
"363","39827",51.133335,-100.5,15,118,24,12789,249,-237,486,168,-160,168,-160,488,80,17,51,214,61,214,61
"367","YPM CBS 007175",41.9861,-73.4258,77,122,32,9070,269,-112,381,191,-32,191,-44,1159,107,77,9,315,250,315,254
"368","YPM CBS 007176",41.986,-73.4257,77,122,32,9070,269,-112,381,191,-32,191,-44,1159,107,77,9,315,250,315,254
"370","YPM CBS 007171",41.7586,-73.2036,77,113,30,9007,262,-108,370,123,-32,190,-44,1259,114,89,7,331,284,325,288
"373","2721883",42.66,-77.05,81,113,30,9074,272,-96,368,195,-30,195,-38,832,91,43,21,252,143,252,146
"374","2722666",38.09,-90.69,125,137,34,9047,318,-77,395,126,1,237,1,1026,111,54,19,305,193,271,193
"375","2722895",44.02,-73.17,72,120,29,10002,277,-135,412,185,-50,196,-63,901,103,49,20,275,161,274,169
"376","2722874",37.93,-91.98,129,133,33,9025,321,-72,393,180,7,241,7,1048,124,47,22,322,177,287,177
"381","YPM YU 037231",41.9861,-73.4258,77,122,32,9070,269,-112,381,191,-32,191,-44,1159,107,77,9,315,250,315,254
"382","YPM CBS 030209",41.986,-73.4257,77,122,32,9070,269,-112,381,191,-32,191,-44,1159,107,77,9,315,250,315,254
"383","YPM CBS 030211",41.6041,-73.4216,91,121,32,8969,280,-97,377,181,-17,203,-30,1162,107,79,8,310,254,306,257
"385","CAN 455211",45.367,-75.9,59,101,24,10918,263,-155,418,181,-76,192,-90,844,81,53,13,240,168,239,186
"387","363853",36.6275,-93.4581,135,139,36,8571,322,-64,386,182,19,241,19,1103,121,50,22,342,193,288,193
"388","18385",66.98,-142.82,-81,110,20,15213,193,-331,524,115,-184,115,-270,188,33,6,56,87,21,87,28
"389","85394",63.78,-149.53,-42,101,24,11414,180,-235,415,108,-44,108,-179,456,82,15,58,218,55,218,68
"390","130462",64.01667,-145.73334,-27,109,23,13118,213,-253,466,139,-97,139,-192,312,65,7,73,174,24,174,33
"391","24069",65.73,-147.48,-55,106,20,14901,209,-298,507,133,-142,133,-245,281,48,7,55,132,32,132,48
"392","130265",65.73333,-147.48334,-55,106,20,14901,209,-298,507,133,-142,133,-245,281,48,7,55,132,32,132,48
"393","158708",65.596,-143.04929,-73,124,22,15243,209,-333,542,121,-164,121,-266,203,40,5,67,106,20,106,28
"394","142425",63.897217,-144.85417,-36,129,25,13702,223,-281,504,134,-105,134,-211,313,58,9,59,155,32,155,44
"395","35289",64.02,-145.71,-27,109,23,13118,213,-253,466,139,-97,139,-192,312,65,7,73,174,24,174,33
"396","71069",63.76,-145.03,-39,128,25,13505,218,-279,497,130,-107,130,-211,309,60,8,65,159,30,159,41
"397","76785",67.43,-150.08,-83,117,22,14680,195,-325,520,111,-186,111,-261,280,53,10,59,134,32,134,41
"398","158674",66.1695,-141.493,-78,119,22,15259,204,-336,540,118,-179,118,-269,229,41,7,60,114,24,114,31
"399","56690",63.83,-150.27,-36,101,23,11880,191,-237,428,97,-36,118,-181,506,89,19,55,235,65,227,79
"400","76791",67.43,-150.06,-83,117,22,14680,195,-325,520,111,-186,111,-261,280,53,10,59,134,32,134,41
"401","85106",63.58,-151.38,-33,100,22,12293,196,-240,436,103,-31,125,-186,455,87,17,57,214,59,207,74
"402","15105",65.46,-143.68,-58,125,22,15480,224,-323,547,137,-145,137,-256,212,38,6,59,103,22,103,31
"403","129077",66.46667,-141.5,-79,116,21,15313,202,-337,539,118,-182,118,-270,224,39,7,58,108,24,108,31
"404","71013",63.83,-144.83,-37,129,25,13609,222,-280,502,133,-105,133,-210,306,58,9,62,153,31,153,42
"405","38919",62.49,-152.42,-44,103,26,10543,164,-227,391,78,-51,95,-171,441,74,17,47,189,62,184,81
"406","71022",63.85,-144.88,-36,129,25,13702,223,-281,504,134,-105,134,-211,313,58,9,59,155,32,155,44
"407","66538",62.56,-153.61,-33,108,25,11566,181,-242,423,116,-103,116,-178,397,85,13,72,215,41,215,45
"409","CAEB2-26083",47.47726,-88.15507,37,105,26,10233,237,-163,400,156,-41,163,-99,811,87,44,19,243,146,237,177
"410","CAEB2-29185",38.04034,-93.77412,129,131,32,9268,325,-74,399,181,4,245,4,1053,127,38,32,352,142,313,142
"411","CAEB2-29181",36.659252,-90.8664,137,142,36,8669,329,-58,387,137,199,245,21,1202,125,75,16,364,260,272,276
"412","CAEB2-01007",32.996944,-87.126854,172,128,39,7091,327,6,321,94,225,261,78,1438,157,77,18,441,273,339,419
"413","CAEB2-55071",44.145466,-87.55333,68,92,25,9436,248,-118,366,182,-59,184,-59,763,89,32,27,250,117,240,117
"414","CAEB2-21185",38.397015,-85.44396,125,125,34,8615,306,-56,362,122,188,232,9,1163,124,71,17,351,244,312,253
"415","CAEB2-36065",43.240623,-75.43813,77,112,28,9616,274,-114,388,188,-41,197,-51,1098,105,72,10,293,234,289,253
"416","CAEB2-27083",44.41447,-95.84041,68,118,26,11648,290,-162,452,189,-91,211,-91,647,94,15,51,266,52,258,52
"417","CAEB2-38003",46.931923,-98.069756,41,133,27,12297,280,-208,488,191,-128,191,-128,488,87,10,61,221,37,221,37
"418","CAEB2-21199",37.102592,-84.576485,130,127,36,8064,301,-50,351,211,189,229,20,1287,126,80,12,359,282,333,312
"419","CAEB2-29029",38.0295,-92.771904,133,131,33,9058,325,-68,393,183,10,245,10,1059,127,40,27,333,159,288,159
"420","CAEB2-54071",38.683746,-79.355804,91,126,36,7937,263,-83,346,172,-15,190,-15,1061,108,69,13,307,216,303,216
"421","CAEB2-27013",44.032803,-94.06363,70,119,26,11580,287,-166,453,211,-89,211,-89,757,109,19,50,316,67,316,67
"422","CAEB2-26009",45.00595,-85.176865,67,116,29,9552,269,-123,392,141,-52,185,-59,808,104,34,26,268,131,231,145
"423","CAEB2-55101",42.78476,-87.7551,82,93,25,9654,265,-107,372,202,-47,202,-47,847,95,33,29,279,127,279,127
"424","CAEB2-55093",44.715927,-92.4232,67,120,26,11466,286,-168,454,205,-92,205,-92,808,108,20,47,317,74,317,74
"425","CAEB2-27093",45.123,-94.52708,66,119,25,11944,291,-175,466,211,-98,211,-98,704,114,18,53,298,57,298,57
"426","CAEB2-55065",42.65942,-90.13523,79,117,27,10515,282,-137,419,207,-65,207,-65,875,109,29,39,317,101,317,101
"427","CAEB2-55109",45.038876,-92.44689,64,119,25,11611,284,-176,460,204,-98,204,-98,795,113,20,49,321,72,321,72
"428","CAEB2-29213",36.65477,-93.0359,137,144,36,8601,330,-63,393,185,21,244,21,1086,120,51,20,329,197,277,197
"429","CAEB2-29027",38.83621,-91.92453,119,122,30,9615,314,-84,398,216,-12,239,-12,980,119,39,28,320,146,287,146
"430","CAEB2-36043",43.411568,-74.95857,55,117,29,9674,250,-145,395,75,-65,173,-76,1272,124,80,11,347,268,335,284
"431","CAEB2-17001",39.985905,-91.19461,111,109,27,9939,304,-89,393,213,-24,233,-24,963,114,35,31,321,132,302,132
"432","CAEB2-29223",37.11288,-90.461235,131,140,35,8958,324,-72,396,132,194,242,8,1165,123,73,16,348,259,284,260
"433","CAEB2-29023",36.715103,-90.403175,142,127,33,8973,331,-52,383,143,206,254,21,1194,128,74,17,366,253,266,281
"434","CAEB2-55023",43.232807,-90.93081,77,113,26,10747,282,-141,423,207,-71,207,-71,821,103,25,42,304,87,304,87
"435","CAEB2-29229",37.265636,-92.46237,127,134,34,8865,317,-71,388,177,7,237,7,1082,121,50,21,329,187,284,187
"436","CAEB2-42095",40.75269,-75.307556,98,122,32,8847,290,-81,371,201,-7,210,-19,1173,111,75,11,327,253,321,255
"437","CAEB2-17181",37.468895,-89.25607,134,120,32,8965,316,-55,371,134,198,245,12,1189,126,75,15,360,254,294,269
"438","CAEB2-55091",44.597145,-92.00135,71,124,27,11346,290,-165,455,208,-86,208,-86,799,107,19,48,314,72,314,72
"439","CAEB2-29221",37.96882,-90.87711,125,138,35,8884,317,-75,392,125,3,235,3,1055,113,53,19,313,195,280,195
"440","CAEB2-55011",44.378605,-91.75244,68,121,26,11287,284,-166,450,204,-89,204,-89,829,112,19,48,320,73,320,73
"441","CAEB2-26029",45.466103,-85.45754,66,101,27,9344,256,-118,374,143,-52,181,-57,791,98,35,24,257,136,222,144
"442","CAEB2-55031",46.450848,-91.906265,39,126,27,11246,265,-199,464,176,-116,176,-116,734,99,18,48,293,70,293,70
"443","CAEB2-29139",38.941597,-91.472694,119,126,31,9500,315,-82,397,215,-10,237,-10,992,116,43,25,318,158,289,158
"444","CAEB2-26117",43.31291,-85.14937,78,117,29,9749,284,-109,393,150,-39,200,-52,849,99,35,26,267,138,251,140
"445","CAEB2-17015",42.06054,-89.92361,85,120,29,10257,287,-126,413,210,-56,210,-56,912,111,32,35,318,116,318,116
"446","CAEB2-21113",37.871788,-84.58234,128,118,33,8464,303,-50,353,214,138,234,15,1183,121,70,15,343,253,320,272
"447","CAEB2-47145",35.847248,-84.52297,138,134,38,7863,308,-39,347,49,196,235,32,1383,148,84,16,385,275,333,374
"448","CAEB2-55131",43.366764,-88.230896,72,107,26,10272,274,-132,406,190,-68,199,-68,808,99,26,36,291,100,282,100
"449","CAEB2-54057",39.415226,-78.94163,104,132,36,8445,289,-77,366,190,-9,210,-9,936,98,58,16,280,183,272,183
"450","CAEB2-46081",44.363728,-103.790855,62,126,33,8643,267,-110,377,99,-31,178,-44,667,104,27,46,288,92,217,92
"451","CAEB2-29215",37.316944,-91.96412,128,136,34,8875,320,-73,393,128,7,237,7,1088,117,51,19,328,199,279,199
"452","CAEB2-55075",45.342922,-88.00104,56,128,29,10619,273,-165,438,175,-88,187,-88,777,94,25,37,270,97,268,97
"453","CAEB2-27055",43.67414,-91.49116,69,115,26,11175,281,-159,440,205,-85,205,-85,833,105,23,45,315,81,315,81
"454","CAEB2-36055",43.29527,-77.688545,87,104,28,9312,277,-90,367,159,-28,204,-35,793,79,48,14,222,157,216,162
"455","CAEB2-55043",42.863327,-90.70758,78,112,26,10628,282,-136,418,208,-67,208,-67,847,107,25,42,316,87,316,87
"456","CAEB2-54031",39.005337,-78.86335,93,127,35,8154,271,-84,355,176,-16,195,-16,1005,101,64,15,296,196,290,196
"457","CAEB2-51165",38.51531,-78.87634,114,134,37,8153,296,-65,361,209,5,217,5,925,96,58,17,276,178,273,178
"458","CAEB2-51121",37.171177,-80.39441,115,133,38,7718,288,-55,343,193,12,212,12,998,100,69,12,282,210,274,210
"459","CAEB2-36021",42.251434,-73.630356,82,125,31,9293,281,-111,392,177,-30,198,-43,1038,100,65,12,295,215,292,218
"460","CAEB2-29123",37.480515,-90.34316,125,136,35,8846,316,-72,388,125,4,235,4,1149,118,68,17,344,237,295,237
"461","CAEB2-36095",42.590973,-74.43935,61,112,29,9269,249,-127,376,155,-63,176,-63,1074,105,64,14,307,216,300,216
"462","CAEB2-36113",43.56291,-73.84443,61,121,30,9643,258,-142,400,171,-57,180,-69,1093,110,69,12,298,228,297,231
"463","CAEB2-39123",41.593456,-83.056786,99,97,26,9559,283,-82,365,218,-17,218,-29,848,91,42,22,263,152,263,155
"464","CAEB2-42077",40.61447,-75.58996,101,118,31,8908,292,-77,369,192,-4,215,-16,1156,112,74,11,323,248,318,251
"465","CAEB2-26019",44.630363,-86.24784,72,95,26,9210,256,-99,355,147,-42,186,-50,853,105,44,21,269,159,238,171
"466","CAEB2-36049",43.786335,-75.44938,63,115,29,9771,257,-138,395,83,-58,183,-69,1089,109,68,13,307,228,285,250
"467","CAEB2-55051",46.326393,-90.26154,39,116,26,10876,249,-184,433,171,-110,171,-110,874,110,28,37,313,115,313,115
"468","CAEB2-17123",41.03112,-89.3423,103,120,29,10191,304,-106,410,207,-38,227,-38,922,102,33,31,301,128,292,128
"469","CAEB2-33001",43.51888,-71.424965,64,133,32,9569,270,-144,414,17,-51,184,-65,1069,108,74,10,292,230,281,242
"470","CAEB2-45077",34.88868,-82.72385,153,129,39,7228,314,-11,325,72,159,244,58,1471,157,105,11,417,325,367,388
"471","CAEB2-05007",36.337986,-94.25784,136,130,34,8502,319,-57,376,183,21,242,21,1147,136,51,25,368,191,298,191
"472","CAEB2-36005",40.84895,-73.85262,117,93,27,8739,291,-49,340,102,3,228,3,1149,107,79,9,309,259,296,259
"473","CAEB2-55123",43.59253,-90.83345,67,116,27,10800,276,-152,428,186,-82,198,-82,824,108,22,47,319,77,314,77
"474","CAEB2-51169",36.718624,-82.601456,127,129,38,7773,295,-44,339,206,134,224,23,1137,118,69,13,322,238,310,279
"475","CAEB2-36063",43.323868,-78.79392,87,97,26,9324,276,-84,360,198,-27,206,-34,824,88,48,15,234,163,226,174
"476","CAEB2-38007",47.0353,-103.36703,60,143,31,10946,295,-165,460,172,-86,198,-86,390,83,8,70,197,28,174,28
"477","CAEB2-55081",43.945114,-90.61958,65,125,27,11027,282,-165,447,186,-88,198,-88,837,108,23,45,320,82,312,82
"478","CAEB2-29073",38.442272,-91.50645,123,133,33,9251,319,-81,400,176,-3,238,-3,1004,120,43,24,316,166,277,166
"479","CAEB2-36029",42.75495,-78.784904,84,102,28,9079,267,-89,356,103,-28,198,-36,1018,99,65,12,278,216,266,238
"480","CAEB2-51167",36.937885,-82.09539,119,131,38,7724,288,-53,341,197,73,216,16,1138,119,78,12,331,246,319,257
"481","CAEB2-27079",44.374123,-93.7324,64,120,26,11709,283,-177,460,205,-98,205,-98,752,106,19,51,313,65,313,65
"482","CAEB2-31077",41.562534,-98.51541,89,145,32,10425,306,-136,442,197,-50,220,-50,640,100,11,56,278,45,262,45
"483","CAEB2-29105",37.65993,-92.594734,128,129,33,8915,316,-68,384,177,7,238,7,1068,123,47,23,332,171,288,171
"484","CAEB2-51155",37.063187,-80.71385,113,135,39,7655,284,-60,344,190,10,209,10,975,101,64,14,286,202,273,202
"485","CAEB2-29161",37.877678,-91.79338,129,130,33,8995,319,-69,388,180,8,241,8,1049,121,50,21,320,182,289,182
"486","CAEB2-29201",37.05353,-89.57224,140,119,31,9033,325,-49,374,141,203,253,18,1204,130,75,17,371,256,280,278
"487","CAEB2-29225",37.283638,-92.874985,128,124,32,8947,314,-68,382,177,6,239,6,1096,122,49,23,334,181,290,181
"488","CAEB2-27135",48.770348,-95.79949,23,129,25,12809,258,-243,501,175,-155,175,-155,538,92,12,62,251,47,251,47
"489","CAEB2-26021",41.942844,-86.59226,98,102,27,9472,283,-85,368,207,-16,215,-30,956,98,45,19,279,171,275,178
"490","CAEB2-29167",37.616783,-93.40052,129,131,33,9131,322,-74,396,180,5,242,5,1076,125,41,27,346,161,296,161
"491","CAEB2-27045",43.67507,-92.08896,64,123,27,11199,279,-169,448,200,-91,200,-91,829,108,21,47,323,76,323,76
"492","CAEB2-36109",42.451443,-76.474724,79,112,30,9006,269,-97,366,192,-31,192,-40,915,98,50,19,271,164,271,168
"493","CAEB2-21167",37.804676,-84.87637,129,123,34,8415,305,-52,357,213,191,233,15,1214,123,74,14,349,262,323,281
"494","CAEB2-27107",47.331158,-96.46256,46,123,25,12597,279,-210,489,198,-127,198,-127,568,96,13,57,253,49,253,49
"495","CAEB2-39001",38.843296,-83.47777,118,123,33,8612,297,-65,362,115,1,224,1,1077,115,68,17,317,223,302,223
"496","CAEB2-51195",36.974564,-82.62167,114,123,37,7673,277,-55,332,192,122,209,11,1191,123,78,12,341,260,328,277
"497","CAEB2-27143",44.579124,-94.22938,67,118,25,11715,285,-173,458,209,-95,209,-95,726,109,18,51,307,60,307,60
"498","CAEB2-29043",36.96967,-93.18749,129,130,33,8786,315,-68,383,177,10,238,10,1103,120,48,23,336,184,288,184
"499","CAEB2-27063",43.675022,-95.156784,67,120,26,11631,288,-166,454,209,-92,209,-92,713,104,15,52,291,54,291,54
"500","CAEB2-29031",37.383343,-89.684395,135,127,33,9037,324,-58,382,136,13,247,13,1177,126,73,16,357,259,289,259
"501","CAEB2-39071",39.18403,-83.60409,112,112,31,8780,288,-67,355,108,-6,221,-6,1070,118,67,17,320,221,298,221
"502","CAEB2-47093",35.9925,-83.93741,141,124,36,7902,308,-31,339,52,199,240,36,1279,133,75,15,353,256,327,340
"503","CAEB2-19193",42.3881,-96.03664,90,126,28,10962,302,-134,436,204,-59,225,-59,716,109,15,53,297,55,283,55
"504","CAEB2-51105",36.70707,-83.129,120,131,38,7820,291,-51,342,199,128,218,16,1255,125,74,13,345,255,331,328
"505","CAEB2-29085",37.942043,-93.31901,129,128,32,9338,323,-75,398,181,2,245,2,1046,126,39,30,341,146,298,146
"506","CAEB2-29203",37.15971,-91.403275,132,143,36,8723,324,-70,394,133,13,240,13,1116,117,56,19,335,218,282,218
"507","CAEB2-26031",45.476383,-84.496124,59,113,28,9748,263,-135,398,173,-62,180,-69,779,96,33,25,256,130,231,136
"508","CAEB2-29141",38.425568,-92.885765,124,123,31,9306,315,-76,391,177,-3,239,-3,1046,129,38,29,340,148,296,148
"509","CAEB2-36115",43.32009,-73.43059,78,127,30,9771,284,-129,413,199,-41,199,-55,985,106,57,15,282,196,282,199
"510","CAEB2-27049",44.41467,-92.722336,65,120,26,11343,280,-168,448,202,-91,202,-91,793,111,19,49,319,68,319,68
"511","CAEB2-29163",39.340855,-91.17122,113,122,30,9596,309,-86,395,211,-17,232,-17,971,113,40,28,314,143,292,143
"512","CAEB2-05015",36.337154,-93.54196,138,130,35,8322,320,-49,369,184,27,243,27,1124,130,52,22,353,199,290,199
"513","CAEB2-29083",38.38734,-93.79133,126,131,32,9414,322,-78,400,221,-1,243,-1,1043,129,36,35,356,130,326,130
"514","CAEB2-36103",40.940536,-72.67905,107,95,29,8318,275,-52,327,25,187,213,0,1141,108,82,9,311,259,269,293
"515","CAEB2-09005",41.794785,-73.244576,77,113,30,9007,262,-108,370,123,-32,190,-44,1259,114,89,7,331,284,325,288
"516","CAEB2-27109",44.0025,-92.39915,65,118,26,11200,278,-164,442,201,-88,201,-88,812,114,20,48,325,72,325,72
"517","CAEB2-27017",46.59019,-92.68017,38,131,28,11378,265,-202,467,176,-119,176,-119,749,107,17,50,308,69,308,69
"518","CAEB2-47027",36.554417,-85.54328,137,135,37,8028,311,-46,357,137,196,237,28,1349,133,81,13,368,285,339,343
"519","CAEB2-17141",42.04205,-89.31979,86,115,28,10365,285,-124,409,212,-56,212,-56,913,112,31,34,316,117,316,117
"520","CAEB2-29053",38.84632,-92.81324,123,120,30,9680,318,-82,400,177,-10,242,-10,1014,127,35,32,340,134,301,134
"521","CAEB2-29009",36.712986,-93.83149,130,129,34,8667,313,-66,379,177,12,237,12,1131,124,48,24,355,188,300,188
"522","CAEB2-29179",37.357727,-90.97121,130,139,35,8696,320,-69,389,131,11,237,11,1139,113,62,17,336,230,284,230
"523","CAEB2-09007",41.43512,-72.523895,97,106,30,8634,276,-75,351,57,207,207,-16,1242,118,91,7,331,294,294,302
"524","CAEB2-29059",37.672356,-93.02044,131,128,32,9004,321,-67,388,181,8,242,8,1075,126,42,27,340,162,293,162
"525","CAEB2-50027",43.57062,-72.570175,55,125,30,9627,256,-150,406,174,-62,174,-75,1133,110,75,10,305,240,305,251
"526","CAEB2-51071",37.319107,-80.69785,114,134,38,7750,288,-59,347,192,28,211,10,936,100,63,14,274,196,265,196
"527","CAEB2-26041",45.775352,-86.87298,54,95,25,9673,242,-132,374,169,-74,174,-74,763,89,30,29,255,117,248,117
"528","CAEB2-50019",44.829185,-72.25093,51,116,27,10293,255,-160,415,177,-75,177,-89,1055,118,59,19,329,196,329,212
"529","CAEB2-27139",44.6548,-93.53494,63,121,26,11711,283,-178,461,205,-99,205,-99,741,106,18,52,312,62,312,62
"530","CAEB2-17201",42.331768,-89.16061,85,115,27,10442,287,-125,412,213,-58,213,-58,898,110,30,35,315,112,315,112
"531","CAEB2-21231",36.810562,-84.83142,128,129,36,7964,298,-51,349,208,187,227,20,1318,126,81,11,362,287,340,325
"532","CAEB2-29125",38.17534,-91.9185,126,130,32,9180,319,-76,395,178,1,240,1,1029,125,43,24,325,166,283,166
"533","CAEB2-26007",45.037018,-83.19763,63,98,26,9536,252,-120,372,176,-56,182,-61,741,82,36,22,234,132,223,135
"534","CAEB2-36037",43.000526,-78.19456,80,104,28,9230,268,-95,363,188,-33,196,-41,872,90,49,17,251,164,249,169
"535","CAEB2-17031",41.8981,-87.65018,100,98,25,9848,288,-91,379,222,-32,222,-32,919,100,38,27,298,146,298,146
"536","CAEB2-54055",37.405804,-81.11356,108,127,37,7755,275,-64,339,187,22,204,3,983,107,71,14,290,214,278,214
"537","CAEB2-27067",45.152287,-95.00812,62,117,25,12106,285,-182,467,208,-105,208,-105,678,107,19,51,285,60,285,60
"538","CAEB2-50013",44.795372,-73.290955,68,111,27,10236,269,-140,409,195,-58,195,-70,825,97,43,23,264,141,264,147
"539","CAEB2-29189",38.6388,-90.442764,127,122,31,9403,318,-72,390,223,-1,244,-1,983,104,50,19,294,182,270,182
"540","CAEB2-54023",39.101933,-79.19675,94,130,36,8117,271,-83,354,176,-15,195,-15,1066,110,69,14,315,218,309,218
"541","CAEB2-29137",39.495228,-91.99842,120,124,30,9773,319,-85,404,220,-13,241,-13,989,116,38,31,332,135,310,135
"542","CAEB2-38077",46.265335,-96.95128,55,126,25,12364,291,-195,486,206,-114,206,-114,519,86,12,58,231,39,231,39
"543","CAEB2-05089",36.262962,-92.67992,141,139,36,8358,329,-53,382,140,28,245,28,1131,129,58,19,342,224,265,224
"544","CAEB2-29067",36.92758,-92.49689,134,138,35,8708,324,-64,388,182,15,241,15,1072,119,50,20,323,194,271,194
"545","CAEB2-47141",36.13952,-85.49622,136,130,37,7874,306,-41,347,135,193,234,30,1417,146,85,14,398,291,341,369
"546","CAEB2-18089",41.4757,-87.3787,96,111,28,9794,289,-100,389,149,-37,217,-37,959,105,38,27,302,148,298,148
"547","CAEB2-34041",40.855293,-74.99362,93,125,33,8764,283,-89,372,195,-24,203,-24,1201,115,76,11,334,257,332,257
"548","CAEB2-26135",44.68253,-84.12546,58,124,30,9909,271,-141,412,171,-64,181,-74,730,90,31,29,253,118,240,119
"549","CAEB2-50021",43.574203,-73.03505,66,124,30,9760,271,-138,409,188,-53,188,-65,1072,116,63,16,313,208,313,217
"550","CAEB2-51069",39.205593,-78.26295,110,128,34,8523,294,-73,367,197,-4,217,-4,944,96,60,15,281,182,273,182
"551","CAEB2-29219",38.768154,-91.16417,123,125,32,9230,315,-72,387,216,-1,238,-1,962,110,43,25,307,151,280,151
"552","CAEB2-36011",42.9448,-76.561356,82,102,28,9281,269,-93,362,199,-31,199,-39,950,93,55,16,268,178,268,192
"553","CAEB2-55029",45.020683,-87.00997,65,97,25,9614,256,-121,377,180,-63,184,-63,768,91,29,29,254,116,245,116
"554","CAEB2-17133",38.276764,-90.1782,126,124,31,9289,316,-72,388,126,0,242,0,1013,105,52,18,295,194,271,194
"555","CAEB2-29131",38.217094,-92.43203,130,133,33,9178,323,-75,398,181,4,243,4,1027,125,40,27,327,155,283,155
"556","CAEB2-19121",41.330605,-94.01493,96,122,28,10576,303,-122,425,205,-49,225,-49,862,118,23,46,325,78,321,78
"557","CAEB2-47021",36.26673,-87.07984,140,135,37,8251,318,-45,363,139,200,242,29,1277,136,76,15,367,254,296,334
"558","CAEB2-25003",42.36514,-73.210686,65,114,30,9178,255,-121,376,159,-46,180,-58,1171,109,80,10,322,255,321,260
"559","CAEB2-55003",46.708332,-90.558464,49,117,27,10465,258,-167,425,170,-94,177,-94,818,103,27,35,289,112,288,112
"560","CAEB2-51197",36.921074,-81.085045,109,137,39,7653,282,-64,346,187,24,205,7,1004,104,70,13,293,213,280,216
"561","CAEB2-21079",37.645027,-84.53512,130,120,34,8337,302,-50,352,214,191,233,17,1223,122,72,14,349,268,327,284
"562","CAEB2-47001",36.11283,-84.19707,133,129,37,7877,301,-41,342,132,191,231,27,1368,142,82,14,374,276,344,359
"563","CAEB2-50007",44.4537,-73.08769,68,111,27,10124,271,-137,408,194,-56,194,-68,898,104,45,23,286,153,286,158
"564","CAEB2-31155",41.225723,-96.63376,100,130,30,10651,313,-120,433,212,-44,233,-44,793,115,15,51,310,60,292,60
"565","CAEB2-26033",46.317753,-84.51852,46,106,26,9875,247,-146,393,126,-78,167,-85,842,101,41,22,265,149,241,163
"566","CAEB2-47175",35.693184,-85.46204,131,122,36,7711,295,-39,334,131,187,227,28,1489,159,91,14,420,302,344,397
"567","CAEB2-47133",36.3438,-85.285355,132,128,37,7858,301,-44,345,132,189,230,26,1389,137,83,13,384,289,348,356
"568","CAEB2-18077",38.78552,-85.43742,121,121,33,8795,303,-61,364,118,185,230,3,1135,121,74,16,340,242,306,246
"569","CAEB2-29055",37.976643,-91.30262,124,143,35,8936,319,-81,400,175,1,234,1,1042,116,50,20,311,184,281,184
"570","CAEB2-29007",39.21446,-91.84275,119,123,30,9719,317,-83,400,218,-13,240,-13,988,118,40,29,331,143,303,143
"571","CAEB2-36001",42.602898,-73.97174,79,118,30,9453,276,-115,391,176,-47,198,-47,983,96,60,14,282,199,277,199
"572","CAEB2-26003",47.160435,-86.48418,42,105,27,9644,232,-148,380,122,-35,159,-87,829,95,44,21,262,144,233,177
"573","CAEB2-46047",43.245476,-103.51636,82,168,37,9789,320,-131,451,182,-30,210,-43,409,72,9,64,203,31,168,31
"574","CAEB2-19071",40.743126,-95.599945,104,125,29,10623,312,-116,428,215,-41,235,-41,850,112,19,49,330,70,326,70
"575","CAEB2-47025",36.483925,-83.66248,125,133,38,7845,297,-47,344,205,183,224,21,1299,130,77,13,358,266,342,334
"576","CAEB2-51163",37.814644,-79.4462,124,134,38,7894,299,-50,349,205,19,223,19,1028,101,70,11,285,220,276,220
"577","CAEB2-29183",38.778744,-90.67492,123,126,31,9441,317,-80,397,219,-6,240,-6,961,106,45,21,296,168,270,168
"578","CAEB2-27099",43.67181,-92.75089,66,114,26,11286,278,-160,438,203,-89,203,-89,812,112,20,50,328,71,328,71
"579","CAEB2-17195",41.750786,-89.911316,91,117,28,10293,291,-119,410,216,-50,216,-50,917,111,33,34,317,120,317,120
"580","CAEB2-27171",45.175243,-93.96809,66,121,26,11817,290,-175,465,209,-97,209,-97,730,111,19,51,303,63,303,63
"581","CAEB2-17085",42.36449,-90.21006,82,115,27,10521,285,-132,417,211,-62,211,-62,885,108,30,37,312,105,312,105
"582","CAEB2-27031",47.725697,-90.44216,44,121,28,10183,241,-179,420,167,-95,167,-95,697,90,20,42,261,82,261,82
"583","CAEB2-31103",42.877728,-99.71907,88,138,31,10621,314,-130,444,197,-52,223,-52,565,89,10,59,261,37,233,37
"584","CAEB2-31031",42.54292,-101.11878,84,151,34,9913,310,-124,434,186,-44,213,-44,511,85,10,63,248,37,220,37
"585","CAEB2-50011",44.860123,-72.90899,58,112,27,10231,258,-151,409,183,-68,183,-81,1017,114,52,21,316,178,316,188
"586","CAEB2-55025",43.06683,-89.41833,76,116,27,10565,282,-137,419,206,-68,206,-68,814,101,26,39,296,94,296,94
"587","CAEB2-46083",43.27942,-96.72193,77,131,28,11296,297,-157,454,194,-76,216,-76,632,101,12,54,263,48,261,48
"588","CAEB2-46051",45.173035,-96.77181,63,129,27,11781,292,-178,470,184,-98,207,-98,559,91,12,57,245,39,241,39
"589","CAEB2-26047",45.58308,-84.98067,61,105,27,9530,253,-128,381,138,-59,179,-64,799,100,34,24,260,137,225,143
"590","CAEB2-27053",45.00337,-93.47489,67,117,25,11535,285,-167,452,208,-90,208,-90,752,111,20,50,313,68,313,68
"591","CAEB2-36057",42.90621,-74.43659,76,118,30,9511,274,-116,390,173,-40,195,-51,1034,100,63,12,290,213,286,214
"592","CAEB2-26143",44.330738,-84.61094,62,119,29,9864,269,-132,401,174,-70,184,-70,756,93,30,29,254,118,240,118
"593","CAEB2-55121",44.304913,-91.352135,65,125,27,11263,283,-173,456,188,-92,201,-92,839,109,21,47,324,77,321,77
"594","CAEB2-55079",42.975613,-87.67142,83,92,24,9612,265,-104,369,198,-46,202,-46,827,92,33,28,270,129,268,129
"595","CAEB2-27119",47.774624,-96.39957,41,123,24,12785,277,-216,493,194,-136,194,-136,545,93,12,61,251,43,251,43
"596","CAEB2-36019",44.740265,-73.67945,54,110,27,10128,255,-149,404,180,-70,180,-82,907,107,50,21,285,160,285,170
"597","CAEB2-26153",46.024323,-86.187325,52,102,26,9575,244,-135,379,131,-67,170,-75,796,93,36,24,257,138,238,142
"598","CAEB2-21067",38.042747,-84.45946,125,118,33,8520,301,-53,354,212,135,231,11,1160,118,69,16,338,245,315,264
"599","CAEB2-21065",37.692898,-83.96459,126,131,36,8294,303,-57,360,210,136,230,15,1198,127,71,15,346,259,330,276
"600","CAEB2-47115",35.12763,-85.610306,140,126,37,7701,305,-32,337,53,197,236,37,1486,165,91,16,434,298,328,412
"601","CAEB2-21205",38.19367,-83.41968,119,133,36,8353,300,-64,364,204,129,223,7,1161,129,72,16,348,246,332,258
"602","CAEB2-05101",35.917736,-93.22308,140,126,35,8148,318,-41,359,138,32,243,32,1188,142,62,20,367,230,281,230
"603","CAEB2-29119",36.622486,-94.35367,137,133,35,8540,321,-58,379,185,21,243,21,1111,127,48,26,355,175,297,175
"604","CAEB2-26097",46.008717,-85.00764,55,102,26,9514,247,-132,379,133,-65,172,-71,795,97,36,23,256,139,229,147
"605","CAEB2-56011",44.59008,-104.56408,65,151,34,9594,294,-138,432,112,-58,191,-58,436,79,14,56,198,47,163,47
"606","CAEB2-55089",43.2495,-87.50156,81,91,25,9476,261,-103,364,195,-45,199,-45,815,92,33,27,266,130,257,130
"607","CAEB2-29091",36.7744,-91.88732,130,137,35,8717,320,-68,388,129,12,238,12,1120,118,58,18,342,225,271,225
"608","CAEB2-36045",43.994022,-76.0543,72,106,27,9682,263,-121,384,93,-3,192,-58,953,100,61,14,278,202,232,226
"609","CAEB2-54025",37.949802,-80.45007,99,135,38,7915,272,-79,351,179,-8,197,-8,1102,119,78,13,321,244,318,244
"610","CAEB2-51015",38.171555,-79.133095,113,135,38,7957,292,-62,354,206,8,214,8,983,99,64,14,282,198,275,198
"611","CAEB2-50003",43.029343,-73.108406,64,121,30,9518,263,-135,398,183,-51,183,-64,1178,117,75,12,326,245,326,253
"612","CAEB2-18019",38.477432,-85.716446,127,124,34,8694,309,-53,362,123,190,236,11,1133,121,69,17,341,237,302,251
"613","CAEB2-27069",48.775703,-96.779884,29,122,24,12952,267,-230,497,184,-150,184,-150,489,83,12,59,220,46,220,46
"614","CAEB2-29169",37.824978,-92.20888,129,143,36,8756,321,-74,395,179,10,238,10,1075,123,49,21,324,186,286,186
"615","CAEB2-34037",41.14184,-74.69079,91,126,33,8928,282,-98,380,181,-29,202,-29,1154,111,72,12,327,242,323,242
"616","CAEB2-27155",45.771538,-96.46993,63,126,26,12110,296,-180,476,188,-102,211,-102,559,92,14,55,239,45,239,45
"617","CAEB2-26063",43.95859,-82.83573,71,101,27,9451,263,-109,372,182,-46,188,-54,802,91,43,19,243,151,226,158
"618","CAEB2-29113",39.060753,-90.96156,122,128,32,9415,317,-79,396,217,-7,238,-7,961,108,42,24,301,157,277,157
"619","CAEB2-17097",42.43335,-87.776596,85,97,25,9622,267,-107,374,199,-45,203,-45,865,98,31,30,289,127,288,127
"620","CAEB2-29035",36.94168,-90.96583,130,148,36,8821,326,-76,402,132,9,239,9,1173,120,69,17,346,261,286,261
"621","CAEB2-26061",46.983574,-88.64662,46,112,27,10327,254,-155,409,165,-33,174,-91,806,87,40,22,252,141,249,160
"622","CAEB2-05023",35.542423,-92.02899,149,133,35,8374,332,-41,373,149,253,253,36,1286,139,75,19,396,269,269,283
"623","CAEB2-46109",45.623554,-96.94756,66,127,26,11931,298,-175,473,188,-97,212,-97,536,84,13,56,232,40,227,40
"624","CAEB2-05065",36.09461,-91.911,142,141,36,8384,331,-51,382,141,29,246,29,1176,125,68,17,357,255,260,255
"625","CAEB2-38099",48.372875,-97.72282,43,125,25,12682,281,-205,486,196,-131,196,-131,476,83,12,60,217,41,217,41
"626","CAEB2-29149",36.688408,-91.40229,130,144,36,8730,323,-70,393,131,12,239,12,1161,122,68,17,348,250,271,250
"627","CAEB2-21151",37.723106,-84.277115,128,121,34,8366,303,-51,354,213,137,232,16,1197,123,70,14,346,258,328,275
"628","CAEB2-55103",43.37718,-90.42664,71,122,27,10777,284,-154,438,190,-77,202,-77,836,103,25,41,305,89,302,89
"629","CAEB2-26141",45.32161,-83.458595,60,102,26,9606,255,-127,382,174,-60,180,-66,740,85,34,24,241,128,228,130
"630","CAEB2-27123",45.0153,-93.09961,71,111,25,11469,285,-159,444,211,-86,211,-86,757,111,21,49,314,70,314,70
"631","CAEB2-29151",38.46492,-91.85916,124,129,32,9308,317,-80,397,176,-3,239,-3,1000,123,41,26,321,158,280,158
"632","CAEB2-42013",40.470516,-78.35084,94,119,32,8744,282,-81,363,183,-23,204,-23,999,102,64,15,303,198,287,198
"633","CAEB2-26139",42.922417,-86.233345,88,96,27,9150,269,-80,349,160,-23,202,-33,861,95,37,21,257,151,238,162
"634","CAEB2-55095",45.46006,-92.442924,56,122,26,11681,278,-186,464,197,-106,197,-106,798,112,20,49,323,75,323,75
"635","CAEB2-36067",43.0066,-76.1961,82,105,28,9357,272,-97,369,100,-32,200,-41,1017,98,64,12,283,206,273,220
"636","CAEB2-27169",43.984818,-91.77491,66,121,27,11210,281,-166,447,202,-89,202,-89,837,111,21,47,323,76,323,76
"637","CAEB2-29187",37.809677,-90.464645,124,131,34,8904,313,-69,382,124,4,236,4,1099,117,61,18,329,212,288,212
"638","CAEB2-36039",42.292034,-74.128746,54,106,29,9096,234,-130,364,146,-57,166,-68,1223,118,80,11,337,261,327,263
"639","CAEB2-05137",35.862904,-92.153496,144,136,35,8391,330,-48,378,143,249,249,30,1227,131,68,18,374,265,265,265
"640","CAEB2-55117",43.715694,-87.6631,77,94,25,9650,265,-110,375,193,-52,197,-52,794,96,32,28,265,121,249,121
"641","CAEB2-31107",42.634373,-97.88067,93,134,29,10916,315,-132,447,206,-54,229,-54,520,79,11,52,220,41,212,41
"642","CAEB2-21043",38.326313,-83.05139,117,138,37,8330,298,-68,366,201,128,221,5,1098,123,73,16,331,236,320,240
"643","CAEB2-42061",40.414326,-77.97803,97,113,31,8799,282,-78,360,187,-21,207,-21,995,102,64,14,295,201,279,201
"644","CAEB2-29065",37.609432,-91.49833,130,135,34,8694,319,-67,386,130,12,238,12,1064,114,51,20,317,187,284,187
"645","CAEB2-29207",36.855618,-89.94635,141,122,32,8966,328,-49,377,142,205,253,20,1225,134,75,18,382,256,274,287
"646","CAEB2-09001",41.2255,-73.371025,101,108,30,8644,280,-72,352,88,-13,210,-13,1213,112,85,8,330,284,292,284
"647","CAEB2-31051",42.49931,-96.8685,87,132,29,10900,303,-139,442,200,-60,222,-60,680,107,13,53,289,52,264,52
"648","CAEB2-09003",41.8071,-72.734985,98,117,31,9031,290,-85,375,143,-10,212,-22,1165,106,81,7,307,266,290,270
"649","CAEB2-29051",38.507145,-92.2823,128,124,31,9318,319,-73,392,180,2,244,2,989,125,38,29,329,144,286,144
"650","CAEB2-27163",45.038074,-92.889206,70,113,25,11579,287,-164,451,210,-90,210,-90,780,113,21,49,318,71,318,71
"651","CAEB2-26089",45.132572,-86.02982,67,98,26,9370,257,-110,367,143,-49,183,-56,828,101,40,22,262,150,233,159
"652","CAEB2-36027",41.764454,-73.747154,87,122,32,9066,278,-102,380,179,-22,200,-35,1102,103,73,10,307,235,306,238
"653","CAEB2-51017",38.058846,-79.736145,110,135,38,7926,288,-64,352,191,5,210,5,1053,106,73,11,295,222,287,222
"654","CAEB2-36123",42.639454,-77.10497,80,114,30,9065,271,-98,369,193,-31,193,-40,830,91,44,21,251,144,251,147
"655","CAEB2-27075",47.525906,-91.38785,28,109,25,10900,237,-196,433,161,-121,161,-121,765,104,19,46,299,81,299,81
"656","CAEB2-29017",37.320766,-90.02789,129,133,34,8886,318,-65,383,129,8,239,8,1180,122,74,16,356,254,293,254
"657","CAEB2-27027",46.898506,-96.49453,48,122,24,12638,283,-207,490,201,-125,201,-125,558,93,11,59,250,43,250,43
"658","CAEB2-55021",43.471188,-89.32992,74,117,27,10633,283,-141,424,192,-71,204,-71,805,99,27,39,290,93,288,93
"659","CAEB2-55009",44.47523,-87.993706,67,107,26,10228,268,-136,404,193,-71,193,-71,754,88,27,34,260,98,260,98
"660","CAEB2-29019",38.987232,-92.30816,123,117,29,9565,316,-77,393,220,-7,242,-7,978,122,37,31,329,136,296,136
"661","CAEB2-29071",38.40767,-91.07613,126,136,34,9109,321,-77,398,178,2,239,2,1009,113,49,20,303,178,274,178
"662","CAEB2-27157",44.281994,-92.23947,68,124,27,11264,286,-166,452,205,-87,205,-87,813,115,19,48,321,73,321,73
"663","CAEB2-26005",42.565,-86.250046,90,94,27,9149,268,-80,348,198,-20,204,-31,903,98,40,20,268,157,256,170
"664","CAEB2-38035",47.918884,-97.45419,39,119,24,12718,273,-211,484,168,-136,193,-136,490,85,10,60,219,42,219,42
"665","CAEB2-42049",42.10335,-80.10415,93,96,27,9072,271,-78,349,200,-19,207,-26,1035,103,58,16,291,198,287,209
"666","CAEB2-55083",44.994495,-88.22866,59,125,28,10565,274,-159,433,189,-84,189,-84,785,93,26,36,271,98,271,98
"667","CAEB2-26161",42.25325,-83.84157,86,106,28,9569,278,-96,374,205,-29,205,-42,816,88,43,20,247,149,247,150
"668","CAEB2-55049",42.99792,-90.133865,72,115,27,10653,277,-145,422,202,-74,202,-74,865,105,29,39,315,101,315,101
"669","CAEB2-47013",36.40556,-84.14632,128,132,38,7882,298,-47,345,127,186,226,22,1343,135,82,13,367,279,347,340
"670","CAEB2-18127",41.508392,-87.070625,96,109,28,9676,286,-97,383,215,-36,215,-36,976,106,42,24,301,159,301,159
"671","CAEB2-29077",37.25725,-93.33728,131,126,33,8872,317,-63,380,179,12,242,12,1082,121,45,25,341,174,294,174
"672","CAEB2-31149",42.418278,-99.453636,88,140,31,10469,311,-128,439,196,-50,221,-50,593,93,12,57,268,45,245,45
"673","CAEB2-29153",36.650875,-92.444115,139,139,35,8581,328,-59,387,138,22,245,22,1087,120,54,19,327,208,265,208
"674","CAEB2-39023",39.917,-83.78372,104,115,31,9153,289,-81,370,197,-20,217,-20,974,106,54,21,309,182,294,182
"675","CAEB2-26147",42.93408,-82.66822,84,100,26,9559,278,-93,371,204,-31,204,-42,774,81,39,21,233,136,233,138
"676","CAEB2-29093",37.546104,-90.75682,127,135,35,8669,316,-68,384,127,9,234,9,1124,114,60,18,334,219,290,219
"677","CAEB2-29157",37.709087,-89.82911,130,129,33,9067,320,-66,386,129,7,242,7,1110,116,62,17,328,227,289,227
"678","CAEB2-55135",44.47888,-88.9657,65,120,27,10818,279,-155,434,185,-83,197,-83,803,98,26,40,291,92,286,92
"679","CAEB2-50001",44.03057,-73.14255,69,120,29,9966,274,-137,411,193,-53,193,-65,931,106,51,20,284,166,284,174
"680","CAEB2-47137",36.55824,-85.07905,131,129,37,7889,300,-47,347,130,189,229,24,1349,131,81,12,368,286,345,341
"681","CAEB2-29099",38.255886,-90.53731,124,134,33,9216,317,-79,396,124,-2,238,-2,1007,108,53,18,299,191,265,191
"682","CAEB2-50017",44.00823,-72.38161,44,118,29,9648,242,-156,398,164,-73,164,-85,1110,116,68,14,321,221,321,234
"683","CAEB2-47057",36.277122,-83.51092,129,133,38,7830,300,-44,344,208,136,227,25,1251,126,73,14,347,255,331,322
"684","CAEB2-36061",40.774364,-73.97214,120,89,26,8775,293,-44,337,106,6,232,6,1140,106,78,9,306,255,297,255
"685","CAEB2-26125",42.66015,-83.38368,88,106,27,9718,285,-95,380,209,-29,209,-42,787,88,39,22,245,138,245,139
"686","CAEB2-26013",46.715397,-88.342,41,120,28,10434,255,-165,420,160,-86,170,-99,827,94,36,27,270,136,265,137
"687","CAEB2-29209",36.740288,-93.46522,131,137,35,8610,317,-67,384,179,15,238,15,1107,120,49,22,342,190,291,190
"688","CAEB2-26067",42.94445,-85.07276,82,117,29,9720,285,-107,392,193,-35,202,-49,856,98,38,24,263,143,254,147
"689","CAEB2-39057",39.694614,-83.88649,109,111,30,9059,289,-73,362,201,-13,220,-13,996,109,59,19,307,193,288,193
"690","CAEB2-36053",42.911774,-75.6682,62,110,29,9256,251,-122,373,80,-52,177,-61,1111,106,72,12,301,227,299,240
"691","CAEB2-55007",46.631233,-91.182816,38,119,26,10868,256,-188,444,162,-111,170,-111,796,105,20,43,303,86,299,86
"692","CAEB2-29015",38.2991,-93.288475,125,129,32,9380,319,-79,398,177,-3,241,-3,1049,128,39,31,349,142,309,142
"693","CAEB2-55111",43.427345,-89.94359,71,122,28,10709,281,-151,432,189,-76,202,-76,823,103,26,41,303,90,300,90
"694","CAEB2-47091",36.457806,-81.8589,107,126,38,7283,266,-59,325,180,26,198,9,1283,127,92,11,363,281,355,283
"695","CAEB2-55063",43.907642,-91.11015,74,115,26,11138,287,-153,440,209,-80,209,-80,799,103,22,46,305,76,305,76
"696","50573",59.383335,-126.01667,-14,120,25,12025,211,-253,464,130,-77,130,-175,471,76,16,41,191,63,191,95
"697","50564",59.033333,-125.833336,-41,116,27,10652,172,-247,419,92,-106,92,-178,489,85,16,47,211,66,211,96
