"","catalogNumber","lat","lon","bio1","bio2","bio3","bio4","bio5","bio6","bio7","bio8","bio9","bio10","bio11","bio12","bio13","bio14","bio15","bio16","bio17","bio18","bio19"
"1","173918",39.3283,-102.0643,103,159,37,9185,322,-98,420,197,-13,224,-13,436,79,9,65,215,30,190,30
"3","173921",37.6092,-103.8158,113,180,42,8736,332,-96,428,227,2,227,2,328,56,9,57,143,29,143,29
"4","173917",37.0247,-102.842,122,170,41,8466,329,-79,408,209,16,233,16,394,70,8,64,183,26,179,26
"5","173923",40.0813,-102.0982,104,160,38,9094,319,-99,418,197,-10,223,-10,453,81,9,67,227,30,198,30
"6","173920",37.4343,-103.907,115,180,42,8605,332,-92,424,228,6,228,6,330,56,9,57,144,29,144,29
"7","173922",40.0798,-102.0896,104,160,38,9094,319,-99,418,197,-10,223,-10,453,81,9,67,227,30,198,30
"8","KPM-NA0122073",35.6243,139.428,147,92,28,7657,304,-15,319,217,49,246,49,1487,198,47,44,549,153,528,153
"9","KPM-NA0122072",35.5907,139.516,150,87,27,7549,305,-7,312,220,54,248,54,1481,196,48,42,534,157,508,157
"11","CONN00093882",41.85,-87.65,100,98,25,9848,288,-91,379,222,-32,222,-32,919,100,38,27,298,146,298,146
"12","CONN00093877",38.40388,-96.18166,127,129,31,9704,327,-82,409,225,-4,248,-4,895,144,22,50,355,75,335,75
"13","CONN00093881",39.45194,-97.52722,121,130,31,10034,331,-88,419,223,-13,248,-13,753,114,16,54,320,58,298,58
"14","CONN00093884",40.11027,-88.1975,108,112,29,9827,298,-86,384,209,-25,229,-25,960,111,47,24,310,160,301,160
"15","CONN00093883",48.06,-98.84444,37,125,25,12591,276,-209,485,190,-135,190,-135,440,84,11,63,207,38,207,38
"16","CONN00093878",38.71666,-90.48777,127,120,30,9475,318,-72,390,224,-2,245,-2,968,103,48,19,293,178,269,178
"17","CONN00093880",41.86611,-88.10694,92,113,28,10099,291,-110,401,217,-45,217,-45,930,106,34,30,310,135,310,135
"18","CONN00093879",41.34055,-89.01,95,116,28,10182,292,-112,404,200,-44,220,-44,919,102,33,31,303,128,297,128
"20","336964",39.1025,-96.7658,121,128,30,10011,325,-89,414,223,-13,247,-13,844,136,18,53,351,67,325,67
"21","50909",38.4056,-96.3365,127,130,31,9714,328,-83,411,225,-4,248,-4,877,138,21,49,346,74,322,74
"22","335062",42.6302,-103.131,78,153,35,9379,304,-122,426,173,-40,201,-40,451,81,12,64,222,36,183,36
"23","208686",43.5463,-99.1216,82,141,31,10856,311,-142,453,193,-61,219,-61,560,90,11,58,252,39,223,39
"24","208667",43.224,-96.5805,79,130,28,11259,298,-153,451,196,-74,217,-74,652,103,12,54,270,49,269,49
"25","50994",37.3357,-99.0655,136,145,34,9458,343,-73,416,232,12,256,12,636,97,13,50,262,55,247,55
"26","50910",38.0702,-95.3287,133,123,30,9478,328,-70,398,229,5,251,5,1017,143,32,40,359,106,343,106
"27","51805",38.781,-99.7927,118,153,35,9812,337,-96,433,218,-10,244,-10,540,82,10,56,240,37,230,37
"28","51008",38.3543,-96.5422,129,131,31,9715,331,-81,412,226,-3,249,-3,861,135,21,49,338,74,313,74
"29","50882",37.856,-95.4717,137,124,31,9440,331,-66,397,232,9,254,9,1004,139,31,41,357,101,341,101
"30","328293",39.2386,-98.3964,120,146,33,10166,341,-98,439,224,-14,250,-14,672,99,15,51,277,53,257,53
"31","50895",39.8241,-97.6303,115,131,30,10149,327,-97,424,219,-21,243,-21,750,111,15,53,311,58,296,58
"32","50886",38.0296,-95.4361,134,125,31,9497,329,-70,399,229,5,251,5,1005,143,30,42,360,100,345,100
"33","51025",38.934,-99.5664,116,148,34,9807,333,-95,428,217,-11,243,-11,568,89,10,56,252,38,240,38
"34","319800",39.4795,-98.109,119,142,32,10237,340,-99,439,224,-17,249,-17,683,101,15,53,286,53,265,53
"35","51021",39.7701,-95.179,118,124,30,10080,318,-94,412,221,-20,242,-20,915,125,23,48,351,80,339,80
"36","331484",38.5181,-98.1644,123,138,32,9944,335,-89,424,224,-9,249,-9,704,105,13,51,291,55,274,55
"37","50926",38.3687,-96.5788,129,131,31,9715,331,-81,412,226,-3,249,-3,861,135,21,49,338,74,313,74
"38","50880",38.8764,-95.2479,128,118,29,9646,321,-74,395,226,-1,248,-1,962,144,28,45,365,93,343,93
"39","342782",39.0458,-95.2053,127,118,29,9670,321,-75,396,225,-3,247,-3,965,142,27,45,369,92,346,92
"40","331317",37.6342,-98.6931,134,143,34,9513,343,-73,416,231,8,255,8,664,99,13,48,267,59,251,59
"41","323122",38.8992,-101.014,117,163,37,9579,339,-96,435,216,-6,242,-6,475,82,10,63,228,31,204,31
"42","51017",38.7832,-97.6488,130,130,31,10043,339,-78,417,232,-2,258,-2,746,111,19,49,310,70,277,70
"43","352245",41.7707,-98.5112,88,143,32,10421,305,-135,440,196,-51,219,-51,627,99,12,56,270,44,259,44
"44","359075",38.4646,-97.1509,125,131,31,9967,332,-87,419,226,-10,250,-10,840,128,21,46,329,79,297,79
"45","208666",42.8624,-97.5488,87,128,28,11133,309,-141,450,202,-63,225,-63,552,84,11,52,234,43,222,43
"46","352238",41.7809,-99.1007,91,146,33,10296,311,-127,438,199,-44,222,-44,583,95,10,59,259,40,250,40
"47","339807",38.7021,-97.8082,126,134,31,10019,337,-85,422,228,-6,253,-6,733,109,16,50,304,62,277,62
"48","359069",38.4079,-96.3733,127,130,31,9714,328,-83,411,225,-4,248,-4,877,138,21,49,346,74,322,74
"49","50869",39.0016,-97.0224,127,132,31,10037,334,-86,420,229,-8,253,-8,825,131,19,50,336,68,313,68
"50","50876",37.2333,-96.8786,141,132,33,9322,338,-61,399,234,16,258,16,882,121,25,41,321,93,291,93
"51","208698",41.9209,-96.7986,91,131,29,10889,308,-134,442,205,-56,226,-56,713,110,14,53,301,57,273,57
"52","51013",38.9604,-102.02,107,163,38,9245,329,-98,427,202,-9,228,-9,424,75,8,66,210,27,189,27
"53","363143",37.8254,-99.2242,130,143,34,9615,341,-77,418,228,4,253,4,618,96,12,52,260,52,248,52
"54","50893",39.3428,-95.4224,123,125,30,9880,322,-86,408,223,-11,245,-11,936,138,25,48,364,84,342,84
"55","359094",37.2682,-98.0393,139,134,32,9618,346,-64,410,237,12,261,12,740,109,19,46,288,67,265,67
"56","50982",38.1807,-96.4694,127,129,31,9655,327,-82,409,224,-4,247,-4,879,138,22,48,344,76,325,76
"57","50879",37.2352,-94.7482,141,123,32,8951,328,-51,379,190,22,253,22,1076,132,39,33,361,143,308,143
"58","359114",39.7123,-97.3126,118,133,31,10149,330,-94,424,222,-18,246,-18,773,116,15,54,321,57,306,57
"59","51002",37.2421,-97.8566,140,133,32,9653,347,-62,409,238,12,262,12,754,107,21,44,288,71,266,71
"60","359089",36.8119,-97.2651,147,131,32,9478,350,-55,405,242,21,267,21,839,117,25,41,307,89,273,89
"61","328302",39.0008,-97.8228,126,136,32,10043,339,-85,424,228,-6,254,-6,726,109,16,52,308,58,279,58
"62","345572",39.1642,-99.0158,115,145,33,10064,334,-99,433,219,-16,245,-16,619,90,13,52,256,48,242,48
"63","345498",39.1114,-99.0364,115,145,33,10064,334,-99,433,219,-16,245,-16,619,90,13,52,256,48,242,48
"64","331352",37.7799,-99.9025,127,146,35,9526,337,-80,417,224,3,249,3,579,86,14,54,254,50,238,50
"65","208681",43.2569,-98.9298,88,142,31,10919,317,-139,456,199,-58,225,-58,580,94,11,57,259,41,228,41
"66","343912",38.5319,-95.7857,127,127,31,9708,326,-82,408,225,-5,247,-5,938,142,26,45,357,88,332,88
"67","359076",37.7992,-96.8445,133,130,32,9519,331,-73,404,229,7,253,7,875,131,21,46,343,83,319,83
"68","342012",38.9858,-95.1078,128,118,29,9636,322,-73,395,227,0,248,0,961,141,28,45,364,93,342,93
"69","51029",39.9589,-99.319,105,147,33,10070,324,-112,436,208,-28,233,-28,602,98,10,60,270,36,251,36
"70","50904",37.7974,-98.439,133,139,33,9633,343,-73,416,232,6,256,6,686,102,14,48,274,60,257,60
"71","208699",45.5816,-97.3398,58,127,26,11993,291,-183,474,181,-105,205,-105,522,88,11,61,238,36,235,36
"72","317564",39.6295,-99.5804,112,153,34,9973,334,-104,438,215,-18,240,-18,575,94,10,59,258,37,236,37
"73","360837",39.6974,-100.824,106,157,36,9640,328,-104,432,206,-17,232,-17,531,92,12,62,256,37,223,37
"74","331113",38.0075,-97.5092,131,130,31,9879,339,-76,415,231,-1,256,-1,788,116,17,47,311,69,285,69
"75","341984",37.4531,-96.0083,137,135,33,9319,334,-69,403,230,11,253,11,960,133,28,41,347,99,307,99
"77","342067",38.4581,-94.9203,129,124,30,9580,325,-76,401,183,-1,247,-1,1003,147,32,42,358,105,339,105
"78","374099",39.0689,-94.8507,128,116,29,9660,321,-71,392,227,-1,248,-1,961,135,28,44,360,94,338,94
"79","51003",39.4139,-94.9625,125,122,30,9672,320,-77,397,224,-6,244,-6,938,134,25,48,367,88,350,88
"80","50866",37.5812,-95.207,137,124,31,9427,332,-67,399,189,10,254,10,1036,133,35,37,358,118,321,118
"81","50931",39.25,-95.6594,123,123,30,9821,320,-84,404,223,-9,245,-9,913,138,25,47,355,85,335,85
"82","311301",39.2722,-95.0169,124,120,30,9637,320,-76,396,223,-5,243,-5,965,136,26,47,372,90,350,90
"83","324954",38.3667,-97.1667,126,130,31,9940,333,-85,418,226,-8,250,-8,829,125,20,46,328,77,296,77
"84","51032",38.957,-95.2502,127,117,29,9668,320,-75,395,225,-2,247,-2,959,144,27,45,367,92,345,92
"86","50927",38.2971,-98.3486,130,137,32,9832,341,-79,420,230,0,255,0,685,103,13,49,281,57,265,57
"87","51019",39.0673,-100.236,114,152,35,9715,333,-96,429,214,-11,240,-11,557,91,11,58,254,40,231,40
"88","331270",38.6133,-97.7036,127,132,31,9954,336,-82,418,228,-4,254,-4,749,112,17,49,306,65,280,65
"89","317830",40.8562,-97.8803,103,131,30,10468,314,-114,428,211,-37,234,-37,695,105,13,54,291,52,263,52
"90","208687",41.0109,-96.2384,102,125,29,10461,308,-116,424,210,-39,232,-39,780,111,17,52,314,60,303,60
"91","332221",38.0742,-99.2672,128,146,34,9686,341,-82,423,227,1,252,1,603,93,12,52,258,50,247,50
"92","208705",47.0626,-98.7525,49,131,27,12123,286,-196,482,173,-116,197,-116,460,89,11,64,217,36,217,36
"93","51329",38.6396,-99.5969,118,151,34,9843,337,-96,433,219,-10,245,-10,556,88,10,56,245,38,237,38
"94","332091",35.5453,-99.7617,146,146,36,8732,343,-54,397,193,31,256,31,616,104,13,53,248,55,204,55
"95","50998",37.9511,-99.044,131,142,34,9581,341,-76,417,229,6,254,6,625,96,13,50,262,54,251,54
"96","331567",38.7903,-99.8758,118,153,35,9778,337,-95,432,218,-9,244,-9,537,82,10,57,240,37,228,37
"97","331644",38.9461,-100.484,116,156,35,9742,338,-97,435,216,-10,242,-10,524,88,9,63,249,33,226,33
"98","345422",39.0031,-99.3208,115,145,33,9936,332,-97,429,217,-14,243,-14,592,88,11,55,256,41,242,41
"99","51016",37.7744,-95.0667,135,123,30,9461,330,-68,398,187,7,253,7,1052,140,36,37,362,120,335,120
"100","359095",39.1659,-96.0082,125,128,31,9857,325,-85,410,225,-8,247,-8,888,135,24,47,346,81,322,81
"101","51772",38.1517,-96.4694,126,129,31,9608,326,-83,409,222,-4,245,-4,883,138,22,48,343,77,326,77
"102","331289",38.6953,-97.0767,126,131,31,9907,332,-85,417,226,-7,250,-7,861,134,23,46,334,83,305,83
"103","115386",38.396,-94.6508,128,125,31,9601,324,-79,403,181,-3,246,-3,1027,145,34,40,361,113,339,113
"104","332232",38.755,-99.1936,121,147,34,9904,338,-93,431,222,-8,248,-8,596,89,11,56,262,42,249,42
"105","50870",37.647,-98.1882,136,137,32,9678,345,-71,416,234,7,258,7,719,106,15,47,282,62,263,62
"106","50878",37.0382,-94.7405,142,126,33,8769,328,-49,377,190,25,252,25,1082,130,42,30,354,151,303,151
"107","352239",40.0757,-99.2554,105,148,33,10118,325,-114,439,209,-28,234,-28,591,97,9,62,268,34,249,34
"108","51004",38.5668,-95.3184,129,124,31,9611,324,-76,400,226,-1,248,-1,975,143,30,43,359,98,338,98
"109","50938",39.8901,-98.0263,109,137,31,10283,325,-109,434,214,-29,239,-29,711,104,13,53,290,52,273,52
"110","332970",40.2014,-97.4091,108,133,31,10200,320,-105,425,213,-28,237,-28,749,107,15,53,303,57,291,57
"111","366754",38.989,-94.7829,126,114,29,9640,317,-72,389,225,-3,246,-3,967,137,29,45,363,95,340,95
"112","50884",38.7158,-97.2746,128,132,31,9982,337,-83,420,229,-5,254,-5,828,121,26,42,316,92,282,92
"113","50930",39.2741,-100.928,108,154,36,9569,327,-100,427,206,-15,232,-15,492,89,10,64,241,30,209,30
"114","51333",38.247,-97.7193,129,133,32,9806,337,-78,415,229,-1,253,-1,766,114,16,49,307,64,284,64
"115","51031",39.7738,-99.8898,108,152,35,9891,328,-106,434,209,-20,236,-20,575,96,10,62,267,35,241,35
"116","51020",37.2424,-100.34,132,161,37,9385,345,-82,427,228,10,252,10,536,83,12,55,238,45,220,45
"117","338815",35.5731,-99.7325,147,146,36,8781,345,-54,399,194,31,258,31,622,106,13,53,250,55,204,55
"118","50940",38.1775,-94.7137,130,127,31,9603,328,-79,407,184,-1,249,-1,1038,143,36,39,362,116,337,116
"119","50911",39.3469,-98.109,120,142,32,10218,341,-97,438,225,-15,250,-15,685,101,15,52,286,53,265,53
"120","51011",37.9372,-99.2458,129,144,34,9617,341,-79,420,228,3,252,3,613,95,12,52,260,52,250,52
"121","328274",39.4739,-98.9756,114,153,34,10221,339,-107,446,219,-21,245,-21,616,96,12,54,257,43,236,43
"122","50925",37.7961,-95.8441,133,130,31,9542,331,-76,407,228,3,251,3,970,135,28,42,352,97,331,97
"123","50897",39.3337,-100.587,112,154,36,9586,332,-95,427,211,-11,237,-11,521,90,11,61,247,35,218,35
"124","319853",39.4264,-99.2729,113,153,34,10127,338,-106,444,217,-20,243,-20,593,94,11,55,254,41,234,41
"125","325240",38.0243,-95.14,133,123,30,9501,328,-71,399,186,4,251,4,1031,143,34,39,359,111,341,111
"126","343877",38.3747,-94.6608,128,125,31,9601,324,-79,403,181,-3,246,-3,1027,145,34,40,361,113,339,113
"127","359097",39.4685,-96.7959,120,133,31,10236,330,-97,427,224,-18,248,-18,819,130,16,53,341,60,321,60
"129","208661",47.6235,-104.732,57,146,30,11153,298,-174,472,172,-92,197,-92,364,74,9,65,179,33,162,33
"130","102851",39.2043,-96.37,123,130,31,9951,326,-89,415,224,-11,247,-11,871,137,20,51,353,71,326,71
"131","319819",39.4615,-98.3302,118,145,32,10291,340,-102,442,224,-19,249,-19,668,99,14,53,279,50,259,50
"132","102352",37.4019,-99.7833,130,152,36,9396,340,-79,419,226,8,250,8,591,91,12,55,258,47,240,47
"133","50891",38.8031,-95.1861,126,118,29,9597,319,-75,394,224,-2,246,-2,970,145,29,45,365,94,344,94
"134","332055",37.2728,-98.5508,136,146,34,9528,344,-75,419,232,9,256,9,681,101,15,48,271,60,251,60
"136","341121",35.5964,-99.7269,149,149,36,8879,349,-55,404,197,32,262,32,605,104,12,53,245,53,199,53
"137","345208",38.6033,-97.8672,124,136,32,9991,335,-89,424,225,-9,250,-9,717,107,14,51,296,56,274,56
"138","208695",40.517,-100.383,98,157,35,9905,320,-118,438,201,-30,226,-30,534,97,10,67,265,32,239,32
"139","341967",37.5858,-95.9969,134,133,32,9472,332,-75,407,229,5,252,5,957,130,27,42,348,96,318,96
"142","328213",39.4431,-99.2664,113,153,34,10127,338,-106,444,217,-20,243,-20,593,94,11,55,254,41,234,41
"143","51786",37.7128,-97.4508,135,125,30,9759,338,-67,405,234,7,259,7,779,114,19,47,309,72,285,72
"144","319883",39.4479,-99.1349,113,153,34,10172,338,-107,445,218,-21,243,-21,603,95,11,55,254,41,234,41
"145","343469",39.1819,-99.0683,114,146,33,10090,334,-101,435,218,-18,244,-18,621,91,13,52,255,47,240,47
"146","50907",39.9065,-95.9,114,128,30,10147,320,-99,419,218,-24,240,-24,886,125,22,49,344,74,337,74
"147","208689",45.5844,-103.546,67,151,33,10496,305,-149,454,174,-70,201,-70,390,80,8,70,199,27,164,27
"148","324586",42.88,-92.3175,74,116,26,11172,283,-153,436,210,-80,210,-80,878,116,23,46,341,83,341,83
"149","332224",39.5364,-96.7078,117,132,30,10256,326,-101,427,222,-22,245,-22,827,129,16,54,342,61,325,61
"150","50944",37.0238,-94.7711,142,126,33,8790,328,-49,377,191,25,253,25,1082,132,41,31,355,147,304,147
"151","359106",39.6976,-97.7819,116,133,31,10205,330,-97,427,220,-20,245,-20,719,107,14,55,302,53,285,53
"152","208670",40.6757,-95.859,105,128,29,10509,313,-114,427,214,-38,235,-38,833,110,20,48,325,72,318,72
"153","343360",38.2539,-94.7458,130,127,31,9618,327,-79,406,184,-1,248,-1,1029,144,34,39,361,114,336,114
"155","355577",45.2721,-100.886,73,134,28,11413,307,-157,464,190,-80,216,-80,432,77,8,61,200,32,176,32
"156","50942",39.0882,-95.1683,125,118,29,9680,320,-76,396,224,-5,245,-5,970,141,27,46,372,91,348,91
"157","50986",39.204,-101.758,108,159,37,9262,328,-94,422,203,-8,230,-8,451,81,10,65,224,31,197,31
"158","345483",39.0308,-98.9636,119,146,33,10071,338,-96,434,223,-12,249,-12,622,91,13,53,259,48,244,48
"159","50875",39.5198,-95.3126,120,124,30,9914,320,-88,408,222,-14,243,-14,936,133,24,48,362,84,344,84
"160","362146",39.3747,-99.5565,115,153,35,9985,336,-101,437,218,-15,244,-15,563,89,10,59,251,37,231,37
"161","341999",37.4303,-95.9908,137,134,33,9319,334,-69,403,230,11,253,11,973,134,29,40,350,102,310,102
"162","326359",38.9431,-95.0381,128,118,29,9642,322,-72,394,227,-1,248,-1,960,140,28,45,362,93,340,93
"165","348284",38.1944,-94.6131,130,128,31,9595,328,-78,406,184,0,249,0,1039,143,36,38,361,118,337,118
"166","51012",37.5087,-95.0064,137,124,31,9401,331,-66,397,189,10,254,10,1062,136,36,36,365,125,323,125
"167","50935",38.7795,-94.8218,125,115,29,9625,316,-75,391,223,-4,244,-4,979,143,30,44,365,98,343,98
"168","362136",39.3081,-97.0525,125,133,31,10115,335,-88,423,228,-11,252,-11,805,124,16,52,332,59,310,59
"169","345433",39.0022,-99.1336,117,146,33,10024,336,-97,433,220,-14,246,-14,607,88,12,54,257,45,243,45
"170","50918",39.4649,-95.8122,120,128,30,9947,323,-90,413,221,-15,243,-15,915,139,23,49,355,78,339,78
"171","328267",39.5928,-99.2064,111,155,34,10116,337,-108,445,216,-21,241,-21,597,98,10,58,260,38,237,38
"172","349667",34.7325,-98.7236,156,140,35,8830,351,-45,396,204,39,268,39,732,115,28,39,259,97,202,97
"173","352244",40.4098,-99.3175,101,136,32,9930,312,-106,418,204,-28,228,-28,613,101,10,60,281,38,256,38
"174","208709",45.8742,-103.495,63,145,32,10516,298,-151,449,170,-75,198,-75,399,83,8,70,203,28,169,28
"175","331540",38.7803,-99.7186,117,152,35,9837,336,-97,433,218,-11,244,-11,540,83,9,57,241,35,232,35
"178","208683",41.0415,-96.1595,103,124,29,10490,308,-115,423,211,-39,233,-39,777,110,17,52,314,60,303,60
"179","345488",39.0186,-98.9742,119,146,33,10071,338,-96,434,223,-12,249,-12,622,91,13,53,259,48,244,48
"180","331720",38.5353,-95.4517,127,124,30,9702,323,-81,404,224,-5,246,-5,954,142,27,44,355,91,333,91
"181","50863",38.6833,-100.925,116,163,37,9567,338,-96,434,215,-6,241,-6,484,80,11,60,228,34,207,34
"182","208706",46.4841,-100.225,51,138,28,11905,289,-194,483,172,-110,198,-110,432,82,11,62,205,33,191,33
"183","50993",39.7641,-100.528,110,157,36,9637,330,-100,430,209,-13,235,-13,540,91,12,62,261,37,232,37
"184","356828",38.1442,-97.3525,128,129,31,9902,336,-79,415,228,-4,253,-4,810,121,18,48,322,71,292,71
"185","340759",39.6525,-95.9136,118,128,30,10023,321,-94,415,220,-18,242,-18,905,135,22,49,353,75,341,75
"187","323084",38.8694,-101.667,117,166,38,9374,341,-92,433,214,-1,240,-1,453,81,10,64,223,32,194,32
"188","50881",39.1652,-95.7026,124,123,30,9810,321,-82,403,224,-8,246,-8,896,134,26,45,344,89,326,89
"189","50898",37.3012,-98.5834,136,147,34,9516,345,-76,421,233,10,256,10,669,100,14,49,269,58,250,58
"190","51028",37.9571,-95.5276,135,125,31,9473,330,-69,399,230,6,252,6,1004,142,30,42,360,100,345,100
"191","50877",37.4282,-97.1693,138,126,31,9591,337,-65,402,234,11,259,11,820,117,21,45,318,80,294,80
"192","336777",39.0997,-96.7447,122,129,30,10029,327,-90,417,224,-12,248,-12,847,137,19,53,352,69,325,69
"193","50890",38.957,-95.1945,128,118,29,9640,322,-73,395,226,-1,248,-1,960,143,28,45,366,93,344,93
"194","51030",37.4269,-95.5734,137,128,32,9350,332,-67,399,231,11,254,11,1012,132,34,38,353,112,319,112
"196","50892",38.8603,-96.2341,120,125,30,9801,320,-87,407,219,-12,242,-12,889,132,22,48,348,77,321,77
"197","332270",35.5692,-99.7194,147,146,36,8781,345,-54,399,194,31,258,31,622,106,13,53,250,55,204,55
"198","327894",38.6042,-94.75,125,120,30,9629,319,-78,397,222,-5,244,-5,1002,145,32,42,363,105,341,105
"200","50924",37.5586,-99.0735,134,143,34,9494,341,-74,415,230,8,254,8,634,97,13,50,261,55,248,55
"201","352237",42.4552,-101.535,82,152,35,9796,308,-123,431,182,-44,209,-44,495,83,11,62,241,38,212,38
"203","50913",37.0372,-95.2082,140,128,32,9100,332,-60,392,191,18,254,18,1062,134,38,34,354,133,298,133
"204","341726",38.905,-95.4947,126,119,29,9718,321,-78,399,225,-4,247,-4,931,141,26,45,355,89,335,89
"207","342006",39.0178,-95.2094,127,118,29,9670,321,-75,396,225,-3,247,-3,965,142,27,45,369,92,346,92
"208","50983",37.5943,-96.6052,133,131,32,9362,329,-71,400,226,7,249,7,903,129,23,44,340,88,316,88
"209","326619",38.1956,-94.6858,130,127,31,9603,328,-79,407,184,-1,249,-1,1038,143,36,39,362,116,337,116
"210","326654",38.9181,-94.9792,128,117,29,9643,321,-72,393,227,-1,248,-1,961,139,29,44,361,94,340,94
"211","331107",38.0814,-97.58,131,130,31,9879,339,-76,415,231,-1,256,-1,788,116,17,47,311,69,285,69
"212","51022",37.5671,-99.0735,134,143,34,9494,341,-74,415,230,8,254,8,634,97,13,50,261,55,248,55
"213","281380",40.7498,-98.5427,101,137,31,10307,316,-116,432,208,-36,231,-36,670,108,13,57,292,49,263,49
"214","208717",47.3016,-101.109,52,135,28,11864,290,-187,477,173,-109,198,-109,432,84,10,64,204,33,196,33
"215","50920",39.9065,-97.6485,112,130,30,10150,324,-99,423,216,-23,240,-23,756,110,15,52,309,58,295,58
"217","359096",39.3476,-96.2111,121,129,31,10023,325,-91,416,223,-15,246,-15,880,138,20,51,354,70,332,70
"218","50945",39.1897,-96.5811,121,132,31,10051,328,-93,421,224,-14,248,-14,858,136,20,52,354,69,326,69
"219","50871",37.7583,-94.7805,136,125,31,9441,331,-66,397,188,10,254,10,1065,141,37,36,367,128,335,128
"220","50915",37.1427,-95.0993,141,127,32,9126,332,-59,391,191,18,254,18,1059,135,36,35,356,130,299,130
"221","343524",38.9217,-97.2794,129,134,31,10022,338,-83,421,230,-5,255,-5,790,122,19,49,319,67,297,67
"222","356193",38.1727,-95.2659,132,124,31,9518,327,-73,400,227,2,249,2,1009,144,31,41,358,105,344,105
"224","50862",39.1867,-101.781,108,159,37,9262,328,-94,422,203,-8,230,-8,451,81,10,65,224,31,197,31
"225","326817",37.1597,-97.1833,142,131,32,9533,343,-63,406,237,15,262,15,838,115,24,42,312,87,283,87
"226","326598",38.9986,-99.8056,116,148,34,9656,332,-92,424,216,-8,242,-8,556,84,11,56,247,40,233,40
"227","328229",38.9925,-99.7239,116,149,34,9709,332,-94,426,216,-9,242,-9,554,85,10,56,246,37,233,37
"228","208712",40.0774,-95.7293,114,131,30,10291,323,-103,426,221,-25,242,-25,867,116,22,48,334,74,330,74
"229","208708",45.5707,-102.565,66,146,32,10757,303,-153,456,176,-75,204,-75,423,80,9,65,205,31,172,31
"230","50970",38.0506,-97.4854,130,129,31,9906,339,-77,416,230,-2,255,-2,796,118,17,47,316,69,288,69
"231","359099",39.7117,-97.0553,119,134,31,10192,330,-97,427,223,-19,246,-19,792,119,15,53,325,58,311,58
"232","324682",38.0833,-98.3333,131,136,32,9804,342,-77,419,231,1,256,1,702,105,14,48,281,61,264,61
"233","331141",38.5631,-96.9636,125,130,31,9852,330,-86,416,224,-9,248,-9,861,134,22,47,335,79,306,79
"234","51325",37.7031,-97.6836,134,128,31,9784,341,-70,411,233,4,258,4,767,111,17,47,299,69,277,69
"236","50996",37.2822,-98.6709,137,148,35,9519,346,-75,421,233,11,257,11,659,98,14,49,265,57,248,57
"239","51018",38.2683,-99.4209,123,149,34,9778,340,-90,430,223,-5,249,-5,577,91,11,55,254,43,242,43
"240","326547",38.9333,-95.4333,125,118,29,9730,320,-78,398,224,-5,247,-5,932,142,26,46,358,88,338,88
"241","208672",44.0906,-99.5817,78,153,31,11465,323,-162,485,195,-75,222,-75,459,78,8,62,213,28,197,28
"242","66920",38.3879,-97.1551,126,131,31,9976,333,-87,420,226,-10,250,-10,829,127,19,47,330,73,299,73
"243","326729",38.3397,-95.6731,126,128,31,9731,325,-83,408,224,-7,246,-7,946,145,26,46,359,88,339,88
"244","110878",38.5907,-95.6878,126,125,30,9736,325,-82,407,225,-6,247,-6,927,138,25,45,350,86,325,86
"245","50919",39.9032,-97.8484,112,134,31,10250,326,-104,430,217,-26,241,-26,718,104,14,54,293,53,277,53
"246","50894",37.7183,-98.6071,134,141,33,9565,343,-73,416,231,7,255,7,668,100,13,48,268,59,252,59
"248","208677",42.9254,-96.7737,81,132,29,11304,302,-153,455,198,-73,220,-73,649,103,12,54,274,50,266,50
"249","50939",39.6845,-99.5702,111,153,34,9968,333,-105,438,214,-18,240,-18,578,94,10,59,260,37,239,37
"250","331346",37.9158,-99.4242,128,147,34,9682,342,-83,425,227,1,252,1,604,92,12,52,257,51,246,51
"252","326725",38.8844,-95.6553,125,120,29,9761,321,-80,401,224,-6,246,-6,900,135,27,43,341,93,323,93
"253","50908",38.4202,-94.7908,129,124,30,9609,325,-78,403,183,-2,247,-2,1014,147,33,41,360,109,339,109
"254","51034",38.4056,-96.1892,127,129,31,9704,327,-82,409,225,-4,248,-4,895,144,22,50,355,75,335,75
"255","359102",39.7117,-97.4595,118,131,31,10112,329,-93,422,221,-17,245,-17,759,114,15,54,317,57,301,57
"256","51010",37.0339,-97.6066,142,133,32,9663,349,-63,412,239,14,265,14,784,105,23,41,288,81,265,81
"258","208685",43.2299,-98.8344,89,141,30,10954,318,-138,456,201,-57,227,-57,580,95,10,58,259,39,230,39
"260","50943",37.0382,-94.7351,142,126,33,8769,328,-49,377,190,25,252,25,1082,130,42,30,354,151,303,151
"261","50905",38.3047,-95.4735,130,126,31,9616,327,-77,404,227,-1,249,-1,975,144,28,43,357,96,340,96
"262","50929",39.8332,-98.9377,111,149,33,10172,334,-107,441,216,-22,242,-22,610,99,10,59,265,37,243,37
"263","323449",39.1436,-95.9361,125,127,31,9836,325,-84,409,225,-8,247,-8,890,134,25,46,344,84,320,84
"264","50916",38.957,-95.213,128,118,29,9640,322,-73,395,226,-1,248,-1,960,143,28,45,366,93,344,93
"265","332223",37.9331,-99.4508,127,147,34,9709,341,-84,425,226,-1,251,-1,598,91,12,53,256,49,245,49
"266","50934",37.833,-95.9882,133,131,32,9576,331,-78,409,228,2,251,2,952,134,26,43,348,93,327,93
"268","332959",40.2615,-99.0399,101,139,32,10075,314,-113,427,205,-31,229,-31,631,103,11,60,282,40,258,40
"269","342571",38.1694,-95.4311,131,126,31,9579,327,-75,402,227,0,249,0,987,144,28,43,359,97,343,97
"270","345234",38.7075,-97.8678,125,136,32,10021,337,-88,425,226,-8,252,-8,718,107,14,51,299,57,274,57
"271","327982",38.7958,-94.6917,125,115,29,9628,316,-76,392,222,-5,244,-5,978,141,31,44,364,98,340,98
"272","349503",38.4475,-96.5753,126,129,31,9753,327,-84,411,224,-7,247,-7,865,135,21,48,339,74,313,74
"273","352236",42.7864,-98.3683,93,136,30,10960,319,-132,451,206,-54,231,-54,585,96,12,55,255,44,237,44
"274","355575",43.577,-101.126,89,151,33,10396,323,-127,450,194,-46,222,-46,460,85,7,67,229,27,200,27
"275","341040",39.2847,-102.984,96,169,39,9082,319,-109,428,188,-18,215,-18,398,69,7,67,198,24,182,24
"276","343410",38.2044,-94.645,130,128,31,9595,328,-78,406,184,0,249,0,1039,143,36,38,361,118,337,118
"277","50933",39.673,-99.1409,110,154,34,10148,336,-110,446,215,-23,240,-23,601,99,10,58,262,37,239,37
"278","352243",40.1497,-96.3486,109,130,30,10249,318,-106,424,214,-29,237,-29,826,115,18,51,326,66,322,66
"281","208715",46.6228,-97.9283,46,134,27,12170,284,-202,486,171,-121,194,-121,497,88,11,60,222,37,221,37
"282","50912",38.6078,-95.1922,129,123,30,9588,324,-75,399,226,0,248,0,977,144,31,43,361,100,340,100
"283","356250",38.1718,-95.2591,132,124,31,9518,327,-73,400,227,2,249,2,1009,144,31,41,358,105,344,105
"284","50906",39.4882,-95.6887,121,128,30,9935,323,-90,413,222,-14,244,-14,921,139,23,49,357,80,341,80
"285","50872",38.6028,-96.4882,123,128,30,9880,325,-89,414,222,-11,245,-11,865,132,21,48,337,74,309,74
"286","328219",38.9008,-97.8694,126,137,32,10056,340,-87,427,228,-7,254,-7,721,107,15,51,303,58,274,58
"289","50991",38.0392,-97.1271,130,129,31,9783,334,-78,412,228,-1,252,-1,832,126,19,48,333,72,304,72
"290","332157",35.5769,-99.6856,147,146,36,8781,345,-54,399,194,31,258,31,622,106,13,53,250,55,204,55
"291","363127",37.6186,-97.8514,137,132,31,9783,345,-69,414,236,7,261,7,743,108,17,47,290,65,269,65
"293","323135",39.1239,-100.854,113,152,35,9486,330,-93,423,210,-9,236,-9,494,86,10,62,236,32,209,32
"294","359791",39.6248,-94.9539,120,122,29,9924,318,-89,407,223,-15,242,-15,924,127,24,48,359,85,344,85
"296","208669",43.8346,-101.572,88,152,33,10543,325,-130,455,195,-49,223,-49,430,79,8,66,212,27,181,27
"297","50997",38.7599,-97.9286,123,138,32,10025,337,-90,427,225,-10,251,-10,717,104,15,51,299,58,274,58
"298","352241",40.3368,-96.1864,108,134,31,10304,319,-109,428,214,-31,237,-31,826,108,20,48,323,72,319,72
"299","208680",40.1863,-99.8982,104,157,35,10025,327,-115,442,208,-27,233,-27,584,96,12,61,273,41,247,41
"301","355578",45.7686,-100.193,61,137,28,11853,301,-180,481,182,-99,209,-99,432,80,9,61,200,30,185,30
"303","352240",40.5113,-101.285,96,159,36,9749,320,-117,437,196,-30,222,-30,497,88,10,66,249,31,220,31
"304","50873",39.1321,-96.3458,123,129,31,9902,325,-88,413,223,-11,246,-11,875,136,20,50,352,72,325,72
"306","50980",39.8221,-100.284,109,155,36,9706,328,-102,430,208,-16,235,-16,553,95,11,62,267,36,236,36
"307","334836",35.5458,-99.7575,146,146,36,8732,343,-54,397,193,31,256,31,616,104,13,53,248,55,204,55
"309","208668",41.7176,-96.6898,95,129,29,10840,310,-129,439,208,-53,229,-53,737,113,15,52,304,60,279,60
"310","343513",39.0125,-98.9553,119,146,33,10071,338,-96,434,223,-12,249,-12,622,91,13,53,259,48,244,48
"311","331479",38.6519,-96.7997,124,129,31,9854,327,-87,414,223,-10,246,-10,858,136,21,48,336,75,309,75
"312","50883",39.3741,-98.003,121,141,32,10188,340,-95,435,225,-15,250,-15,693,102,15,53,290,54,269,54
"313","208676",45.6181,-106.561,61,157,35,9396,297,-141,438,108,-59,185,-59,430,74,17,50,189,57,138,57
"314","208678",40.1028,-99.5105,107,150,34,10049,326,-110,436,210,-25,235,-25,580,94,10,61,266,36,247,36
"315","331244",39.4719,-96.4106,116,127,30,10134,320,-100,420,219,-22,242,-22,874,137,19,52,356,68,336,68
"316","50864",39.6643,-100.313,111,155,36,9689,331,-99,430,211,-13,237,-13,547,94,11,62,261,35,231,35
"317","50885",37.8579,-95.1529,134,123,30,9446,328,-69,397,186,6,251,6,1042,141,35,38,360,115,339,115
"322","326423",38.1042,-95.025,132,124,30,9540,327,-74,401,185,2,250,2,1033,144,35,39,360,112,342,112
"323","331583",38.2275,-95.5906,129,128,31,9650,327,-79,406,226,-3,248,-3,965,145,27,45,360,91,343,91
"324","208700",47.3181,-99.8869,41,133,27,12167,281,-202,483,166,-125,190,-125,429,85,10,65,205,33,196,33
"325","51033",38.4412,-96.3629,126,129,31,9753,327,-84,411,224,-6,247,-6,876,137,21,48,345,74,319,74
"326","50865",38.3551,-98.367,128,138,32,9858,340,-81,421,229,-2,254,-2,680,103,13,51,281,55,265,55
"327","51027",39.125,-97.5923,127,134,31,10029,338,-84,422,228,-6,254,-6,741,111,17,53,316,60,287,60
"328","359087",36.9188,-97.056,144,131,32,9327,341,-56,397,238,21,262,21,875,121,25,42,322,92,289,92
"329","51821",38.4657,-99.0595,127,143,33,9861,342,-85,427,228,-2,253,-2,622,97,13,54,269,50,256,50
"333","69355",38.3551,-98.3026,128,137,32,9886,339,-82,421,228,-3,253,-3,690,104,13,50,284,57,268,57
"334","338812",35.5689,-99.7197,147,146,36,8781,345,-54,399,194,31,258,31,622,106,13,53,250,55,204,55
"335","208665",47.3054,-102.192,53,135,29,11367,286,-179,465,169,-99,194,-99,430,88,11,66,209,33,192,33
"337","51001",38.2459,-99.3137,127,147,34,9729,341,-85,426,226,0,251,0,593,93,12,54,258,47,247,47
"338","50928",39.9102,-97.6485,112,130,30,10150,324,-99,423,216,-23,240,-23,756,110,15,52,309,58,295,58
"339","329288",40.2796,-99.0258,101,139,32,10075,314,-113,427,205,-31,229,-31,631,103,11,60,282,40,258,40
"340","359108",39.6946,-97.9268,114,137,31,10260,331,-102,433,220,-23,244,-23,705,103,14,54,293,52,276,52
"342","50896",39.0341,-97.4448,128,133,31,10024,338,-82,420,230,-5,255,-5,755,114,17,52,314,60,289,60
"343","342916",37.2683,-99.3303,136,143,34,9364,340,-72,412,231,14,255,14,628,97,14,51,264,55,249,55
"344","50868",37.4321,-97.7823,138,130,31,9707,345,-64,409,236,10,261,10,750,108,18,46,290,68,269,68
"345","208658",40.0797,-98.1349,109,137,31,10237,324,-107,431,215,-27,239,-27,702,105,13,53,286,51,265,51
"346","328006",38.7417,-94.9667,127,119,30,9621,321,-74,395,225,-2,247,-2,981,146,31,44,363,99,343,99
"348","51014",39.5676,-99.3014,111,153,34,10088,336,-106,442,216,-21,241,-21,595,96,11,56,257,41,236,41
"349","50889",37.0612,-94.6302,140,125,33,8762,325,-49,374,189,24,251,24,1088,129,42,30,357,154,305,154
"350","50902",38.3374,-98.8089,132,139,33,9784,344,-76,420,232,4,257,4,647,100,13,52,273,55,259,55
"351","208657",40.1398,-97.7231,109,132,31,10179,321,-104,425,214,-26,238,-26,732,106,15,52,298,57,280,57
"352","51796",39.7578,-95.3214,117,126,30,10096,318,-96,414,221,-21,241,-21,915,125,23,48,351,80,340,80
"353","332207",38.5247,-99.3103,122,149,34,9923,341,-94,435,223,-8,249,-8,591,94,11,55,261,43,249,43
"354","331264",39.3822,-97.0697,124,133,31,10130,334,-90,424,227,-12,251,-12,800,123,16,53,331,59,311,59
"355","339483",39.4625,-102.091,101,160,37,9191,321,-101,422,195,-15,222,-15,436,80,9,65,214,29,187,29
"357","50995",39.8317,-100.012,109,154,35,9863,329,-107,436,209,-19,236,-19,565,96,10,62,267,34,238,34
"359","51015",37.7816,-95.8441,133,130,31,9542,331,-76,407,228,3,251,3,970,135,28,42,352,97,331,97
"361","325425",38.0333,-97.7,130,131,31,9856,339,-77,416,230,-1,255,-1,771,114,16,48,306,65,283,65
"362","331723",38.4461,-95.5831,127,125,30,9702,324,-81,405,224,-6,246,-6,951,142,26,45,355,89,334,89
"363","51835",38.4539,-98.974,129,141,33,9833,342,-82,424,229,0,254,0,632,98,13,53,271,52,258,52
"364","322653",38.6533,-95.8403,126,126,31,9695,325,-81,406,224,-5,246,-5,929,139,26,45,354,88,328,88
"365","208688",46.4895,-97.7577,49,133,27,12140,285,-199,484,173,-117,197,-117,494,87,11,60,221,36,220,36
"366","50917",38.6513,-95.2661,128,124,31,9592,324,-76,400,226,-1,248,-1,970,142,30,43,360,97,338,97
"367","51006",37.0901,-97.0729,143,132,32,9414,342,-60,402,237,17,261,17,868,119,25,41,318,93,288,93
"368","50462",37.6179,-94.8273,136,125,31,9395,330,-66,396,188,9,253,9,1086,141,38,35,371,133,332,133
"369","349532",38.435,-96.5506,126,129,31,9753,327,-84,411,224,-7,247,-7,865,135,21,48,339,74,313,74
"371","336889",39.0756,-96.8142,123,128,30,9973,326,-87,413,225,-10,248,-10,839,137,19,53,350,68,324,68
"372","352242",40.807,-96.6972,107,125,29,10603,318,-109,427,217,-35,240,-35,749,108,16,52,302,59,294,59
"373","325660",38.4333,-96.15,126,128,31,9738,326,-83,409,224,-6,247,-6,913,144,24,48,358,80,336,80
"374","50941",38.7692,-95.6711,125,121,30,9740,321,-81,402,223,-6,246,-6,913,133,29,41,339,98,319,98
"375","50874",39.6523,-95.8999,118,128,30,10023,321,-94,415,220,-18,242,-18,905,135,22,49,353,75,341,75
"376","50977",38.2678,-95.7445,126,128,31,9716,325,-84,409,224,-7,246,-7,946,146,25,46,360,87,341,87
"377","355576",44.0818,-98.5858,76,128,28,11298,304,-149,453,192,-75,218,-75,545,86,10,57,241,38,213,38
"378","50992",39.111,-97.5671,126,133,31,10003,336,-83,419,228,-6,253,-6,754,112,17,52,318,60,291,60
"379","208713",46.4012,-99.611,47,136,28,11901,286,-194,480,168,-114,193,-114,445,85,10,64,213,30,202,30
"380","107231",38.6167,-93.4,121,124,31,9565,315,-83,398,176,-9,239,-9,1026,126,37,34,350,129,319,129
"381","34984",43.8333,-101.5,90,153,33,10552,328,-128,456,197,-47,226,-47,429,80,7,67,213,26,184,26
"382","19796",44.9167,-97.2,59,126,26,11817,287,-182,469,180,-102,204,-102,556,95,13,58,251,41,245,41
"383","MT00013893",48.64575,-94.06025,27,119,24,12494,257,-231,488,177,-146,177,-146,661,107,16,54,291,63,291,63
"384","467459",42.3833,-88.2833,84,113,27,10201,285,-121,406,210,-55,210,-55,902,105,31,32,310,124,310,124
"385","56894",41.95,-88.4333,86,115,28,10294,287,-121,408,213,-54,213,-54,934,109,33,32,318,128,318,128
"387","127525",41.8333,-87.85,98,106,27,10005,291,-99,390,221,-37,221,-37,927,103,36,28,302,142,302,142
"397","51244",49.1564,-101.0208,34,130,26,12514,273,-217,490,185,-137,185,-137,423,73,13,58,194,44,194,44
"398","22573",49.268055,-100.995834,32,129,26,12565,271,-220,491,184,-112,184,-140,429,73,15,57,197,48,197,48
"399","263568",36.67,-89.95,146,121,32,8997,333,-43,376,147,209,258,24,1213,133,75,18,378,251,265,289
"400","3551854",40.46,-95.62,109,129,30,10489,317,-111,428,218,-34,238,-34,845,110,20,48,327,72,323,72
"401","2730471",39.84,-88.95,113,121,30,9739,306,-87,393,213,-20,232,-20,983,106,48,23,312,168,298,168
"402","2727326",42.03,-93.62,88,121,28,10943,296,-136,432,201,-63,220,-63,837,127,19,50,336,71,335,71
"403","3555541",37.16,-91.17,131,144,36,8728,324,-72,396,133,12,239,12,1132,116,59,18,337,230,283,230
"404","100139596",37.43,-90.63,127,137,35,8717,319,-69,388,128,9,235,9,1137,116,66,16,338,230,293,230
"405","952331",37.18,-91.04,131,143,36,8724,322,-72,394,132,11,238,11,1139,114,61,18,336,235,284,235
"408","269979",37.03,-90.47,132,136,34,8951,325,-68,393,134,196,243,10,1180,125,74,16,354,259,284,267
"409","2727865",38.73,-93.3,121,123,30,9634,316,-83,399,219,-10,240,-10,1019,124,36,34,348,128,316,128
"411","3572377",38.58,-90.37,128,122,31,9374,318,-70,388,224,1,245,1,989,104,51,18,293,185,270,185
"412","3534562",37.66,-92.53,129,133,34,8920,318,-70,388,178,8,239,8,1065,122,47,23,328,174,286,174
"413","3556751",37.06,-89.51,140,119,31,9033,325,-49,374,141,203,253,18,1204,130,75,17,371,256,280,278
"415","1200336",38.63,-90.28,131,118,30,9414,320,-65,385,227,4,248,4,968,102,50,19,292,179,269,179
"417","100220210",37.22,-90.19,130,135,34,8921,322,-67,389,132,9,241,9,1175,124,74,16,355,257,288,257
"419","2728639",38.61,-90.25,132,117,30,9445,322,-62,384,230,6,251,6,960,102,50,19,291,178,268,178
"420","409011",42.3833,-88.2833,84,113,27,10201,285,-121,406,210,-55,210,-55,902,105,31,32,310,124,310,124
"421","211676",41.95,-88.4333,86,115,28,10294,287,-121,408,213,-54,213,-54,934,109,33,32,318,128,318,128
"424","51828",38.247,-97.7193,129,133,32,9806,337,-78,415,229,-1,253,-1,766,114,16,49,307,64,284,64
"425","208692",45.6181,-106.561,61,157,35,9396,297,-141,438,108,-59,185,-59,430,74,17,50,189,57,138,57
"426","359105",39.6976,-97.7819,116,133,31,10205,330,-97,427,220,-20,245,-20,719,107,14,55,302,53,285,53
"427","359079",37.7992,-96.8445,133,130,32,9519,331,-73,404,229,7,253,7,875,131,21,46,343,83,319,83
"428","102850",37.833,-95.9882,133,131,32,9576,331,-78,409,228,2,251,2,952,134,26,43,348,93,327,93
"429","50936",37.4269,-95.5734,137,128,32,9350,332,-67,399,231,11,254,11,1012,132,34,38,353,112,319,112
"430","208671",43.2569,-98.9298,88,142,31,10919,317,-139,456,199,-58,225,-58,580,94,11,57,259,41,228,41
"431","338813",35.5689,-99.7197,147,146,36,8781,345,-54,399,194,31,258,31,622,106,13,53,250,55,204,55
"432","359161",37.2682,-98.0393,139,134,32,9618,346,-64,410,237,12,261,12,740,109,19,46,288,67,265,67
"433","342813",38.1442,-97.3525,128,129,31,9902,336,-79,415,228,-4,253,-4,810,121,18,48,322,71,292,71
"434","208684",40.7498,-98.5427,101,137,31,10307,316,-116,432,208,-36,231,-36,670,108,13,57,292,49,263,49
"436","352430",42.8624,-97.5488,87,128,28,11133,309,-141,450,202,-63,225,-63,552,84,11,52,234,43,222,43
"438","331271",38.6133,-97.7036,127,132,31,9954,336,-82,418,228,-4,254,-4,749,112,17,49,306,65,280,65
"439","340099",35.5964,-99.7269,149,149,36,8879,349,-55,404,197,32,262,32,605,104,12,53,245,53,199,53
"440","356107",38.1727,-95.2659,132,124,31,9518,327,-73,400,227,2,249,2,1009,144,31,41,358,105,344,105
"441","326536",38.9333,-95.4333,125,118,29,9730,320,-78,398,224,-5,247,-5,932,142,26,46,358,88,338,88
"442","104870",37.7031,-97.6836,134,128,31,9784,341,-70,411,233,4,258,4,767,111,17,47,299,69,277,69
"445","51776",37.7128,-97.4508,135,125,30,9759,338,-67,405,234,7,259,7,779,114,19,47,309,72,285,72
"452","50978",37.7961,-95.8441,133,130,31,9542,331,-76,407,228,3,251,3,970,135,28,42,352,97,331,97
"456","356172",38.1718,-95.2591,132,124,31,9518,327,-73,400,227,2,249,2,1009,144,31,41,358,105,344,105
"462","51788",38.8764,-95.2479,128,118,29,9646,321,-74,395,226,-1,248,-1,962,144,28,45,365,93,343,93
"464","51005",38.5668,-95.3184,129,124,31,9611,324,-76,400,226,-1,248,-1,975,143,30,43,359,98,338,98
"468","CONN00107405",39.45194,-97.52722,121,130,31,10034,331,-88,419,223,-13,248,-13,753,114,16,54,320,58,298,58
"470","50981",38.9604,-102.02,107,163,38,9245,329,-98,427,202,-9,228,-9,424,75,8,66,210,27,189,27
"471","51332",38.247,-97.7193,129,133,32,9806,337,-78,415,229,-1,253,-1,766,114,16,49,307,64,284,64
"472","208691",42.8624,-97.5488,87,128,28,11133,309,-141,450,202,-63,225,-63,552,84,11,52,234,43,222,43
"473","359070",38.4079,-96.3733,127,130,31,9714,328,-83,411,225,-4,248,-4,877,138,21,49,346,74,322,74
"474","326654",38.9181,-94.9792,128,117,29,9643,321,-72,393,227,-1,248,-1,961,139,29,44,361,94,340,94
"476","359078",37.7992,-96.8445,133,130,32,9519,331,-73,404,229,7,253,7,875,131,21,46,343,83,319,83
"477","331478",38.6519,-96.7997,124,129,31,9854,327,-87,414,223,-10,246,-10,858,136,21,48,336,75,309,75
"478","50903",39.2043,-96.37,123,130,31,9951,326,-89,415,224,-11,247,-11,871,137,20,51,353,71,326,71
"480","51328",38.6396,-99.5969,118,151,34,9843,337,-96,433,219,-10,245,-10,556,88,10,56,245,38,237,38
"481","338816",35.5731,-99.7325,147,146,36,8781,345,-54,399,194,31,258,31,622,106,13,53,250,55,204,55
"482","359101",39.7123,-97.3126,118,133,31,10149,330,-94,424,222,-18,246,-18,773,116,15,54,321,57,306,57
"487","50985",39.673,-99.1409,110,154,34,10148,336,-110,446,215,-23,240,-23,601,99,10,58,262,37,239,37
"489","51781",37.2352,-94.7482,141,123,32,8951,328,-51,379,190,22,253,22,1076,132,39,33,361,143,308,143
"492","CAGR4-27131",44.356842,-93.29748,66,119,25,11709,285,-174,459,207,-96,207,-96,778,107,21,48,310,72,310,72
"493","CAGR4-31073",40.50363,-99.82319,98,145,33,10009,313,-115,428,202,-33,226,-33,582,97,11,62,277,38,250,38
"494","CAGR4-55045",42.682274,-89.6017,78,118,28,10495,283,-137,420,206,-66,206,-66,862,104,29,38,307,104,307,104
"495","CAGR4-40129",35.686726,-99.70311,147,148,36,8884,347,-56,403,195,30,260,30,606,104,12,53,245,54,200,54
"496","CAGR4-27043",43.6771,-93.947845,71,116,26,11461,285,-160,445,210,-86,210,-86,767,115,18,54,328,61,328,61
"497","CAGR4-19133",42.050438,-95.95336,96,125,28,10805,306,-126,432,208,-52,228,-52,740,111,15,53,304,56,287,56
"498","CAGR4-55065",42.65942,-90.13523,79,117,27,10515,282,-137,419,207,-65,207,-65,875,109,29,39,317,101,317,101
"499","CAGR4-20127",38.686623,-96.643486,121,128,30,9906,324,-90,414,221,-13,244,-13,861,134,20,49,338,73,311,73
"500","CAGR4-46023",43.20619,-98.59471,88,136,30,10997,315,-138,453,201,-59,226,-59,586,97,11,57,258,43,233,43
"501","CAGR4-31053",41.57622,-96.6452,98,128,29,10662,311,-121,432,210,-46,231,-46,758,114,15,52,306,60,284,60
"502","CAGR4-38033",46.93852,-103.84393,54,142,30,10839,290,-169,459,165,-90,192,-90,378,77,8,66,184,29,163,29
"503","CAGR4-17193",38.08745,-88.1783,131,120,32,9031,316,-56,372,129,196,242,9,1092,122,68,19,344,224,272,232
"504","CAGR4-31129",40.176563,-98.04637,106,135,31,10247,319,-109,428,212,-30,236,-30,702,105,13,53,285,52,262,52
"505","CAGR4-31151",40.53135,-97.14231,106,129,30,10275,313,-108,421,211,-31,235,-31,743,113,14,55,306,56,292,56
"506","CAGR4-17049",39.06448,-88.58834,119,120,30,9523,311,-78,389,217,-11,236,-11,1009,105,54,19,310,196,283,196
"507","CAGR4-46127",42.831917,-96.65154,87,131,29,11176,305,-144,449,203,-65,224,-65,662,103,12,53,277,50,266,50
"508","CAGR4-38003",46.931923,-98.069756,41,133,27,12297,280,-208,488,191,-128,191,-128,488,87,10,61,221,37,221,37
"509","CAGR4-40151",36.765244,-98.86145,145,148,35,9380,351,-65,416,240,21,264,21,650,97,15,46,256,62,234,62
"510","CAGR4-20173",37.6835,-97.46202,135,125,30,9759,338,-67,405,234,7,259,7,779,114,19,47,309,72,285,72
"511","CAGR4-46103",44.006947,-102.820045,83,143,32,10011,308,-126,434,184,-29,213,-45,423,79,9,64,208,33,175,33
"512","CAGR4-31063",40.52695,-100.38809,98,157,35,9905,320,-118,438,201,-30,226,-30,534,97,10,67,265,32,239,32
"513","CAGR4-18083",38.690968,-87.419014,124,118,31,9210,310,-64,374,122,0,238,0,1107,125,67,19,336,222,301,222
"514","CAGR4-27073",45.000954,-96.1753,68,130,27,11793,298,-172,470,213,-93,213,-93,601,92,15,51,249,48,249,48
"515","CAGR4-31155",41.225723,-96.63376,100,130,30,10651,313,-120,433,212,-44,233,-44,793,115,15,51,310,60,292,60
"516","CAGR4-29203",37.15971,-91.403275,132,143,36,8723,324,-70,394,133,13,240,13,1116,117,56,19,335,218,282,218
"517","CAGR4-17109",40.455746,-90.67758,106,118,29,10057,304,-100,404,209,-31,229,-31,931,108,34,32,311,124,300,124
"518","CAGR4-31153",41.114,-96.110085,102,121,28,10477,306,-115,421,210,-39,232,-39,769,109,17,52,310,58,299,58
"519","CAGR4-18167",39.4288,-87.39027,115,119,30,9481,304,-80,384,212,-14,232,-14,1029,117,57,22,326,191,308,191
"520","CAGR4-17173",39.3947,-88.80926,117,120,30,9625,311,-80,391,217,-14,236,-14,988,105,52,20,308,181,289,181
"521","CAGR4-31025",40.91335,-96.13904,101,128,30,10422,308,-117,425,209,-39,231,-39,811,112,19,50,325,67,316,67
"522","CAGR4-38061",48.20159,-102.36582,38,134,28,11828,276,-199,475,159,-123,184,-123,436,83,11,63,207,37,191,37
"523","CAGR4-27013",44.032803,-94.06363,70,119,26,11580,287,-166,453,211,-89,211,-89,757,109,19,50,316,67,316,67
"524","CAGR4-20195",38.921356,-99.86477,117,148,35,9615,332,-90,422,215,-6,242,-6,556,84,11,56,247,40,231,40
"525","CAGR4-20171",38.481884,-100.90589,116,162,37,9495,335,-94,429,215,-5,240,-5,500,77,12,58,230,39,214,39
"526","CAGR4-20025",37.235596,-99.8178,135,159,37,9409,347,-79,426,231,13,255,13,575,89,12,55,250,47,231,47
"527","CAGR4-19149",42.73672,-96.21608,86,127,28,11072,301,-140,441,201,-64,222,-64,688,106,15,53,285,53,278,53
"528","CAGR4-55053",44.315224,-90.80837,63,131,28,11070,282,-172,454,184,-91,196,-91,822,106,23,46,314,79,313,79
"529","CAGR4-31017",42.444767,-99.93418,88,144,33,10243,311,-125,436,194,-45,219,-45,577,91,11,59,266,41,244,41
"530","CAGR4-38055",47.605423,-101.31539,47,131,27,11941,284,-191,475,169,-89,195,-115,418,83,10,67,200,32,194,32
"531","CAGR4-17113",40.494724,-88.84534,106,117,29,10040,301,-97,398,209,-31,229,-31,949,104,40,26,302,152,287,152
"532","CAGR4-27123",45.0153,-93.09961,71,111,25,11469,285,-159,444,211,-86,211,-86,757,111,21,49,314,70,314,70
"533","CAGR4-20163",39.35076,-99.32556,113,151,34,10138,336,-104,440,217,-20,243,-20,590,92,11,55,252,41,234,41
"534","CAGR4-29081",40.353954,-93.9818,104,123,29,10295,309,-111,420,219,-38,230,-38,907,114,24,44,331,85,321,85
"535","CAGR4-46117",44.40034,-100.74817,82,137,30,11028,317,-139,456,193,-43,222,-63,435,79,8,63,209,31,183,31
"536","CAGR4-27047",43.670692,-93.35026,68,115,25,11434,283,-160,443,208,-89,208,-89,798,112,20,50,325,67,325,67
"537","CAGR4-40053",36.798977,-97.78929,146,137,33,9531,352,-58,410,243,21,267,21,779,108,21,42,292,79,263,79
"538","CAGR4-27099",43.67181,-92.75089,66,114,26,11286,278,-160,438,203,-89,203,-89,812,112,20,50,328,71,328,71
"539","CAGR4-27161",44.019073,-93.58991,66,118,25,11665,283,-172,455,207,-95,207,-95,777,108,21,49,317,71,317,71
"540","CAGR4-26125",42.66015,-83.38368,88,106,27,9718,285,-95,380,209,-29,209,-42,787,88,39,22,245,138,245,139
"541","CAGR4-47017",35.976257,-88.45211,144,131,36,8313,320,-41,361,145,204,247,32,1359,137,84,15,387,274,309,354
"542","CAGR4-47111",36.529293,-86.00537,139,126,35,8138,312,-41,353,140,198,240,29,1382,139,84,14,384,288,340,352
"543","CAGR4-27147",44.0232,-93.22396,70,120,26,11542,289,-164,453,210,-89,210,-89,782,109,19,49,314,68,314,68
"544","CAGR4-31083",40.173714,-99.39884,103,143,33,10021,319,-110,429,206,-28,231,-28,595,97,10,61,272,36,251,36
"545","CAGR4-55021",43.471188,-89.32992,74,117,27,10633,283,-141,424,192,-71,204,-71,805,99,27,39,290,93,288,93
"546","CAGR4-47097",35.757435,-89.63477,153,115,32,8492,327,-26,353,154,213,259,39,1298,131,72,19,391,247,273,339
"547","CAGR4-17051",39.001152,-89.01781,121,121,31,9466,314,-74,388,177,-7,238,-7,976,102,50,21,300,184,273,184
"548","CAGR4-29061",39.96058,-93.98644,109,126,29,10214,313,-108,421,223,-32,234,-32,910,116,24,43,324,91,311,91
"549","CAGR4-55059",42.5823,-87.80553,83,96,25,9575,263,-108,371,197,-46,201,-46,857,98,30,31,288,123,286,123
"550","CAGR4-29121",39.829773,-92.5597,114,121,29,9813,311,-93,404,214,-21,234,-21,997,116,34,35,336,122,319,122
"551","CAGR4-20011",37.85609,-94.85061,135,125,31,9484,331,-69,400,187,7,253,7,1056,141,36,37,364,123,337,123
"552","CAGR4-40069",34.31465,-96.65529,166,131,35,8308,345,-24,369,210,55,270,55,1007,138,43,33,348,150,241,150
"553","CAGR4-27039",44.026863,-92.86205,66,118,26,11376,282,-164,446,204,-90,204,-90,791,111,19,50,320,68,320,68
"554","CAGR4-46083",43.27942,-96.72193,77,131,28,11296,297,-157,454,194,-76,216,-76,632,101,12,54,263,48,261,48
"555","CAGR4-17177",42.3501,-89.6659,81,118,28,10468,286,-132,418,210,-62,210,-62,872,105,29,37,306,105,306,105
"556","CAGR4-17115",39.86,-88.961296,113,121,30,9739,306,-87,393,213,-20,232,-20,983,106,48,23,312,168,298,168
"557","CAGR4-19077",41.683567,-94.50113,91,125,28,10800,302,-132,434,202,-58,222,-58,843,118,22,46,323,78,321,78
"558","CAGR4-20053",38.69577,-98.204926,123,143,33,9997,338,-92,430,225,-9,250,-9,696,102,14,51,291,55,269,55
"559","CAGR4-17181",37.468895,-89.25607,134,120,32,8965,316,-55,371,134,198,245,12,1189,126,75,15,360,254,294,269
"560","CAGR4-46095",43.58018,-100.76101,90,150,33,10480,325,-129,454,197,-46,224,-46,467,83,8,65,229,31,198,31
"561","CAGR4-27049",44.41467,-92.722336,65,120,26,11343,280,-168,448,202,-91,202,-91,793,111,19,49,319,68,319,68
"562","CAGR4-17035",39.27376,-88.239685,117,117,30,9582,308,-79,387,215,-14,234,-14,1010,107,52,20,308,190,288,190
"563","CAGR4-17123",41.03112,-89.3423,103,120,29,10191,304,-106,410,207,-38,227,-38,922,102,33,31,301,128,292,128
"564","CAGR4-27067",45.152287,-95.00812,62,117,25,12106,285,-182,467,208,-105,208,-105,678,107,19,51,285,60,285,60
"565","CAGR4-27055",43.67414,-91.49116,69,115,26,11175,281,-159,440,205,-85,205,-85,833,105,23,45,315,81,315,81
"566","CAGR4-38091",47.458286,-97.71868,42,127,26,12564,281,-207,488,194,-130,194,-130,505,86,11,58,226,41,226,41
"567","CAGR4-20051",38.916466,-99.31476,119,147,34,9847,335,-93,428,219,-9,245,-9,588,90,11,56,259,41,247,41
"568","CAGR4-17071",40.810093,-90.92639,104,117,28,10207,303,-105,408,209,-35,229,-35,907,105,32,34,304,117,302,117
"569","CAGR4-27167",46.35533,-96.47104,54,122,25,12476,286,-198,484,205,-117,205,-117,555,93,12,59,248,42,248,42
"570","CAGR4-27163",45.038074,-92.889206,70,113,25,11579,287,-164,451,210,-90,210,-90,780,113,21,49,318,71,318,71
"571","CAGR4-29183",38.778744,-90.67492,123,126,31,9441,317,-80,397,219,-6,240,-6,961,106,45,21,296,168,270,168
"572","CAGR4-20149",39.379536,-96.333885,118,128,30,10074,323,-96,419,221,-18,244,-18,875,137,19,52,356,69,334,69
"573","CAGR4-46021",45.76052,-100.047745,60,138,28,11924,301,-182,483,182,-101,208,-101,427,81,8,64,201,27,188,27
"574","CAGR4-31019",40.855145,-99.074486,94,143,33,10240,311,-122,433,201,-41,225,-41,635,104,11,59,287,44,260,44
"575","CAGR4-19167",43.082977,-96.17742,81,128,28,11233,299,-148,447,198,-72,219,-72,687,107,15,53,282,54,282,54
"576","CAGR4-27051",45.931835,-96.01079,52,122,25,12366,283,-200,483,202,-118,202,-118,585,96,14,56,257,47,257,47
"577","CAGR4-55049",42.99792,-90.133865,72,115,27,10653,277,-145,422,202,-74,202,-74,865,105,29,39,315,101,315,101
"578","CAGR4-17091",41.137733,-87.86273,97,115,28,10062,292,-108,400,199,-42,219,-42,953,105,37,28,309,143,297,143
"579","CAGR4-31183",41.918,-98.5253,87,142,32,10446,306,-134,440,196,-52,219,-52,613,99,12,56,266,43,256,43
"580","CAGR4-55047",43.807655,-89.044235,73,116,27,10745,283,-144,427,192,-74,204,-74,795,100,27,38,285,94,278,94
"581","CAGR4-38029",46.284744,-100.23685,54,142,29,11929,296,-192,488,176,-107,202,-107,426,81,10,63,201,31,187,31
"582","CAGR4-17151",37.41135,-88.57321,135,121,33,8697,314,-51,365,136,198,243,17,1217,126,75,16,368,248,297,286
"583","CAGR4-27037",44.6848,-93.06482,70,117,25,11579,289,-166,455,210,-89,210,-89,777,107,21,47,311,72,311,72
"584","CAGR4-17061",39.352325,-90.38615,117,120,30,9566,309,-82,391,215,-13,235,-13,925,106,40,25,294,146,272,146
"585","CAGR4-20015",37.77362,-96.833954,133,130,32,9519,331,-73,404,229,7,253,7,875,131,21,46,343,83,319,83
"586","CAGR4-38081",46.106625,-97.62929,53,131,26,12337,291,-198,489,179,-116,204,-116,494,87,12,59,222,36,219,36
"587","CAGR4-29097",37.201946,-94.33556,138,125,32,8945,325,-56,381,187,18,250,18,1084,134,40,31,362,150,310,150
"588","CAGR4-29145",36.90724,-94.33155,134,129,34,8631,318,-58,376,182,18,242,18,1106,128,45,27,359,168,304,168
"589","CAGR4-17093",41.58779,-88.43071,92,116,28,10201,291,-115,406,196,-47,217,-47,926,105,34,30,305,132,304,132
"590","CAGR4-31037",41.576168,-97.08788,97,128,29,10688,311,-123,434,209,-47,230,-47,723,115,14,53,302,57,279,57
"591","CAGR4-40083",35.911613,-97.45326,156,132,34,8974,349,-39,388,204,39,270,39,843,133,26,41,311,102,244,102
"592","CAGR4-19071",40.743126,-95.599945,104,125,29,10623,312,-116,428,215,-41,235,-41,850,112,19,49,330,70,326,70
"593","CAGR4-20139",38.64992,-95.72702,126,125,30,9736,325,-82,407,225,-6,247,-6,927,138,25,45,350,86,325,86
"594","CAGR4-31055",41.2995,-96.14738,101,119,28,10530,305,-114,419,210,-41,232,-41,755,108,15,53,303,54,288,54
"595","CAGR4-42091",40.20937,-75.37045,111,112,31,8773,294,-65,359,201,-5,222,-5,1122,111,73,12,315,245,310,245
"596","CAGR4-17019",40.14036,-88.196175,108,112,29,9827,298,-86,384,209,-25,229,-25,960,111,47,24,310,160,301,160
"597","CAGR4-55101",42.78476,-87.7551,82,93,25,9654,265,-107,372,202,-47,202,-47,847,95,33,29,279,127,279,127
"598","CAGR4-20029",39.482838,-97.65591,119,129,30,10012,329,-88,417,221,-14,246,-14,749,112,16,54,318,58,296,58
"599","CAGR4-31131",40.6522,-96.13576,106,133,30,10405,318,-112,430,214,-34,236,-34,815,109,20,49,323,69,316,69
"600","CAGR4-17105",40.888096,-88.55674,101,116,29,10078,296,-102,398,204,-37,224,-37,903,103,36,28,297,138,285,138
"601","CAGR4-17155",41.203304,-89.2822,99,120,29,10251,299,-111,410,203,-43,223,-43,913,101,32,31,300,124,296,124
"602","CAGR4-40147",36.722336,-95.90427,147,134,34,9029,340,-53,393,197,27,261,27,983,124,35,34,332,126,277,126
"603","CAGR4-20087",39.228657,-95.38173,124,121,30,9800,321,-81,402,224,-8,246,-8,956,141,26,47,370,88,346,88
"604","CAGR4-17139",39.638344,-88.61679,114,119,30,9715,307,-84,391,214,-18,233,-18,991,107,51,22,311,177,296,177
"605","CAGR4-19141",43.084045,-95.6255,78,124,27,11445,296,-156,452,217,-79,217,-79,714,108,14,54,299,52,299,52
"606","CAGR4-18157",40.38795,-86.89367,103,115,29,9665,295,-94,389,202,-29,221,-29,948,102,45,23,300,164,297,164
"607","CAGR4-38047",46.45013,-99.476776,47,134,27,11970,286,-194,480,170,-115,195,-115,449,86,10,65,214,30,204,30
"608","CAGR4-31133",40.13009,-96.23962,111,130,30,10248,321,-103,424,217,-26,240,-26,831,116,19,50,328,68,325,68
"609","CAGR4-46027",42.917103,-96.97375,82,134,29,11341,305,-154,459,200,-73,222,-73,627,101,11,55,270,46,258,46
"610","CAGR4-19119",43.373077,-96.20907,76,131,28,11281,298,-156,454,215,-77,215,-77,676,105,14,53,280,52,280,52
"611","CAGR4-29189",38.6388,-90.442764,127,122,31,9403,318,-72,390,223,-1,244,-1,983,104,50,19,294,182,270,182
"612","CAGR4-17167",39.758125,-89.65802,115,115,29,9830,307,-85,392,216,-20,235,-20,916,96,41,24,287,153,275,153
"613","CAGR4-46099",43.68146,-96.7859,71,127,27,11452,294,-163,457,190,-84,213,-84,619,98,12,54,256,46,252,46
"614","CAGR4-27017",46.59019,-92.68017,38,131,28,11378,265,-202,467,176,-119,176,-119,749,107,17,50,308,69,308,69
"615","CAGR4-27019",44.82052,-93.79808,64,121,26,11671,285,-176,461,206,-96,206,-96,744,109,19,50,310,63,310,63
"616","CAGR4-20209",39.1144,-94.766174,127,113,29,9670,319,-70,389,226,-2,247,-2,967,132,29,44,362,96,340,96
"617","CAGR4-20047",37.883476,-99.30407,129,145,34,9656,341,-80,421,227,2,252,2,612,94,12,51,259,52,248,52
"618","CAGR4-26021",41.942844,-86.59226,98,102,27,9472,283,-85,368,207,-16,215,-30,956,98,45,19,279,171,275,178
"619","CAGR4-17021",39.54731,-89.27809,118,121,30,9711,312,-81,393,217,-15,236,-15,962,102,48,22,302,168,285,168
"620","CAGR4-20003",38.21568,-95.29203,132,124,31,9518,327,-73,400,227,2,249,2,1009,144,31,41,358,105,344,105
"621","CAGR4-46135",43.00896,-97.38676,83,131,28,11260,307,-149,456,199,-70,222,-70,592,94,11,55,255,43,239,43
"622","CAGR4-20089",39.785618,-98.21803,106,138,31,10347,325,-112,437,213,-32,237,-32,710,104,14,52,289,54,271,54
"623","CAGR4-17137",39.714546,-90.19812,113,118,30,9590,304,-85,389,211,-18,230,-18,942,109,39,27,308,141,285,141
"624","CAGR4-18111",40.95134,-87.40217,97,117,29,9884,292,-103,395,198,-38,218,-38,969,108,41,26,312,153,302,153
"625","CAGR4-17161",41.46895,-90.565506,99,108,26,10434,296,-107,403,227,-43,227,-43,897,109,31,36,316,115,316,115
"626","CAGR4-38037",46.357872,-101.63878,54,138,29,11315,289,-175,464,170,-98,196,-98,426,85,8,69,209,27,190,27
"627","CAGR4-55011",44.378605,-91.75244,68,121,26,11287,284,-166,450,204,-89,204,-89,829,112,19,48,320,73,320,73
"628","CAGR4-19143",43.377346,-95.61935,69,124,27,11555,289,-166,455,210,-90,210,-90,708,105,14,53,293,54,293,54
"629","CAGR4-29085",37.942043,-93.31901,129,128,32,9338,323,-75,398,181,2,245,2,1046,126,39,30,341,146,298,146
"630","CAGR4-40087",34.9996,-97.44043,162,137,35,8553,349,-35,384,209,47,269,47,918,138,33,38,329,124,235,124
"631","CAGR4-29047",39.313004,-94.42334,123,117,29,9788,316,-81,397,222,-10,244,-10,968,123,31,42,359,102,337,102
"632","CAGR4-40027",35.20082,-97.328476,161,131,34,8540,345,-32,377,207,47,267,47,897,140,32,39,330,117,239,117
"633","CAGR4-05007",36.337986,-94.25784,136,130,34,8502,319,-57,376,183,21,242,21,1147,136,51,25,368,191,298,191
"634","CAGR4-27087",47.325653,-95.81042,38,126,26,12298,267,-217,484,185,-132,185,-132,619,105,14,57,277,54,277,54
"635","CAGR4-17187",40.853294,-90.61473,102,117,28,10148,300,-104,404,206,-37,226,-37,929,110,36,32,311,127,309,127
"636","CAGR4-17131",41.204105,-90.74161,99,115,28,10260,298,-107,405,225,-40,225,-40,904,109,32,35,312,115,312,115
"637","CAGR4-29033",39.42791,-93.50107,119,122,30,9833,317,-87,404,219,-16,239,-16,973,118,30,37,334,112,314,112
"638","CAGR4-20121",38.564655,-94.83353,129,124,30,9601,325,-76,401,226,-2,247,-2,1003,148,32,42,361,106,340,106
"639","CAGR4-27091",43.67716,-94.556725,74,115,25,11472,288,-155,443,213,-83,213,-83,740,108,18,52,307,60,307,60
"640","CAGR4-29063",39.898853,-94.404526,109,124,29,10224,311,-109,420,213,-33,234,-33,916,120,25,44,332,89,320,89
"641","CAGR4-38071",48.25198,-98.716225,34,127,25,12659,273,-216,489,187,-140,187,-140,436,81,10,65,210,35,210,35
"642","CAGR4-17043",41.85171,-88.08593,92,113,28,10099,291,-110,401,217,-45,217,-45,930,106,34,30,310,135,310,135
"643","CAGR4-17017",39.976727,-90.24683,111,118,29,9806,305,-90,395,212,-23,231,-23,958,104,39,26,307,147,290,147
"644","CAGR4-38093",46.979176,-98.95502,50,131,27,12107,288,-193,481,174,-114,199,-114,449,88,9,66,215,31,213,31
"645","CAGR4-55103",43.37718,-90.42664,71,122,27,10777,284,-154,438,190,-77,202,-77,836,103,25,41,305,89,302,89
"646","CAGR4-05131",35.19915,-94.27539,159,137,37,8205,341,-28,369,157,50,262,50,1003,132,46,24,309,176,253,176
"647","CAGR4-30087",46.225807,-106.724396,73,159,34,10019,314,-145,459,126,-58,203,-58,343,62,10,59,159,36,121,36
"648","CAGR4-20177",39.0426,-95.757805,125,123,30,9779,322,-82,404,224,-7,246,-7,898,130,30,41,334,102,318,102
"649","CAGR4-48113",32.76685,-96.77801,186,120,34,7889,354,10,344,228,95,286,82,921,131,48,31,318,168,194,168
"650","CAGR4-42029",39.967136,-75.75193,111,110,31,8709,291,-63,354,199,8,221,-4,1138,115,74,12,322,248,316,249
"651","CAGR4-20201",39.784203,-97.08591,118,135,31,10200,330,-97,427,222,-19,246,-19,785,116,15,53,320,58,307,58
"652","CAGR4-20153",39.789524,-101.07387,102,161,36,9732,327,-111,438,202,-23,229,-23,533,94,12,62,260,38,222,38
"653","CAGR4-17111",42.32425,-88.451935,84,115,28,10308,287,-123,410,211,-57,211,-57,915,107,32,33,316,124,316,124
"654","CAGR4-31109",40.784046,-96.68857,107,125,29,10603,318,-109,427,217,-35,240,-35,749,108,16,52,302,59,294,59
"655","CAGR4-20199",38.90893,-101.75403,115,167,38,9335,340,-93,433,212,-2,238,-2,447,79,9,64,220,30,193,30
"656","CAGR4-31097",40.39631,-96.26608,108,133,31,10293,319,-108,427,214,-30,237,-30,816,107,19,48,319,69,315,69
"657","CAGR4-46015",43.718227,-99.0646,81,141,30,11048,312,-147,459,193,-66,219,-66,532,86,10,58,241,36,214,36
"658","CAGR4-47105",35.7344,-84.312004,140,132,38,7809,309,-34,343,52,198,238,36,1377,149,82,16,392,274,337,375
"659","CAGR4-40145",35.958874,-95.52279,156,130,34,8673,341,-38,379,203,39,264,39,1048,131,46,30,352,158,269,158
"660","CAGR4-27125",47.876728,-96.0965,40,126,25,12610,275,-216,491,191,-135,191,-135,558,95,11,62,259,44,259,44
"661","CAGR4-40101",35.609352,-95.37944,158,131,35,8454,342,-32,374,205,45,264,45,1082,139,47,28,358,171,264,171
"662","CAGR4-35059",36.475533,-103.4708,111,167,42,7936,310,-80,390,214,10,214,10,398,76,7,70,196,24,196,24
"663","CAGR4-20169",38.78145,-97.6478,130,130,31,10043,339,-78,417,232,-2,258,-2,746,111,19,49,310,70,277,70
"664","CAGR4-17197",41.43924,-87.9824,96,112,28,10105,291,-108,399,198,-43,219,-43,947,105,36,29,306,139,302,139
"665","CAGR4-20205",37.558945,-95.74166,138,131,32,9342,335,-67,402,231,12,254,12,990,131,31,40,354,105,321,105
"666","CAGR4-31165",42.48078,-103.77126,74,171,38,9371,307,-135,442,169,-45,197,-45,381,76,9,70,196,27,154,27
"667","CAGR4-20179",39.350548,-100.440895,116,156,36,9628,336,-93,429,215,-8,241,-8,531,91,11,61,249,35,221,35
"668","CAGR4-40071",36.81488,-97.14358,148,129,32,9349,346,-51,397,241,24,266,24,864,120,26,41,318,92,283,92
"669","CAGR4-48503",33.17725,-98.69817,177,144,37,8167,359,-21,380,221,67,279,67,741,110,30,40,261,105,186,105
"670","CAGR4-38057",47.30246,-101.81696,55,138,29,11450,292,-177,469,172,-99,197,-99,428,86,10,66,208,32,192,32
"671","CAGR4-17077",37.78752,-89.38149,131,124,32,9083,318,-62,380,131,7,243,7,1119,116,66,17,335,235,292,235
"672","CAGR4-31015",42.89596,-98.771706,91,137,30,10797,315,-131,446,202,-53,227,-53,584,97,10,59,261,37,239,37
"673","CAGR4-29105",37.65993,-92.594734,128,129,33,8915,316,-68,384,177,7,238,7,1068,123,47,23,332,171,288,171
"674","CAGR4-31085",40.527027,-101.05956,95,154,35,9650,316,-114,430,195,-29,221,-29,517,91,10,65,257,33,226,33
"675","CAGR4-20161",39.29294,-96.72732,119,131,31,10138,326,-96,422,222,-18,246,-18,846,134,18,53,352,65,326,65
"676","CAGR4-29005",40.425385,-95.43392,106,126,29,10492,313,-114,427,216,-37,235,-37,858,110,21,48,327,74,324,74
"677","CAGR4-38017",46.927063,-97.25219,49,128,26,12421,287,-200,487,200,-120,200,-120,498,83,10,60,223,36,223,36
"678","CAGR4-05005",36.286224,-92.33984,142,138,36,8492,330,-53,383,142,27,247,27,1130,125,61,19,342,235,256,235
"679","CAGR4-55109",45.038876,-92.44689,64,119,25,11611,284,-176,460,204,-98,204,-98,795,113,20,49,321,72,321,72
"680","CAGR4-27085",44.825546,-94.27126,65,118,25,11899,287,-178,465,209,-100,209,-100,711,110,18,52,302,57,302,57
"681","CAGR4-31163",41.22217,-98.97306,93,146,33,10188,310,-126,436,200,-41,223,-41,635,104,11,58,284,45,258,45
"682","CAGR4-29077",37.25725,-93.33728,131,126,33,8872,317,-63,380,179,12,242,12,1082,121,45,25,341,174,294,174
"683","CAGR4-20041",38.864094,-97.157585,128,134,31,9996,337,-84,421,229,-6,254,-6,840,132,23,46,332,79,307,79
"684","CAGR4-19047",42.039143,-95.383705,87,120,27,10905,295,-134,429,200,-63,220,-63,771,113,18,52,309,64,299,64
"685","CAGR4-27171",45.175243,-93.96809,66,121,26,11817,290,-175,465,209,-97,209,-97,730,111,19,51,303,63,303,63
"686","CAGR4-20021",37.16942,-94.84551,140,123,32,8970,328,-52,380,190,21,253,21,1069,135,38,34,363,136,309,136
"687","CAGR4-46121",43.179626,-100.72888,81,148,33,10375,311,-135,446,187,-54,214,-54,493,83,8,64,241,32,212,32
"688","CAGR4-55017",45.067528,-91.28237,63,125,27,11257,283,-171,454,199,-92,199,-92,810,113,19,50,322,74,322,74
"689","CAGR4-27173",44.719036,-95.863304,68,123,26,11758,293,-168,461,190,-92,212,-92,626,91,18,48,254,56,253,56
"690","CAGR4-46063",45.59065,-103.49758,67,151,33,10536,305,-150,455,174,-71,202,-71,390,80,8,70,200,27,164,27
"691","CAGR4-56019",44.039658,-106.5874,68,164,36,9336,300,-144,444,113,-51,191,-51,321,59,9,61,153,30,111,30
"692","CAGR4-31099",40.50623,-98.946236,100,139,32,10120,313,-114,427,205,-33,228,-33,638,104,11,60,290,42,263,42
"693","CAGR4-38073",46.458866,-97.66394,50,132,27,12182,286,-198,484,175,-116,199,-116,494,85,11,60,221,36,220,36
"694","CAGR4-38035",47.918884,-97.45419,39,119,24,12718,273,-211,484,168,-136,193,-136,490,85,10,60,219,42,219,42
"695","CAGR4-27139",44.6548,-93.53494,63,121,26,11711,283,-178,461,205,-99,205,-99,741,106,18,52,312,62,312,62
"696","CAGR4-20045",38.884403,-95.286934,127,118,29,9654,320,-75,395,225,-2,247,-2,958,144,28,45,364,92,343,92
"697","CAGR4-27109",44.0025,-92.39915,65,118,26,11200,278,-164,442,201,-88,201,-88,812,114,20,48,325,72,325,72
"698","CAGR4-55117",43.715694,-87.6631,77,94,25,9650,265,-110,375,193,-52,197,-52,794,96,32,28,265,121,249,121
"699","CAGR4-46073",44.06216,-98.6224,76,128,28,11298,304,-149,453,192,-75,218,-75,545,86,10,57,241,38,213,38
"700","CAGR4-31137",40.508945,-99.4095,100,137,32,9926,311,-107,418,203,-29,227,-29,610,100,11,62,284,40,257,40
"701","CAGR4-17001",39.985905,-91.19461,111,109,27,9939,304,-89,393,213,-24,233,-24,963,114,35,31,321,132,302,132
"702","CAGR4-56005",44.240112,-105.54864,64,146,33,9517,296,-134,430,108,-57,190,-57,393,72,13,59,185,42,142,42
"703","CAGR4-31071",41.894207,-98.98241,89,144,32,10355,308,-130,438,197,-48,220,-48,597,96,11,57,262,43,253,43
"704","CAGR4-27001",46.60659,-93.413734,41,127,26,11741,265,-209,474,182,-122,182,-122,718,108,15,55,311,59,311,59
"705","CAGR4-38007",47.0353,-103.36703,60,143,31,10946,295,-165,460,172,-86,198,-86,390,83,8,70,197,28,174,28
"706","CAGR4-17063",41.288933,-88.427505,96,118,29,10158,294,-111,405,200,-43,220,-43,913,100,35,29,297,133,287,133
"707","CAGR4-46081",44.363728,-103.790855,62,126,33,8643,267,-110,377,99,-31,178,-44,667,104,27,46,288,92,217,92
"708","CAGR4-20135",38.475433,-99.91556,119,155,35,9872,339,-97,436,221,-9,246,-9,539,85,11,57,241,39,229,39
"709","CAGR4-20197",38.95481,-96.2003,121,126,30,9813,321,-87,408,221,-11,243,-11,886,132,22,48,347,77,321,77
"710","CAGR4-08125",40.000313,-102.42238,103,163,38,9069,321,-99,420,196,-11,221,-11,433,79,9,67,221,28,191,28
"711","CAGR4-19175",41.027668,-94.24208,97,121,28,10495,302,-118,420,205,-47,226,-47,875,113,22,47,330,77,324,77
"712","CAGR4-27045",43.67507,-92.08896,64,123,27,11199,279,-169,448,200,-91,200,-91,829,108,21,47,323,76,323,76
"713","CAGR4-17081",38.30073,-88.92351,126,120,31,9142,313,-64,377,125,2,239,2,1058,112,61,18,322,215,271,215
"714","CAGR4-46091",45.762753,-97.60154,58,130,26,12192,295,-190,485,183,-109,207,-109,493,89,11,61,228,35,222,35
"715","CAGR4-19035",42.735462,-95.62302,80,127,28,11206,296,-150,446,197,-74,217,-74,740,112,14,54,303,54,302,54
"716","CAGR4-29025",39.659252,-93.97877,113,124,29,10021,314,-101,415,215,-25,236,-25,947,118,27,41,335,101,316,101
"717","CAGR4-55027",43.41577,-88.70802,76,114,27,10616,284,-138,422,194,-70,205,-70,804,101,27,38,293,97,285,97
"718","CAGR4-19187",42.434147,-94.17879,85,122,28,10988,296,-139,435,219,-65,219,-65,828,124,21,50,335,71,335,71
"719","CAGR4-17135",39.22814,-89.478134,120,121,30,9588,316,-76,392,177,-10,239,-10,975,105,51,21,306,176,277,176
"720","CAGR4-27027",46.898506,-96.49453,48,122,24,12638,283,-207,490,201,-125,201,-125,558,93,11,59,250,43,250,43
"721","CAGR4-27081",44.40828,-96.27164,63,120,26,11583,287,-168,455,183,-94,206,-94,629,98,13,54,266,44,260,44
"722","CAGR4-31027",42.598007,-97.24948,87,131,29,10901,303,-138,441,200,-59,222,-59,620,99,12,54,265,47,246,47
"723","CAGR4-20131",39.776154,-96.018776,117,129,30,10139,323,-96,419,221,-20,243,-20,872,129,20,51,344,70,334,70
"724","CAGR4-27169",43.984818,-91.77491,66,121,27,11210,281,-166,447,202,-89,202,-89,837,111,21,47,323,76,323,76
"725","CAGR4-17045",39.678974,-87.74717,112,116,30,9625,302,-83,385,211,-18,231,-18,1018,114,55,21,322,191,309,191
"726","CAGR4-27165",43.97856,-94.614876,74,119,26,11509,292,-157,449,215,-83,215,-83,705,104,15,54,296,51,296,51
"727","CAGR4-27053",45.00337,-93.47489,67,117,25,11535,285,-167,452,208,-90,208,-90,752,111,20,50,313,68,313,68
"728","CAGR4-27093",45.123,-94.52708,66,119,25,11944,291,-175,466,211,-98,211,-98,704,114,18,53,298,57,298,57
"729","CAGR4-29167",37.616783,-93.40052,129,131,33,9131,322,-74,396,180,5,242,5,1076,125,41,27,346,161,296,161
"730","CAGR4-56011",44.59008,-104.56408,65,151,34,9594,294,-138,432,112,-58,191,-58,436,79,14,56,198,47,163,47
"731","CAGR4-27023",45.02851,-95.5638,64,120,25,11931,287,-178,465,209,-100,209,-100,557,86,19,51,245,58,245,58
"732","CAGR4-46071",43.697,-101.636475,92,154,33,10432,329,-124,453,198,-43,227,-43,422,79,7,67,211,25,180,25
"733","CAGR4-20145",38.181347,-99.23223,128,145,34,9658,340,-82,422,227,2,251,2,605,95,13,53,262,50,251,50
"734","CAGR4-40055",34.930897,-99.557686,159,149,36,8893,359,-45,404,209,42,272,42,636,110,17,50,250,65,199,65
"735","CAGR4-17149",39.62038,-90.8856,113,117,29,9734,306,-87,393,213,-19,233,-19,956,109,38,28,310,139,290,139
"736","CAGR4-17121",38.64915,-88.91935,124,120,31,9329,315,-70,385,124,-2,239,-2,1030,108,52,20,310,201,274,201
"737","CAGR4-38027",47.723347,-98.90002,39,129,26,12440,278,-208,486,190,-131,190,-131,452,86,11,62,211,38,211,38
"738","CAGR4-17171",39.64788,-90.47829,115,119,30,9622,307,-84,391,214,-16,233,-16,931,108,38,27,303,139,280,139
"739","CAGR4-17085",42.36449,-90.21006,82,115,27,10521,285,-132,417,211,-62,211,-62,885,108,30,37,312,105,312,105
"740","CAGR4-38065",47.112667,-101.345345,49,136,28,11556,286,-184,470,168,-107,193,-107,438,84,10,64,207,33,197,33
"741","CAGR4-46029",44.976257,-97.17871,59,126,26,11817,287,-182,469,180,-102,204,-102,556,95,13,58,251,41,245,41
"742","CAGR4-17125",40.23766,-89.913536,111,117,29,10002,307,-94,401,213,-27,232,-27,927,100,39,26,294,145,281,145
"743","CAGR4-20183",39.784683,-98.785,115,145,33,10212,337,-102,439,220,-19,245,-19,621,98,10,58,265,38,245,38
"744","CAGR4-20151",37.647724,-98.739784,134,143,34,9513,343,-73,416,231,8,255,8,664,99,13,48,267,59,251,59
"745","CAGR4-55139",44.06227,-88.64346,72,111,26,10675,278,-140,418,192,-72,204,-72,774,94,26,37,277,93,275,93
"746","CAGR4-46109",45.623554,-96.94756,66,127,26,11931,298,-175,473,188,-97,212,-97,536,84,13,56,232,40,227,40
"747","CAGR4-20099",37.191475,-95.29761,138,128,32,9292,332,-67,399,189,12,253,12,1055,136,36,36,359,124,305,124
"748","CAGR4-38053",47.73283,-103.388756,59,143,30,11344,299,-174,473,176,-93,201,-93,386,78,9,66,189,31,169,31
"749","CAGR4-31039",41.916355,-96.78837,92,131,29,10904,308,-134,442,205,-57,227,-57,719,112,14,54,304,57,276,57
"750","CAGR4-17103",41.73995,-89.299774,89,115,28,10303,287,-120,407,214,-53,214,-53,918,110,31,34,313,119,313,119
"751","CAGR4-19193",42.3881,-96.03664,90,126,28,10962,302,-134,436,204,-59,225,-59,716,109,15,53,297,55,283,55
"752","CAGR4-17099",41.340916,-88.88487,96,115,28,10112,289,-110,399,199,-43,219,-43,917,102,34,30,301,130,295,130
"753","CAGR4-38045",46.466206,-98.530106,51,133,27,12096,289,-192,481,175,-114,199,-114,493,90,11,60,222,36,217,36
"754","CAGR4-38077",46.265335,-96.95128,55,126,25,12364,291,-195,486,206,-114,206,-114,519,86,12,58,231,39,231,39
"755","CAGR4-17183",40.182453,-87.73842,105,114,29,9697,295,-91,386,205,-27,224,-27,986,111,48,24,320,167,309,167
"756","CAGR4-17143",40.790222,-89.759056,102,116,28,10164,298,-106,404,206,-38,226,-38,930,102,36,29,303,133,292,133
"757","CAGR4-17185",38.44393,-87.84039,128,118,31,9218,316,-60,376,127,4,243,4,1101,122,66,19,342,227,285,227
"758","CAGR4-31181",40.178055,-98.49784,104,139,32,10209,318,-113,431,209,-31,234,-31,675,107,12,56,286,47,261,47
"759","CAGR4-40095",34.025326,-96.769485,170,125,34,8167,347,-13,360,213,61,273,61,993,134,46,32,339,158,232,158
"760","CAGR4-29095",39.010063,-94.34381,124,119,30,9699,317,-78,395,223,-6,244,-6,974,128,32,42,357,103,334,103
"761","CAGR4-29001",40.188408,-92.5988,107,122,30,9907,306,-100,406,209,-28,228,-28,950,112,34,37,323,115,319,115
"762","CAGR4-40111",35.643967,-95.965546,156,134,35,8439,340,-38,378,203,43,261,43,1025,138,41,31,350,151,258,151
"763","CAGR4-31065",40.173412,-99.91475,104,157,35,10025,327,-115,442,208,-27,233,-27,584,96,12,61,273,41,247,41
"764","CAGR4-20119",37.24001,-100.35926,132,161,37,9385,345,-82,427,228,10,252,10,536,83,12,55,238,45,220,45
"765","CAGR4-27155",45.771538,-96.46993,63,126,26,12110,296,-180,476,188,-102,211,-102,559,92,14,55,239,45,239,45
"766","CAGR4-19129",41.033604,-95.61829,99,123,28,10683,306,-122,428,211,-47,230,-47,828,114,19,50,328,68,319,68
"767","CAGR4-40013",33.97016,-96.25483,167,129,36,8071,343,-15,358,211,60,268,60,1072,142,50,29,358,183,245,183
"768","CAGR4-31147",40.12382,-95.7183,114,131,30,10350,323,-104,427,221,-27,242,-27,856,114,21,49,331,72,327,72
"769","CAGR4-29109",37.107937,-93.82967,130,124,32,8903,315,-66,381,178,9,240,9,1101,127,44,27,353,168,305,168
"770","CAGR4-20107",38.207123,-94.84087,130,125,30,9596,327,-78,405,183,-1,248,-1,1034,144,35,39,361,113,339,113
"771","CAGR4-17029",39.5126,-88.22059,114,116,29,9686,307,-81,388,214,-17,233,-17,1003,110,53,21,311,186,295,186
"772","CAGR4-40113",36.63122,-96.395836,147,135,34,8994,338,-55,393,197,26,259,26,960,127,32,36,329,117,282,117
"773","CAGR4-27101",44.01982,-95.761284,65,120,26,11594,288,-167,455,186,-93,208,-93,675,98,14,51,272,51,268,51
"774","CAGR4-38101",48.224255,-101.5452,39,128,27,11918,275,-198,473,161,-123,186,-123,438,83,12,60,202,41,192,41
"775","CAGR4-17095",40.930767,-90.21373,100,114,28,10269,298,-108,406,205,-41,225,-41,930,108,33,32,309,125,307,125
"776","CAGR4-20079",38.044456,-97.42492,130,129,31,9906,339,-77,416,230,-2,255,-2,796,118,17,47,316,69,288,69
"777","CAGR4-40093",36.311314,-98.54189,148,141,34,9400,353,-58,411,243,24,268,24,688,106,18,46,266,67,229,67
"778","CAGR4-29129",40.42435,-93.56618,102,123,29,10294,307,-112,419,208,-39,228,-39,942,113,29,39,331,103,322,103
"779","CAGR4-17107",40.126675,-89.362724,111,119,30,9875,307,-89,396,213,-23,232,-23,938,102,41,26,299,151,287,151
"780","CAGR4-17037",41.894154,-88.769104,86,114,27,10433,287,-124,411,214,-57,214,-57,928,109,30,33,316,122,316,122
"781","CAGR4-27069",48.775703,-96.779884,29,122,24,12952,267,-230,497,184,-150,184,-150,489,83,12,59,220,46,220,46
"782","CAGR4-45043",33.41416,-79.29623,177,121,40,6575,320,18,302,258,139,258,90,1325,166,68,28,464,255,464,282
"783","CAGR4-20027",39.351048,-97.16437,126,134,31,10125,337,-88,425,229,-10,253,-10,790,120,16,52,326,60,306,60
"784","CAGR4-31051",42.49931,-96.8685,87,132,29,10900,303,-139,442,200,-60,222,-60,680,107,13,53,289,52,264,52
"785","CAGR4-38059",46.719727,-101.27821,53,139,29,11447,290,-181,471,170,-101,195,-101,431,82,10,65,205,31,193,31
"786","CAGR4-18007",40.60569,-87.30773,99,115,29,9823,292,-100,392,200,-35,219,-35,966,107,42,26,313,156,306,156
"787","CAGR4-17147",40.007294,-88.59294,110,119,30,9883,303,-91,394,211,-25,230,-25,982,109,46,24,308,167,300,167
"788","CAGR4-40011",35.877487,-98.427986,151,135,34,9073,348,-48,396,199,31,266,31,728,117,21,46,281,77,228,77
"789","CAGR4-17089",41.935616,-88.43238,86,115,28,10294,287,-121,408,213,-54,213,-54,934,109,33,32,318,128,318,128
"790","CAGR4-17141",42.04205,-89.31979,86,115,28,10365,285,-124,409,212,-56,212,-56,913,112,31,34,316,117,316,117
"791","CAGR4-37063",36.03773,-78.874855,148,133,38,7651,317,-25,342,245,102,245,47,1142,113,79,12,322,251,322,274
"792","CAGR4-13297",33.78311,-83.73768,161,128,39,7125,320,-2,322,81,166,250,66,1275,142,85,15,387,262,308,351
"793","CAGR4-17201",42.331768,-89.16061,85,115,27,10442,287,-125,412,213,-58,213,-58,898,110,30,35,315,112,315,112
"794","CAGR4-20091",38.88435,-94.82215,125,114,29,9625,316,-74,390,223,-4,244,-4,972,140,29,44,365,96,342,96
"795","CAGR4-20039",39.784954,-100.46005,109,156,36,9647,329,-101,430,208,-14,235,-14,547,93,12,63,264,37,234,37
"796","CAGR4-17041",39.766113,-88.22282,113,117,29,9764,307,-84,391,214,-20,233,-20,992,112,51,22,311,181,300,181
"797","CAGR4-17047",38.41682,-88.057655,128,118,31,9258,317,-62,379,127,3,243,3,1098,121,63,19,342,226,282,226
"798","CAGR4-17195",41.750786,-89.911316,91,117,28,10293,291,-119,410,216,-50,216,-50,917,111,33,34,317,120,317,120
"799","CAGR4-27145",45.55451,-94.61004,62,118,25,12011,287,-181,468,207,-103,207,-103,697,111,18,52,289,59,289,59
"800","CAGR4-17039",40.169624,-88.90469,108,119,30,9933,302,-94,396,210,-28,229,-28,975,107,43,25,306,161,292,161
"801","CAGR4-20035",37.230648,-96.8369,141,132,33,9322,338,-61,399,234,16,258,16,882,121,25,41,321,93,291,93
"802","CAGR4-20005",39.530582,-95.31426,120,124,30,9914,320,-88,408,222,-14,243,-14,936,133,24,48,362,84,344,84
"803","CAGR4-27041",45.935997,-95.45444,51,114,24,12158,275,-197,472,198,-116,198,-116,637,102,16,52,272,55,272,55
"804","CAGR4-27133",43.673485,-96.24793,71,130,28,11435,296,-164,460,211,-85,211,-85,676,101,14,51,272,52,272,52
"805","CAGR4-20181",39.35073,-101.71948,106,157,37,9280,324,-95,419,201,-10,228,-10,453,81,10,66,226,31,200,31
"806","CAGR4-27011",45.426823,-96.41312,62,125,26,11915,291,-178,469,208,-100,208,-100,577,91,14,53,245,45,245,45
"807","CAGR4-20059",38.56725,-95.28781,129,124,31,9611,324,-76,400,226,-1,248,-1,975,143,30,43,359,98,338,98
"808","CAGR4-20143",39.131607,-97.65281,127,134,31,10029,338,-84,422,228,-6,254,-6,741,111,17,53,316,60,287,60
"809","CAGR4-29011",37.501404,-94.34358,134,126,32,9138,324,-62,386,184,12,248,12,1098,136,40,32,368,148,322,148
"810","CAGR4-31031",42.54292,-101.11878,84,151,34,9913,310,-124,434,186,-44,213,-44,511,85,10,63,248,37,220,37
"811","CAGR4-29159",38.72629,-93.28413,121,123,30,9634,316,-83,399,219,-10,240,-10,1019,124,36,34,348,128,316,128
"812","CAGR4-17159",38.71339,-88.08519,124,119,31,9308,312,-68,380,122,-3,238,-3,1067,112,61,19,323,214,284,214
"813","CAGR4-17175",41.0885,-89.794914,97,117,28,10263,295,-113,408,202,-45,222,-45,925,106,31,31,306,125,302,125
"814","CAGR4-20007",37.224396,-98.684494,137,147,35,9501,345,-75,420,233,11,257,11,663,98,14,48,265,59,247,59
"815","CAGR4-31169",40.176273,-97.59432,109,132,31,10204,320,-104,424,213,-27,238,-27,734,107,15,52,300,56,281,56
"816","CAGR4-17031",41.8981,-87.65018,100,98,25,9848,288,-91,379,222,-32,222,-32,919,100,38,27,298,146,298,146
"817","CAGR4-27083",44.41447,-95.84041,68,118,26,11648,290,-162,452,189,-91,211,-91,647,94,15,51,266,52,258,52
"818","CAGR4-20085",39.42066,-95.797905,120,128,30,9947,323,-90,413,221,-15,243,-15,915,139,23,49,355,78,339,78
"819","CAGR4-27063",43.675022,-95.156784,67,120,26,11631,288,-166,454,209,-92,209,-92,713,104,15,52,291,54,291,54
"820","CAGR4-27015",44.234657,-94.72098,70,120,26,11645,289,-165,454,212,-89,212,-89,697,103,16,52,290,53,290,53
"821","CAGR4-47117",35.467106,-86.76687,144,135,38,7914,318,-30,348,142,202,244,40,1387,154,87,16,404,274,305,371
"822","CAGR4-17009",39.954346,-90.75048,110,116,29,9903,305,-93,398,212,-25,231,-25,954,110,37,30,317,132,296,132
"823","CAGR4-20105",39.04399,-98.21103,125,147,33,10141,346,-94,440,228,-9,254,-9,683,101,15,51,283,55,261,55
"824","CAGR4-17169",40.157696,-90.609146,110,118,29,9883,306,-94,400,211,-25,231,-25,959,109,38,30,316,135,297,135
"825","CAGR4-29117",39.782948,-93.54668,115,124,30,9947,315,-95,410,217,-22,237,-22,940,115,29,39,325,106,311,106
"826","CAGR4-17005",38.8806,-89.43616,124,118,30,9479,315,-71,386,180,-5,241,-5,962,102,49,20,297,179,265,179
"827","CAGR4-17119",38.831898,-89.908264,126,114,29,9488,315,-67,382,182,-1,244,-1,963,104,50,19,293,181,269,181
"828","CAGR4-29115",39.86781,-93.11058,116,121,29,9892,314,-91,405,217,-20,237,-20,1028,119,40,30,334,146,315,146
"829","CAGR4-20141",39.34909,-98.76733,115,151,33,10223,339,-106,445,221,-20,246,-20,637,97,13,52,261,46,240,46
"830","CAGR4-40031",34.65586,-98.46357,165,133,35,8657,353,-27,380,211,52,275,52,762,133,26,46,289,93,214,93
"831","CAGR4-46041",45.158592,-100.87532,69,131,28,11288,302,-156,458,184,-60,211,-81,453,79,9,61,209,35,184,35
"832","CAGR4-20017",38.301525,-96.593025,127,130,31,9705,330,-82,412,225,-4,248,-4,863,135,21,49,339,73,316,73
"833","CAGR4-31079",40.865864,-98.50242,98,137,31,10385,313,-121,434,207,-39,230,-39,654,105,12,57,288,47,259,47
"834","CAGR4-17023",39.33339,-87.79239,116,116,30,9551,306,-79,385,214,-14,234,-14,1028,112,57,20,319,193,300,193
"835","CAGR4-20057",37.69199,-99.883224,128,147,35,9497,338,-80,418,224,5,250,5,581,87,13,54,255,49,238,49
"836","CAGR4-29065",37.609432,-91.49833,130,135,34,8694,319,-67,386,130,12,238,12,1064,114,51,20,317,187,284,187
"837","CAGR4-17163",38.4708,-89.931435,130,117,30,9331,317,-61,378,185,5,246,5,971,104,52,18,292,185,268,185
"838","CAGR4-29135",38.633133,-92.58366,129,122,30,9389,322,-72,394,181,1,245,1,1003,130,34,32,338,136,290,136
"839","CAGR4-08071",37.32019,-104.0433,114,177,42,8394,326,-88,414,224,8,224,8,338,58,9,57,150,30,150,30
"840","CAGR4-19145",40.73814,-95.14962,100,125,29,10467,307,-117,424,210,-42,229,-42,880,116,21,49,340,74,339,74
"841","CAGR4-20115",38.361565,-97.097694,126,131,31,9976,333,-87,420,226,-10,250,-10,829,127,19,47,330,73,299,73
"842","CAGR4-27129",44.72371,-94.95544,64,121,26,11827,287,-177,464,208,-98,208,-98,678,105,18,52,288,55,288,55
"843","CAGR4-29051",38.507145,-92.2823,128,124,31,9318,319,-73,392,180,2,244,2,989,125,38,29,329,144,286,144
"844","CAGR4-55025",43.06683,-89.41833,76,116,27,10565,282,-137,419,206,-68,206,-68,814,101,26,39,296,94,296,94
"845","CAGR4-17015",42.06054,-89.92361,85,120,29,10257,287,-126,413,210,-56,210,-56,912,111,32,35,318,116,318,116
"846","CAGR4-47069",35.203033,-88.9968,153,128,36,7980,324,-24,348,153,210,252,46,1356,140,76,18,407,258,283,364
"847","CAGR4-17073",41.35465,-90.13586,97,112,27,10432,296,-112,408,224,-46,224,-46,923,108,31,34,317,119,317,119
"848","CAGR4-20111",38.461624,-96.15018,126,128,31,9738,326,-83,409,224,-6,247,-6,913,144,24,48,358,80,336,80
"849","CAGR4-20155",37.960613,-98.089516,130,135,31,9894,342,-80,422,231,-1,256,-1,723,107,15,48,287,62,268,62
"850","CAGR4-20037",37.507736,-94.85112,137,125,31,9362,330,-65,395,188,10,253,10,1082,139,37,35,370,130,328,130
"851","CAGR4-20159",38.34742,-98.200294,126,136,32,9891,338,-83,421,227,-4,252,-4,702,105,13,50,287,58,271,58
"852","CAGR4-27141",45.440353,-93.768105,61,125,26,11761,287,-182,469,203,-101,203,-101,745,113,21,50,310,69,310,69
"853","CAGR4-20191",37.229572,-97.47535,138,131,31,9719,343,-68,411,236,8,261,8,804,109,23,42,301,82,278,82
"854","CAGR4-20001",37.88843,-95.30002,135,122,30,9437,329,-68,397,230,7,252,7,1021,140,33,39,358,108,340,108
"855","CAGR4-27105",43.6725,-95.75732,66,124,27,11542,288,-168,456,207,-92,207,-92,698,102,14,51,282,54,282,54
"856","CAGR4-29041",39.5194,-92.95991,117,120,29,9785,312,-90,402,217,-18,236,-18,999,120,36,34,338,126,316,126
"857","CAGR4-17075",40.74204,-87.823616,99,115,29,9952,293,-102,395,201,-37,221,-37,955,104,42,26,307,150,296,150
"858","CAGR4-27117",44.02463,-96.253815,63,129,28,11493,288,-172,460,182,-93,204,-93,646,101,13,54,270,45,264,45
"859","CAGR4-20103",39.202415,-95.038055,127,120,30,9637,322,-74,396,225,-3,246,-3,962,136,27,46,368,91,345,91
"860","CAGR4-38043",46.97674,-99.77894,50,135,27,12105,290,-194,484,174,-115,198,-115,427,84,10,64,204,32,191,32
"861","CAGR4-17007",42.32589,-88.81304,85,116,28,10408,289,-125,414,213,-57,213,-57,897,107,30,34,313,115,313,115
"862","CAGR4-08009",37.32094,-102.55699,119,170,40,8678,331,-85,416,209,9,232,9,393,67,8,64,188,26,175,26
"863","CAGR4-55111",43.427345,-89.94359,71,122,28,10709,281,-151,432,189,-76,202,-76,823,103,26,41,303,90,300,90
"864","CAGR4-27107",47.331158,-96.46256,46,123,25,12597,279,-210,489,198,-127,198,-127,568,96,13,57,253,49,253,49
"865","CAGR4-20157",39.828163,-97.650276,115,131,30,10149,327,-97,424,219,-21,243,-21,750,111,15,53,311,58,296,58
"866","CAGR4-47013",36.40556,-84.14632,128,132,38,7882,298,-47,345,127,186,226,22,1343,135,82,13,367,279,347,340
"867","CAGR4-55105",42.67153,-89.068436,80,117,27,10518,286,-133,419,209,-64,209,-64,849,101,28,36,301,104,301,104
"868","CAGR4-29195",39.136005,-93.20384,121,121,29,9828,319,-86,405,222,-13,242,-13,981,120,35,35,334,117,305,117
"869","CAGR4-27127",44.403637,-95.253555,68,120,26,11771,289,-170,459,191,-93,212,-93,659,94,17,51,266,52,265,52
"870","CAGR4-08011",37.95486,-103.07665,116,180,40,9343,341,-105,446,213,-4,238,-4,328,59,7,63,156,23,146,23
"871","CAGR4-17053",40.594543,-88.22452,101,116,29,10051,296,-101,397,204,-36,223,-36,912,103,40,26,296,144,286,144
"872","CAGR4-17129",40.033733,-89.799736,112,116,29,9946,306,-90,396,214,-25,233,-25,920,98,39,25,290,147,278,147
"873","CAGR4-56045",43.835648,-104.563095,74,156,34,9950,312,-134,446,176,-54,204,-54,354,64,8,63,172,30,143,30
"874","CAGR4-08001",39.870594,-104.35031,95,164,39,8766,315,-104,419,185,-15,211,-15,378,67,10,59,175,30,152,30
"875","CAGR4-29221",37.96882,-90.87711,125,138,35,8884,317,-75,392,125,3,235,3,1055,113,53,19,313,195,280,195
"876","CAGR4-20061",38.996323,-96.74949,122,127,30,9922,324,-88,412,222,-11,246,-11,858,137,20,51,349,72,322,72
"877","CAGR4-38013",48.79033,-102.519455,33,135,27,12146,275,-211,486,158,-106,182,-133,407,72,11,64,190,35,184,35
"878","CAGR4-17013",39.164787,-90.66735,123,128,31,9528,320,-81,401,220,-8,240,-8,953,103,42,23,292,161,273,161
"879","CAGR4-17145",38.085106,-89.36835,129,120,31,9176,317,-62,379,129,5,243,5,1051,109,58,17,315,210,275,210
"880","CAGR4-38015",46.97738,-100.47183,49,133,27,11943,285,-193,478,171,-89,196,-113,429,82,12,62,200,38,191,38
"881","CAGR4-17059",37.758034,-88.229385,135,121,32,8840,317,-51,368,134,199,244,15,1133,122,70,17,349,228,282,254
"882","CAGR4-20031",38.23747,-95.73457,128,129,31,9705,327,-82,409,226,-4,248,-4,952,146,26,46,359,88,343,88
"883","CAGR4-19093",42.38146,-95.51308,83,126,28,11099,296,-144,440,198,-70,218,-70,767,115,16,53,312,59,306,59
"884","CAGR4-20207",37.88741,-95.738655,135,128,32,9391,331,-69,400,229,7,251,7,1004,141,30,41,361,101,344,101
"885","CAGR4-20137",39.78384,-99.89889,108,152,35,9891,328,-106,434,209,-20,236,-20,575,96,10,62,267,35,241,35
"886","CAGR4-19155",41.33965,-95.54589,93,123,28,10699,300,-128,428,205,-53,224,-53,817,114,19,50,321,67,310,67
"887","CAGR4-55043",42.863327,-90.70758,78,112,26,10628,282,-136,418,208,-67,208,-67,847,107,25,42,316,87,316,87
"888","CAGR4-17189",38.350857,-89.41714,128,116,30,9309,316,-64,380,128,2,244,2,1007,106,52,18,301,196,267,196
"889","CAGR4-20193",39.35856,-101.05479,105,155,36,9632,326,-104,430,203,-19,230,-19,492,91,9,66,246,29,211,29
"890","CAGR4-20125",37.189342,-95.74175,141,133,33,9176,336,-61,397,192,18,256,18,1008,135,33,38,354,116,304,116
"891","CAGR4-31167",41.922035,-97.19041,94,132,30,10743,310,-129,439,205,-51,227,-51,687,112,14,54,300,57,269,57
"892","CAGR4-55127",42.668076,-88.541595,80,113,27,10457,287,-129,416,209,-62,209,-62,877,104,30,34,305,115,305,115
"893","CAGR4-20147",39.784492,-99.34703,110,152,34,10052,332,-107,439,213,-21,239,-21,592,97,10,59,265,37,244,37
"894","CAGR4-31081",40.87663,-98.02103,102,131,30,10477,314,-116,430,211,-39,233,-39,685,105,13,54,288,51,259,51
"895","CAGR4-17011",41.408752,-89.52908,96,120,29,10268,297,-114,411,201,-45,221,-45,909,106,31,33,303,119,303,119
"896","CAGR4-31029",40.530396,-101.693794,99,160,37,9577,323,-109,432,198,-22,225,-22,456,82,8,69,233,27,208,27
"897","CAGR4-27033",44.00864,-95.18332,65,120,26,11764,287,-171,458,188,-97,208,-97,692,98,15,51,278,52,277,52
"898","CAGR4-55063",43.907642,-91.11015,74,115,26,11138,287,-153,440,209,-80,209,-80,799,103,22,46,305,76,305,76
"899","CAGR4-17101",38.719585,-87.730705,125,118,31,9292,313,-64,377,123,0,240,0,1095,121,65,19,334,220,293,220
