"","catalogNumber","lat","lon","bio1","bio2","bio3","bio4","bio5","bio6","bio7","bio8","bio9","bio10","bio11","bio12","bio13","bio14","bio15","bio16","bio17","bio18","bio19"
"1","CAN 415380",53.133,-71.017,-41,94,20,12676,177,-286,463,105,-212,115,-212,821,114,32,42,333,117,315,117
"2","CAN 584535",48.582,-53.929,45,79,26,7296,201,-95,296,-17,107,141,-45,1125,111,74,13,317,236,266,306
"3","CAN 19309",56.033,-122.717,10,102,27,9442,199,-169,368,128,-47,128,-114,614,82,24,28,216,106,216,140
"4","CAN 448980",51.25,-84.867,-6,121,24,12847,233,-269,502,149,-167,149,-182,727,91,35,31,256,117,256,122
"5","CAN 457053",45.283,-75.5,60,98,23,10850,262,-151,413,182,-74,193,-88,886,87,57,14,255,177,251,196
"7","CAN 451893",43.883,-80.1,55,99,26,9578,249,-120,369,165,-63,174,-71,929,93,61,12,265,196,255,212
"8","CAN 448852",51.083,-84.85,-5,122,24,12780,235,-267,502,150,-164,150,-179,737,90,37,29,255,123,255,127
"9","CAN 505119",43.117,-81.8,77,95,26,9331,262,-92,354,194,-37,194,-45,903,85,59,10,246,190,246,203
"10","CAN 522005",44.817,-81.283,63,87,25,9043,236,-108,344,-23,43,174,-55,907,98,59,17,274,184,218,248
"11","CAN 501956",45.067,-76.083,58,102,24,10692,259,-152,411,178,-75,188,-88,845,81,55,12,238,174,228,193
"12","CAN 439584",47.45,-66.417,19,104,25,10473,226,-187,413,-28,-61,152,-121,1150,112,71,12,317,242,311,272
"14","CAN 323520",46.683,-81.683,27,117,26,10778,237,-200,437,110,-107,158,-119,865,101,50,19,267,167,241,172
"16","CAN 498747",45.583,-77.033,54,110,25,10856,266,-164,430,176,-80,188,-93,824,80,53,13,232,166,231,179
"18","CAN 521762",46.917,-81.633,22,123,27,11004,237,-213,450,105,-115,155,-128,860,100,50,20,265,166,249,167
"21","CAN 429419",51.617,-101.583,2,113,23,12893,237,-250,487,156,-174,156,-174,469,76,17,52,211,60,211,60
"22","CAN 275784",59.383,-126.15,-21,120,26,11868,203,-258,461,122,-84,122,-180,474,76,16,41,192,65,192,98
"25","CAN 275785",60.033,-128.583,-36,120,23,13777,205,-314,519,126,-101,126,-225,450,62,18,32,162,66,162,94
"27","CAN 498526",44.983,-76.883,53,103,25,10482,255,-155,410,76,-77,182,-89,879,83,59,11,241,187,226,204
"28","CAN 545792",43.983,-79.617,67,99,26,9620,260,-113,373,178,-53,186,-61,816,85,53,13,237,168,234,184
"29","CAN 526203",45.583,-67.333,52,109,28,9571,244,-142,386,10,-23,171,-77,1102,118,79,12,324,242,256,280
"30","CAN 439457",45.617,-64.95,51,106,28,9151,243,-129,372,-38,91,166,-70,1216,124,89,12,365,270,280,342
"31","CAN 439599",47.417,-66.4,18,103,25,10458,224,-187,411,-29,-62,151,-121,1162,113,71,12,321,245,312,275
"34","CAN 439447",45.65,-64.733,59,107,28,9053,249,-120,369,-28,98,173,-60,1138,116,82,13,342,252,263,321
"36","CAN 447503",50.733,-79.9,-6,120,24,12402,224,-261,485,133,-102,142,-176,761,98,29,35,273,110,264,118
"39","CAN 447535",50.167,-81.583,5,116,23,12498,237,-247,484,145,-89,156,-166,789,97,38,29,267,126,261,143
"41","CAN 502096",45.017,-76.833,51,104,25,10562,255,-159,414,131,-80,181,-92,879,84,59,11,241,186,229,203
"42","CAN 456153",45.383,-78.95,42,111,26,10437,245,-169,414,65,-38,168,-100,992,99,63,14,286,198,257,235
"46","CAN 455210",45.367,-75.9,59,101,24,10918,263,-155,418,181,-76,192,-90,844,81,53,13,240,168,239,186
"48","CAN 439511",45.817,-64.617,55,105,28,9109,244,-124,368,-33,94,170,-65,1164,117,83,12,347,259,270,326
"49","CAN 447530",50.417,-81.417,5,117,24,12545,237,-250,487,145,-90,156,-167,759,97,35,31,262,117,258,133
"51","CAN 545809",43.75,-79.433,79,91,25,9543,267,-96,363,191,-39,198,-47,793,83,52,12,228,165,223,174
"52","CAN 505174",44.417,-80.717,57,95,26,9404,244,-116,360,-36,-20,173,-67,991,100,67,14,285,207,244,259
"53","CAN 530266",45.15,-75.85,59,100,24,10774,261,-151,412,180,-74,191,-88,848,82,54,13,242,171,235,189
"55","CAN 19308",59.433,-126.15,-19,120,25,12151,207,-262,469,127,-83,127,-182,472,75,16,40,189,65,189,98
"59","JEPS100906",41.20111,-122.50056,52,141,46,5789,235,-71,306,-6,129,131,-12,964,151,10,64,443,58,59,417
"61","177185",41.4333,-87.9667,96,112,28,10105,291,-108,399,198,-43,219,-43,947,105,36,29,306,139,302,139
"62","467205",41.95,-88.4333,86,115,28,10294,287,-121,408,213,-54,213,-54,934,109,33,32,318,128,318,128
"65","OSC184951",44.3289,-118.7975,20,156,42,6953,231,-139,370,-58,108,112,-67,527,72,20,35,200,74,86,183
"66","OSC197244",42.583,-122.6172,97,152,47,5963,292,-29,321,29,175,176,26,845,141,10,61,395,59,60,348
"67","WILLU14548",42.4762,-120.684,53,150,43,6480,255,-86,341,-17,139,139,-23,476,65,14,39,180,54,68,167
"68","WILLU10391",42.129,-122.3086,74,153,44,6545,275,-69,344,-1,158,159,-6,622,108,9,61,293,47,53,260
"69","OSC189983",45.0994,-118.329,34,139,39,6958,238,-114,352,-44,124,125,-52,668,97,20,42,269,80,96,251
"70","OSC198108",44.4109,-120.5308,62,161,45,6565,271,-83,354,-15,145,148,-20,409,57,15,37,161,56,67,140
"71","OSC223430",44.1465,-119.2094,36,160,43,6954,249,-123,372,-43,124,128,-52,423,55,17,31,154,63,74,138
"72","WILLU11087",44.4633,-118.7089,72,168,43,7258,296,-91,387,-13,162,168,-20,376,48,14,31,134,56,69,119
"73","OSC184952",44.2797,-119.8158,54,160,43,6788,266,-98,364,-25,140,143,-31,408,52,17,31,149,61,72,130
"74","WILLU29967",44.2555,-119.0219,44,164,43,6955,260,-118,378,-36,130,135,-45,414,53,17,30,148,63,74,132
"75","ORE38581",43.4919,-122.3408,77,138,44,6065,266,-45,311,9,157,157,4,1316,220,17,64,632,88,88,571
"76","ORE17117",44.6139,-118.5446,49,165,42,7210,269,-116,385,-35,138,143,-44,494,70,17,38,194,66,80,177
"77","TRTE0002041",45.167767,-80.14254,58,105,26,9955,253,-138,391,-41,155,180,-74,1019,124,56,21,322,203,216,299
"78","21874",49.633335,-95.2,21,109,22,12936,253,-237,490,177,-157,177,-157,564,90,18,52,248,63,248,63
"79","21875",50.702,-96.563,17,113,22,13145,251,-246,497,174,-141,174,-165,528,81,18,47,224,68,224,69
"80","46678",51.133335,-100.5,15,118,24,12789,249,-237,486,168,-160,168,-160,488,80,17,51,214,61,214,61
"81","67511",49.72165,-95.246994,20,107,21,12947,251,-236,487,176,-158,176,-158,568,90,18,52,249,65,249,65
"82","53718",50.017,-96.883,19,115,23,13152,254,-241,495,176,-162,176,-162,522,82,17,52,230,62,230,62
"83","21877",50.217,-96.531,20,111,22,13057,252,-238,490,176,-138,176,-160,519,82,17,50,226,64,226,64
"84","21883",49.3225,-100.84111,31,128,26,12567,270,-220,490,183,-140,183,-140,432,73,14,57,199,47,199,47
"85","55418",50.390835,-96.567,19,111,22,13098,251,-240,491,176,-139,176,-162,519,81,17,50,224,64,224,65
"86","36986",51.093887,-100.57361,15,117,24,12801,249,-237,486,168,-160,168,-160,485,79,17,51,213,61,213,61
"87","21884",52.483334,-99.98333,10,107,22,13190,244,-242,486,170,-170,170,-170,470,73,15,51,204,54,204,54
"88","21876",53.796944,-101.23972,0,111,21,13484,243,-262,505,165,-159,165,-183,456,70,15,50,198,54,198,54
"89","21880",49.846943,-99.952225,22,129,25,13000,266,-239,505,178,-125,178,-156,463,73,16,55,212,55,212,57
"90","26559",51.133335,-100.48333,15,118,24,12789,249,-237,486,168,-160,168,-160,488,80,17,51,214,61,214,61
"91","56831",56.518055,-101.03083,-36,110,20,14351,216,-310,526,140,-208,140,-229,494,73,16,48,210,60,210,70
"93","21881",50.998333,-96.99611,10,123,24,13253,251,-258,509,168,-149,168,-174,545,81,19,45,226,74,226,75
"94","14976",51.0674,-96.9928,9,123,24,13236,250,-259,509,167,-76,167,-174,548,81,20,45,225,75,225,77
"95","43577",51.050835,-100.050835,17,120,24,12677,250,-235,485,169,-157,169,-157,500,83,17,52,219,62,219,62
"97","24857",50.267,-96.717,19,114,23,13147,253,-242,495,176,-162,176,-162,519,81,17,50,226,64,226,64
"98","65961",49.65235,-99.24905,27,128,25,12885,269,-235,504,182,-149,182,-149,456,74,15,56,209,50,209,50
"100","46873",51.283333,-100.333336,16,117,24,12807,250,-236,486,170,-159,170,-159,484,80,17,51,212,60,212,60
"101","21885",50.017,-95.483,20,105,21,12976,250,-236,486,176,-136,176,-159,546,86,18,51,237,65,237,65
"103","45894",49.916668,-96.333336,21,109,22,12995,252,-235,487,177,-136,177,-158,514,82,16,53,227,60,227,60
"104","21882",49.85278,-95.55278,20,107,21,12953,250,-237,487,176,-159,176,-159,545,87,18,52,239,64,239,64
"105","61082",50.40321,-96.52365,19,111,22,13098,251,-240,491,176,-139,176,-162,519,81,17,50,224,64,224,65
"106","21873",50.76426,-100.31685,7,118,24,12660,240,-244,484,159,-166,159,-166,512,82,19,51,225,65,225,65
"107","21878",50.63361,-96.99,14,121,23,13220,253,-252,505,172,-169,172,-169,532,81,19,47,226,70,226,70
"108","55100",50.904167,-95.33611,13,112,22,13157,248,-252,500,170,-170,170,-170,561,87,19,48,237,69,237,69
"109","31898",49.666668,-96.65,21,113,23,12989,254,-235,489,177,-158,177,-158,513,83,15,55,229,57,229,57
"110","55965",54.871666,-101.47528,-7,100,20,13737,232,-266,498,161,-168,161,-193,487,76,18,51,211,59,211,64
"114","33850",53.825,-101.85333,1,110,21,13600,243,-265,508,166,-184,166,-184,441,72,15,52,196,53,196,53
"116","67696",55.733334,-97.85,-32,118,22,14142,225,-302,527,140,-197,140,-225,506,79,18,47,216,62,216,65
"118","45269",50.016666,-96.78333,20,115,23,13137,255,-240,495,177,-161,177,-161,520,82,17,52,229,62,229,62
"119","30413",49.8867,-96.091995,21,108,22,12953,250,-235,485,176,-136,176,-158,521,84,16,53,231,60,231,60
"120","62077",50.004444,-96.840836,19,115,23,13152,254,-241,495,176,-162,176,-162,522,82,17,52,230,62,230,62
"121","238625",37.46,-112.31,41,162,42,7507,246,-133,379,136,69,139,-52,445,57,18,26,141,73,121,116
"122","247178",42.12,-122.34,77,154,44,6487,279,-64,343,3,161,162,-2,643,111,9,60,302,49,54,269
"123","29290",47.25,-122.4575,103,101,42,4897,241,1,240,48,166,166,44,1047,165,22,57,483,93,93,432
"124","185336",48.956665,-117.363335,57,110,31,7981,256,-89,345,-36,155,161,-43,757,99,37,32,282,117,140,257
"125","28478",47.83,-120.728615,68,131,38,7402,265,-77,342,-21,163,163,-26,862,166,14,75,468,61,61,431
"126","76132",46.733055,-119.98139,117,128,35,8330,321,-42,363,16,218,225,10,167,28,5,47,72,22,23,63
"127","28476",47.82,-120.74555,68,131,38,7402,265,-77,342,-21,163,163,-26,862,166,14,75,468,61,61,431
"129","30343",48.512222,-118.84722,49,127,35,8014,252,-108,360,-48,147,151,-54,394,47,22,24,126,75,93,114
"130","50774",43.41667,-113.51667,51,154,36,9271,285,-140,425,-55,123,170,-69,368,44,18,28,123,62,76,120
"132","119422",48.73722,-117.586945,55,113,31,8184,259,-98,357,-41,155,162,-47,669,86,33,31,246,104,127,224
"134","7251",47.411667,-120.94889,35,89,32,6550,195,-83,278,-39,120,121,-44,1541,262,28,62,743,128,134,687
"135","256",48.78639,-118.728615,50,125,34,8031,253,-106,359,-46,110,153,-52,420,49,24,22,129,83,106,117
"136","28479",48.705555,-119.44055,90,128,34,8525,296,-77,373,-14,191,198,-22,305,38,16,24,101,56,69,96
"137","7250",47.818054,-120.74555,68,131,38,7402,265,-77,342,-21,163,163,-26,862,166,14,75,468,61,61,431
"138","55570",47.410557,-121.71667,67,88,37,5224,206,-28,234,9,134,136,5,2344,339,53,51,1007,227,234,925
"142","50778",42.67806,-112.34472,47,145,36,8512,272,-124,396,35,153,158,-61,420,45,25,17,119,80,89,117
"143","28480",47.754444,-120.94889,33,95,33,6592,198,-87,285,-42,119,119,-47,1589,273,30,64,780,130,140,718
"144","7252",48.53583,-119.728615,69,130,34,8553,275,-102,377,-35,172,177,-42,348,44,17,27,122,58,72,114
"148","50791",46.73389,-119.9825,117,128,35,8330,321,-42,363,16,218,225,10,167,28,5,47,72,22,23,63
"159","ECS025350",46.43139,-62.335556,57,82,24,8761,233,-107,340,28,137,168,-53,1097,121,75,17,344,233,244,260
"160","48430",52.61667,-103.933815,4,113,23,12974,236,-252,488,159,-172,159,-172,452,71,16,50,198,59,198,59
"161","35004",46.99831,-60.46243,48,72,23,7821,207,-97,304,-15,112,151,-49,1328,146,85,17,419,274,290,337
"162","ECS016343",45.028057,-64.83667,63,104,29,8683,249,-107,356,-20,99,173,-50,1195,125,85,14,364,258,268,340
"163","ECS023719",47.20288,-60.14989,51,63,22,7358,199,-83,282,-5,105,151,-40,1311,143,86,17,410,275,290,329
"164","33211",46.63314,-63.96816,53,88,24,9339,235,-123,358,-34,-27,172,-68,1085,112,79,12,324,247,253,300
"165","14429",43.84564,-66.1162,66,74,28,6614,197,-65,262,8,145,147,-20,1254,137,80,18,404,257,258,376
"166","ECS025092",44.97861,-63.88889,58,98,28,8602,236,-110,346,-22,139,167,-53,1405,152,93,18,448,291,292,421
"167","25374",46.4955,-60.44423,52,82,25,8085,223,-101,324,-14,122,157,-48,1393,155,87,18,445,283,296,361
"168","ECS014953",44.994232,-64.04217,63,100,28,8671,245,-106,351,-19,145,172,-50,1324,143,90,17,418,278,280,392
"169","CBU1547",46.08508,-59.898792,56,77,25,7732,215,-90,305,-7,118,158,-40,1478,157,92,16,457,301,310,394
"171","ECS015987",45.016666,-64.8825,63,104,29,8683,249,-107,356,-20,99,173,-50,1195,125,85,14,364,258,268,340
"172","17874",45.05879,-64.63167,62,102,28,8719,248,-108,356,-20,98,173,-51,1218,129,85,15,375,262,268,353
"173","ECS023723",44.482807,-77.68226,62,103,26,10005,257,-136,393,83,-62,185,-73,846,84,58,11,233,183,209,197
"174","35008",46.88284,-60.50103,47,74,23,7925,210,-100,310,-17,114,151,-51,1337,148,85,18,424,274,290,340
"175","ECS018100",46.367607,-62.875153,57,83,24,8937,235,-109,344,27,140,171,-56,1102,118,78,15,338,240,248,301
"177","35009",46.725613,-60.92581,46,79,24,8148,216,-109,325,-20,118,151,-56,1319,147,84,18,420,270,286,333
"178","ECS011372",45.15114,-64.47688,64,103,28,8749,250,-107,357,-19,149,175,-50,1190,126,84,15,366,257,263,345
"179","35011",46.32449,-60.42396,51,82,25,8128,220,-103,323,-16,121,155,-51,1441,159,90,18,459,292,304,377
"180","71851",45.56413,-75.7821,53,100,23,10995,257,-163,420,186,-83,186,-98,885,85,56,14,253,177,253,196
"181","ECS012514",43.46816,-65.48265,64,59,26,5633,167,-55,222,19,102,132,-12,1275,140,74,20,415,248,257,363
"182","22785",46.30359,-61.23006,53,86,25,8318,226,-109,335,-17,128,159,-53,1323,149,84,19,425,270,281,331
"183","20000",45.41532,-64.4601,61,103,28,8868,248,-113,361,-23,98,173,-55,1163,120,84,13,352,254,264,331
"184","ECS012642",43.466667,-65.74917,64,60,26,5686,170,-54,224,19,104,134,-11,1260,139,75,20,408,248,256,358
"186","ECS006535",45.01425,-64.07994,64,101,28,8720,248,-106,354,-18,147,174,-49,1288,138,88,16,405,271,275,380
"187","ECS023721",44.70987,-65.64531,62,87,27,7735,225,-88,313,-8,134,159,-38,1295,143,89,18,417,274,275,390
"188","ECS025118",46.427223,-62.157223,57,82,24,8658,232,-106,338,29,135,167,-52,1118,124,75,17,353,234,246,268
"189","ECS017131",45.22727,-63.60534,59,101,28,8703,241,-113,354,-22,141,169,-54,1303,140,89,16,406,277,283,380
"192","ECS023722",47.53,-84.52,21,110,26,10415,220,-196,416,105,-57,146,-121,981,108,57,20,300,177,266,229
"193","67484",46.4245,-60.3845,NA,NA,NA,NA,NA,NA,NA,NA,NA,NA,NA,NA,NA,NA,NA,NA,NA,NA,NA
"194","ECS009178",46.4209,-64.4725,NA,NA,NA,NA,NA,NA,NA,NA,NA,NA,NA,NA,NA,NA,NA,NA,NA,NA,NA
"195","36050",49.6333,-116.7833,57,107,32,7715,247,-86,333,-33,151,158,-40,742,98,42,30,275,133,149,251
"196","3443",53.76139,-113.084724,23,123,28,11073,236,-199,435,155,-43,155,-127,447,87,16,67,235,53,235,58
"197","88826",49.65,-93.73333,23,93,19,12759,245,-224,469,178,-152,178,-152,670,99,22,46,274,80,274,80
"198","38450",49.02139,-113.785835,17,130,35,7645,213,-149,362,52,-27,116,-79,620,83,37,24,204,128,180,138
"199","105166",51.02167,-100.055,17,120,24,12677,250,-235,485,169,-157,169,-157,500,83,17,52,219,62,219,62
"200","3438",52.877777,-118.08305,24,120,31,8770,215,-167,382,132,-24,132,-93,486,64,22,35,187,72,187,99
"201","76841",53.61667,-114.2667,21,130,30,10369,227,-204,431,146,-39,146,-118,502,97,19,66,259,60,259,67
"202","84557",51.07528,-115.06917,12,130,32,8792,210,-187,397,99,-35,121,-103,579,86,32,31,209,108,191,128
"203","86236",45.82028,-82.949165,53,97,25,9754,245,-136,381,132,-70,174,-75,809,93,43,18,246,155,213,169
"205","110896",52.91667,-112.6833,23,117,27,10926,227,-201,428,155,-39,155,-124,440,81,15,65,225,52,225,60
"206","113997",52.46667,-115.2,15,146,34,9556,217,-208,425,113,-92,131,-116,543,101,16,64,260,63,260,63
"207","111178",53.81667,-114.5167,19,133,30,10439,227,-208,435,144,-40,144,-122,500,96,19,67,260,60,260,66
"209","113996",53.38333,-117.5667,17,131,33,8627,210,-177,387,123,-35,123,-97,535,89,21,54,246,73,246,80
"210","3436",53.665833,-115.9925,19,141,33,9819,227,-197,424,137,-34,137,-114,567,108,18,66,290,66,290,70
"211","34947",53.71111,-113.21778,25,120,27,11012,234,-195,429,157,-41,157,-124,447,88,16,67,235,53,235,59
"213","110901",55.31667,-114.5833,3,123,25,11926,219,-262,481,142,-62,142,-161,498,93,19,62,250,60,250,73
"214","86098",52.85,-116.4667,10,134,33,8663,210,-185,395,117,-40,117,-104,575,102,19,59,273,74,273,76
"215","36051",51.177776,-115.57361,4,127,33,8312,203,-179,382,88,-49,109,-102,550,78,28,31,196,101,189,114
"218","85383",53.56741,-113.82209,27,119,28,10643,229,-194,423,154,-36,154,-117,478,94,18,66,247,57,247,65
"219","114287",52.983334,-118.1,0,112,31,8176,182,-171,353,102,-49,102,-107,570,74,30,31,211,94,211,121
"220","3441",53.71111,-113.95417,26,120,28,10557,230,-195,425,153,-36,153,-116,486,93,19,64,249,59,249,69
"222","41481",49.08472,-113.85083,33,133,36,7813,233,-136,369,112,-14,134,-67,572,78,34,26,191,115,172,122
"223","121268",49.5667,-110.1333,21,135,30,10294,245,-197,442,127,-37,150,-114,385,66,17,44,158,54,152,62
"224","86486",61.350132,-117.65138,-38,114,21,15044,230,-310,540,128,-139,145,-238,290,43,15,33,108,48,105,56
"225","36052",51.45,-116.5333,-12,111,31,7907,177,-179,356,88,-61,88,-113,689,77,42,19,209,131,209,178
"228","3439",52.880165,-118.14022,17,117,31,8585,206,-167,373,123,-30,123,-96,518,66,26,31,191,80,191,111
"229","34949",52.968334,-114.18916,18,146,33,10090,223,-218,441,139,-43,139,-118,506,98,17,66,256,58,256,62
"230","3440",53.534443,-113.49028,27,112,26,10805,229,-190,419,157,-37,157,-118,455,91,15,69,240,53,240,60
"232","56199",53.48333,-116.6,23,139,34,9294,227,-179,406,135,-30,135,-102,562,106,18,65,283,66,283,71
"233","116203",54.27448,-114.853,14,133,29,10829,225,-223,448,143,-45,143,-134,500,95,19,67,261,60,261,67
"234","3442",49.466667,-114.316666,28,129,34,7854,224,-147,371,67,-17,127,-72,639,79,39,20,202,137,177,151
"235","113377",53.25,-114.5833,20,144,32,10126,227,-211,438,142,-38,142,-117,514,100,18,67,262,60,262,63
"236","90984",52.61667,-117.85,10,115,31,8535,199,-167,366,116,-38,116,-104,548,70,28,30,200,87,200,121
"237","99355",40.216072,-109.78792,81,176,35,10670,333,-161,494,158,-67,212,-67,183,23,9,24,60,32,48,32
"241","40235",56.04861,-113.90945,-3,123,25,12398,219,-268,487,142,-70,142,-174,480,90,19,58,235,59,235,73
"243","49501",60.866665,-117.36667,-36,115,21,14782,227,-306,533,143,-134,143,-233,317,47,17,34,120,52,120,58
"245","107248",47.28333,-95.28333,32,129,26,12091,262,-222,484,179,-133,179,-133,657,107,14,56,291,56,291,56
"247","82067",45.565556,-81.60139,53,91,25,9399,233,-128,361,80,-25,169,-70,833,89,55,15,243,172,207,209
"248","110902",55.11667,-114.0833,4,119,25,12004,220,-256,476,144,-57,144,-162,512,92,21,58,249,68,249,84
"250","121793",52.1652,-116.4932,-5,122,32,8179,189,-188,377,97,-56,97,-111,607,83,28,37,236,98,236,115
"252","100890",54.91444,-113.5333,15,113,25,11319,224,-217,441,150,-48,150,-139,490,92,21,61,243,64,243,74
"253","109015",52.45,-115.0167,19,146,34,9575,222,-197,419,136,-87,136,-111,527,102,15,67,256,57,256,57
"256","54125",52.46583,-115.045555,19,146,34,9575,222,-197,419,136,-87,136,-111,527,102,15,67,256,57,256,57
"257","174080",39.13763,-104.91006,63,171,43,7721,271,-123,394,166,-32,166,-32,455,74,10,57,199,38,199,38
"258","206883",37.7344,-107.7154,-5,160,43,7248,187,-185,372,84,23,88,-94,833,92,37,22,253,142,216,214
"259","174088",37.0614,-107.7594,75,171,40,8320,293,-125,418,139,113,183,-33,439,56,17,27,144,69,119,106
"260","174090",40.6335,-105.8489,0,143,40,7542,198,-158,356,-20,10,99,-91,633,63,41,14,182,138,175,138
"261","174087",39.8778,-105.2113,88,157,41,7790,290,-91,381,167,-7,192,-7,431,67,13,44,166,46,142,46
"262","174084",38.5822,-107.46207,17,176,41,8371,230,-194,424,118,55,123,-91,513,57,28,18,158,104,139,122
"264","174086",39.9067,-105.2113,88,157,41,7790,290,-91,381,167,-7,192,-7,431,67,13,44,166,46,142,46
"265","07608",37.461945,-112.319725,41,162,42,7507,246,-133,379,136,69,139,-52,445,57,18,26,141,73,121,116
"266","V-148308",53.1206,-85.3618,-23,109,21,13240,215,-286,501,138,-189,138,-202,619,89,24,42,242,81,242,87
"267","V-148604",53.1373,-85.2952,-23,109,21,13228,215,-286,501,138,-189,138,-202,618,89,24,42,242,81,242,87
"268","MT00099386",49.45,-57.75,29,82,24,8253,199,-134,333,1,1,135,-75,1148,120,63,18,345,217,290,277
"269","MT00120502",45.283333,-76.166664,55,104,24,10843,259,-160,419,176,-79,187,-93,826,79,53,13,236,167,232,185
"270","MT00108031",45.063057,-72.19666,53,117,27,10425,260,-161,421,181,-75,181,-89,1047,117,58,19,327,196,327,211
"271","MT00171345",48.616665,-90.53333,16,126,26,11723,241,-233,474,157,-145,157,-145,725,98,26,43,283,93,283,93
"272","MT00120458",46.308334,-72.475,51,107,24,10934,260,-169,429,173,-28,185,-98,1017,102,61,15,297,201,296,229
"273","MT00020184",45.631943,-75.18166,55,100,23,10927,258,-161,419,188,-80,188,-95,912,91,59,13,263,184,263,203
"274","MT00099382",49.933334,-57.766666,34,78,24,8120,192,-129,321,9,7,137,-69,1061,108,56,18,308,200,290,248
"277","MT00037757",51.49222,-56.93222,8,72,23,8091,156,-155,311,-65,-16,110,-98,1138,104,73,12,310,243,303,288
"278","MT00120506",50.661667,-99.72667,2,118,24,12615,234,-249,483,154,-171,154,-171,521,83,19,52,231,64,231,64
"280","MT00120410",50.94,-73.494446,-14,104,21,12536,205,-270,475,126,-110,137,-187,875,110,43,31,318,145,307,169
"281","MT00120499",45.383335,-75.95,57,102,24,10922,261,-158,419,179,-78,190,-92,839,80,53,13,239,168,237,186
"282","MT00108030",45.04861,-72.185555,53,117,27,10425,260,-161,421,181,-75,181,-89,1047,117,58,19,327,196,327,211
"283","MT00120141",49.166668,-93.816666,26,103,21,12612,250,-225,475,178,-148,178,-148,662,102,20,49,278,74,278,74
"284","MT00120494",48.75,-87.25,18,102,25,10390,204,-203,407,103,-59,140,-125,791,93,38,26,257,130,245,152
"285","MT00119917",51.433334,-79,-10,116,24,12345,213,-264,477,128,-109,135,-180,701,92,23,39,261,91,244,103
"286","MT00120412",50.90222,-73.261665,-15,104,21,12528,204,-270,474,125,-110,137,-188,891,112,44,30,322,147,312,172
"288","MT00120356",51.55,-55.883335,12,75,24,7847,168,-144,312,-58,-13,112,-89,1102,105,70,11,307,239,284,284
"289","MT00120519",56.033333,-122.71667,10,102,27,9442,199,-169,368,128,-47,128,-114,614,82,24,28,216,106,216,140
"290","MT00120505",50.016666,-96.88333,19,115,23,13152,254,-241,495,176,-162,176,-162,522,82,17,52,230,62,230,62
"291","MT00099381",49.633335,-57.95,34,80,24,8207,199,-129,328,8,7,139,-69,1107,115,59,18,332,207,285,262
"292","MT00120479",48.866665,-89.98333,6,130,26,11972,239,-246,485,151,-158,151,-158,751,93,31,35,274,110,274,110
"293","MT00120485",48.65,-89.6,15,126,26,11609,242,-232,474,156,-144,156,-144,739,88,31,32,257,114,257,114
"294","MT00120411",51.021526,-73.40833,-15,104,21,12543,204,-270,474,125,-111,137,-188,873,110,43,31,318,143,307,167
"296","MT00108447",45.06139,-72.20528,53,117,27,10425,260,-161,421,181,-75,181,-89,1047,117,58,19,327,196,327,211
"297","MT00120487",49.816666,-87.78333,0,125,25,12283,234,-265,499,147,-87,147,-170,796,94,33,32,267,113,267,143
"298","MT00120409",50.733334,-73.708336,-12,105,22,12529,207,-269,476,127,-108,139,-185,888,109,42,29,317,151,306,179
"300","MT00120366",45.583332,-67.333336,52,111,28,9665,247,-145,392,9,-23,172,-78,1096,117,78,12,321,240,257,277
"301","MT00107966",45.090557,-72.30334,50,114,27,10405,256,-163,419,178,-77,178,-91,1070,119,58,19,332,200,332,215
"302","MT00120372",48.556946,-68.218056,23,95,24,9787,216,-171,387,135,-53,145,-109,932,88,61,11,256,195,247,234
"303","MT00171236",45.4125,-76.5,55,107,25,10890,263,-162,425,177,-80,188,-93,819,78,54,12,230,168,226,185
"304","MT00120476",47.883335,-84.86667,24,111,26,10423,219,-200,419,109,-54,147,-119,949,108,55,21,297,171,259,212
"305","MT00120493",48.333332,-88.833336,27,115,25,10972,241,-204,445,152,-52,160,-123,738,85,32,28,245,121,241,129
"309","MT00172071",45.544,-73.915,61,104,25,10714,264,-150,414,181,-70,193,-84,942,96,62,13,270,199,267,217
"310","MT00171237",45.283333,-76.9,50,107,25,10744,259,-164,423,172,-83,183,-95,862,82,57,11,237,179,234,194
"312","MT00108027",45.142223,-72.125275,50,116,27,10434,256,-165,421,178,-78,178,-92,1060,119,58,19,331,198,331,214
"313","MT00022634",44.99732,-76.873116,53,103,25,10482,255,-155,410,76,-77,182,-89,879,83,59,11,241,187,226,204
"314","MT00120501",45.233334,-76.2,55,106,25,10806,260,-158,418,176,-79,187,-92,810,77,52,13,231,165,225,182
"316","MT00099387",49.566666,-57.85,36,81,24,8208,202,-127,329,-35,8,140,-68,1105,115,59,19,334,206,282,264
"317","MT00108029",45.051666,-72.194725,53,117,27,10425,260,-161,421,181,-75,181,-89,1047,117,58,19,327,196,327,211
"319","MT00120371",48.556946,-68.21667,23,95,24,9787,216,-171,387,135,-53,145,-109,932,88,61,11,256,195,247,234
"320","MT00120381",48.183334,-79.23333,14,114,24,12002,236,-232,468,146,-76,159,-150,883,105,43,28,303,147,295,158
"321","CONN00094220",46.76277,-68.22416,36,119,27,10654,247,-185,432,156,-95,168,-108,942,102,53,19,292,176,286,192
"322","CONN00094203",41.51166,-72.48111,95,110,30,8663,276,-80,356,55,-9,205,-19,1235,117,90,7,329,293,294,299
"323","CONN00094226",42.56111,-71.58972,85,121,31,9166,276,-106,382,40,200,200,-38,1125,114,87,8,310,267,267,280
"324","CONN00094209",41.82361,-72.62111,98,118,31,9000,290,-84,374,143,-9,212,-21,1142,104,80,6,300,263,285,265
"325","CONN00094229",48.52138,-64.23972,32,82,22,9275,211,-147,358,-3,-45,150,-89,1088,112,71,11,310,250,270,277
"326","CONN00094213",41.78833,-72.22888,88,120,32,8761,274,-97,371,46,-18,198,-29,1211,115,86,7,324,283,296,289
"327","CONN00094199",41.96166,-73.30833,73,116,30,9090,261,-114,375,121,-37,187,-49,1220,111,85,8,324,270,324,276
"328","CONN00094202",41.59638,-72.94777,89,112,30,8896,274,-91,365,78,-18,201,-29,1261,115,90,7,332,291,309,295
"329","CONN00094215",41.78444,-72.33944,86,116,31,8770,270,-97,367,44,-20,196,-31,1221,115,85,7,323,281,301,285
"330","CONN00094219",41.29638,-73.14611,101,104,29,8660,277,-70,347,86,-13,210,-13,1194,110,86,8,325,282,285,282
"331","CONN00094227",41.05888,-74.02194,108,107,29,8874,291,-67,358,213,-9,220,-9,1217,115,81,10,325,264,317,264
"332","CONN00094194",41.58277,-73.20416,93,116,31,8872,279,-89,368,82,-14,204,-25,1209,112,84,7,320,275,302,277
"333","CONN00126602",41.985,-73.42277,77,122,32,9070,269,-112,381,191,-32,191,-44,1159,107,77,9,315,250,315,254
"334","CONN00094204",41.95861,-71.86305,87,122,32,8937,276,-103,379,44,-21,199,-33,1209,116,89,6,325,289,292,295
"335","CONN00094198",41.91638,-71.81472,86,116,31,8795,271,-98,369,44,174,197,-31,1244,121,94,7,337,294,294,308
"336","CONN00084394",41.29638,-73.14666,101,104,29,8660,277,-70,347,86,-13,210,-13,1194,110,86,8,325,282,285,282
"337","CONN00094217",41.76416,-72.43805,88,116,31,8855,274,-94,368,46,-18,200,-30,1212,113,85,7,318,279,300,283
"338","CONN00094195",41.98888,-73.34444,80,125,32,9106,274,-110,384,194,-30,194,-42,1155,107,76,9,313,249,313,253
"340","CONN00094224",45.18333,-69.22694,50,123,29,10189,257,-165,422,2,-74,177,-88,1077,111,71,12,304,223,281,248
"341","CONN00094205",41.95805,-73.49305,77,122,32,9070,269,-112,381,191,-32,191,-44,1159,107,77,9,315,250,315,254
"342","CONN00094214",41.98333,-73.42111,77,122,32,9070,269,-112,381,191,-32,191,-44,1159,107,77,9,315,250,315,254
"343","CONN00094232",47.82805,-99.12027,40,130,26,12380,279,-205,484,167,-129,191,-129,450,85,12,61,208,40,208,40
"344","CONN00094207",41.92916,-72.97277,80,118,31,9156,271,-109,380,127,-31,195,-43,1240,113,89,7,326,282,316,287
"345","CONN00094234",44.31444,-73.23916,69,116,28,10048,273,-136,409,194,-54,194,-66,888,103,46,22,279,153,279,159
"346","CONN00094223",49.11666,-66.48333,24,80,21,9566,206,-160,366,137,-52,146,-102,947,96,53,16,283,184,274,206
"347","CONN00094230",46.55972,-67.85194,41,120,28,10529,252,-176,428,160,-38,171,-102,972,100,57,16,288,187,283,209
"348","CONN00094206",41.96888,-73.16222,73,114,30,9133,261,-114,375,121,-37,187,-49,1250,114,90,7,330,283,325,289
"350","CONN00094197",41.94805,-73.4275,77,122,32,9070,269,-112,381,191,-32,191,-44,1159,107,77,9,315,250,315,254
"351","CONN00094208",41.78861,-72.45305,88,116,31,8855,274,-94,368,46,-18,200,-30,1212,113,85,7,318,279,300,283
"352","CONN00094210",41.41166,-72.41611,101,105,30,8490,277,-70,347,16,208,208,-11,1208,117,91,8,327,281,281,301
"353","CONN00094228",42.96722,-75.68805,64,111,29,9300,254,-121,375,82,-51,179,-60,1123,107,73,12,307,231,300,245
"354","CONN00094196",41.46888,-72.46583,98,107,30,8614,278,-74,352,58,207,207,-15,1227,118,90,7,329,289,289,300
"355","CONN00094211",42.0075,-72.97111,75,117,30,9182,266,-114,380,123,-36,190,-48,1244,115,90,7,329,282,320,288
"356","CONN00094222",38.41111,-82.43472,122,131,36,8366,301,-59,360,207,131,227,10,1089,123,71,16,325,235,320,239
"357","CONN00094201",41.72472,-73.47694,85,120,31,8992,273,-103,376,175,-24,197,-36,1178,108,80,9,316,257,314,260
"358","CONN00094200",41.38555,-72.43555,100,104,30,8526,276,-70,346,14,208,208,-12,1218,117,91,8,327,285,285,301
"359","CONN00094225",41.43805,-71.57638,98,99,30,8144,265,-65,330,18,175,201,-8,1178,119,79,12,332,254,258,307
"360","CONN00094235",46.78166,-67.84611,40,112,26,10532,246,-173,419,159,-39,170,-103,951,101,59,17,288,184,283,205
"361","CONN00094233",42.48777,-84.10722,84,108,28,9593,277,-99,376,203,-45,203,-45,796,88,39,23,244,137,244,137
"362","CONN00094221",46.11666,-85.57083,55,103,27,9507,250,-129,379,134,-63,173,-70,786,94,35,24,254,136,231,141
"365","CONN00094231",42.33333,-71.21666,95,113,30,8789,282,-84,366,5,183,207,-21,1150,117,82,10,323,257,260,300
"367","CONN00085837",44.00005,-71.62347,42,118,29,9602,238,-159,397,162,-74,162,-87,1248,122,83,12,346,259,346,276
"368","309105",47.2251,-97.9431,43,131,26,12413,282,-206,488,193,-128,193,-128,494,86,10,60,224,38,224,38
"369","209093",44.4448,-104.422,51,131,33,8998,264,-128,392,91,-61,171,-61,513,87,19,51,225,63,185,63
"370","51125",39.9663,-95.5515,115,130,30,10259,321,-102,423,221,-25,242,-25,885,119,22,49,340,75,334,75
"371","209102",46.4841,-100.005,50,137,28,11897,288,-194,482,171,-111,197,-111,439,83,11,63,209,33,194,33
"372","209100",46.7966,-99.7525,52,135,28,12024,291,-191,482,174,-111,200,-111,432,84,10,63,207,32,192,32
"373","317744",41.8356,-100.101,85,155,34,10090,311,-132,443,190,-46,215,-46,581,93,12,59,266,46,244,46
"374","209087",43.6783,-103.542,65,154,38,8493,282,-118,400,151,-39,179,-39,500,91,10,68,255,38,221,38
"375","209099",44.1982,-103.66,60,134,35,8465,267,-114,381,96,-31,173,-44,626,102,20,53,278,71,228,71
"376","209088",44.1441,-103.84,47,127,34,8317,250,-118,368,130,-40,159,-53,619,98,22,50,266,76,225,76
"378","354889",42.8353,-100.203,88,145,32,10373,315,-128,443,195,-47,221,-47,525,86,9,63,251,35,225,35
"379","209085",44.1512,-103.84,47,127,34,8317,250,-118,368,130,-40,159,-53,619,98,22,50,266,76,225,76
"380","313536",42.4182,-101.482,82,152,35,9817,308,-124,432,182,-45,209,-45,504,84,12,61,244,40,215,40
"381","116408",42.7833,-101.032,86,152,34,10085,314,-126,440,189,-44,216,-44,488,82,8,66,242,31,215,31
"382","51124",39.5314,-95.52,120,128,30,9991,322,-92,414,222,-16,243,-16,922,135,23,49,359,80,342,80
"383","324572",42.8322,-92.2386,75,116,26,11168,284,-153,437,210,-80,210,-80,879,116,23,45,339,85,339,85
"384","209104",42.7049,-100,90,141,32,10372,314,-124,438,197,-46,223,-46,550,88,10,62,258,36,233,36
"386","2159318",37.64,-91.35,130,137,35,8682,319,-68,387,130,11,237,11,1067,114,51,20,318,189,283,189
"387","100139565",37.42,-90.57,127,137,35,8772,318,-70,388,127,7,235,7,1135,116,67,16,338,231,292,231
"388","2805319",40.59,-92.68,105,121,29,10135,307,-105,412,209,-34,229,-34,922,113,27,41,327,96,324,96
"390","3163520",37.02,-90.28,134,131,33,8988,324,-64,388,135,197,245,11,1196,129,75,16,363,261,283,270
"391","2750893",37.84,-92.93,131,128,32,9044,321,-68,389,181,8,243,8,1069,127,41,27,338,160,292,160
"392","3430944",37.48,-91.39,131,135,35,8630,318,-66,384,132,13,238,13,1084,115,52,20,326,194,284,194
"393","2752324",44.02,-73.17,72,120,29,10002,277,-135,412,185,-50,196,-63,901,103,49,20,275,161,274,169
"394","1898969",37.93,-91.15,125,142,35,8908,319,-79,398,126,3,235,3,1047,114,51,19,310,189,280,189
"395","3574178",37.83,-92.94,131,128,32,9018,321,-67,388,181,9,243,9,1070,126,42,26,337,161,291,161
"396","1613774",49.07,-120.72,26,113,34,7516,209,-122,331,-63,121,121,-71,672,103,32,42,286,106,106,262
"397","272022",38.17,-81.1,113,130,37,8061,285,-65,350,213,4,213,4,1157,131,77,15,343,248,343,248
"398","3555430",37.99,-90.52,125,135,34,9001,316,-74,390,125,2,237,2,1055,112,57,18,314,202,277,202
"399","2651978",37.83,-91.07,127,140,35,8765,318,-74,392,127,7,235,7,1070,113,53,19,317,196,283,196
"400","1749295",37.78,-90.96,126,137,35,8755,316,-72,388,126,6,234,6,1074,113,53,19,319,198,283,198
"401","273332",42.08,-81.15,91,99,27,9103,270,-84,354,204,-22,204,-30,961,94,50,17,275,176,275,190
"402","2752141",36.99,-91.58,130,139,35,8713,321,-69,390,131,12,238,12,1126,120,58,18,342,225,277,225
"403","3507090",37.44,-91.09,131,138,35,8629,318,-67,385,132,13,237,13,1099,113,56,19,328,206,281,206
"404","3164356",37.19,-91.32,133,143,36,8725,324,-70,394,134,13,240,13,1114,115,56,19,333,217,282,217
"406","1899305",37.37,-90.79,130,141,35,8763,323,-70,393,131,11,239,11,1135,113,64,17,335,235,285,235
"407","1748532",37.68,-90.98,126,136,35,8686,314,-70,384,126,7,233,7,1090,114,54,19,324,201,286,201
"409","1614122",45.82,-64.62,55,105,28,9109,244,-124,368,-33,94,170,-65,1164,117,83,12,347,259,270,326
"413","1073225",37.43,-90.33,124,135,34,8885,316,-72,388,125,3,235,3,1151,118,68,17,345,238,295,238
"415","1073107",37.52,-91.1,130,137,35,8629,317,-68,385,130,12,236,12,1093,114,55,19,327,201,282,201
"416","2803368",37.42,-91.06,131,139,35,8673,320,-69,389,132,12,237,12,1115,113,58,18,331,215,282,215
"417","3574579",38.08,-90.74,124,137,34,8976,316,-76,392,125,2,236,2,1042,112,55,19,310,196,276,196
"419","1748519",37.68,-90.97,126,136,35,8686,314,-70,384,126,7,233,7,1090,114,54,19,324,201,286,201
"420","3511956",37.32,-91.29,132,140,35,8664,322,-68,390,133,14,239,14,1106,115,55,19,332,208,283,208
"421","2670534",37.36,-91.23,131,137,35,8615,318,-66,384,132,13,237,13,1101,115,55,20,331,203,283,203
"422","2751459",42.66,-77.05,81,113,30,9074,272,-96,368,195,-30,195,-38,832,91,43,21,252,143,252,146
"423","2651963",37.43,-91.05,131,139,35,8673,320,-69,389,132,12,237,12,1115,113,58,18,331,215,282,215
"424","56264",62.31,-151.82,-8,107,26,10906,202,-208,410,114,-4,132,-147,540,80,18,41,218,70,184,109
"426","84644",63.83,-151.21,-28,103,22,12743,207,-243,450,112,-102,135,-187,445,85,16,57,211,55,203,70
"427","83155",65.38,-143.45,-59,126,23,15361,223,-323,546,135,-145,135,-255,216,40,6,58,106,22,106,31
"428","84887",62.29,-151.81,-8,107,26,10906,202,-208,410,114,-4,132,-147,540,80,18,41,218,70,184,109
"429","84698",63.78,-151.46,-29,101,22,12899,206,-245,451,112,-105,135,-191,420,84,15,60,203,51,198,64
"430","62423",61.51,-149.45,21,100,28,8808,202,-143,345,122,-27,134,-88,440,70,15,51,197,54,168,73
"431","82739",60.03,-128.58,-36,120,23,13777,205,-314,519,126,-101,126,-225,450,62,18,32,162,66,162,94
"432","4028",61.21,-149.9,20,79,23,8981,185,-145,330,123,21,135,-93,418,69,15,51,185,51,145,77
"433","11792",57.91,-135.41,36,69,31,5163,151,-66,217,42,55,104,-26,1608,243,78,36,611,246,329,400
"434","13641",64.55,-147.11,-35,109,21,14461,211,-287,498,144,-111,144,-223,351,58,10,50,157,44,157,66
"435","38546",36.27,-115.69,52,132,41,6641,233,-84,317,-21,70,142,-23,486,59,13,37,175,66,107,170
"437","dbsn140569",34.017,-109.6931,69,166,47,6588,252,-95,347,150,97,156,-12,645,102,18,48,267,64,223,158
"438","dbsn140566",36.4844,-109.2037,80,146,38,8083,280,-100,380,179,115,186,-22,366,49,11,35,130,47,105,88
"439","dbsn140568",32.6686,-109.8773,82,149,47,6079,248,-64,312,155,108,162,8,714,130,14,57,322,63,278,178
"440","dbsn140565",32.1395,-110.6065,182,162,47,6853,356,14,342,264,216,271,97,378,79,5,69,190,23,158,90
"447","QFA0257456",50.22028,-63.54861,14,84,23,9212,183,-175,358,39,-60,128,-110,1000,102,49,20,300,170,277,215
"448","QFA0545864",47.55,-69.416664,18,104,24,10688,225,-193,418,138,-64,151,-126,1055,108,70,13,308,223,299,244
"449","QFA0545868",47.733334,-69.21667,20,104,25,10589,226,-190,416,140,-61,152,-123,1035,105,69,12,300,220,290,242
"450","QFA0498805",52.916668,-78.78333,-24,105,22,12289,189,-276,465,113,-128,118,-193,617,81,19,43,234,72,213,88
"451","QFA0406896",50.209442,-63.558056,14,84,23,9212,183,-175,358,39,-60,128,-110,1000,102,49,20,300,170,277,215
"452","QFA0393391",47.49167,-70.24167,39,95,23,10608,241,-165,406,160,-41,171,-104,974,99,64,15,292,195,290,223
"454","QFA0385677",50.211945,-63.74917,14,85,23,9204,184,-174,358,40,-60,128,-109,995,101,49,20,297,172,276,213
"457","QFA0006939",49.420277,-62.245556,25,77,23,8612,186,-145,331,-5,-48,132,-88,1025,107,61,16,306,198,262,243
"458","QFA0545866",47.716667,-69.333336,23,103,24,10562,228,-185,413,143,-58,155,-119,1017,103,70,12,291,220,279,246
"460","QFA0466558",52.55,-67.433334,-39,101,22,12150,181,-278,459,100,-186,112,-204,983,124,49,27,340,172,328,185
"461","QFA0417976",48.745834,-71.958336,21,109,24,11735,231,-223,454,150,-64,162,-143,844,111,47,27,294,142,284,174
"463","QFA0214485",50.2125,-63.816944,14,85,23,9216,185,-174,359,89,-61,129,-109,995,102,49,20,298,173,277,211
"465","QFA0258088",50.21722,-63.891388,13,86,23,9222,185,-174,359,89,-61,128,-110,997,102,49,19,298,175,278,211
"467","QFA0487921",48.33164,-68.844444,26,93,23,10182,222,-172,394,142,-52,153,-112,950,93,65,12,271,198,262,226
"477","QFA0570548",48.41111,-64.49861,36,86,23,9377,218,-146,364,0,-41,155,-87,1093,113,73,11,312,252,270,281
"478","QFA0580224",46.708332,-73.308334,29,113,25,11037,240,-197,437,152,-51,164,-122,1083,107,71,15,317,217,315,249
"482","QFA0533660",48.555832,-70.835556,19,107,23,11452,234,-212,446,146,-66,159,-139,969,121,53,26,329,161,323,196
"483","QFA0547572",48.501072,-64.16615,35,81,22,9195,212,-142,354,1,-42,152,-85,1067,110,70,12,305,245,264,273
"488","QFA0589406",50.189445,-61.82722,12,90,24,9100,185,-176,361,-21,-61,125,-110,1082,111,68,14,317,216,281,254
"491","QFA0384950",50.2125,-63.62472,14,84,23,9213,183,-175,358,39,-60,128,-110,999,102,49,20,299,171,277,214
"492","QFA0545867",47.683334,-69.25,20,104,25,10589,226,-190,416,140,-61,152,-123,1035,105,69,12,300,220,290,242
"496","QFA0459758",50.25222,-63.68722,12,86,23,9300,185,-179,364,88,-62,128,-113,994,102,48,20,298,170,278,210
"499","47042",35.88,-106.64,53,165,44,7138,247,-123,370,140,87,146,-37,567,90,31,39,224,94,206,120
"500","106632",36.634,-106.203,37,168,43,7537,236,-152,388,128,71,134,-60,546,82,32,31,197,102,183,117
"501","97240",36.9274,-106.3527,13,157,43,7209,202,-162,364,101,44,106,-77,742,93,37,25,236,127,211,181
"502","120635",43.996395,-79.62461,67,99,26,9620,260,-113,373,178,-53,186,-61,816,85,53,13,237,168,234,184
"504","262414",45.59365,-78.280594,32,114,26,10673,239,-185,424,151,-100,161,-114,934,94,59,16,275,183,270,198
"505","262544",50.870785,-80.29774,-4,121,24,12421,226,-260,486,135,-101,144,-175,739,97,29,35,264,107,258,114
"507","032341",45.17588,-81.33547,56,88,25,9166,232,-119,351,-31,35,169,-64,879,91,58,16,256,180,214,233
"508","032331",44.98533,-81.38094,61,86,24,9044,234,-111,345,-24,40,172,-57,883,94,57,17,262,179,214,239
"509","128827",43.906303,-79.70478,69,99,26,9572,263,-108,371,180,-49,188,-57,812,84,54,13,236,166,232,180
"510","254553",44.31349,-79.19832,65,101,26,9759,259,-121,380,177,-11,186,-65,824,81,51,13,231,167,228,193
"511","120645",44.020966,-79.630104,68,100,26,9638,262,-112,374,179,-8,188,-60,804,83,51,13,232,166,229,185
"512","231705",44.33611,-79.227776,64,104,27,9779,259,-124,383,176,-12,185,-66,834,81,52,13,231,169,227,198
"513","239743",44.332996,-79.23932,65,101,26,9759,259,-121,380,177,-11,186,-65,824,81,51,13,231,167,228,193
"514","258556",44.83718,-78.24193,47,107,26,10235,246,-157,403,69,-79,173,-91,900,86,60,11,248,189,240,204
"515","032335",45.1318,-81.3511,57,87,25,9109,232,-116,348,-29,37,169,-62,882,93,58,16,259,180,215,236
"517","129198",44.001457,-79.447975,67,98,26,9678,259,-114,373,178,-10,187,-62,792,83,47,15,232,160,231,179
"520","254148",43.919445,-79.6,67,99,26,9620,260,-113,373,178,-53,186,-61,816,85,53,13,237,168,234,184
"522","260695",44.03444,-79.5169,66,99,26,9649,260,-114,374,178,-10,186,-61,801,83,49,14,233,163,231,182
"523","1152156",41.426666,-122.611664,72,152,46,6164,267,-63,330,4,153,154,0,703,113,9,63,326,47,49,307
"524","YPM YU 037402",41.8714,-73.3617,78,119,31,9045,267,-110,377,191,-31,191,-43,1192,109,81,8,319,261,319,265
"525","YPM CBS 007343",41.3622,-72.0286,99,104,30,8314,270,-70,340,16,179,204,-10,1218,120,84,10,337,271,274,311
"526","YPM CBS 007357",41.5162,-72.8337,99,112,30,8821,284,-78,362,86,-7,210,-18,1213,111,87,7,323,282,293,286
"527","YPM CBS 007348",41.9801,-73.1962,71,111,29,9116,256,-115,371,118,-40,184,-52,1256,114,90,7,332,283,329,289
"528","YPM CBS 007355",41.8352,-72.5734,95,119,31,9037,287,-90,377,141,-14,209,-26,1150,105,80,7,301,263,289,266
"529","YPM YU 037848",41.3112,-72.8957,104,102,29,8545,278,-63,341,88,212,212,-8,1126,107,84,8,302,267,267,269
"530","YU.100089",41.2646,-73.1179,101,104,29,8660,277,-70,347,86,-13,210,-13,1194,110,86,8,325,282,285,282
"531","YPM CBS 007352",41.986,-73.4257,77,122,32,9070,269,-112,381,191,-32,191,-44,1159,107,77,9,315,250,315,254
"533","YPM YU 037412",41.367,-72.717,100,104,29,8642,278,-70,348,85,209,209,-14,1207,114,89,7,321,286,286,291
"535","YPM CBS 007347",41.98,-73.1961,71,111,29,9116,256,-115,371,118,-40,184,-52,1256,114,90,7,332,283,329,289
"536","YPM CBS 007300",41.2991,-72.8575,104,102,29,8545,278,-63,341,88,212,212,-8,1126,107,84,8,302,267,267,269
"537","YPM CBS 007339",41.7664,-72.4391,88,116,31,8855,274,-94,368,46,-18,200,-30,1212,113,85,7,318,279,300,283
"538","YPM YU 037408",41.5161,-72.759,99,110,30,8833,284,-77,361,86,-7,211,-18,1219,112,88,7,324,284,293,288
"540","YPM CBS 007350",41.5989,-72.5892,99,112,30,8846,286,-78,364,86,-7,211,-18,1184,109,84,7,312,275,289,278
"541","YPM CBS 007342",41.6153,-72.1432,93,116,31,8623,276,-88,364,52,202,202,-21,1230,120,91,8,334,288,288,303
"542","YPM CBS 008784",41.6922,-72.5472,93,114,31,8838,280,-86,366,81,-13,205,-24,1202,111,85,6,314,279,295,282
"543","YPM CBS 007358",41.9798,-71.8736,87,122,32,8937,276,-103,379,44,-21,199,-33,1209,116,89,6,325,289,292,295
"546","YPM YU 037407",41.687,-72.7309,98,115,31,8941,288,-82,370,143,-9,212,-20,1180,108,83,7,312,271,291,274
"547","YPM CBS 007349",42.0223,-73.2936,78,124,32,9152,273,-113,386,192,-32,192,-45,1163,108,78,9,314,252,314,258
"549","YPM CBS 007359",41.993,-72.1603,81,119,31,8937,270,-106,376,38,-26,194,-38,1235,116,89,6,330,290,302,297
"550","YPM CBS 007360",41.5583,-73.036,94,113,30,8826,279,-86,365,82,-12,205,-23,1229,113,87,7,327,285,300,287
"551","YPM CBS 007354",41.6979,-72.088,91,119,32,8709,276,-93,369,50,-15,200,-25,1224,118,89,7,331,291,291,298
"552","YPM YU 037410",41.3677,-72.2362,99,105,30,8406,273,-71,344,15,181,206,-11,1219,119,88,9,333,280,280,307
"553","YPM CBS 007344",41.5475,-72.6548,99,109,30,8762,282,-76,358,85,-7,210,-17,1213,113,87,7,321,285,291,289
"557","V170793",52.916668,-120.066666,-16,96,30,7321,151,-161,312,-102,-27,78,-107,873,90,48,15,251,176,232,246
"560","V94095",59.466667,-133.61667,4,100,26,9220,189,-191,380,72,3,117,-120,437,53,13,33,152,58,121,111
"561","V163760",55.75,-121.25,23,109,27,10249,220,-179,399,145,-35,145,-118,496,76,18,42,205,73,205,100
"562","V212386",48.625,-114.875,39,139,36,7969,255,-124,379,-55,135,143,-62,617,68,38,22,197,120,146,184
"565","V170551",52.05,-120.166664,41,113,30,8289,233,-137,370,-60,44,144,-68,671,71,36,18,201,125,183,186
"567","V181559",59.02,-125.5,-34,116,27,10771,179,-239,418,99,-100,99,-173,490,86,16,48,215,64,215,92
"568","V217474",50.826668,-121.683334,15,103,32,7330,186,-135,321,-71,-30,110,-76,492,57,27,20,157,96,129,149
"569","V14138",53.983334,-123.066666,31,123,32,8675,223,-158,381,137,-14,137,-86,594,61,25,22,182,97,182,149
"570","V236374",49.280556,-121.7575,93,85,34,5736,232,-18,250,25,165,165,20,1673,240,52,48,704,180,180,643
"573","V14137",49.816666,-115.9,36,114,30,8424,233,-135,368,-66,-11,143,-74,587,65,34,21,183,118,148,169
"574","V152418",53.928165,-123.235085,29,125,32,8750,223,-160,383,136,-16,136,-89,574,59,24,23,177,92,177,145
"575","V163191",49.683334,-116,33,113,31,8299,230,-133,363,-66,-13,139,-74,610,69,37,22,196,125,148,180
"577","V196803",59.416668,-126.1,-19,120,25,12151,207,-262,469,127,-83,127,-182,472,75,16,40,189,65,189,98
"580","V98766",60.033333,-128.58333,-36,120,23,13777,205,-314,519,126,-101,126,-225,450,62,18,32,162,66,162,94
"581","V150055",53.233334,-122.416664,32,122,32,8433,221,-153,374,136,-11,136,-80,655,69,31,22,202,110,202,166
"583","V160277",58.666668,-122.73333,-13,127,25,13520,231,-272,503,148,-80,148,-195,448,79,19,52,205,59,205,64
"585","V145552",50.216667,-126.35,51,67,37,4110,158,-23,181,9,105,107,5,1979,277,65,48,809,221,248,734
"586","V225785",50.295,-115.28667,2,120,32,8033,195,-176,371,39,67,103,-100,680,81,43,19,204,147,181,183
"589","1587716",41.95,-88.4333,86,115,28,10294,287,-121,408,213,-54,213,-54,934,109,33,32,318,128,318,128
"593","CAN 439449",45.65,-64.733,59,107,28,9053,249,-120,369,-28,98,173,-60,1138,116,82,13,342,252,263,321
"595","CAN 439477",45.617,-64.95,51,106,28,9151,243,-129,372,-38,91,166,-70,1216,124,89,12,365,270,280,342
"601","MT00171110",46.308334,-72.475,51,107,24,10934,260,-169,429,173,-28,185,-98,1017,102,61,15,297,201,296,229
"602","MT00120500",45.283333,-76.166664,55,104,24,10843,259,-160,419,176,-79,187,-93,826,79,53,13,236,167,232,185
"606","273421",42.08,-81.15,91,99,27,9103,270,-84,354,204,-22,204,-30,961,94,50,17,275,176,275,190
"608","V152760",53.928165,-123.235085,29,125,32,8750,223,-160,383,136,-16,136,-89,574,59,24,23,177,92,177,145
"613","50791",46.73389,-119.9825,117,128,35,8330,321,-42,363,16,218,225,10,167,28,5,47,72,22,23,63
"614","28477",47.83,-120.728615,68,131,38,7402,265,-77,342,-21,163,163,-26,862,166,14,75,468,61,61,431
"615","55570",47.410557,-121.71667,67,88,37,5224,206,-28,234,9,134,136,5,2344,339,53,51,1007,227,234,925
"616","76132",46.733055,-119.98139,117,128,35,8330,321,-42,363,16,218,225,10,167,28,5,47,72,22,23,63
"617","7250",47.818054,-120.74555,68,131,38,7402,265,-77,342,-21,163,163,-26,862,166,14,75,468,61,61,431
"618","7251",47.411667,-120.94889,35,89,32,6550,195,-83,278,-39,120,121,-44,1541,262,28,62,743,128,134,687
"619","28476",47.82,-120.74555,68,131,38,7402,265,-77,342,-21,163,163,-26,862,166,14,75,468,61,61,431
"622","50774",43.41667,-113.51667,51,154,36,9271,285,-140,425,-55,123,170,-69,368,44,18,28,123,62,76,120
"623","50778",42.67806,-112.34472,47,145,36,8512,272,-124,396,35,153,158,-61,420,45,25,17,119,80,89,117
"630","256",48.78639,-118.728615,50,125,34,8031,253,-106,359,-46,110,153,-52,420,49,24,22,129,83,106,117
"633","CONN00084395",41.29638,-73.14666,101,104,29,8660,277,-70,347,86,-13,210,-13,1194,110,86,8,325,282,285,282
"634","CONN00094236",41.96166,-73.30833,73,116,30,9090,261,-114,375,121,-37,187,-49,1220,111,85,8,324,270,324,276
"637","QFA0406895",50.209442,-63.558056,14,84,23,9212,183,-175,358,39,-60,128,-110,1000,102,49,20,300,170,277,215
"638","QFA0522492",50.211945,-63.74917,14,85,23,9204,184,-174,358,40,-60,128,-109,995,101,49,20,297,172,276,213
"639","QFA0498806",52.916668,-78.78333,-24,105,22,12289,189,-276,465,113,-128,118,-193,617,81,19,43,234,72,213,88
"640","QFA0545869",47.55,-69.416664,18,104,24,10688,225,-193,418,138,-64,151,-126,1055,108,70,13,308,223,299,244
"643","QFA0458899",50.22028,-63.54861,14,84,23,9212,183,-175,358,39,-60,128,-110,1000,102,49,20,300,170,277,215
"647","QFA0466559",52.55,-67.433334,-39,101,22,12150,181,-278,459,100,-186,112,-204,983,124,49,27,340,172,328,185
"651","YPM CBS 030161",41.986,-73.4257,77,122,32,9070,269,-112,381,191,-32,191,-44,1159,107,77,9,315,250,315,254
"652","YPM YU 100089",41.2646,-73.1179,101,104,29,8660,277,-70,347,86,-13,210,-13,1194,110,86,8,325,282,285,282
"654","YPM CBS 007356",41.8352,-72.5734,95,119,31,9037,287,-90,377,141,-14,209,-26,1150,105,80,7,301,263,289,266
"657","174089",40.6335,-105.8489,0,143,40,7542,198,-158,356,-20,10,99,-91,633,63,41,14,182,138,175,138
"659","ECS023720",44.70987,-65.64531,62,87,27,7735,225,-88,313,-8,134,159,-38,1295,143,89,18,417,274,275,390
"660","ECS011575",45.15114,-64.47688,64,103,28,8749,250,-107,357,-19,149,175,-50,1190,126,84,15,366,257,263,345
"663","dbsn140570",32.6686,-109.8773,82,149,47,6079,248,-64,312,155,108,162,8,714,130,14,57,322,63,278,178
"665","21879",50.63361,-96.99,14,121,23,13220,253,-252,505,172,-169,172,-169,532,81,19,47,226,70,226,70
"666","37018",51.093887,-100.57361,15,117,24,12801,249,-237,486,168,-160,168,-160,485,79,17,51,213,61,213,61
"667","31899",49.666668,-96.65,21,113,23,12989,254,-235,489,177,-158,177,-158,513,83,15,55,229,57,229,57
"673","3437",53.534443,-113.49028,27,112,26,10805,229,-190,419,157,-37,157,-118,455,91,15,69,240,53,240,60
"674","34948",53.76139,-113.084724,23,123,28,11073,236,-199,435,155,-43,155,-127,447,87,16,67,235,53,235,58
"677","46659",53.56741,-113.82209,27,119,28,10643,229,-194,423,154,-36,154,-117,478,94,18,66,247,57,247,65
"678","110900",55.31667,-114.5833,3,123,25,11926,219,-262,481,142,-62,142,-161,498,93,19,62,250,60,250,73
"681","4028",61.21,-149.9,20,79,23,8981,185,-145,330,123,21,135,-93,418,69,15,51,185,51,145,77
"682","84644",63.83,-151.21,-28,103,22,12743,207,-243,450,112,-102,135,-187,445,85,16,57,211,55,203,70
"683","56264",62.31,-151.82,-8,107,26,10906,202,-208,410,114,-4,132,-147,540,80,18,41,218,70,184,109
"684","62423",61.51,-149.45,21,100,28,8808,202,-143,345,122,-27,134,-88,440,70,15,51,197,54,168,73
"686","13641",64.55,-147.11,-35,109,21,14461,211,-287,498,144,-111,144,-223,351,58,10,50,157,44,157,66
"687","11792",57.91,-135.41,36,69,31,5163,151,-66,217,42,55,104,-26,1608,243,78,36,611,246,329,400
"688","82739",60.03,-128.58,-36,120,23,13777,205,-314,519,126,-101,126,-225,450,62,18,32,162,66,162,94
"689","84698",63.78,-151.46,-29,101,22,12899,206,-245,451,112,-105,135,-191,420,84,15,60,203,51,198,64
"690","84887",62.29,-151.81,-8,107,26,10906,202,-208,410,114,-4,132,-147,540,80,18,41,218,70,184,109
"691","83155",65.38,-143.45,-59,126,23,15361,223,-323,546,135,-145,135,-255,216,40,6,58,106,22,106,31
"693","YPM YU 037405",41.986,-73.4257,77,122,32,9070,269,-112,381,191,-32,191,-44,1159,107,77,9,315,250,315,254
"694","YPM CBS 007341",41.6153,-72.1432,93,116,31,8623,276,-88,364,52,202,202,-21,1230,120,91,8,334,288,288,303
"695","YPM CBS 007346",41.98,-73.1961,71,111,29,9116,256,-115,371,118,-40,184,-52,1256,114,90,7,332,283,329,289
"696","YPM CBS 007353",41.9798,-71.8736,87,122,32,8937,276,-103,379,44,-21,199,-33,1209,116,89,6,325,289,292,295
"700","209105",47.2251,-97.9431,43,131,26,12413,282,-206,488,193,-128,193,-128,494,86,10,60,224,38,224,38
"704","260695",44.03444,-79.5169,66,99,26,9649,260,-114,374,178,-10,186,-61,801,83,49,14,233,163,231,182
"705","119422",48.73722,-117.586945,55,113,31,8184,259,-98,357,-41,155,162,-47,669,86,33,31,246,104,127,224
"706","28478",47.83,-120.728615,68,131,38,7402,265,-77,342,-21,163,163,-26,862,166,14,75,468,61,61,431
"708","29290",47.25,-122.4575,103,101,42,4897,241,1,240,48,166,166,44,1047,165,22,57,483,93,93,432
"709","28479",48.705555,-119.44055,90,128,34,8525,296,-77,373,-14,191,198,-22,305,38,16,24,101,56,69,96
"712","CAN 439585",47.45,-66.417,19,104,25,10473,226,-187,413,-28,-61,152,-121,1150,112,71,12,317,242,311,272
"713","CAN 439476",45.617,-64.95,51,106,28,9151,243,-129,372,-38,91,166,-70,1216,124,89,12,365,270,280,342
