"","catalogNumber","lat","lon","bio1","bio2","bio3","bio4","bio5","bio6","bio7","bio8","bio9","bio10","bio11","bio12","bio13","bio14","bio15","bio16","bio17","bio18","bio19"
"1","V191083",36.133335,-121.5,113,150,59,3837,260,6,254,72,161,166,72,716,134,2,87,373,9,16,373
"108","dbsn143786",33.7189,-111.3119,155,158,45,7115,342,-7,349,244,184,249,69,578,81,9,46,190,43,152,188
"109","dbsn143785",33.7226,-111.2762,155,158,45,7115,342,-7,349,244,184,249,69,578,81,9,46,190,43,152,188
"110","34651",37.87354,-122.45664,141,90,52,2864,229,57,172,108,171,176,103,797,169,1,90,429,9,13,429
"111","OSC178776",42.1766,-123.6711,101,142,48,5328,282,-10,292,42,172,172,39,1407,257,7,77,733,46,46,678
"112","OSC184959",42.0564,-123.0204,82,154,47,6013,278,-47,325,14,161,161,11,751,135,9,66,370,50,50,337
"113","WILLU6114",42.2509,-122.6088,74,147,45,6113,267,-55,322,6,155,155,1,807,140,10,62,383,57,57,343
"114","OSC174497",42.9787,-123.4952,101,133,48,5083,271,-5,276,45,168,170,42,1140,203,9,71,577,53,64,522
"115","OSC185936",42.0373,-123.1202,98,161,48,6118,301,-33,334,28,179,179,25,746,138,8,69,377,45,45,346
"116","OSC197247",42.206,-123.6711,101,142,48,5328,282,-10,292,42,172,172,39,1407,257,7,77,733,46,46,678
"117","OSC223108",42.3304,-123.602,105,145,48,5480,292,-8,300,44,178,178,41,1278,235,7,78,669,43,43,619
"118","WILLU7050",43.2167,-123.3406,122,136,48,5199,294,11,283,63,190,191,59,956,166,8,69,474,49,56,431
"119","OSC197170",42.3783,-122.5472,95,154,46,6139,294,-35,329,25,176,176,22,720,121,9,59,333,53,55,293
"120","ORE118000",42.6008,-123.3962,104,143,48,5483,288,-8,296,42,176,177,40,927,167,8,72,472,44,53,433
"121","JEPS80858",39.3588,-122.69559,99,145,47,5674,282,-21,303,44,175,176,38,1181,219,3,82,606,24,37,593
"122","JEPS95011",40.3393,-123.1886,90,155,49,5660,280,-33,313,31,165,166,26,1229,212,5,78,621,37,51,597
"123","JEPS110261",39.364166,-122.634445,134,165,47,6346,336,-9,345,61,219,219,61,756,154,2,85,401,15,15,401
"124","JEPS81328",39.350285,-122.74741,99,145,47,5674,282,-21,303,44,175,176,38,1181,219,3,82,606,24,37,593
"125","UC1026395",38.86268,-123.038155,135,155,51,5028,312,11,301,79,200,201,75,1069,222,2,89,576,12,23,574
"126","JEPS18140",38.621716,-123.12842,124,135,55,3912,264,20,244,82,173,175,77,1240,253,3,88,666,15,28,650
"127","UC1133444",37.906437,-122.59073,132,101,55,3125,229,46,183,98,168,172,93,998,205,2,88,535,13,18,525
"128","JEPS83011",38.942566,-123.200134,119,147,52,4636,284,5,279,70,180,182,66,1212,240,2,86,643,15,28,632
"129","UC1133330",37.3251,-121.6315,137,140,48,5426,311,20,291,76,208,210,76,624,117,2,83,315,9,16,315
"130","JEPS105723",37.873,-121.941,146,126,49,4719,293,36,257,88,204,208,88,552,112,1,84,286,7,11,286
"131","JEPS102680",39.9374,-122.6274,140,159,46,6603,343,-2,345,67,227,227,63,818,153,3,80,415,22,22,409
"132","JEPS112946",38.869442,-123.06528,135,155,51,5028,312,11,301,79,200,201,75,1069,222,2,89,576,12,23,574
"134","JEPS85215",37.064274,-121.85529,137,135,55,3889,270,28,242,90,184,188,90,805,169,2,89,436,9,15,436
"135","JEPS100608",37.75,-119.73333,91,143,45,6154,274,-40,314,26,173,174,21,963,171,6,77,470,29,37,469
"137","JEPS23935",37.63056,-122.41,138,86,53,2601,220,59,161,103,164,169,103,528,113,1,87,280,7,9,280
"138","JEPS113048",38.046387,-122.61972,135,114,54,3578,250,40,210,95,177,180,90,1035,220,2,90,565,12,18,559
"139","JEPS81282",39.34029,-122.75595,88,140,48,5405,264,-25,289,38,160,162,32,1309,238,4,81,667,28,42,615
"140","JEPS100609",38.3931,-122.9734,129,135,58,3527,257,27,230,89,170,174,85,1166,250,2,90,638,13,23,632
"141","JEPS98087",35.99758,-121.32358,129,159,62,3453,268,14,254,89,171,175,89,404,78,1,88,214,3,9,214
"142","JEPS94844",40.397636,-123.26852,99,159,50,5727,292,-26,318,37,174,175,33,1226,216,4,80,629,34,49,606
"143","JEPS102253",40.191,-121.69,107,153,46,6190,301,-27,328,41,189,189,35,1038,182,4,73,495,33,33,492
"145","JEPS97579",38.8315,-122.7723,120,147,49,5313,299,1,298,65,190,191,60,1135,230,2,87,603,15,27,597
"146","868063",38.788055,-122.6875,120,146,48,5418,300,1,299,65,192,193,59,1112,225,2,87,589,15,26,586
"147","1131841",37.914257,-122.60372,132,101,55,3125,229,46,183,98,168,172,93,998,205,2,88,535,13,18,525
"148","949025",38.566666,-122.7,139,152,54,4658,301,20,281,82,197,198,82,1082,234,2,90,598,12,20,598
"149","175788",37.9238,-122.5976,131,107,54,3398,239,42,197,95,171,176,90,1055,218,2,89,567,13,19,558
"150","246603",37.878624,-122.45505,141,90,52,2864,229,57,172,108,171,176,103,797,169,1,90,429,9,13,429
"152","1131885",37.92532,-122.60877,131,107,54,3398,239,42,197,95,171,176,90,1055,218,2,89,567,13,19,558
"153","855424",39.06222,-122.433334,135,160,47,6194,333,-4,337,62,217,217,62,774,161,1,87,418,11,11,418
"154","1036583",38.566666,-122.7,139,152,54,4658,301,20,281,82,197,198,82,1082,234,2,90,598,12,20,598
"169","JEPS80863",39.3588,-122.69559,99,145,47,5674,282,-21,303,44,175,176,38,1181,219,3,82,606,24,37,593
