"","catalogNumber","lat","lon","bio1","bio2","bio3","bio4","bio5","bio6","bio7","bio8","bio9","bio10","bio11","bio12","bio13","bio14","bio15","bio16","bio17","bio18","bio19"
"1","CAN 466599",42.25,-83.067,94,93,26,9486,277,-80,357,213,-20,213,-31,841,88,48,17,252,164,252,170
"2","115447",41.95,-88.4333,86,115,28,10294,287,-121,408,213,-54,213,-54,934,109,33,32,318,128,318,128
"4","112860",41.85,-87.65,100,98,25,9848,288,-91,379,222,-32,222,-32,919,100,38,27,298,146,298,146
"5","462483",41.8333,-87.85,98,106,27,10005,291,-99,390,221,-37,221,-37,927,103,36,28,302,142,302,142
"6","177209",41.4333,-87.9667,96,112,28,10105,291,-108,399,198,-43,219,-43,947,105,36,29,306,139,302,139
"14","263841",38.02,-90.4,124,132,33,9086,314,-75,389,123,0,237,0,1050,111,56,18,311,202,275,202
"15","1749320",37.43,-91.33,132,136,35,8616,318,-66,384,132,14,238,14,1084,114,53,20,325,195,283,195
"17","3574783",37.17,-91.21,132,143,36,8704,324,-71,395,133,13,239,13,1120,115,58,18,334,222,282,222
"18","3166365",36.93,-91.28,129,142,36,8716,321,-72,393,130,11,237,11,1150,119,62,18,344,238,282,238
"19","3545888",38.28,-92.52,128,129,32,9266,322,-75,397,180,2,243,2,1030,127,39,28,332,152,286,152
"20","3554084",38.32,-91.62,124,131,32,9187,318,-79,397,176,-1,238,-1,1012,121,45,24,319,166,282,166
"21","3545328",39.01,-93.93,121,123,30,9604,316,-83,399,219,-9,239,-9,1010,125,34,38,361,114,334,114
"22","3544287",37.71,-91.34,128,138,35,8714,318,-71,389,129,9,236,9,1063,114,52,20,315,189,284,189
"23","1898947",37.75,-90.11,124,131,33,8992,315,-71,386,124,2,236,2,1114,117,62,17,331,223,290,223
"24","2159455",37.67,-91.27,128,137,35,8691,317,-71,388,128,9,235,9,1068,114,52,20,317,190,284,190
"25","2802811",42.03,-93.62,88,121,28,10943,296,-136,432,201,-63,220,-63,837,127,19,50,336,71,335,71
"26","2159570",37.73,-91.24,128,140,35,8718,319,-72,391,129,9,236,9,1068,114,52,19,318,192,282,192
"27","3515802",37.59,-90.63,126,134,34,8712,316,-67,383,126,8,235,8,1111,115,61,17,331,214,292,214
"28","3166707",37.19,-91.32,133,143,36,8725,324,-70,394,134,13,240,13,1114,115,56,19,333,217,282,217
"30","3165726",37.09,-91.16,131,146,36,8762,325,-73,398,133,11,239,11,1138,115,61,18,336,236,283,236
"31","270120",37.45,-90.13,125,134,34,8926,317,-70,387,126,4,236,4,1154,119,69,16,345,242,294,242
"32","3025653",36.78,-90.76,133,140,35,8772,326,-65,391,134,196,243,15,1198,123,75,16,359,263,281,273
"33","1749282",37.83,-90.88,126,138,35,8763,317,-72,389,127,7,235,7,1072,112,53,19,318,199,283,199
"34","3511943",37.64,-91.07,128,137,35,8666,317,-70,387,129,10,235,10,1091,113,55,19,324,203,283,203
"35","3082527",41.45,-88.19,96,116,28,10117,293,-110,403,199,-43,220,-43,929,102,36,29,301,136,296,136
"36","CONN00097879",41.49527,-72.53111,97,106,30,8634,276,-75,351,57,207,207,-16,1242,118,91,7,331,294,294,302
"37","CONN00097880",42.97083,-82.425,84,97,26,9521,274,-91,365,204,-31,204,-41,786,80,43,19,229,144,229,145
"38","122013",41.8333,-87.85,98,106,27,10005,291,-99,390,221,-37,221,-37,927,103,36,28,302,142,302,142
"39","204220",41.85,-87.65,100,98,25,9848,288,-91,379,222,-32,222,-32,919,100,38,27,298,146,298,146
"40","206241",41.95,-88.4333,86,115,28,10294,287,-121,408,213,-54,213,-54,934,109,33,32,318,128,318,128
