"","catalogNumber","lat","lon","bio1","bio2","bio3","bio4","bio5","bio6","bio7","bio8","bio9","bio10","bio11","bio12","bio13","bio14","bio15","bio16","bio17","bio18","bio19"
"1","CAN 545791",43.983,-79.617,67,99,26,9620,260,-113,373,178,-53,186,-61,816,85,53,13,237,168,234,184
"2","CAN 549349",45.467,-75.633,59,97,23,10986,263,-154,417,193,-76,193,-91,870,85,55,14,249,173,249,191
"3","CAN 549361",45.071,-75.279,62,102,24,10651,264,-147,411,182,-70,192,-83,894,90,58,14,261,179,251,198
"4","CAN 469797",45.417,-75.583,59,97,23,10949,262,-154,416,181,-76,192,-91,880,86,56,14,252,176,251,194
"5","CAN 470485",45.767,-76.783,53,112,25,11063,266,-172,438,188,-84,188,-98,828,81,53,14,237,166,237,180
"6","CAN 505026",42.45,-81.7,87,97,27,9287,271,-84,355,202,-27,202,-36,910,91,53,15,257,181,257,195
"7","CAN 545812",41.717,-82.667,98,87,24,9549,278,-78,356,217,-18,217,-28,862,90,44,20,261,158,261,164
"10","CAN 584997",46.817,-71.217,48,98,23,10693,258,-158,416,181,-31,181,-96,1102,117,70,18,339,213,339,261
"12","CAN 443376",45.467,-75.65,59,97,23,10986,263,-154,417,193,-76,193,-91,870,85,55,14,249,173,249,191
"14","QFA0549673",46.229168,-71.51722,39,103,24,10630,242,-172,414,170,-40,170,-105,1085,117,64,18,335,206,335,239
"15","QFA0570447",46.71528,-71.52639,47,102,24,10764,253,-165,418,179,-33,179,-100,1093,114,69,17,331,212,331,253
"16","QFA0072914",46.783333,-71.275,47,99,23,10716,256,-160,416,180,-32,180,-97,1114,117,72,18,339,216,339,264
"17","QFA0187514",46.779446,-71.27278,47,99,23,10716,256,-160,416,180,-32,180,-97,1114,117,72,18,339,216,339,264
"18","QFA0124901",46.775555,-71.27472,47,99,23,10716,256,-160,416,180,-32,180,-97,1114,117,72,18,339,216,339,264
"19","QFA0456481",46.948055,-70.941666,45,98,23,10687,251,-160,411,177,-35,177,-100,1075,115,68,18,333,207,333,249
"20","3420641",38.75111,-76.84306,128,111,32,8389,301,-41,342,234,18,234,18,1051,108,71,12,303,229,303,229
"21","3368864",38.645,-77.23611,132,116,33,8376,305,-41,346,231,22,238,22,993,104,71,11,282,224,280,224
"22","786743",38.87361,-77.03944,133,115,32,8546,311,-42,353,241,20,241,20,1021,104,70,12,292,223,292,223
"23","1885508",38.80472,-77.04722,133,114,32,8492,308,-40,348,233,21,240,21,1012,105,70,12,291,224,290,224
"24","3504487",38.865665,-77.0455,133,115,32,8546,311,-42,353,241,20,241,20,1021,104,70,12,292,223,292,223
"25","785072",38.87083,-77.04167,133,115,32,8546,311,-42,353,241,20,241,20,1021,104,70,12,292,223,292,223
"26","3406831",39.35583,-76.88889,119,118,32,8600,302,-56,358,207,6,228,6,1099,109,75,10,303,244,291,244
"27","120625",43.996395,-79.62461,67,99,26,9620,260,-113,373,178,-53,186,-61,816,85,53,13,237,168,234,184
"28","52775",31.203,-92.577,189,122,39,6783,335,29,306,110,239,272,98,1469,164,100,14,421,309,336,421
"29","44545",30.225,-91.916,197,112,40,6201,327,48,279,272,202,272,113,1494,167,92,16,450,314,450,381
"30","106190",31.845,-92.25,183,132,41,6938,337,16,321,89,233,268,89,1470,161,88,18,431,285,303,431
"31","55331",30.181,-90.927,196,119,42,6123,329,46,283,270,203,270,114,1550,167,84,15,451,321,451,407
"32","116490",31.55055,-90.08342,183,137,43,6768,338,20,318,110,232,268,94,1516,158,82,19,449,284,345,443
"33","UNA00000554",33.09889,-87.58694,173,132,40,7376,334,4,330,91,227,266,75,1399,160,82,20,431,261,317,403
"34","UNA00065805",31.55005,-90.08342,183,137,43,6768,338,20,318,110,232,268,94,1516,158,82,19,449,284,345,443
"35","UNA00065228",32.23,-86.23,181,126,40,6865,330,21,309,105,187,266,90,1341,157,66,20,407,264,330,380
"36","UNA00000544",34.6775,-87.44583,156,132,38,7738,325,-18,343,155,212,252,53,1401,160,81,19,411,266,302,393
"37","UNA00065233",32.53,-86.65,176,126,40,7018,327,13,314,98,180,263,83,1380,162,71,20,422,269,329,395
"38","UNA00055250",31.20389,-92.57694,189,122,39,6783,335,29,306,110,239,272,98,1469,164,100,14,421,309,336,421
"39","UNA00000508",34.64917,-86.82222,155,128,37,7749,321,-18,339,68,211,252,52,1413,164,82,18,415,270,308,393
"40","UNA00000513",34.65889,-86.58444,155,130,38,7726,322,-19,341,68,211,251,52,1405,163,81,18,415,270,305,391
"41","UNA00000549",32.36666,-86.3,181,125,40,6997,330,21,309,137,186,267,88,1322,151,68,20,391,262,325,376
"42","121762",36.416668,-84.28,123,130,37,7838,292,-52,344,122,180,220,17,1375,136,86,12,377,291,355,343
"43","121720",30.548334,-84.9625,194,132,45,6040,329,39,290,267,156,267,113,1471,183,78,24,484,265,484,348
"44","120709",29.081944,-81.57389,212,121,47,4898,329,74,255,270,157,270,146,1300,181,57,42,527,192,527,223
"45","121754",35.921665,-81.80361,123,133,39,7303,288,-46,334,197,41,215,26,1340,129,96,9,364,295,359,298
"46","121719",27.498333,-81.8175,224,128,53,4216,332,93,239,273,177,273,167,1273,209,46,57,590,152,546,176
"47","YPM CBS 006778",41.9093,-71.8712,89,121,32,8842,277,-98,375,47,200,200,-29,1211,117,90,7,327,289,289,297
"48","YPM CBS 006775",41.8352,-72.5734,95,119,31,9037,287,-90,377,141,-14,209,-26,1150,105,80,7,301,263,289,266
"49","YPM YU 037038",41.3114,-72.9247,104,102,29,8586,278,-65,343,88,212,212,-9,1141,108,84,8,307,271,271,272
"50","YPM CBS 006776",41.605,-72.88,97,115,31,8915,285,-83,368,85,-10,210,-21,1217,111,87,7,323,281,295,286
"51","YPM YU 037042",42.0081,-73.1148,70,114,30,9168,258,-117,375,118,-40,185,-53,1237,114,89,7,327,278,325,284
"52","YPM CBS 006773",41.9945,-72.6788,95,120,31,9222,291,-92,383,143,-16,211,-28,1153,105,80,7,303,263,291,266
"53","YPM CBS 006786",41.8911,-72.171,85,119,31,8851,272,-101,373,43,-22,196,-33,1218,115,86,7,325,283,299,290
"54","YPM CBS 006779",41.3113,-72.9246,104,102,29,8586,278,-65,343,88,212,212,-9,1141,108,84,8,307,271,271,272
"55","YPM CBS 006783",41.9049,-72.5673,95,119,31,9037,287,-90,377,141,-14,209,-26,1150,105,80,7,301,263,289,266
"59","YPM CBS 006780",41.8442,-73.0056,81,118,31,9102,271,-107,378,128,-29,195,-41,1240,112,88,7,325,282,316,287
"60","YPM CBS 006784",41.9425,-72.7411,95,120,31,9222,291,-92,383,143,-16,211,-28,1153,105,80,7,303,263,291,266
"61","YPM YU 037041",41.5614,-73.2072,93,116,31,8872,279,-89,368,82,-14,204,-25,1209,112,84,7,320,275,302,277
"62","YPM YU 037043",41.3644,-72.7767,101,104,29,8643,279,-69,348,86,210,210,-13,1188,111,88,7,318,282,282,285
"63","YPM YU 037039",41.2739,-72.9669,104,102,29,8586,278,-65,343,88,212,212,-9,1141,108,84,8,307,271,271,272
"64","YPM CBS 006771",41.5583,-73.036,94,113,30,8826,279,-86,365,82,-12,205,-23,1229,113,87,7,327,285,300,287
"65","YPM CBS 006785",41.3747,-73.3928,94,111,30,8767,275,-84,359,82,-11,204,-22,1233,115,86,8,330,283,304,283
"66","YPM CBS 006772",41.993,-72.1603,81,119,31,8937,270,-106,376,38,-26,194,-38,1235,116,89,6,330,290,302,297
"67","YPM CBS 006782",41.6153,-72.1432,93,116,31,8623,276,-88,364,52,202,202,-21,1230,120,91,8,334,288,288,303
"69","YPM CBS 030160",41.616,-73.1177,88,116,31,8917,274,-95,369,133,-19,200,-31,1238,113,87,7,324,282,310,286
"70","CONN00101942",41.94111,-72.72722,95,120,31,9222,291,-92,383,143,-16,211,-28,1153,105,80,7,303,263,291,266
"71","CONN00101947",41.58694,-73.40833,87,118,31,8936,274,-98,372,133,-20,199,-32,1199,111,82,8,318,265,312,267
"72","CONN00101938",41.99083,-72.15722,81,119,31,8937,270,-106,376,38,-26,194,-38,1235,116,89,6,330,290,302,297
"73","CONN00101969",42.29888,-73.99861,84,123,31,9364,282,-110,392,180,-29,201,-41,1023,102,64,13,294,212,283,214
"74","CONN00101953",41.71083,-72.85361,96,117,31,8977,286,-87,373,84,-12,209,-24,1215,111,86,7,321,280,297,284
"75","CONN00101932",41.47611,-73.23694,95,113,31,8791,278,-84,362,83,-10,206,-21,1218,113,85,7,326,281,299,282
"76","CONN00101939",41.37277,-73.45638,95,113,31,8789,278,-84,362,83,-11,205,-22,1220,113,85,8,325,278,303,279
"77","CONN00101967",42.12,-85.53277,89,111,28,9674,286,-98,384,209,-27,209,-41,912,94,41,22,276,152,276,157
"78","CONN00101970",46.12194,-73.04972,54,110,25,10990,265,-168,433,188,-26,188,-97,974,96,62,13,276,200,276,223
"79","CONN00101961",41.94472,-72.37333,83,117,31,8984,272,-102,374,40,-25,196,-37,1209,112,85,6,317,277,303,282
"80","CONN00101968",44.22,-73.12583,66,116,28,9982,268,-140,408,190,-57,190,-69,948,109,50,21,295,164,295,172
"81","CONN00101964",44.28589,-71.3159,8,96,26,9247,182,-178,360,-34,-105,124,-114,1703,171,124,9,463,386,442,404
"82","CONN00062080",41.905,-72.70194,97,119,31,9136,291,-88,379,144,-13,212,-25,1158,105,81,7,305,265,290,268
"83","CONN00101963",41.98888,-73.345,80,125,32,9106,274,-110,384,194,-30,194,-42,1155,107,76,9,313,249,313,253
"84","CONN00101959",41.76194,-72.74194,98,117,31,9031,290,-85,375,143,-10,212,-22,1165,106,81,7,307,266,290,270
"85","CONN00101931",41.54444,-73.20888,93,116,31,8872,279,-89,368,82,-14,204,-25,1209,112,84,7,320,275,302,277
"86","CONN00101951",41.985,-73.42277,77,122,32,9070,269,-112,381,191,-32,191,-44,1159,107,77,9,315,250,315,254
"88","CONN00101960",41.78444,-72.5775,95,118,31,8944,285,-87,372,140,-12,208,-24,1162,107,81,7,304,267,290,270
"89","CONN00101941",41.74722,-73.18861,82,115,30,8985,268,-103,371,128,-26,195,-38,1244,113,87,7,326,280,319,284
"90","CONN00158723",42.11027,-73.35555,79,127,32,9118,275,-114,389,192,-32,192,-44,1122,105,73,10,307,239,307,245
"91","CONN00101943",41.98166,-72.65055,96,121,31,9185,292,-90,382,144,-13,213,-26,1131,103,79,7,297,259,285,262
"92","CONN00101949",41.78222,-72.61194,98,118,31,9000,290,-84,374,143,-9,212,-21,1142,104,80,6,300,263,285,265
"94","CONN00101935",41.71944,-72.83944,96,117,31,8977,286,-87,373,84,-12,209,-24,1215,111,86,7,321,280,297,284
"95","CONN00101937",41.63138,-73.31055,86,116,31,8927,271,-98,369,132,-21,198,-33,1223,113,85,7,322,274,314,276
"96","CONN00053830",41.35444,-74.2775,97,117,31,9077,288,-86,374,190,-24,211,-24,1139,110,74,11,314,243,306,243
"97","CONN00101948",41.91583,-72.69916,97,119,31,9136,291,-88,379,144,-13,212,-25,1158,105,81,7,305,265,290,268
"98","CONN00101936",41.98888,-73.34444,80,125,32,9106,274,-110,384,194,-30,194,-42,1155,107,76,9,313,249,313,253
"99","CONN00159809",41.39111,-72.87055,103,106,30,8648,281,-68,349,88,-1,213,-11,1161,110,85,8,312,275,277,276
"100","CONN00101940",41.35416,-73.01138,98,107,30,8698,277,-75,352,84,-6,208,-16,1209,112,87,8,326,285,289,286
"101","CONN00166709",42.13333,-71.65,89,120,31,8925,278,-98,376,46,179,202,-30,1181,116,90,7,320,279,282,294
"102","CONN00101954",41.60305,-72.63638,99,112,30,8846,286,-78,364,86,-7,211,-18,1184,109,84,7,312,275,289,278
"103","CONN00101944",41.80833,-72.25,88,120,32,8761,274,-97,371,46,-18,198,-29,1211,115,86,7,324,283,296,289
"104","CONN00101966",42.48777,-84.10722,84,108,28,9593,277,-99,376,203,-45,203,-45,796,88,39,23,244,137,244,137
"105","CONN00053852",42.05361,-76.59583,79,123,32,8979,275,-102,377,170,-30,191,-40,864,96,46,19,265,157,258,157
"106","CONN00137460",41.9925,-73.3425,80,125,32,9106,274,-110,384,194,-30,194,-42,1155,107,76,9,313,249,313,253
"107","CONN00101956",41.91194,-72.7625,94,120,31,9154,288,-92,380,141,-16,210,-28,1186,108,83,7,313,271,296,275
"108","CONN00101952",41.6025,-72.82388,98,113,30,8905,286,-81,367,86,-9,211,-20,1214,111,87,7,322,281,294,286
"110","CONN00101955",41.75777,-72.88611,93,118,31,9046,284,-93,377,139,-16,207,-28,1217,111,86,7,321,279,301,283
"111","CONN00101958",41.30805,-72.92805,104,102,29,8586,278,-65,343,88,212,212,-9,1141,108,84,8,307,271,271,272
"112","CONN00101950",41.29638,-73.14666,101,104,29,8660,277,-70,347,86,-13,210,-13,1194,110,86,8,325,282,285,282
"113","CONN00101945",41.87583,-72.80111,94,120,31,9154,288,-92,380,141,-16,210,-28,1186,108,83,7,313,271,296,275
"114","CONN00101934",41.28972,-73.48472,95,110,30,8722,276,-81,357,83,-9,205,-20,1240,115,86,8,333,285,304,285
"115","CONN00101933",41.58805,-73.45694,91,121,32,8969,280,-97,377,181,-17,203,-30,1162,107,79,8,310,254,306,257
"116","CONN00101965",42.45555,-71.67305,84,120,31,9112,274,-106,380,40,190,199,-37,1154,114,88,7,314,274,275,287
"117","1070852",41.451603,-73.615906,93,115,31,8906,279,-89,368,197,-14,204,-26,1181,106,81,8,310,262,307,264
"118","1070809",41.451767,-73.61632,93,115,31,8906,279,-89,368,197,-14,204,-26,1181,106,81,8,310,262,307,264
"119","MT00025051",45.02717,-72.70835,53,111,26,10322,254,-158,412,179,-74,179,-88,1068,118,56,19,328,193,328,206
"120","MT00176657",45.483334,-76.08056,57,104,24,10947,261,-160,421,190,-79,190,-93,830,79,53,13,235,167,235,185
"121","MT00013846",42.6794,-81.02807,77,97,27,9141,258,-96,354,190,-36,190,-45,951,94,54,14,260,192,260,205
"122","MT00108206",45.11028,-72.15083,50,116,27,10434,256,-165,421,178,-78,178,-92,1060,119,58,19,331,198,331,214
"123","MT00176655",45.366665,-76.15,55,104,24,10881,259,-161,420,177,-80,187,-94,827,79,53,13,236,167,233,185
"124","MT00108147",45.061943,-72.200554,53,117,27,10425,260,-161,421,181,-75,181,-89,1047,117,58,19,327,196,327,211
"125","MT00108137",45.099167,-72.173615,49,115,27,10405,255,-165,420,177,-78,177,-92,1073,120,59,19,333,201,333,217
"126","MT00176653",45.466667,-76.066666,57,104,24,10947,261,-160,421,190,-79,190,-93,830,79,53,13,235,167,235,185
"127","MT00108145",45.04861,-72.185555,53,117,27,10425,260,-161,421,181,-75,181,-89,1047,117,58,19,327,196,327,211
"128","MT00108146",45.06139,-72.20528,53,117,27,10425,260,-161,421,181,-75,181,-89,1047,117,58,19,327,196,327,211
"129","MT00020072",45.591667,-75.38556,52,99,23,10955,254,-164,418,185,-83,185,-98,918,91,59,14,264,185,264,204
"130","MT00176620",72.475,-46.308334,-188,41,12,9952,-6,-339,333,-189,-283,-49,-301,847,94,56,18,274,182,203,184
"132","MT00176665",45.77222,-92.84111,52,125,26,11712,275,-195,470,193,-112,193,-112,769,111,19,49,315,73,315,73
"134","MT00108153",45.114723,-72.25806,50,114,27,10405,256,-163,419,178,-77,178,-91,1070,119,58,19,332,200,332,215
"135","MT00108011",45.130554,-72.14083,50,116,27,10434,256,-165,421,178,-78,178,-92,1060,119,58,19,331,198,331,214
"137","MT00176609",46.333332,-74.5,27,107,25,10854,231,-194,425,160,-52,160,-121,1111,108,71,14,319,222,319,255
"139","MT00108148",45.06361,-72.24,53,117,27,10425,260,-161,421,181,-75,181,-89,1047,117,58,19,327,196,327,211
"141","MT00172290",45.432,-75.749,59,99,23,10977,264,-154,418,193,-76,193,-91,863,84,54,14,248,170,248,188
"142","sn67",19.984444,-98.6,137,152,68,1756,245,22,223,149,113,158,113,547,92,7,72,269,33,186,38
"144","ECS017118",45.22727,-63.60534,59,101,28,8703,241,-113,354,-22,141,169,-54,1303,140,89,16,406,277,283,380
"145","ECS018208",45.735653,-63.864197,58,98,27,8898,240,-116,356,-26,92,169,-58,1161,120,84,13,350,256,265,326
"146","ECS016857",44.994232,-64.04217,63,100,28,8671,245,-106,351,-19,145,172,-50,1324,143,90,17,418,278,280,392
"148","ECS020005",45.383335,-63.2825,59,105,29,8642,242,-115,357,-23,91,166,-54,1212,127,84,14,368,264,275,340
"149","ECS024899",45.62075,-62.29738,56,94,27,8624,237,-109,346,-22,135,165,-54,1280,142,87,17,401,271,283,355
"150","ECS016506",45.383335,-63.915833,59,101,28,8818,243,-114,357,-24,143,170,-56,1231,130,86,15,379,266,272,355
"151","ECS017961",45.67784,-63.90357,58,98,27,8898,240,-116,356,-26,92,169,-58,1161,120,84,13,350,256,265,326
"152","ECS024884",45.670555,-63.89611,58,98,27,8898,240,-116,356,-26,92,169,-58,1161,120,84,13,350,256,265,326
"154","ECS020040",45.20607,-63.65477,59,101,28,8703,241,-113,354,-22,141,169,-54,1303,140,89,16,406,277,283,380
"155","ECS018666",44.87167,-65.21249,65,98,28,8282,242,-97,339,-13,98,169,-43,1244,134,87,16,391,265,271,366
"156","ECS018036",45.595833,-62.266945,56,94,27,8624,237,-109,346,-22,135,165,-54,1280,142,87,17,401,271,283,355
"157","ECS023174",45.07282,-64.57008,60,101,28,8719,245,-109,354,-22,145,171,-53,1242,132,86,15,383,265,270,361
"158","ECS021313",45.88495,-64.001,56,96,26,8967,237,-119,356,-29,90,168,-62,1139,116,83,12,339,254,264,316
"159","ECS025370",46.74361,-64.185555,52,92,25,9434,239,-129,368,-38,89,172,-71,1104,114,80,12,331,252,257,308
"160","ECS017042",45.03522,-63.35829,62,100,28,8504,238,-107,345,-17,140,168,-48,1323,143,89,16,413,281,288,385
"161","ECS016842",45.413517,-63.088123,55,103,29,8644,238,-117,355,-27,86,163,-58,1253,131,87,14,382,273,284,350
"162","ECS024748",45.68139,-61.254723,60,86,26,8231,228,-100,328,-9,131,165,-44,1406,162,91,19,450,289,298,352
"163","ECS022078",45.3812,-63.20133,56,104,29,8646,240,-116,356,-25,88,164,-56,1229,129,85,14,374,267,279,344
"164","ECS024663",45.004208,-64.03345,64,101,28,8720,248,-106,354,-18,147,174,-49,1288,138,88,16,405,271,275,380
"165","ECS016528",45.787014,-64.194954,56,98,27,8890,237,-117,354,-28,92,168,-60,1133,115,83,12,336,251,265,314
"166","ECS016849",45.2122,-63.02209,60,103,29,8471,240,-109,349,-19,91,166,-50,1255,132,87,15,385,272,284,354
"167","ECS019996",45.4246,-63.25274,55,103,28,8725,239,-118,357,-27,87,164,-59,1229,129,86,14,374,268,278,344
"168","ECS016821",45.378162,-63.91279,59,101,28,8818,243,-114,357,-24,143,170,-56,1231,130,86,15,379,266,272,355
"171","89378",40.8333,-76,88,114,31,8784,274,-89,363,178,-17,198,-29,1217,121,79,12,348,255,334,260
"172","225628",45.46,-75.61,59,97,23,10986,263,-154,417,193,-76,193,-91,870,85,55,14,249,173,249,191
"173","225537",45.23,-75.69,60,97,23,10846,262,-150,412,182,-74,193,-88,867,84,55,14,248,172,244,191
"176","2711847",30.62,-84.91,193,133,45,6070,330,38,292,267,155,267,112,1452,178,75,23,471,262,471,352
"177","3507002",37.43,-90.14,125,134,34,8926,317,-70,387,126,4,236,4,1154,119,69,16,345,242,294,242
"178","952279",37.26,-90.19,129,136,34,8911,320,-69,389,130,7,239,7,1163,121,72,16,350,250,290,250
"179","2711084",41.45,-75.7,77,112,30,8947,263,-102,365,169,-31,189,-42,1050,105,65,15,309,209,302,209
"180","1899139",37.48,-90.16,125,134,34,8926,317,-70,387,126,4,236,4,1154,119,69,16,345,242,294,242
"181","270078",37.17,-90.25,130,135,34,8921,322,-67,389,132,9,241,9,1175,124,74,16,355,257,288,257
"182","270128",37.45,-90.13,125,134,34,8926,317,-70,387,126,4,236,4,1154,119,69,16,345,242,294,242
"183","2711290",33.31,-81.66,173,139,42,6945,333,6,327,261,128,261,82,1193,125,64,20,370,223,370,301
"185","1381291",36.28,-81.78,103,124,38,7192,261,-61,322,176,7,193,7,1365,131,96,10,380,297,373,297
"187","3158480",36.82,-90.39,141,127,32,9030,330,-55,385,141,204,253,18,1198,129,75,17,366,256,270,280
"188","3552365",36.82,-90.4,141,127,32,9030,330,-55,385,141,204,253,18,1198,129,75,17,366,256,270,280
"189","3025650",36.78,-90.76,133,140,35,8772,326,-65,391,134,196,243,15,1198,123,75,16,359,263,281,273
"190","2710908",39.96,-83,109,117,31,9075,295,-74,369,202,-13,222,-13,954,103,54,21,301,183,287,183
"191","1899307",37.37,-90.8,130,141,35,8763,323,-70,393,131,11,239,11,1135,113,64,17,335,235,285,235
"193","3293751",31.55,-90.08,184,137,43,6757,338,20,318,110,232,268,94,1519,158,83,18,448,287,346,443
"195","3574575",38.08,-90.74,124,137,34,8976,316,-76,392,125,2,236,2,1042,112,55,19,310,196,276,196
"196","2712112",38.08,-90.98,124,137,34,8902,316,-77,393,124,2,234,2,1050,114,53,19,312,192,280,192
"197","2710594",42.66,-77.05,81,113,30,9074,272,-96,368,195,-30,195,-38,832,91,43,21,252,143,252,146
"198","225629",45.46,-75.61,59,97,23,10986,263,-154,417,193,-76,193,-91,870,85,55,14,249,173,249,191
"200","ECS016996",45.004208,-64.03345,64,101,28,8720,248,-106,354,-18,147,174,-49,1288,138,88,16,405,271,275,380
"202","YPM YU 037040",41.8352,-72.5734,95,119,31,9037,287,-90,377,141,-14,209,-26,1150,105,80,7,301,263,289,266
"203","YPM CBS 006777",41.605,-72.88,97,115,31,8915,285,-83,368,85,-10,210,-21,1217,111,87,7,323,281,295,286
"206","MT00176618",72.475,-46.308334,-188,41,12,9952,-6,-339,333,-189,-283,-49,-301,847,94,56,18,274,182,203,184
"207","MT00176654",45.483334,-76.066666,57,104,24,10947,261,-160,421,190,-79,190,-93,830,79,53,13,235,167,235,185
"209","1898948",37.43,-90.13,125,134,34,8926,317,-70,387,126,4,236,4,1154,119,69,16,345,242,294,242
"210","1899124",37.48,-90.14,125,134,34,8926,317,-70,387,126,4,236,4,1154,119,69,16,345,242,294,242
"212","CONN00074106",41.905,-72.70194,97,119,31,9136,291,-88,379,144,-13,212,-25,1158,105,81,7,305,265,290,268
"213","CONN00101930",41.54444,-73.20888,93,116,31,8872,279,-89,368,82,-14,204,-25,1209,112,84,7,320,275,302,277
"216","YPM YU 037037",41.605,-72.88,97,115,31,8915,285,-83,368,85,-10,210,-21,1217,111,87,7,323,281,295,286
"217","CABR14-39071",39.18403,-83.60409,112,112,31,8780,288,-67,355,108,-6,221,-6,1070,118,67,17,320,221,298,221
"218","CABR14-42127",41.65018,-75.30639,73,120,32,8979,260,-114,374,163,-36,184,-48,1089,109,70,13,311,225,300,230
"219","CABR14-22067",32.818016,-91.799736,176,126,38,7455,337,7,330,176,230,269,77,1383,144,78,19,404,251,283,400
"220","CABR14-33005",42.92054,-72.25326,69,132,32,9429,271,-134,405,186,-46,186,-59,1053,99,72,9,286,231,286,238
"221","CABR14-42115",41.82273,-75.80026,75,113,30,8970,262,-104,366,166,-34,187,-45,1038,102,65,14,299,209,294,210
"222","CABR14-26025",42.2527,-85.00301,86,113,29,9617,283,-100,383,205,-30,205,-43,881,92,39,24,269,144,269,146
"223","CABR14-12083",29.211533,-82.05905,208,131,49,5040,330,65,265,269,180,269,141,1320,188,55,41,534,198,534,237
"224","CABR14-12095",28.513954,-81.32213,220,112,47,4553,328,91,237,273,169,273,158,1267,194,50,49,540,160,540,190
"225","CABR14-21165",37.9476,-83.60427,120,133,36,8307,299,-63,362,205,129,224,9,1229,135,74,16,362,261,344,281
"226","CABR14-51091",38.350323,-79.5563,86,123,35,7886,256,-88,344,166,-20,184,-20,1155,113,80,10,319,247,311,247
"227","CABR14-26081",43.03285,-85.54718,84,112,29,9577,282,-98,380,194,-32,203,-44,885,101,37,23,268,152,253,157
"228","CABR14-51043",39.116394,-77.99698,118,126,34,8573,302,-64,366,205,4,226,4,975,98,63,14,285,194,280,194
"229","CABR14-12069",28.76558,-81.71741,215,121,48,4815,329,78,251,271,189,271,149,1220,170,54,43,498,178,498,218
"230","CABR14-17077",37.78752,-89.38149,131,124,32,9083,318,-62,380,131,7,243,7,1119,116,66,17,335,235,292,235
"231","CABR14-39079",39.020615,-82.621666,112,131,35,8602,295,-75,370,199,-4,219,-4,1037,111,65,18,308,212,301,212
"232","CABR14-36005",40.84895,-73.85262,117,93,27,8739,291,-49,340,102,3,228,3,1149,107,79,9,309,259,296,259
"233","CABR14-36025",42.20076,-74.964775,63,119,31,9070,253,-125,378,154,-48,175,-59,1099,110,64,15,320,215,313,219
"234","CABR14-51053",37.07643,-77.63007,139,133,38,7916,314,-36,350,239,93,239,34,1119,113,79,11,319,253,319,261
"235","CABR14-55109",45.038876,-92.44689,64,119,25,11611,284,-176,460,204,-98,204,-98,795,113,20,49,321,72,321,72
"236","CABR14-55049",42.99792,-90.133865,72,115,27,10653,277,-145,422,202,-74,202,-74,865,105,29,39,315,101,315,101
"237","CABR14-26065",42.60355,-84.3738,82,109,28,9615,277,-103,380,201,-47,201,-47,786,89,35,25,243,127,243,127
"238","CABR14-26083",47.47726,-88.15507,37,105,26,10233,237,-163,400,156,-41,163,-99,811,87,44,19,243,146,237,177
"239","CABR14-26061",46.983574,-88.64662,46,112,27,10327,254,-155,409,165,-33,174,-91,806,87,40,22,252,141,249,160
"240","CABR14-42089",41.056915,-75.336174,78,116,31,8843,264,-103,367,168,-29,188,-40,1208,118,79,11,338,257,327,260
"241","CABR14-12117",28.708658,-81.2271,219,110,46,4613,328,92,236,273,167,273,157,1246,180,49,47,526,158,511,191
"242","CABR14-51195",36.974564,-82.62167,114,123,37,7673,277,-55,332,192,122,209,11,1191,123,78,12,341,260,328,277
"243","CABR14-42033",41.000317,-78.474174,80,123,33,8746,269,-98,367,169,-38,189,-38,1070,115,67,16,329,212,320,212
"244","CABR14-47071",35.19538,-88.18634,153,138,38,7878,327,-27,354,153,209,251,47,1407,149,81,19,418,259,295,388
"245","CABR14-26057",43.29229,-84.60477,79,113,29,9661,282,-105,387,190,-49,200,-49,795,92,34,26,251,126,241,126
"246","CABR14-27097",46.01195,-94.26757,53,126,26,12044,282,-196,478,199,-113,199,-113,685,104,16,52,289,55,289,55
"247","CABR14-55035",44.726604,-91.286575,61,122,26,11333,279,-175,454,198,-96,198,-96,821,111,20,48,321,76,321,76
"248","CABR14-05051",34.57332,-93.15395,158,135,37,7987,336,-26,362,157,217,257,50,1418,153,83,18,431,306,313,311
"249","CABR14-42007",40.685764,-80.3523,97,120,32,8795,283,-82,365,187,-21,206,-21,958,103,57,18,298,191,285,191
"250","CABR14-55053",44.315224,-90.80837,63,131,28,11070,282,-172,454,184,-91,196,-91,822,106,23,46,314,79,313,79
"251","CABR14-01033",34.707294,-87.79657,155,135,39,7702,324,-20,344,155,211,250,52,1402,159,80,19,416,262,298,397
"252","CABR14-42121",41.402126,-79.763,85,123,32,8882,277,-96,373,195,-34,195,-34,1102,117,62,18,335,212,335,212
"253","CABR14-50015",44.607105,-72.64632,56,114,27,10129,258,-151,409,181,-68,181,-81,1017,114,54,20,317,183,317,194
"254","CABR14-55095",45.46006,-92.442924,56,122,26,11681,278,-186,464,197,-106,197,-106,798,112,20,49,323,75,323,75
"255","CABR14-45053",32.435177,-81.024025,185,124,40,6478,330,27,303,265,145,265,99,1264,171,58,32,468,206,468,265
"256","CABR14-33011",42.92425,-71.71687,75,123,31,9385,272,-121,393,28,-38,192,-51,1110,112,83,8,308,255,274,267
"257","CABR14-50001",44.03057,-73.14255,69,120,29,9966,274,-137,411,193,-53,193,-65,931,106,51,20,284,166,284,174
"258","CABR14-09009",41.34897,-72.900345,103,106,30,8648,281,-68,349,88,-1,213,-11,1161,110,85,8,312,275,277,276
"259","CABR14-18071",38.907417,-86.04293,120,124,33,8804,303,-62,365,210,129,229,2,1111,119,69,16,332,234,305,243
"260","CABR14-22005",30.202864,-90.90911,197,119,41,6112,330,46,284,267,203,271,115,1568,169,85,15,455,326,453,413
"261","CABR14-55135",44.47888,-88.9657,65,120,27,10818,279,-155,434,185,-83,197,-83,803,98,26,40,291,92,286,92
"262","CABR14-55097",44.47567,-89.49846,63,118,27,10924,276,-159,435,184,-86,197,-86,820,104,25,42,305,87,295,87
"263","CABR14-36045",43.994022,-76.0543,72,106,27,9682,263,-121,384,93,-3,192,-58,953,100,61,14,278,202,232,226
"264","CABR14-55099",45.68028,-90.36148,43,120,26,11101,257,-189,446,164,-111,176,-111,812,110,20,46,316,82,312,82
"265","CABR14-55113",45.898598,-91.142136,41,129,27,11272,262,-200,462,165,-116,176,-116,827,113,21,48,331,81,324,81
"266","CABR14-21205",38.19367,-83.41968,119,133,36,8353,300,-64,364,204,129,223,7,1161,129,72,16,348,246,332,258
"267","CABR14-42087",40.608715,-77.61784,100,116,31,8924,288,-79,367,191,-20,211,-20,1008,107,63,15,306,203,290,203
"268","CABR14-37185",36.39766,-78.097305,144,134,38,7710,315,-30,345,241,98,241,42,1125,115,80,12,325,248,325,265
"269","CABR14-39035",41.535934,-81.6597,99,104,29,9108,282,-76,358,213,-12,213,-21,933,92,52,15,267,183,267,187
"270","CABR14-54077",39.46946,-79.6683,94,123,34,8312,270,-83,353,178,106,197,-18,1254,128,83,13,366,273,360,279
"271","CABR14-25021",42.17393,-71.18549,95,114,31,8764,282,-83,365,6,183,207,-20,1163,118,84,10,326,259,264,303
"272","CABR14-50017",44.00823,-72.38161,44,118,29,9648,242,-156,398,164,-73,164,-85,1110,116,68,14,321,221,321,234
"273","CABR14-36023",42.599106,-76.07252,68,106,29,9143,256,-108,364,162,-43,183,-52,1059,104,66,13,291,210,291,223
"274","CABR14-42049",42.10335,-80.10415,93,96,27,9072,271,-78,349,200,-19,207,-26,1035,103,58,16,291,198,287,209
"275","CABR14-39055",41.498753,-81.17254,88,108,29,9060,271,-92,363,178,-22,200,-34,1047,102,59,14,297,206,293,213
"276","CABR14-55075",45.342922,-88.00104,56,128,29,10619,273,-165,438,175,-88,187,-88,777,94,25,37,270,97,268,97
"277","CABR14-12105",27.959784,-81.70007,223,126,52,4352,334,92,242,274,200,274,164,1244,195,43,53,559,167,559,188
"278","CABR14-26027",41.913994,-85.99332,90,110,28,9592,284,-96,380,209,-24,209,-39,953,96,45,20,279,165,279,171
"279","CABR14-51181",37.119823,-76.89053,144,119,35,7823,309,-24,333,243,100,243,41,1140,127,77,15,342,242,342,263
"280","CABR14-42077",40.61447,-75.58996,101,118,31,8908,292,-77,369,192,-4,215,-16,1156,112,74,11,323,248,318,251
"281","CABR14-27017",46.59019,-92.68017,38,131,28,11378,265,-202,467,176,-119,176,-119,749,107,17,50,308,69,308,69
"282","CABR14-51171",38.861885,-78.56809,114,138,37,8302,299,-71,370,198,3,218,3,921,92,58,16,272,178,270,178
"283","CABR14-42113",41.446934,-76.505486,73,113,31,8827,258,-104,362,163,-45,183,-45,907,105,49,23,298,155,284,155
"284","CABR14-17183",40.182453,-87.73842,105,114,29,9697,295,-91,386,205,-27,224,-27,986,111,48,24,320,167,309,167
"285","CABR14-18075",40.434147,-85.009125,98,114,29,9538,289,-93,382,196,-31,216,-31,933,100,49,22,293,168,287,168
"286","CABR14-21033",37.148438,-87.870766,140,122,33,8541,316,-46,362,140,201,245,23,1257,125,78,15,367,256,293,318
"287","CABR14-54083",38.780277,-79.868126,94,128,36,7957,264,-82,346,175,-13,193,-13,1228,130,82,13,360,264,359,264
"288","CABR14-55119",45.21148,-90.50453,47,122,27,11093,263,-184,447,181,-106,181,-106,823,111,21,48,325,79,325,79
"289","CABR14-21011",38.140255,-83.74085,123,132,36,8397,304,-60,364,208,133,227,10,1177,129,71,16,348,249,331,264
"290","CABR14-22073",32.47785,-92.15565,181,127,39,7204,339,19,320,181,233,271,86,1326,140,74,18,389,245,274,382
"291","CABR14-36123",42.639454,-77.10497,80,114,30,9065,271,-98,369,193,-31,193,-40,830,91,44,21,251,144,251,147
"292","CABR14-25003",42.36514,-73.210686,65,114,30,9178,255,-121,376,159,-46,180,-58,1171,109,80,10,322,255,321,260
"293","CABR14-12049",27.493626,-81.80927,224,128,53,4216,332,93,239,273,177,273,167,1273,209,46,57,590,152,546,176
"294","CABR14-34003",40.958706,-74.07436,114,104,29,8867,295,-59,354,219,-3,226,-3,1179,111,78,10,317,256,308,256
"295","CABR14-12077",30.232796,-84.88691,197,127,45,5917,328,46,282,266,161,269,118,1526,202,82,29,537,272,534,338
"296","CABR14-42131",41.520493,-76.01958,81,114,31,8910,270,-96,366,173,-37,193,-37,967,101,57,18,295,182,287,182
"297","CABR14-42035",41.24145,-77.63672,84,117,31,8875,274,-94,368,175,-35,195,-35,1019,114,61,17,315,199,306,199
"298","CABR14-42105",41.74379,-77.8996,65,118,32,8869,253,-114,367,155,-43,174,-55,1027,124,61,20,322,198,320,198
"299","CABR14-54023",39.101933,-79.19675,94,130,36,8117,271,-83,354,176,-15,195,-15,1066,110,69,14,315,218,309,218
"300","CABR14-18067",40.4815,-86.116264,99,114,29,9661,290,-95,385,198,-16,218,-32,980,107,52,20,298,184,293,185
"301","CABR14-18065",39.931046,-85.39694,100,116,30,9354,289,-89,378,196,-27,215,-27,1013,110,56,21,317,189,298,189
"302","CABR14-22021",32.08706,-92.11965,182,130,40,7002,337,18,319,88,232,269,88,1411,149,82,18,411,265,290,411
"303","CABR14-51169",36.718624,-82.601456,127,129,38,7773,295,-44,339,206,134,224,23,1137,118,69,13,322,238,310,279
"304","CABR14-36017",42.49544,-75.61504,70,116,31,9089,259,-112,371,162,-41,183,-52,1029,102,62,14,290,203,288,210
"305","CABR14-26163",42.2846,-83.26028,95,100,26,9618,286,-85,371,215,-20,215,-33,807,89,44,20,248,150,248,154
"306","CABR14-26103",46.664356,-87.60419,36,115,28,10248,245,-165,410,115,-100,163,-100,840,97,39,23,264,146,248,146
"307","CABR14-55087",44.41162,-88.46158,68,112,26,10699,277,-146,423,200,-77,200,-77,778,93,27,37,273,95,273,95
"308","CABR14-42069",41.4404,-75.610115,82,116,31,9002,271,-99,370,174,-26,195,-37,1028,102,64,14,300,206,294,207
"309","CABR14-25027",42.350235,-71.9117,78,116,30,9099,266,-111,377,34,-32,193,-44,1176,112,86,6,313,277,291,281
"310","CABR14-55017",45.067528,-91.28237,63,125,27,11257,283,-171,454,199,-92,199,-92,810,113,19,50,322,74,322,74
"311","CABR14-55141",44.450554,-90.04162,63,126,28,10886,279,-164,443,182,-87,195,-87,825,107,24,44,311,83,303,83
"312","CABR14-12019",29.976759,-81.85793,203,122,45,5425,329,59,270,268,172,268,130,1308,190,56,41,520,199,520,248
"313","CABR14-39077",41.150166,-82.601845,95,108,29,9187,281,-84,365,188,-28,209,-28,929,101,49,22,295,171,290,171
"314","CABR14-33007",44.687084,-71.30172,37,122,29,9993,238,-174,412,160,-86,160,-98,1124,120,67,16,337,216,337,234
"315","CABR14-37103",35.012276,-77.366005,164,127,40,7005,318,1,317,252,124,252,71,1337,169,76,26,461,243,461,297
"316","CABR14-42027",40.914265,-77.8185,95,114,31,8913,284,-81,365,187,-24,207,-24,991,107,62,15,301,198,291,198
"317","CABR14-11001",38.90505,-77.01617,133,115,32,8546,311,-42,353,241,20,241,20,1021,104,70,12,292,223,292,223
"318","CABR14-18039",41.59645,-85.85894,93,111,29,9636,287,-95,382,212,-37,212,-37,943,101,45,22,288,160,288,160
"319","CABR14-36001",42.602898,-73.97174,79,118,30,9453,276,-115,391,176,-47,198,-47,983,96,60,14,282,199,277,199
"320","CABR14-18091",41.54916,-86.744995,96,108,28,9669,286,-94,380,216,-18,216,-34,1006,108,48,21,307,176,307,177
"321","CABR14-18121",39.77504,-87.2073,110,120,31,9435,301,-82,383,207,-17,226,-17,1062,117,57,21,335,200,321,200
"322","CABR14-39049",39.9697,-83.009796,109,118,31,9091,295,-75,370,202,-13,222,-13,948,103,54,20,299,182,284,182
"323","CABR14-01089",34.760002,-86.548775,150,130,38,7717,317,-24,341,63,206,246,47,1429,165,85,18,419,276,307,396
"324","CABR14-54093",39.103554,-79.56694,78,121,35,7994,249,-95,344,160,91,177,-30,1349,132,94,11,385,301,376,307
"325","CABR14-36035",43.11498,-74.42378,60,115,29,9475,253,-133,386,156,-56,177,-67,1191,111,75,10,317,254,315,260
"326","CABR14-42103",41.32964,-75.03371,75,119,31,8915,261,-111,372,165,-33,186,-45,1131,112,73,12,320,239,311,240
"327","CABR14-50025",42.986237,-72.7176,64,124,30,9510,264,-137,401,115,-52,182,-64,1217,112,86,8,321,273,318,283
"328","CABR14-21197",37.830273,-83.826035,122,131,36,8298,300,-61,361,207,132,226,11,1228,132,74,15,356,265,340,283
"329","CABR14-18107",40.04094,-86.892845,104,120,31,9342,295,-86,381,200,-23,219,-23,1034,111,53,22,325,190,318,190
"330","CABR14-36115",43.32009,-73.43059,78,127,30,9771,284,-129,413,199,-41,199,-55,985,106,57,15,282,196,282,199
"331","CABR14-27055",43.67414,-91.49116,69,115,26,11175,281,-159,440,205,-85,205,-85,833,105,23,45,315,81,315,81
"332","CABR14-39153",41.12965,-81.53234,97,110,30,9022,282,-80,362,188,-23,209,-23,950,98,54,17,286,185,278,185
"333","CABR14-39043",41.51273,-82.614105,99,94,26,9468,282,-77,359,218,-15,218,-26,870,93,45,21,269,162,269,162
"334","CABR14-55009",44.47523,-87.993706,67,107,26,10228,268,-136,404,193,-71,193,-71,754,88,27,34,260,98,260,98
"335","CABR14-55085",45.704914,-89.524254,43,124,27,11041,260,-186,446,164,-109,177,-109,794,109,21,45,309,84,300,84
"336","CABR14-51157",38.687336,-78.1686,113,131,36,8257,292,-70,362,196,2,216,2,1041,104,66,15,299,204,295,204
"337","CABR14-21175",37.922928,-83.25888,120,140,38,8256,301,-66,367,203,130,223,9,1163,132,74,16,348,249,333,262
"338","CABR14-55069",45.329845,-89.73242,47,123,27,11106,265,-183,448,170,-105,182,-105,812,110,23,44,311,84,301,84
"339","CABR14-36113",43.56291,-73.84443,61,121,30,9643,258,-142,400,171,-57,180,-69,1093,110,69,12,298,228,297,231
"340","CABR14-55127",42.668076,-88.541595,80,113,27,10457,287,-129,416,209,-62,209,-62,877,104,30,34,305,115,305,115
"341","CABR14-36019",44.740265,-73.67945,54,110,27,10128,255,-149,404,180,-70,180,-82,907,107,50,21,285,160,285,170
"342","CABR14-21235",36.76274,-84.146545,128,135,38,7913,301,-48,349,209,186,227,22,1285,126,78,12,358,272,336,317
"343","CABR14-22127",31.9451,-92.63673,182,134,41,6995,339,14,325,88,233,268,88,1467,162,88,17,423,286,312,423
"344","CABR14-37161",35.399006,-81.91982,147,137,40,7387,314,-22,336,223,64,241,50,1334,133,96,9,355,304,352,320
"345","CABR14-39101",40.58572,-83.16074,97,119,31,9314,291,-89,380,193,-28,213,-28,936,103,48,22,300,173,285,173
"346","CABR14-42039",41.683514,-80.10763,82,114,31,8904,268,-96,364,193,-27,193,-37,1115,113,63,16,328,212,328,221
"347","CABR14-42011",40.415565,-75.927704,106,114,31,8887,291,-73,364,197,1,218,-12,1118,110,72,12,322,240,309,245
"348","CABR14-39161",40.855602,-84.58565,99,117,30,9692,294,-95,389,198,-33,218,-33,882,92,46,20,274,164,260,164
"349","CABR14-42043",40.41317,-76.78681,105,112,30,8951,292,-71,363,197,-13,219,-13,1048,102,70,11,297,223,284,223
"350","CABR14-51079",38.297913,-78.4708,127,128,35,8163,305,-51,356,222,18,229,18,1085,110,71,14,311,221,307,221
"351","CABR14-47075",35.58009,-89.28644,154,121,34,8260,326,-25,351,155,213,257,43,1326,135,73,19,403,249,279,352
"352","CABR14-23003",46.648384,-68.59081,30,124,28,10702,244,-194,438,151,-101,163,-115,978,104,54,19,299,182,295,198
"353","CABR14-45035",33.08131,-80.40449,181,127,41,6637,328,19,309,263,140,263,92,1279,159,63,28,459,228,459,280
"354","CABR14-36053",42.911774,-75.6682,62,110,29,9256,251,-122,373,80,-52,177,-61,1111,106,72,12,301,227,299,240
"355","CABR14-55015",44.078236,-88.22154,70,107,25,10582,276,-138,414,190,-74,200,-74,796,96,28,35,278,99,274,99
"356","CABR14-09007",41.43512,-72.523895,97,106,30,8634,276,-75,351,57,207,207,-16,1242,118,91,7,331,294,294,302
"357","CABR14-28049",32.26345,-90.443596,177,127,39,7091,330,11,319,98,229,264,82,1357,146,76,21,404,235,292,402
"358","CABR14-36107",42.1668,-76.302895,76,115,31,8994,267,-102,369,168,-33,189,-43,936,98,54,17,276,175,272,180
"359","CABR14-51175",36.723557,-77.10658,146,128,37,7750,314,-26,340,243,101,243,43,1162,126,76,15,350,244,350,273
"360","CABR14-18141",41.6176,-86.28756,96,108,28,9604,287,-91,378,215,-18,215,-33,982,104,49,20,293,176,293,178
"361","CABR14-51061",38.740658,-77.80854,124,125,34,8389,302,-57,359,208,11,229,11,1040,102,71,12,290,218,289,218
"362","CABR14-50003",43.029343,-73.108406,64,121,30,9518,263,-135,398,183,-51,183,-64,1178,117,75,12,326,245,326,253
"363","CABR14-36067",43.0066,-76.1961,82,105,28,9357,272,-97,369,100,-32,200,-41,1017,98,64,12,283,206,273,220
"364","CABR14-34037",41.14184,-74.69079,91,126,33,8928,282,-98,380,181,-29,202,-29,1154,111,72,12,327,242,323,242
"365","CABR14-55013",45.8656,-92.36781,52,126,27,11580,274,-192,466,192,-109,192,-109,774,107,20,48,312,76,312,76
"366","CABR14-18097",39.782,-86.13799,110,114,30,9475,298,-81,379,207,-18,227,-18,1012,116,58,21,315,193,298,193
"367","CABR14-45005",32.990875,-81.354904,180,136,42,6682,334,15,319,263,137,263,91,1216,140,62,24,407,215,407,292
"368","CABR14-26049",43.021,-83.706604,84,108,28,9601,280,-99,379,194,-44,204,-44,761,88,34,26,241,123,235,123
"369","CABR14-01125",33.28794,-87.523766,168,133,40,7382,330,-1,331,86,222,261,71,1437,164,85,19,439,268,327,412
"370","CABR14-33009",43.933,-71.843445,51,121,30,9700,251,-152,403,171,-67,171,-80,1076,110,68,15,312,212,312,225
"371","CABR14-37049",35.120365,-77.08206,166,118,38,7074,316,6,310,250,126,255,73,1338,168,80,26,459,252,456,297
"372","CABR14-51125",37.792027,-78.88435,124,130,37,7980,298,-50,348,205,18,225,18,1130,111,78,12,309,241,300,241
"373","CABR14-28159",33.09319,-89.035416,167,130,40,7216,325,0,325,123,219,257,71,1433,157,85,20,434,265,308,410
"374","CABR14-09013",41.853,-72.332954,85,118,31,8838,272,-100,372,43,-22,196,-33,1210,114,85,7,321,279,300,285
"375","CABR14-26035",43.991215,-84.838425,65,118,29,9806,273,-125,398,177,-55,187,-65,793,97,32,27,260,125,243,126
"376","CABR14-42025",40.922707,-75.70212,80,113,31,8791,265,-97,362,170,-25,190,-37,1188,117,75,13,341,243,333,248
"377","CABR14-21095",36.856186,-83.21501,117,129,37,7863,287,-56,343,197,125,215,12,1283,129,79,12,358,269,344,323
"378","CABR14-51173",36.84495,-81.53354,109,132,39,7499,275,-61,336,184,25,202,8,1127,115,81,12,328,246,314,251
"379","CABR14-26149",41.91532,-85.52976,89,112,29,9692,285,-100,385,209,-27,209,-42,909,96,41,23,280,152,280,153
"380","CABR14-26099",42.66806,-82.91016,91,100,27,9558,284,-85,369,211,-24,211,-35,784,82,41,20,241,141,241,146
"381","CABR14-21125",37.11134,-84.12001,126,128,36,8076,297,-55,352,207,185,226,17,1244,128,77,13,352,269,329,295
"382","CABR14-22079",31.1965,-92.535965,189,122,39,6783,335,29,306,110,239,272,98,1469,164,100,14,421,309,336,421
"383","CABR14-51095",37.311646,-76.77074,144,118,35,7821,308,-25,333,236,100,242,40,1136,126,76,15,338,244,336,262
"384","CABR14-51185",37.12551,-81.56305,106,129,38,7584,272,-64,336,182,61,200,4,1100,115,78,13,322,238,309,247
"385","CABR14-55039",43.755356,-88.49081,75,106,25,10613,278,-134,412,195,-69,206,-69,763,94,25,39,279,89,273,89
"386","CABR14-55079",42.975613,-87.67142,83,92,24,9612,265,-104,369,198,-46,202,-46,827,92,33,28,270,129,268,129
"387","CABR14-42073",40.991787,-80.33462,96,124,33,8791,284,-84,368,184,-22,205,-22,961,102,56,17,296,187,289,187
"388","CABR14-42107",40.70463,-76.2143,91,115,31,8813,277,-87,364,180,-14,201,-27,1162,117,72,14,341,236,325,241
"389","CABR14-18157",40.38795,-86.89367,103,115,29,9665,295,-94,389,202,-29,221,-29,948,102,45,23,300,164,297,164
"390","CABR14-25015",42.3393,-72.66419,85,127,32,9300,283,-112,395,134,-27,201,-41,1115,101,78,7,295,251,291,256
"391","CABR14-27001",46.60659,-93.413734,41,127,26,11741,265,-209,474,182,-122,182,-122,718,108,15,55,311,59,311,59
"392","CABR14-17007",42.32589,-88.81304,85,116,28,10408,289,-125,414,213,-57,213,-57,897,107,30,34,313,115,313,115
"393","CABR14-39067",40.29284,-81.09257,100,119,32,8807,283,-80,363,190,-18,210,-18,980,108,58,19,307,191,297,191
"394","CABR14-39045",39.745644,-82.62805,105,123,33,8925,291,-81,372,196,-16,216,-16,988,109,57,20,310,189,296,189
"395","CABR14-23011",44.41344,-69.76643,71,117,29,9677,269,-130,399,25,-46,192,-59,1089,114,73,11,309,247,261,251
"396","CABR14-47123",35.44759,-84.25083,140,136,39,7619,309,-33,342,54,197,235,38,1420,153,85,15,410,289,346,389
"397","CABR14-36029",42.75495,-78.784904,84,102,28,9079,267,-89,356,103,-28,198,-36,1018,99,65,12,278,216,266,238
"398","CABR14-47155",35.782562,-83.52085,133,138,40,7518,299,-41,340,208,141,227,32,1258,127,72,14,352,256,338,319
"399","CABR14-37013",35.48273,-76.8448,162,119,37,7208,315,-1,316,252,121,252,66,1299,157,80,23,431,249,431,288
"400","CABR14-55101",42.78476,-87.7551,82,93,25,9654,265,-107,372,202,-47,202,-47,847,95,33,29,279,127,279,127
"401","CABR14-42133",39.922,-76.72705,112,116,32,8769,296,-64,360,201,-4,223,-4,1031,99,69,11,291,224,280,224
"402","CABR14-33017",43.2927,-71.032845,75,128,32,9288,276,-123,399,29,-37,192,-50,1128,123,84,11,326,259,264,272
"403","CABR14-39031",40.30193,-81.91509,102,120,32,8910,287,-79,366,193,-18,213,-18,980,112,57,20,311,189,300,189
"404","CABR14-55123",43.59253,-90.83345,67,116,27,10800,276,-152,428,186,-82,198,-82,824,108,22,47,319,77,314,77
"405","CABR14-42083",41.800644,-78.56632,63,121,32,8819,253,-117,370,172,-44,172,-56,1130,129,67,17,341,222,341,229
"406","CABR14-17043",41.85171,-88.08593,92,113,28,10099,291,-110,401,217,-45,217,-45,930,106,34,30,310,135,310,135
"407","CABR14-37009",36.43306,-81.50174,102,123,38,7217,259,-62,321,175,5,192,5,1327,128,92,10,369,285,355,285
"408","CABR14-36111",41.888943,-74.25764,81,111,29,9179,267,-104,371,129,-31,195,-42,1203,119,81,10,332,263,314,268
"409","CABR14-26115",41.915104,-83.499535,96,104,27,9695,291,-87,378,218,-19,218,-33,832,90,44,20,253,153,253,158
"410","CABR14-42003",40.46895,-79.98119,103,124,33,8761,290,-79,369,192,-15,212,-15,964,101,59,17,294,194,285,194
"411","CABR14-51187",38.908123,-78.20697,112,128,35,8355,292,-71,363,196,-1,216,-1,1008,101,64,15,293,197,288,197
"412","CABR14-39133",41.171,-81.1976,92,112,30,9029,278,-87,365,183,-29,204,-29,998,101,57,16,296,198,287,198
"413","CABR14-42117",41.773773,-77.25377,75,118,32,8818,263,-103,366,164,-43,184,-43,854,103,46,22,275,152,269,152
"414","CABR14-51021",37.13221,-81.126686,105,130,38,7645,273,-66,339,183,21,201,3,1010,105,72,12,295,218,281,220
"415","CABR14-55111",43.427345,-89.94359,71,122,28,10709,281,-151,432,189,-76,202,-76,823,103,26,41,303,90,300,90
"416","CABR14-36043",43.411568,-74.95857,55,117,29,9674,250,-145,395,75,-65,173,-76,1272,124,80,11,347,268,335,284
"417","CABR14-55019",44.730614,-90.61024,56,124,27,11129,273,-176,449,190,-98,190,-98,819,108,21,48,321,76,321,76
"418","CABR14-55071",44.145466,-87.55333,68,92,25,9436,248,-118,366,182,-59,184,-59,763,89,32,27,250,117,240,117
"419","CABR14-26161",42.25325,-83.84157,86,106,28,9569,278,-96,374,205,-29,205,-42,816,88,43,20,247,149,247,150
"420","CABR14-25013",42.13565,-72.6341,94,122,31,9300,292,-97,389,143,-18,211,-30,1115,101,78,7,295,252,286,257
"421","CABR14-26123",43.551186,-85.79686,76,116,30,9529,277,-106,383,147,-40,195,-51,874,103,37,24,278,151,244,157
"422","CABR14-42053",41.520744,-79.23641,75,123,33,8928,265,-107,372,185,-34,185,-45,1139,121,65,17,341,223,341,224
"423","CABR14-50027",43.57062,-72.570175,55,125,30,9627,256,-150,406,174,-62,174,-75,1133,110,75,10,305,240,305,251
"424","CABR14-21065",37.692898,-83.96459,126,131,36,8294,303,-57,360,210,136,230,15,1198,127,71,15,346,259,330,276
"425","CABR14-12073",30.4569,-84.27908,195,131,45,5968,329,40,289,267,157,267,115,1496,192,73,26,510,264,510,353
"426","CABR14-42055",39.927135,-77.7238,109,118,32,8823,295,-68,363,199,-9,220,-9,1007,99,68,11,286,213,272,213
"427","CABR14-55007",46.631233,-91.182816,38,119,26,10868,256,-188,444,162,-111,170,-111,796,105,20,43,303,86,299,86
"428","CABR14-36055",43.29527,-77.688545,87,104,28,9312,277,-90,367,159,-28,204,-35,793,79,48,14,222,157,216,162
"429","CABR14-22069",31.726307,-93.095,185,131,40,7082,341,14,327,89,236,272,89,1355,149,85,17,387,274,296,387
"430","CABR14-42017",40.33791,-75.10507,107,115,31,8756,293,-68,361,197,-8,219,-8,1167,116,74,12,327,251,323,251
"431","CABR14-51800",36.703293,-76.638145,149,113,35,7614,307,-15,322,239,107,244,48,1192,131,75,17,369,247,367,279
"432","CABR14-27009",45.703182,-94.00008,55,123,26,11871,280,-191,471,198,-109,198,-109,711,113,17,53,303,59,303,59
"433","CABR14-42029",39.967136,-75.75193,111,110,31,8709,291,-63,354,199,8,221,-4,1138,115,74,12,322,248,316,249
"434","CABR14-26147",42.93408,-82.66822,84,100,26,9559,278,-93,371,204,-31,204,-42,774,81,39,21,233,136,233,138
"435","CABR14-51127",37.506203,-76.99779,143,124,36,7964,313,-30,343,236,98,243,37,1109,118,76,13,322,248,320,254
"436","CABR14-39011",40.561253,-84.22385,100,112,29,9552,290,-90,380,198,-29,218,-29,903,95,48,21,284,164,271,164
"437","CABR14-45043",33.41416,-79.29623,177,121,40,6575,320,18,302,258,139,258,90,1325,166,68,28,464,255,464,282
"438","CABR14-25009",42.642845,-70.87365,93,108,29,8810,277,-84,361,52,206,206,-22,1163,123,82,12,334,253,253,305
"439","CABR14-55063",43.907642,-91.11015,74,115,26,11138,287,-153,440,209,-80,209,-80,799,103,22,46,305,76,305,76
"440","CABR14-27163",45.038074,-92.889206,70,113,25,11579,287,-164,451,210,-90,210,-90,780,113,21,49,318,71,318,71
"441","CABR14-42091",40.20937,-75.37045,111,112,31,8773,294,-65,359,201,-5,222,-5,1122,111,73,12,315,245,310,245
"442","CABR14-51077",36.65252,-81.2285,103,128,38,7347,265,-64,329,177,4,195,4,1194,119,80,11,335,252,317,252
"443","CABR14-47009",35.6869,-83.92557,141,129,38,7673,307,-30,337,54,197,237,39,1335,141,77,15,379,267,342,359
"444","CABR14-36075",43.46623,-76.20386,78,102,27,9427,266,-105,371,36,4,196,-47,1083,113,75,12,311,237,262,266
"445","CABR14-18083",38.690968,-87.419014,124,118,31,9210,310,-64,374,122,0,238,0,1107,125,67,19,336,222,301,222
"446","CABR14-39141",39.328617,-83.059875,111,123,33,8751,293,-71,364,108,-7,220,-7,1016,112,63,18,304,202,288,202
"447","CABR14-55003",46.708332,-90.558464,49,117,27,10465,258,-167,425,170,-94,177,-94,818,103,27,35,289,112,288,112
"448","CABR14-42061",40.414326,-77.97803,97,113,31,8799,282,-78,360,187,-21,207,-21,995,102,64,14,295,201,279,201
"449","CABR14-18033",41.39553,-84.99972,92,115,30,9559,287,-96,383,190,-22,210,-37,893,95,43,23,282,155,272,157
"450","CABR14-50007",44.4537,-73.08769,68,111,27,10124,271,-137,408,194,-56,194,-68,898,104,45,23,286,153,286,158
"451","CABR14-01083",34.81032,-86.98142,152,131,38,7777,319,-24,343,152,208,248,47,1431,165,87,18,417,276,312,394
"452","CABR14-42037",41.05114,-76.4029,92,118,31,8890,282,-88,370,182,-14,203,-27,1022,109,60,18,313,195,302,196
"453","CABR14-54073",39.37145,-81.162544,110,129,35,8487,291,-72,363,196,-5,215,-5,1089,113,71,14,319,229,318,229
"454","CABR14-28151",33.285526,-90.94752,174,120,36,7690,335,5,330,175,228,269,71,1344,140,68,21,398,227,271,384
"455","CABR14-26139",42.922417,-86.233345,88,96,27,9150,269,-80,349,160,-23,202,-33,861,95,37,21,257,151,238,162
"456","CABR14-23029",44.96897,-67.60999,59,114,29,9279,251,-135,386,19,175,175,-66,1185,131,81,15,355,250,250,311
"457","CABR14-36021",42.251434,-73.630356,82,125,31,9293,281,-111,392,177,-30,198,-43,1038,100,65,12,295,215,292,218
"458","CABR14-18085",41.243935,-85.86056,93,114,29,9622,286,-98,384,147,-38,211,-38,1000,112,46,25,319,157,301,157
"459","CABR14-37001",36.043667,-79.39844,147,131,38,7720,316,-26,342,244,100,244,44,1135,114,78,12,323,250,323,272
"460","CABR14-36049",43.786335,-75.44938,63,115,29,9771,257,-138,395,83,-58,183,-69,1089,109,68,13,307,228,285,250
"461","CABR14-26077",42.244884,-85.52987,89,111,28,9650,286,-97,383,199,-27,209,-40,913,94,41,22,276,153,275,158
"462","CABR14-47115",35.12763,-85.610306,140,126,37,7701,305,-32,337,53,197,236,37,1486,165,91,16,434,298,328,412
"463","CABR14-51139",38.61365,-78.481544,116,136,37,8192,298,-68,366,200,6,219,6,996,98,65,14,286,199,284,199
"464","CABR14-42111",39.973877,-79.03339,77,117,33,8497,254,-100,354,163,-38,182,-38,1106,109,73,13,321,233,312,233
"465","CABR14-42085",41.305416,-80.25294,88,121,32,8895,277,-94,371,198,-32,198,-32,1036,110,59,17,312,199,312,199
"466","CABR14-36091",43.105938,-73.86769,74,120,30,9664,274,-126,400,127,-43,194,-56,1066,102,67,11,291,228,286,229
"467","CABR14-55081",43.945114,-90.61958,65,125,27,11027,282,-165,447,186,-88,198,-88,837,108,23,45,320,82,312,82
"468","CABR14-27025",45.501667,-92.908554,60,120,25,11686,280,-184,464,200,-103,200,-103,761,112,19,50,315,70,315,70
"469","CABR14-26159",42.270782,-86.308525,92,97,27,9248,272,-83,355,200,-20,207,-32,927,101,42,20,273,163,260,175
"470","CABR14-17031",41.8981,-87.65018,100,98,25,9848,288,-91,379,222,-32,222,-32,919,100,38,27,298,146,298,146
"471","CABR14-42023",41.441658,-78.20489,77,125,33,8782,269,-102,371,166,-41,186,-41,1058,121,63,18,328,205,323,205
"472","CABR14-47101",35.52179,-87.49484,140,142,39,7883,315,-43,358,140,197,238,34,1417,152,86,17,420,273,311,375
"473","CABR14-33001",43.51888,-71.424965,64,133,32,9569,270,-144,414,17,-51,184,-65,1069,108,74,10,292,230,281,242
"474","CABR14-27115",46.139515,-92.73616,46,131,27,11591,272,-200,472,185,-116,185,-116,770,108,19,48,312,74,312,74
"475","CABR14-22099",30.129766,-91.61197,196,113,40,6164,325,46,279,270,202,270,113,1515,175,91,18,477,318,477,378
"476","CABR14-55021",43.471188,-89.32992,74,117,27,10633,283,-141,424,192,-71,204,-71,805,99,27,39,290,93,288,93
"477","CABR14-39007",41.89007,-80.75593,90,103,28,9051,272,-87,359,203,-21,203,-30,1001,100,52,19,293,176,293,191
"478","CABR14-50019",44.829185,-72.25093,51,116,27,10293,255,-160,415,177,-75,177,-89,1055,118,59,19,329,196,329,212
"479","CABR14-25011",42.583298,-72.591286,79,129,32,9408,279,-122,401,129,-34,196,-48,1138,104,80,8,303,255,297,262
"480","CABR14-36003",42.25491,-78.02199,70,126,33,8989,267,-113,380,181,-40,181,-51,920,113,49,23,288,160,288,165
"481","CABR14-42099",40.397774,-77.26643,104,115,31,8892,291,-75,366,194,-15,215,-15,1033,103,68,12,300,215,283,215
"482","CABR14-36119",41.1536,-73.75399,104,105,29,8802,285,-69,354,93,-12,216,-12,1230,114,85,8,328,279,310,279
"483","CABR14-09015",41.834217,-71.98849,87,121,32,8856,275,-100,375,45,-19,199,-31,1219,117,89,7,329,290,292,297
"484","CABR14-39065",40.66068,-83.66369,99,114,30,9439,292,-87,379,196,-28,217,-28,916,101,50,22,291,173,275,173
"485","CABR14-13307",32.048523,-84.55046,181,133,42,6621,328,18,310,107,188,262,92,1243,134,52,23,385,213,345,365
"486","CABR14-18087",41.64209,-85.42616,88,112,29,9685,283,-101,384,208,-43,208,-43,928,98,44,23,286,157,286,157
"487","CABR14-21199",37.102592,-84.576485,130,127,36,8064,301,-50,351,211,189,229,20,1287,126,80,12,359,282,333,312
"488","CABR14-36109",42.451443,-76.474724,79,112,30,9006,269,-97,366,192,-31,192,-40,915,98,50,19,271,164,271,168
"489","CABR14-36077",42.63369,-75.03538,64,118,31,9134,255,-122,377,157,-48,177,-58,1050,104,59,15,300,205,298,207
"490","CABR14-18179",40.727467,-85.220406,99,114,29,9589,292,-90,382,197,-31,218,-31,932,100,49,21,293,169,285,169
"491","CABR14-47091",36.457806,-81.8589,107,126,38,7283,266,-59,325,180,26,198,9,1283,127,92,11,363,281,355,283
"492","CABR14-50009",44.73185,-71.720604,38,121,29,10115,242,-173,415,163,-85,163,-99,1101,124,62,20,348,202,348,221
"493","CABR14-50021",43.574203,-73.03505,66,124,30,9760,271,-138,409,188,-53,188,-65,1072,116,63,16,313,208,313,217
"494","CABR14-42095",40.75269,-75.307556,98,122,32,8847,290,-81,371,201,-7,210,-19,1173,111,75,11,327,253,321,255
"495","CABR14-26013",46.715397,-88.342,41,120,28,10434,255,-165,420,160,-86,170,-99,827,94,36,27,270,136,265,137
"496","CABR14-55083",44.994495,-88.22866,59,125,28,10565,274,-159,433,189,-84,189,-84,785,93,26,36,271,98,271,98
"497","CABR14-36009",42.240917,-78.67911,64,118,31,8892,253,-116,369,174,-45,174,-55,1143,119,66,16,327,217,327,236
"498","CABR14-23025",45.50589,-69.95405,31,117,27,10320,235,-183,418,159,-95,159,-108,1036,104,59,16,306,196,306,214
"499","CABR14-37183",35.789932,-78.65043,154,127,38,7540,318,-16,334,249,108,249,54,1141,118,76,14,330,245,330,278
"500","CABR14-42021",40.49407,-78.71538,82,121,33,8664,268,-96,364,169,-35,189,-35,1141,117,78,13,336,245,322,245
"501","CABR14-37091",36.357723,-76.98355,150,126,38,7505,312,-19,331,244,107,244,50,1198,134,73,18,371,241,371,281
"502","CABR14-51113",38.409176,-78.28129,125,130,36,8183,303,-54,357,220,16,228,16,1077,106,71,13,305,220,304,220
"503","CABR14-36101",42.264233,-77.38538,70,123,33,8880,263,-109,372,160,-38,181,-48,851,102,46,23,268,147,266,152
"504","CABR14-36105",41.71526,-74.76497,76,119,31,9128,266,-113,379,124,-35,190,-47,1151,116,74,12,326,240,314,245
"505","CABR14-51197",36.921074,-81.085045,109,137,39,7653,282,-64,346,187,24,205,7,1004,104,70,13,293,213,280,216
"506","CABR14-44007",41.8718,-71.5798,93,114,31,8732,277,-86,363,5,181,205,-21,1210,120,88,9,333,274,279,308
"507","CABR14-39085",41.8161,-81.24114,95,101,28,9065,274,-81,355,207,-17,207,-26,963,95,49,18,277,174,277,187
"508","CABR14-55005",45.418224,-91.85283,57,126,27,11521,280,-184,464,196,-102,196,-102,819,113,21,47,324,80,324,80
"509","CABR14-55001",43.967113,-89.77348,67,125,28,10845,281,-159,440,187,-82,199,-82,813,104,25,43,304,84,296,84
"510","CABR14-37017",34.619415,-78.555916,163,130,40,7037,314,-5,319,250,121,250,69,1233,164,70,27,426,224,426,272
"511","CABR14-01101",32.22435,-86.2038,181,126,40,6865,330,21,309,105,187,266,90,1341,157,66,20,407,264,330,380
"512","CABR14-18001",40.74547,-84.935844,100,114,29,9651,294,-89,383,200,-30,220,-30,916,98,48,21,287,167,278,167
"513","CABR14-26059",41.887753,-84.59361,83,114,30,9419,277,-100,377,180,-43,200,-43,909,96,46,21,280,162,277,162
"514","CABR14-36069",42.852905,-77.29497,84,108,29,9193,274,-94,368,199,-30,199,-37,831,89,45,20,245,145,245,150
"515","CABR14-47163",36.514954,-82.299835,128,131,38,7689,296,-43,339,206,135,224,26,1119,118,71,13,323,237,313,266
"516","CABR14-18017",40.760857,-86.346565,99,117,30,9673,292,-97,389,198,-16,217,-33,957,102,46,22,299,167,294,168
"517","CABR14-55137",44.112576,-89.23825,68,118,27,10816,279,-152,431,188,-80,200,-80,804,100,26,40,293,89,286,89
"518","CABR14-36015",42.140926,-76.75999,80,123,32,8963,278,-100,378,172,-28,193,-38,850,95,46,20,260,155,256,155
"519","CABR14-36027",41.764454,-73.747154,87,122,32,9066,278,-102,380,179,-22,200,-35,1102,103,73,10,307,235,306,238
"520","CABR14-34041",40.855293,-74.99362,93,125,33,8764,283,-89,372,195,-24,203,-24,1201,115,76,11,334,257,332,257
"521","CABR14-45009",33.218685,-81.05088,179,135,42,6725,332,15,317,263,135,263,89,1220,140,63,24,412,220,412,290
"522","CABR14-25017",42.485493,-71.3853,90,118,31,8997,280,-94,374,-3,204,204,-29,1118,116,84,10,312,255,255,285
"523","CABR14-26111",43.642956,-84.38596,78,113,29,9713,282,-106,388,190,-50,200,-50,772,92,33,26,246,123,232,123
"524","CABR14-36093",42.814907,-74.065956,78,116,29,9542,276,-116,392,176,-49,198,-49,996,97,61,13,281,206,277,206
"525","CABR14-39019",40.579815,-81.09126,98,119,32,8848,283,-82,365,187,-21,208,-21,973,108,56,19,305,188,294,188
"526","CABR14-36011",42.9448,-76.561356,82,102,28,9281,269,-93,362,199,-31,199,-39,950,93,55,16,268,178,268,192
"527","CABR14-37011",36.07868,-81.923096,97,121,38,7013,251,-64,315,168,20,185,4,1452,138,102,10,400,317,399,317
"528","CABR14-09003",41.8071,-72.734985,98,117,31,9031,290,-85,375,143,-10,212,-22,1165,106,81,7,307,266,290,270
"529","CABR14-17099",41.340916,-88.88487,96,115,28,10112,289,-110,399,199,-43,219,-43,917,102,34,30,301,130,295,130
"530","CABR14-23021",45.842636,-69.29503,38,120,28,10428,245,-179,424,168,-90,168,-102,1008,102,58,16,300,192,300,207
"531","CABR14-10003",39.580566,-75.63805,124,112,32,8574,303,-47,350,226,12,233,12,1070,104,71,11,299,236,295,236
"532","CABR14-37149",35.277435,-82.16622,149,136,40,7339,315,-20,335,147,154,242,52,1379,140,100,9,367,318,359,335
"533","CABR14-12097",28.058084,-81.14685,223,116,49,4250,329,96,233,272,176,272,165,1233,179,49,48,528,164,506,177
"534","CABR14-23019",45.402946,-68.63237,53,125,29,10068,260,-162,422,6,-70,179,-83,1049,115,73,13,301,222,272,246
"535","CABR14-21237",37.74168,-83.490425,124,139,38,8200,304,-61,365,208,133,227,14,1205,131,75,15,354,262,338,280
"536","CABR14-37177",35.870396,-76.16513,161,111,36,7080,310,5,305,246,124,250,68,1285,153,83,21,421,254,418,284
"537","CABR14-09005",41.794785,-73.244576,77,113,30,9007,262,-108,370,123,-32,190,-44,1259,114,89,7,331,284,325,288
"538","CABR14-36117",43.283016,-77.05354,87,103,28,9323,276,-91,367,106,-28,203,-36,907,95,54,16,267,173,235,191
"539","CABR14-39117",40.525913,-82.797935,93,117,31,9178,281,-93,374,186,-31,206,-31,987,109,53,22,317,183,304,183
"540","CABR14-37175",35.198383,-82.797134,123,133,41,7000,281,-43,324,121,129,210,30,1787,178,133,8,470,421,456,440
"541","CABR14-23031",43.41245,-70.674324,79,123,31,9231,277,-115,392,35,187,196,-44,1161,131,82,14,345,252,255,292
"542","CABR14-21117",38.932972,-84.53613,118,117,31,8928,300,-66,366,114,-2,229,-2,1076,113,70,16,320,223,295,223
"543","CABR14-39103",41.117832,-81.901405,94,110,30,9029,279,-83,362,185,-27,206,-27,949,98,54,18,288,184,280,184
"544","CABR14-55073",44.897926,-89.757774,56,118,26,10991,270,-169,439,177,-95,190,-95,824,109,24,45,314,84,305,84
"545","CABR14-51141",36.681767,-80.28509,121,127,37,7661,288,-48,336,199,19,217,19,1251,121,86,11,344,265,332,265
"546","CABR14-51063",36.93601,-80.36317,110,131,38,7554,278,-59,337,186,9,204,9,1098,106,73,12,305,224,293,224
"547","CABR14-12039",30.581581,-84.612366,193,129,44,6011,327,39,288,266,156,266,113,1472,186,75,25,488,263,488,353
"548","CABR14-42013",40.470516,-78.35084,94,119,32,8744,282,-81,363,183,-23,204,-23,999,102,64,15,303,198,287,198
"549","CABR14-42009",40.01043,-78.489624,99,124,34,8669,286,-78,364,187,-17,207,-17,965,98,62,14,287,192,272,192
"550","CABR14-42075",40.367233,-76.457436,105,116,31,8900,293,-74,367,196,0,217,-13,1073,108,67,14,319,223,303,225
"551","CABR14-55129",45.900105,-91.791145,51,130,27,11457,274,-192,466,190,-107,190,-107,760,107,18,51,313,68,313,68
"552","CABR14-18113",41.39619,-85.417336,91,113,29,9627,285,-99,384,189,-39,210,-39,945,102,45,23,294,162,289,162
"553","CABR14-51183",36.926373,-77.25877,143,132,37,7878,318,-31,349,243,97,243,39,1138,121,79,14,335,245,335,265
"554","CABR14-42001",39.869595,-77.21766,111,120,32,8756,298,-66,364,157,-5,221,-5,1035,100,72,10,288,227,271,227
"555","CABR14-12109",29.907782,-81.40676,207,109,43,5162,324,72,252,267,150,268,137,1270,171,58,38,491,205,472,238
"556","CABR14-54025",37.949802,-80.45007,99,135,38,7915,272,-79,351,179,-8,197,-8,1102,119,78,13,321,244,318,244
"557","CABR14-55107",45.475094,-91.13546,55,131,28,11140,276,-182,458,177,-100,189,-100,828,112,21,47,325,80,323,80
"558","CABR14-09001",41.2255,-73.371025,101,108,30,8644,280,-72,352,88,-13,210,-13,1213,112,85,8,330,284,292,284
"559","CABR14-36013",42.301517,-79.4125,76,100,28,9012,257,-96,353,96,-35,189,-43,1167,117,67,16,337,223,320,245
"560","CABR14-21035",36.620865,-88.27392,143,122,33,8509,319,-42,361,144,203,248,27,1339,132,86,14,381,276,308,342
"561","CABR14-55041",45.667572,-88.77712,42,129,29,10665,257,-180,437,160,-104,171,-104,796,104,24,41,293,93,286,93
"562","CABR14-54097",38.900604,-80.23182,100,131,37,8007,272,-78,350,181,111,199,-8,1317,139,90,13,383,294,381,295
"563","CABR14-55117",43.715694,-87.6631,77,94,25,9650,265,-110,375,193,-52,197,-52,794,96,32,28,265,121,249,121
"564","CABR14-12075",29.277485,-82.78985,206,136,50,5212,330,59,271,268,176,268,136,1350,211,50,47,571,189,571,268
"565","CABR14-42063",40.65172,-79.087,90,121,32,8797,275,-92,367,179,-29,199,-29,1138,119,74,15,342,237,333,237
"566","CABR14-39093",41.4662,-82.1542,100,107,29,9215,288,-77,365,193,-11,215,-22,901,92,52,16,265,178,265,180
"567","CABR14-37063",36.03773,-78.874855,148,133,38,7651,317,-25,342,245,102,245,47,1142,113,79,12,322,251,322,274
"568","CABR14-18095",40.1631,-85.72061,103,110,29,9482,290,-86,376,200,-26,220,-26,992,106,56,19,302,187,290,187
"569","CABR14-34019",40.57035,-74.91711,101,121,33,8713,290,-76,366,203,-14,211,-14,1212,120,78,11,338,265,333,265
"570","CABR14-36065",43.240623,-75.43813,77,112,28,9616,274,-114,388,188,-41,197,-51,1098,105,72,10,293,234,289,253
"571","CABR14-45017",33.674717,-80.78091,175,131,40,6970,331,11,320,262,129,262,83,1188,138,64,22,393,218,393,280
"572","CABR14-51003",38.025948,-78.55623,133,127,36,8133,310,-42,352,227,25,235,25,1128,116,76,13,322,236,315,236
"573","CABR14-55078",45.01907,-88.69988,52,126,28,10747,268,-172,440,171,-95,183,-95,797,102,24,40,290,90,284,90
"574","CABR14-36007",42.16418,-75.81967,75,112,30,9061,263,-103,366,168,-35,188,-45,1002,99,62,14,286,200,284,202
"575","CABR14-22101",29.635344,-91.46789,201,103,39,5862,322,59,263,271,163,271,121,1592,204,92,26,555,318,555,360
"576","CABR14-28133",33.606743,-90.59501,172,118,35,7836,335,1,334,173,228,269,67,1383,149,69,22,419,233,280,390
"577","CABR14-51149",37.186768,-77.221214,143,127,36,7916,316,-29,345,236,97,244,39,1130,122,80,13,335,247,329,259
"578","CABR14-18151",41.644108,-85.000496,87,113,29,9512,280,-98,378,185,-40,205,-40,914,97,44,23,284,157,281,157
"579","CABR14-36083",42.70975,-73.51395,76,117,30,9463,272,-117,389,194,-51,194,-51,1031,102,61,15,300,204,300,204
"580","CABR14-36037",43.000526,-78.19456,80,104,28,9230,268,-95,363,188,-33,196,-41,872,90,49,17,251,164,249,169
"581","CABR14-42059",39.855312,-80.222404,101,130,35,8441,283,-79,362,186,-13,206,-13,1045,111,65,17,318,211,311,211
"582","CABR14-39081",40.38273,-80.76169,100,118,32,8826,283,-81,364,190,-18,210,-18,990,109,60,18,310,196,297,196
"583","CABR14-28061",32.019337,-89.12036,176,135,41,6935,331,8,323,134,226,262,83,1461,163,82,20,441,277,329,424
"584","CABR14-42065",41.127293,-78.99978,79,117,31,8888,265,-101,366,170,-41,189,-41,1121,119,69,16,337,229,335,229
"585","CABR14-36063",43.323868,-78.79392,87,97,26,9324,276,-84,360,198,-27,206,-34,824,88,48,15,234,163,226,174
"586","CABR14-54053",38.772923,-82.02231,120,133,36,8437,301,-64,365,206,6,225,6,1060,119,72,15,309,227,309,227
"587","CABR14-09011",41.4673,-72.10434,97,109,31,8455,273,-77,350,12,204,204,-14,1236,121,88,9,338,281,281,311
"588","CABR14-26021",41.942844,-86.59226,98,102,27,9472,283,-85,368,207,-16,215,-30,956,98,45,19,279,171,275,178
"589","CABR14-26125",42.66015,-83.38368,88,106,27,9718,285,-95,380,209,-29,209,-42,787,88,39,22,245,138,245,139
"590","CABR14-26121",43.28706,-86.44648,83,98,28,9047,265,-85,350,156,-27,196,-36,839,93,36,21,261,151,230,155
"591","CABR14-22037",30.85027,-91.0487,188,128,42,6354,329,29,300,102,193,265,102,1591,158,90,14,449,321,398,449
"592","CABR14-36071",41.40211,-74.30635,97,117,31,9077,288,-86,374,190,-24,211,-24,1139,110,74,11,314,243,306,243
"593","CABR14-42019",40.90852,-79.91207,92,124,33,8821,281,-91,372,181,-27,201,-27,1026,108,59,17,314,202,309,202
"594","CABR14-27065",45.947876,-93.2984,47,130,27,11694,272,-202,474,188,-115,188,-115,740,110,17,51,312,65,312,65
"595","CABR14-51059",38.833866,-77.2764,126,119,33,8481,303,-50,353,232,13,232,13,1025,102,70,11,287,221,287,221
"596","CABR14-17151",37.41135,-88.57321,135,121,33,8697,314,-51,365,136,198,243,17,1217,126,75,16,368,248,297,286
"597","CABR14-36089",44.496563,-75.07295,56,116,28,10126,255,-152,407,170,-69,181,-81,999,107,58,17,301,188,288,203
"598","CABR14-42047",41.41871,-78.650566,69,122,33,8753,258,-110,368,158,-49,177,-49,1136,124,69,16,343,229,341,229
"599","CABR14-42079",41.1765,-75.991035,90,116,31,8915,279,-89,368,181,-17,202,-28,1015,104,61,17,307,195,301,196
"600","CABR14-13145",32.740746,-84.906075,172,134,42,6933,326,8,318,96,177,259,81,1291,147,64,21,394,238,324,372
"601","CABR14-17201",42.331768,-89.16061,85,115,27,10442,287,-125,412,213,-58,213,-58,898,110,30,35,315,112,315,112
"602","CABR14-45015",33.195152,-79.95028,178,124,40,6713,326,17,309,262,139,262,88,1263,160,62,29,454,228,454,271
"603","CABR14-33019",43.361076,-72.224594,65,124,30,9635,267,-138,405,185,-52,185,-65,1030,99,70,11,280,216,280,226
"604","CABR14-22033",30.54375,-91.09359,193,120,41,6238,328,42,286,270,199,270,110,1533,156,87,13,418,314,418,414
"605","CABR14-39147",41.126892,-83.12555,98,110,29,9381,290,-84,374,194,-28,215,-28,907,98,48,21,287,170,281,170
"606","CABR14-22091",30.820396,-90.70986,188,132,43,6300,332,31,301,104,193,265,104,1679,163,91,14,468,337,429,468
"607","CABR14-51163",37.814644,-79.4462,124,134,38,7894,299,-50,349,205,19,223,19,1028,101,70,11,285,220,276,220
"608","CABR14-51033",38.025806,-77.34845,135,124,35,8146,308,-41,349,238,27,238,27,1072,105,76,10,299,243,299,243
"609","CABR14-42123",41.814823,-79.27228,76,119,32,8944,267,-103,370,187,-34,187,-44,1159,120,65,16,341,223,341,231
"610","CABR14-55089",43.2495,-87.50156,81,91,25,9476,261,-103,364,195,-45,199,-45,815,92,33,27,266,130,257,130
"611","CABR14-39063",40.998344,-83.665016,98,109,29,9462,288,-85,373,196,-29,216,-29,891,101,47,23,288,163,278,163
"612","CABR14-12001",29.676031,-82.35834,203,130,47,5367,328,56,272,268,172,268,131,1332,200,58,41,543,191,543,277
"613","CABR14-18127",41.508392,-87.070625,96,109,28,9676,286,-97,383,215,-36,215,-36,976,106,42,24,301,159,301,159
"614","CABR14-39013",40.01755,-80.98742,100,121,33,8725,281,-82,363,188,-17,208,-17,1039,113,64,18,323,206,312,206
"615","CABR14-26131",46.979168,-89.27129,47,122,28,10428,258,-165,423,175,-81,175,-94,792,92,33,27,257,130,257,139
"616","CABR14-36087",41.14975,-74.026695,103,109,30,8884,286,-74,360,92,-15,215,-15,1236,116,82,10,328,269,320,269
"617","CABR14-47085",36.03269,-87.773094,140,140,38,8158,317,-48,365,140,199,241,30,1375,145,81,16,402,269,312,361
"618","CABR14-55033",44.94756,-91.89759,67,126,27,11358,289,-170,459,204,-90,204,-90,807,110,20,47,317,77,317,77
"619","CABR14-18027",38.70237,-87.07578,124,122,32,9141,311,-65,376,218,1,238,1,1124,126,69,19,344,226,312,226
"620","CABR14-55061",44.589317,-87.44015,67,100,26,9746,259,-125,384,182,-64,188,-64,774,90,31,29,257,114,249,114
"621","CABR14-18077",38.78552,-85.43742,121,121,33,8795,303,-61,364,118,185,230,3,1135,121,74,16,340,242,306,246
"622","CABR14-17037",41.894154,-88.769104,86,114,27,10433,287,-124,411,214,-57,214,-57,928,109,30,33,316,122,316,122
"623","CABR14-42041",40.16985,-77.26505,109,116,31,8894,296,-69,365,200,-9,221,-9,1016,99,68,11,288,216,273,216
"624","CABR14-34027",40.8652,-74.546875,93,121,32,8737,279,-89,368,181,-24,203,-24,1277,122,81,11,351,274,345,274
"625","CABR14-42051",39.921104,-79.64909,98,126,34,8493,282,-79,361,184,-15,205,-15,1095,112,70,15,325,227,318,227
"626","CABR14-42081",41.346462,-77.060074,84,117,31,8917,274,-94,368,175,-35,196,-35,918,105,52,20,293,168,282,168
"627","CABR14-55115",44.789692,-88.75637,58,123,28,10775,272,-165,437,177,-90,189,-90,796,100,24,40,291,89,285,89
"628","CABR14-39021",40.141415,-83.768166,102,115,30,9250,291,-84,375,196,-23,217,-23,958,106,53,21,308,180,291,180
"629","CABR14-21147",36.739468,-84.48222,125,132,37,7866,296,-52,348,204,183,223,19,1323,129,84,11,366,288,343,324
"630","CABR14-51069",39.205593,-78.26295,110,128,34,8523,294,-73,367,197,-4,217,-4,944,96,60,15,281,182,273,182
"631","CABR14-36099",42.785957,-76.828705,87,106,29,9196,275,-89,364,202,-26,202,-34,851,90,44,21,255,143,255,151
"632","CABR14-18045",40.122726,-87.24439,105,119,30,9544,296,-90,386,203,-25,222,-25,1012,110,49,23,322,180,315,180
"633","CABR14-12023",30.225178,-82.62503,199,135,47,5637,331,45,286,267,165,267,123,1346,184,60,36,523,204,523,284
"634","CAN 545790",43.983,-79.617,67,99,26,9620,260,-113,373,178,-53,186,-61,816,85,53,13,237,168,234,184
