"","catalogNumber","lat","lon","bio1","bio2","bio3","bio4","bio5","bio6","bio7","bio8","bio9","bio10","bio11","bio12","bio13","bio14","bio15","bio16","bio17","bio18","bio19"
"1",34966,53.534443,-113.49028,27,112,26,10805,229,-190,419,157,-37,157,-118,455,91,15,69,240,53,240,60
"3",34965,53.71111,-113.21778,25,120,27,11012,234,-195,429,157,-41,157,-124,447,88,16,67,235,53,235,59
"4",3412,51.791943,-114.1075,23,132,32,9788,224,-185,409,142,-36,142,-108,463,85,15,62,222,54,222,57
"5",3414,52.6167,-103.9333,4,113,23,12974,236,-252,488,159,-172,159,-172,452,71,16,50,198,59,198,59
"8",3413,52.30389,-113.07166,26,124,28,10757,237,-198,435,156,-35,156,-118,423,74,15,61,210,50,210,57
"10",99888,51.18778,-115.82528,-3,122,32,8115,193,-181,374,78,-55,100,-106,587,78,32,26,198,110,192,131
"11",3171,59.03639,-117.71639,-17,119,23,13856,229,-278,507,147,-97,147,-205,391,59,18,44,168,56,168,62
"13",34962,52.1167,-106.6333,20,120,24,12700,256,-230,486,172,-132,172,-153,356,61,14,54,160,49,160,50
"15",111176,54.11667,-114.4,19,126,28,10729,228,-210,438,147,-41,147,-126,488,92,19,65,253,60,253,69
"16",127949,53.08657,-111.5182,18,118,26,11386,231,-213,444,154,-46,154,-136,431,77,15,64,217,53,217,57
"18",34967,53.71111,-113.21778,25,120,27,11012,234,-195,429,157,-41,157,-124,447,88,16,67,235,53,235,59
"19",3415,52.6167,-103.9333,4,113,23,12974,236,-252,488,159,-172,159,-172,452,71,16,50,198,59,198,59
