"","catalogNumber","lat","lon","bio1","bio2","bio3","bio4","bio5","bio6","bio7","bio8","bio9","bio10","bio11","bio12","bio13","bio14","bio15","bio16","bio17","bio18","bio19"
"1","JEPS101132",36.95139,-118.400276,21,119,42,5697,184,-95,279,-38,70,99,-41,579,96,15,57,255,58,71,250
"2","JEPS101133",37.200832,-118.6675,-4,111,41,5337,150,-118,268,-55,68,70,-62,727,120,18,59,320,69,83,312
"4","103375",53.56117,-118.5204,-15,104,32,7670,157,-167,324,82,-67,82,-111,645,86,34,31,240,115,240,132
"5","99985",51.608612,-115.810555,-26,116,31,7889,161,-204,365,52,-67,73,-126,623,89,33,33,229,113,226,121
"6","99879",51.074722,-115.75445,-14,116,31,7898,177,-187,364,64,-67,86,-114,631,80,37,22,203,126,195,149
"8","174073",38.6674,-106.6114,-17,151,39,8013,176,-206,382,81,15,86,-117,670,71,38,17,193,136,178,175
"9","174072",39.5882,-105.6423,-23,125,37,7471,158,-177,335,-46,-12,76,-112,781,82,47,17,232,161,207,181
"10","174071",39.5883,-105.6425,-23,125,37,7471,158,-177,335,-46,-12,76,-112,781,82,47,17,232,161,207,181
"11","174079",39.2671,-106.1358,-23,129,37,7632,161,-183,344,74,-10,78,-113,698,72,43,16,194,148,189,171
"13","174070",39.589,-105.6429,-23,125,37,7471,158,-177,335,-46,-12,76,-112,781,82,47,17,232,161,207,181
"14","174077",39.3393,-106.1172,-32,122,36,7502,147,-185,332,-58,-19,67,-120,776,78,48,16,215,165,201,195
"23","67981",59.16,-134.33,-39,96,29,7826,134,-196,330,23,-53,63,-137,607,65,25,25,193,96,171,159
"24","67980",61.25,-140.16,-95,108,27,10017,111,-281,392,37,-163,37,-216,611,101,31,42,257,104,257,109
"25","67940",61.26,-140.25,-92,110,27,10293,117,-284,401,43,-160,43,-217,595,101,30,44,255,98,255,103
"26","67979",60.73,-139.16,-78,107,28,9284,116,-257,373,44,-142,44,-191,643,93,33,33,242,114,242,126
"28","56700",63.42,-149.98,-62,93,24,10580,151,-235,386,80,-75,80,-185,503,86,19,56,232,66,232,80
"30","315042",37.4595,-118.7579,2,116,42,5441,159,-113,272,-52,75,77,-57,661,108,18,57,289,65,77,279
"31","845710",37.5118,-118.8708,6,119,43,5490,165,-110,275,-50,80,81,-54,648,107,18,58,284,63,74,274
"32","271495",37.27641,-118.67423,-4,112,41,5369,150,-118,268,-56,68,70,-62,711,116,19,58,310,70,83,302
"34","500639",37.5104,-118.8753,6,119,43,5490,165,-110,275,-50,80,81,-54,648,107,18,58,284,63,74,274
"35","355535",36.4934,-118.2335,14,112,41,5517,171,-99,270,-41,61,90,-46,684,115,14,61,309,59,77,306
"37","355763",37.90124,-119.22737,4,120,43,5515,164,-112,276,-40,78,80,-56,747,123,20,60,334,67,77,316
"38","738400",37.5342,-118.2076,3,123,42,5790,170,-117,287,-57,53,82,-60,521,78,19,45,208,70,85,201
"39","V214748",50.79111,-116.04472,-8,113,31,7862,184,-175,359,70,-59,92,-107,663,75,40,17,191,135,185,178
"40","V221950",59.538887,-133.62222,-7,102,26,9305,181,-203,384,62,-10,108,-132,389,45,11,32,132,51,116,98
"41","V145887",52.75,-125.25,-12,121,36,7279,162,-174,336,-97,-22,80,-105,517,60,24,24,169,88,136,153
"42","V214741",50.90111,-116.20417,-13,110,31,7733,176,-176,352,-102,-64,85,-110,694,77,43,17,197,141,192,189
"43","V14156",50.466667,-116.3,-7,106,30,7671,181,-165,346,-95,-57,91,-103,728,80,47,18,226,154,181,216
"45","332315",37.4595,-118.7579,2,116,42,5441,159,-113,272,-52,75,77,-57,661,108,18,57,289,65,77,279
"50","67938",61.26,-140.25,-92,110,27,10293,117,-284,401,43,-160,43,-217,595,101,30,44,255,98,255,103
"52","174078",39.2671,-106.1358,-23,129,37,7632,161,-183,344,74,-10,78,-113,698,72,43,16,194,148,189,171
