"","catalogNumber","lat","lon","bio1","bio2","bio3","bio4","bio5","bio6","bio7","bio8","bio9","bio10","bio11","bio12","bio13","bio14","bio15","bio16","bio17","bio18","bio19"
"1","UNA00055230",33.18,-91.78,169,131,38,7578,334,-7,341,124,224,263,66,1392,143,81,17,396,263,295,390
"3","756450",-27.409445,-51.219723,160,114,55,3124,260,56,204,160,182,199,120,1828,186,107,13,500,411,469,430
"5","ECS031234",43.854,-66.00559,66,74,28,6579,197,-65,262,8,144,146,-20,1263,138,80,18,407,259,260,379
"6","ECS021837",44.083332,-65.8325,62,73,27,6646,193,-71,264,4,141,144,-24,1281,142,82,18,413,263,265,386
"7","V230059",49.36514,-123.425,97,72,32,5354,224,0,224,37,168,168,32,1214,188,36,52,532,127,127,482
"8","995186",19.701666,-101.183334,176,148,64,2085,290,60,230,185,159,202,147,791,173,7,100,487,28,198,29
"9","446463",17.125278,-92.86667,177,120,71,1328,258,91,167,184,175,190,157,2052,309,56,52,848,211,634,285
"10","815248",20.195,-98.15,161,131,63,2238,260,54,206,175,139,185,130,1854,348,37,78,987,126,410,133
"11","935013",19.8375,-100.78333,169,152,64,2136,285,50,235,179,167,194,138,803,185,7,102,502,27,191,35
"12","186009",20.12889,-101.5,185,163,64,2314,310,56,254,202,185,213,152,817,208,6,102,517,26,189,34
"13","150016",16.788334,-92.46667,148,127,74,1113,230,60,170,158,137,159,132,1346,224,34,63,581,107,570,117
"14","749948",19.475277,-96.933334,190,102,60,2099,274,105,169,207,167,212,160,1754,316,53,67,784,162,503,168
"17","565378",19.144444,-97.066666,173,118,65,1805,261,82,179,186,156,192,147,2013,358,46,77,1018,144,571,171
"18","708594",20.821667,-99.71667,162,158,66,2327,281,44,237,182,131,189,130,678,128,9,80,351,38,210,45
"19","262121",19.502777,-96.933334,177,99,60,2024,258,93,165,190,156,199,148,1704,318,52,68,791,161,464,165
"20","barcode-00268972",40.626526,122.29336,91,96,22,11808,285,-144,429,225,-70,235,-70,674,178,7,98,416,25,412,25
"21","2348224",38.97111,-76.91722,130,117,33,8530,309,-45,354,238,17,238,17,1053,106,71,12,299,228,299,228
"22","3453493",38.525,-76.51444,133,110,32,8249,303,-35,338,237,24,237,24,1087,109,77,11,307,244,307,244
"23","363374",38.95583,-76.94583,130,117,33,8530,309,-45,354,238,17,238,17,1053,106,71,12,299,228,299,228
"24","3406824",38.63972,-76.78389,130,113,33,8252,300,-39,339,234,21,234,21,1064,108,73,11,303,234,303,234
"25","3409632",39.03472,-76.90778,127,118,33,8501,307,-48,355,213,15,235,15,1074,105,71,12,300,232,300,232
"27","31653",38.895,-77.03667,133,115,32,8546,311,-42,353,241,20,241,20,1021,104,70,12,292,223,292,223
"29","613254",9.23,-70.18,152,116,80,375,221,77,144,155,147,155,147,999,159,19,55,434,75,277,109
"30","266722",9.77,-83.86,188,100,82,593,250,129,121,188,185,195,180,2481,345,59,50,957,219,411,457
"31","3625071",17.63,-96.37,194,119,65,1727,283,102,181,201,179,215,170,2463,451,43,75,1249,151,565,297
"33","1944347",9.82,-83.86,188,100,82,593,250,129,121,188,185,195,180,2481,345,59,50,957,219,411,457
"34","100259320",-27.05,-51.75,165,121,57,3117,268,57,211,151,186,204,125,1902,204,124,15,550,434,486,442
"35","2004954",9.67,-70.08,154,110,82,447,216,82,134,158,149,158,147,963,122,33,40,343,112,343,123
"36","2034300",16.82,-92.47,148,127,74,1113,230,60,170,158,137,159,132,1346,224,34,63,581,107,570,117
"37","273158",7.15,-75.55,214,103,83,414,274,151,123,211,215,219,208,3469,425,83,42,1195,341,834,881
"38","2758017",32.37,-93.02,177,131,39,7339,338,4,334,91,231,268,78,1370,145,78,16,384,274,293,381
"39","3438110",15.06,-89.6,254,110,70,1256,336,180,156,259,246,269,237,1237,239,14,85,623,46,150,79
"41","2956894",19.82,-70.7,247,104,71,1557,321,175,146,233,264,265,226,1685,262,65,44,687,220,238,566
"42","2758971",33.26,-81.72,173,140,42,6975,333,5,328,261,128,261,81,1181,123,64,19,362,223,362,301
"43","991038",16.86,-92.7,157,125,73,1144,238,69,169,167,145,168,140,1520,257,37,64,678,122,652,140
"44","3557779",37.02,-89.55,140,119,31,9033,325,-49,374,141,203,253,18,1204,130,75,17,371,256,280,278
"45","2758506",30.41,-88.78,197,100,37,6201,322,54,268,269,159,272,115,1596,175,85,19,499,313,484,401
"46","2035570",9.73,-83.95,145,87,80,531,200,92,108,147,141,151,138,2546,381,48,57,1062,169,705,419
"47","2032159",9.78,-83.8,189,100,83,570,251,131,120,189,191,195,181,3399,408,112,39,1180,389,594,730
"49","267787",5.73,-75.3,136,75,91,247,177,95,82,133,133,138,132,2302,271,98,30,737,331,621,620
"50","2758888",33.19,-81.53,175,138,42,6859,333,9,324,261,130,261,84,1194,128,63,21,378,221,378,298
"51","1185743",0.25,-78.57,175,116,85,162,242,107,135,176,174,177,173,1392,204,26,52,579,111,544,400
"52","2758461",30.48,-90.05,192,124,42,6216,330,37,293,264,198,268,109,1561,160,77,15,430,315,428,421
"54","2252545",-26.08,-54.22,196,136,56,3561,311,72,239,240,161,240,150,1747,188,104,17,504,344,504,395
"55","not recorded / 571 / H076",20.684,-99.809,170,164,66,2403,292,47,245,191,138,197,137,528,103,6,80,282,28,176,34
"56","46686",19.133,-97.067,173,118,65,1805,261,82,179,186,156,192,147,2013,358,46,77,1018,144,571,171
"57","46687",20.942,-100.113,152,151,65,2150,267,38,229,169,122,177,122,689,131,10,82,366,38,198,38
"58","3468",20.693,-99.813,170,164,66,2403,292,47,245,191,138,197,137,528,103,6,80,282,28,176,34
"59","V007993",19.817,-96.817,172,94,58,2143,251,89,162,187,149,194,141,1615,315,55,61,729,178,383,196
"60","37774",19.65,-101.267,171,152,65,2018,288,56,232,179,172,196,143,875,190,7,98,530,31,217,36
"62","V056699",19.467,-96.933,190,102,60,2099,274,105,169,207,167,212,160,1754,316,53,67,784,162,503,168
"63","V064398",19.851,-96.768,216,98,56,2621,301,127,174,238,184,243,180,1718,300,74,48,696,227,507,246
"64","V031031",19.512,-96.943,177,99,60,2024,258,93,165,190,156,199,148,1704,318,52,68,791,161,464,165
"69","169864",9.76,-83.85,188,100,82,593,250,129,121,188,185,195,180,2481,345,59,50,957,219,411,457
"70","49644",9.65,-83.85,118,82,78,557,170,66,104,121,113,124,110,2690,406,48,58,1129,167,763,434
"80","454260",-33.65,-58.98,170,117,46,4534,307,55,252,225,112,228,112,969,112,48,23,297,170,265,170
"85","S08-18359",9.747222,-82.020836,NA,NA,NA,NA,NA,NA,NA,NA,NA,NA,NA,NA,NA,NA,NA,NA,NA,NA,NA
"86","97283",30.414,-91.163,194,119,41,6272,328,40,288,270,201,270,109,1527,158,84,14,434,314,434,408
"87","106210",29.902,-93.751,200,100,36,6244,326,55,271,272,160,275,116,1438,154,84,19,437,266,427,342
"89","118902",30.227167,-89.76133,196,114,40,6138,328,45,283,267,203,271,114,1518,156,75,16,437,315,420,411
"90","134501",26.7325,-81.90968,231,117,52,3943,331,109,222,276,187,277,177,1323,226,40,65,645,136,612,150
"91","1152174",40.66,-122.30666,167,145,41,7024,368,22,346,88,259,259,82,1207,228,6,78,598,36,36,598
"92","1118917",40.416668,-122.25166,169,145,41,7051,368,22,346,83,260,260,83,912,176,4,76,457,30,30,457
"93","1152500",40.446667,-122.25833,169,145,41,7051,368,22,346,83,260,260,83,912,176,4,76,457,30,30,457
"94","CONN00094886",41.41666,-71.54944,100,95,29,8067,262,-60,322,21,176,202,-5,1158,117,77,12,326,248,252,301
"95","CONN00094873",41.17194,-73.13027,106,101,29,8586,280,-63,343,90,-7,215,-7,1142,105,82,8,310,270,275,270
"96","CONN00094869",41.92111,-73.06055,80,120,31,9162,272,-110,382,128,-31,195,-43,1227,112,87,7,324,277,316,283
"98","CONN00094891",41.83166,-71.58722,92,112,31,8671,273,-86,359,4,178,202,-22,1219,121,88,9,335,276,279,309
"99","CONN00094879",41.38611,-72.02472,99,104,30,8314,270,-70,340,16,179,204,-10,1218,120,84,10,337,271,274,311
"100","CONN00094871",41.34972,-72.14694,99,105,30,8377,272,-71,343,16,181,206,-10,1219,119,86,9,335,276,277,310
"101","CONN00094877",41.34583,-72.02972,99,104,30,8314,270,-70,340,16,179,204,-10,1218,120,84,10,337,271,274,311
"102","CONN00094887",41.33083,-71.755,101,98,29,8109,265,-62,327,21,178,204,-4,1162,116,78,11,324,253,259,299
"103","CONN00094897",41.03583,-71.955,103,90,28,7932,261,-52,313,27,176,203,1,1156,114,77,12,323,248,259,301
"104","CONN00094880",41.16694,-73.20472,104,103,29,8607,280,-66,346,89,-9,213,-9,1170,107,83,8,319,276,281,276
"106","CONN00094890",41.25833,-70.15,98,77,27,7384,240,-44,284,30,161,191,4,1097,112,68,13,317,227,249,303
"107","CONN00094899",41.325,-71.79111,101,98,29,8109,265,-62,327,21,178,204,-4,1162,116,78,11,324,253,259,299
"108","CONN00094888",41.33555,-71.70888,99,98,29,8123,264,-63,327,20,176,202,-6,1169,117,78,12,327,253,258,302
"109","CONN00094889",41.64,-71.1575,103,97,28,8414,275,-61,336,20,184,211,-6,1178,117,80,11,334,257,264,313
"110","CONN00094867",41.26444,-72.78694,104,102,29,8562,279,-63,342,88,212,212,-8,1146,108,86,8,305,271,271,277
"111","CONN00094882",31.4775,-81.24166,192,102,37,6129,318,45,273,264,156,266,110,1293,178,59,36,505,216,470,259
"112","CONN00094875",41.17583,-73.27194,102,105,30,8608,278,-70,348,87,-12,210,-12,1203,111,85,8,328,283,289,283
"114","CONN00094870",41.595,-72.64527,99,112,30,8846,286,-78,364,86,-7,211,-18,1184,109,84,7,312,275,289,278
"116","CONN00094881",41.35416,-71.96694,99,103,30,8276,269,-69,338,17,179,204,-9,1206,119,82,10,334,267,270,309
"117","CONN00094894",39.9375,-74.11111,116,107,31,8337,289,-53,342,217,152,222,7,1164,118,81,11,318,273,310,278
"120","CONN00094884",40.66777,-73.05472,112,95,29,8289,279,-47,326,93,130,218,6,1156,111,85,9,309,275,290,282
"123","CONN00094893",39.00666,-76.93305,126,117,32,8537,306,-49,355,213,13,234,13,1073,105,72,11,300,231,299,231
"124","CONN00094866",41.82361,-72.62111,98,118,31,9000,290,-84,374,143,-9,212,-21,1142,104,80,6,300,263,285,265
"126","CONN00094896",41.16027,-72.23416,104,98,29,8217,271,-59,330,23,182,208,-2,1170,114,84,10,322,263,270,299
"128","CONN00094885",41.18083,-72.19388,104,98,29,8186,271,-59,330,23,181,207,-3,1172,114,83,10,323,262,268,301
"129","OSC197486",46.0626,-123.9077,104,90,48,3517,204,20,184,66,147,151,62,2046,320,37,60,929,153,165,878
"130","686060",20.83722,-156.28027,209,80,67,1273,270,151,119,196,225,225,193,2315,285,92,34,793,379,379,773
"131","685648",20.845,-156.18556,212,79,66,1272,273,155,118,199,229,229,196,3116,375,147,27,1020,584,584,951
"132","YPM CBS 007668",41.8352,-72.5734,95,119,31,9037,287,-90,377,141,-14,209,-26,1150,105,80,7,301,263,289,266
"133","YPM CBS 007669",41.58,-71.8325,93,106,30,8402,267,-78,345,9,175,200,-17,1230,122,86,10,340,275,277,314
"134","YPM CBS 008799",41.6922,-72.5472,93,114,31,8838,280,-86,366,81,-13,205,-24,1202,111,85,6,314,279,295,282
"135","YPM CBS 007664",41.7635,-72.6153,98,118,31,9000,290,-84,374,143,-9,212,-21,1142,104,80,6,300,263,285,265
"137","YPM CBS 007670",41.3708,-72.1475,99,105,30,8377,272,-71,343,16,181,206,-10,1219,119,86,9,335,276,277,310
"138","YPM CBS 030184",41.3538,-72.1044,99,105,30,8377,272,-71,343,16,181,206,-10,1219,119,86,9,335,276,277,310
"140","YPM CBS 007665",41.3678,-72.2361,99,105,30,8406,273,-71,344,15,181,206,-11,1219,119,88,9,333,280,280,307
"141","3986652",9.60556,-84.09611,192,105,81,594,260,131,129,190,190,200,184,2508,412,30,65,1103,116,512,294
"142","3109762",9.82083,-83.95556,171,97,82,520,231,114,117,172,167,177,164,2094,332,32,61,895,119,591,331
"144","2838826",9.74722,-83.979164,145,87,80,531,200,92,108,147,141,151,138,2546,381,48,57,1062,169,705,419
"145","1560301",9.76667,-83.85833,188,100,82,593,250,129,121,188,185,195,180,2481,345,59,50,957,219,411,457
"150","7381",46.804165,-124.084724,98,85,48,3404,194,17,177,60,139,142,56,1983,299,42,56,867,155,187,812
"151","187166",41.586666,-70.61833,99,91,28,8148,261,-60,321,21,176,203,-6,1186,120,77,12,334,253,260,312
"152","28679",46.917778,-124.03389,100,82,44,3775,201,17,184,58,146,150,54,2092,322,44,57,920,164,200,863
"154","28679",46.36789,-124.04225,101,87,49,3342,195,20,175,65,141,145,60,2095,326,39,58,939,160,177,888
"155","28680",46.80528,-124.084724,98,85,48,3404,194,17,177,60,139,142,56,1983,299,42,56,867,155,187,812
"158","7380",46.32389,-124.03389,101,86,49,3303,195,21,174,66,142,145,61,2068,321,39,58,926,159,175,875
"161","272164",9.78,-83.8,189,100,83,570,251,131,120,189,191,195,181,3399,408,112,39,1180,389,594,730
"163","YPM CBS 007667",41.8352,-72.5734,95,119,31,9037,287,-90,377,141,-14,209,-26,1150,105,80,7,301,263,289,266
"167","3109764",9.82083,-83.95556,171,97,82,520,231,114,117,172,167,177,164,2094,332,32,61,895,119,591,331
"169","V068279",19.851,-96.768,216,98,56,2621,301,127,174,238,184,243,180,1718,300,74,48,696,227,507,246
"171","V086785",19.133,-97.067,173,118,65,1805,261,82,179,186,156,192,147,2013,358,46,77,1018,144,571,171
"173","3409641",39.03472,-76.90778,127,118,33,8501,307,-48,355,213,15,235,15,1074,105,71,12,300,232,300,232
"174","2348225",38.97111,-76.91722,130,117,33,8530,309,-45,354,238,17,238,17,1053,106,71,12,299,228,299,228
"177","CONN00094876",41.17194,-73.13027,106,101,29,8586,280,-63,343,90,-7,215,-7,1142,105,82,8,310,270,275,270
"179","CONN00094898",41.03583,-71.955,103,90,28,7932,261,-52,313,27,176,203,1,1156,114,77,12,323,248,259,301
"180","CONN00094872",41.34972,-72.14694,99,105,30,8377,272,-71,343,16,181,206,-10,1219,119,86,9,335,276,277,310
"183","7380",46.32389,-124.03389,101,86,49,3303,195,21,174,66,142,145,61,2068,321,39,58,926,159,175,875
"185","28680",46.80528,-124.084724,98,85,48,3404,194,17,177,60,139,142,56,1983,299,42,56,867,155,187,812
"186","187166",41.586666,-70.61833,99,91,28,8148,261,-60,321,21,176,203,-6,1186,120,77,12,334,253,260,312
"189","191758",40.446667,-122.25833,169,145,41,7051,368,22,346,83,260,260,83,912,176,4,76,457,30,30,457
"190","2838827",9.74722,-83.979164,145,87,80,531,200,92,108,147,141,151,138,2546,381,48,57,1062,169,705,419
"192","150759",9.78,-83.8,189,100,83,570,251,131,120,189,191,195,181,3399,408,112,39,1180,389,594,730
