"","catalogNumber","lat","lon","bio1","bio2","bio3","bio4","bio5","bio6","bio7","bio8","bio9","bio10","bio11","bio12","bio13","bio14","bio15","bio16","bio17","bio18","bio19"
"1","2763884",54.83,-130.65,70,64,31,4938,176,-28,204,40,116,133,9,2478,383,101,39,946,340,360,740
"2","2763294",59.17,-134.33,-19,99,28,8373,158,-189,347,45,-26,86,-130,591,69,23,28,197,89,156,157
"3","2764051",61.32,-149.75,19,84,25,8993,187,-149,336,122,20,134,-94,453,70,16,46,192,58,155,91
"4","1642654",49.17,-120.77,13,106,33,7202,188,-128,316,-71,104,105,-78,672,97,36,36,270,115,117,248
"5","3318291",57.78,-153.53,34,67,30,5619,156,-66,222,39,-13,109,-31,1297,140,78,19,394,269,282,351
"6","3403161",57.43,-153.18,17,61,30,5066,133,-68,201,24,-7,88,-36,1386,142,87,16,405,291,342,346
"7","3401383",57.58,-153.15,11,61,30,5040,127,-73,200,18,-14,82,-42,1381,141,87,16,400,291,343,346
"8","1601241",51.93611,-176.60693,44,48,31,3578,130,-24,154,31,69,94,3,1533,188,74,29,532,243,316,405
"9","1601240",52.825,173.17,40,43,27,3938,128,-29,157,83,41,95,-5,1234,164,71,30,450,216,413,251
"10","1601205",52.82889,173.15111,32,42,26,3902,120,-36,156,75,33,87,-12,1247,163,73,29,451,222,417,253
"11","244525",52.0593,-173.40398,46,45,29,3507,129,-23,152,36,68,95,5,1234,151,66,27,425,207,281,306
"12","145014",57.466667,-154.65,32,69,29,5950,156,-76,232,81,-17,110,-39,1027,118,65,20,329,204,239,255
"13","88787",52.35,173.67,39,35,25,3621,116,-22,138,81,38,90,-2,1030,122,59,26,350,180,314,213
"14","42713",57.86,-133.15,13,81,29,6692,160,-119,279,19,46,99,-72,1370,197,67,32,491,218,286,361
"15","67325",62.33,-147.83,-53,107,27,10247,156,-234,390,81,-58,81,-177,414,71,15,51,186,55,186,72
"16","42272",56.89,-133.04,39,69,30,5447,161,-66,227,44,63,110,-28,2062,314,101,35,762,333,380,550
"18","34320",59.28,-136.11,13,84,28,7344,175,-123,298,-36,90,109,-78,1213,190,42,45,491,142,167,392
"19","24186",56.35,-131.98,50,74,30,5724,177,-62,239,13,107,124,-22,2059,323,103,35,762,331,368,554
"20","42867",57.03,-135.26,51,69,34,4585,158,-42,200,59,92,112,-3,2410,368,98,37,917,351,593,643
"21","51401",59.93,-149.7,18,69,28,6198,154,-88,242,20,80,102,-53,1121,167,47,41,438,160,198,305
"22","45876",56.03,-156.7,36,61,28,5481,149,-66,215,84,-10,109,-29,700,85,41,25,241,127,213,155
"23","30515",57.55,-156.77,23,74,28,6882,159,-102,261,78,-30,112,-62,591,78,30,31,220,98,174,114
"24","59353",59.63,-153.7,8,92,30,7380,170,-129,299,64,-49,107,-80,796,101,44,26,281,144,208,185
"25","44656",52.81,173.16,32,42,26,3902,120,-36,156,75,33,87,-12,1247,163,73,29,451,222,417,253
"26","24179",52.35,175.93,32,34,24,3684,108,-31,139,20,31,84,-11,997,116,55,24,331,176,268,222
"27","57982",60.58,-149.06,-9,74,28,6658,141,-120,261,41,18,82,-83,977,126,46,31,342,153,208,266
"28","24166",60.86,-148.01,18,80,28,7223,169,-112,281,16,57,112,-70,1069,139,55,31,375,176,221,287
"29","57521",60.16,-149.63,5,71,28,6323,147,-102,249,7,29,92,-66,1019,146,47,39,386,148,197,276
"30","16786",54.93,-159.28,41,52,27,4858,142,-50,192,54,-3,108,-15,700,90,38,30,249,121,213,152
"32","51025",59.91,-139.75,30,83,30,6829,164,-109,273,35,99,116,-57,2641,377,128,32,972,459,499,650
"34","74872",59.41,-137.98,-10,92,30,7113,145,-153,298,-54,22,82,-98,1456,199,73,30,510,239,280,398
"35","47025",60.21,-152.9,5,88,29,7490,166,-130,296,60,-9,105,-83,753,100,35,30,272,126,196,181
"36","40537",52.36,175.86,33,34,24,3670,108,-30,138,21,33,84,-10,990,115,55,24,329,175,266,220
"38","153542",59.9228,-141.3564,35,73,30,6075,155,-88,243,40,63,112,-41,2558,362,125,34,958,448,503,633
"40","30518",57.54,-156.73,20,74,28,6827,156,-104,260,74,-34,108,-64,606,79,31,31,223,102,178,118
"41","6759",59.41,-160.08,-2,77,24,8788,163,-148,311,105,-69,112,-110,626,114,24,49,270,85,225,103
"42","88789",51.95,178.31,44,39,26,3698,123,-22,145,31,68,96,1,1130,135,60,25,383,199,276,271
"43","21137",55.12,-162.83,23,50,27,4597,121,-59,180,36,-23,87,-29,968,111,52,26,331,176,280,195
"45","47026",60.02,-152.66,11,85,29,7184,166,-118,284,65,-3,107,-74,788,105,37,30,283,133,193,195
"46","24187",60.38,-149.33,-6,72,28,6506,141,-114,255,44,19,83,-78,1000,134,47,34,359,153,206,272
"47","60532",58.61,-153.77,16,78,30,6383,156,-101,257,67,-37,102,-58,1080,123,69,19,343,219,250,276
"48","42131",56.91,-135.21,44,65,34,4439,148,-43,191,53,83,104,-7,2730,410,112,37,1023,395,642,750
"49","145542",55.344734,-160.45914,36,54,27,5068,140,-58,198,83,-10,104,-23,771,97,40,31,277,130,240,164
"50","43669",58.38,-134.36,9,79,29,6408,150,-119,269,16,38,92,-72,1319,184,65,31,467,214,293,334
"51","43668",58.93,-135.76,20,77,28,6573,166,-104,270,-21,52,106,-61,1253,197,50,41,486,167,201,372
"52","45194",53.25,-168.33,43,43,26,3865,132,-33,165,55,42,97,-2,946,114,55,27,324,168,258,204
"53","24194",55.88,-134.25,60,53,31,4126,153,-17,170,40,95,115,12,3738,566,157,37,1384,529,797,1074
"54","88790",51.96,-175.67,44,47,30,3554,129,-24,153,32,68,94,4,1447,177,72,28,500,233,306,377
"56","51280",59.93,-144.38,45,71,33,5023,158,-55,213,53,61,111,-13,2327,290,110,29,819,396,667,583
"57","24168",60.45,-149.75,22,78,27,7218,177,-107,284,74,58,118,-65,829,132,32,47,344,103,164,220
"58","245985",58.7983,-134.50214,5,86,28,7190,160,-139,299,13,42,97,-88,1020,140,48,30,357,164,232,263
"59","148300",51.77902,-177.9717,40,46,30,3583,125,-27,152,28,64,91,0,1433,174,74,27,491,233,308,374
"60","10413",53.38,-168.08,29,43,26,3887,120,-45,165,42,26,84,-15,958,113,55,25,320,171,265,209
"61","45187",54.68,-163.18,34,49,27,4470,130,-47,177,47,-9,96,-17,958,112,51,27,332,173,273,194
"64","24175",61.13,-145.75,-19,104,29,8889,164,-188,352,43,-22,94,-130,904,113,44,27,310,148,247,215
"66","10617",54.91,-133.08,68,48,30,3915,154,-4,158,51,100,121,23,2404,354,116,34,883,368,510,675
"67","147536",57.583332,-153.16556,11,61,30,5040,127,-73,200,18,-14,82,-42,1381,141,87,16,400,291,343,346
"68","63753",52.08,-173.35,46,45,29,3507,129,-23,152,36,68,95,5,1234,151,66,27,425,207,281,306
"69","13054",58.65,-162.08,-2,68,24,7712,144,-132,276,59,-68,99,-95,1027,175,34,50,452,130,338,157
"70","88907",51.82,-176.63,40,48,31,3513,125,-27,152,28,64,90,0,1544,188,75,28,533,247,317,410
"71","5138",60.35,-147.75,26,67,28,6085,155,-80,235,28,88,107,-47,1303,177,62,33,473,207,247,350
"72","24171",60.98,-145.01,-19,103,29,8599,160,-184,344,43,-25,91,-126,995,123,50,27,339,166,276,230
"73","40538",51.95,178.32,44,39,26,3698,123,-22,145,31,68,96,1,1130,135,60,25,383,199,276,271
"74","24165",52.43,173.6,33,36,25,3646,112,-29,141,75,32,85,-8,1070,126,62,26,367,189,332,220
"75","45877",57.21,-153.25,41,59,29,5020,153,-46,199,47,22,109,-16,1430,153,83,19,432,298,344,398
"76","63754",51.93,-176.04,43,48,31,3567,129,-25,154,31,68,93,3,1479,181,73,28,512,237,309,388
"77","40539",51.97,178.28,44,39,26,3698,123,-22,145,31,68,96,1,1130,135,60,25,383,199,276,271
"80","5764",58.56,-152.66,37,70,31,5714,163,-62,225,40,91,113,-29,1333,147,74,20,409,268,277,366
"81","59096",60.55,-145.75,23,82,31,6290,156,-101,257,71,53,105,-54,1807,242,107,30,648,328,387,438
"82","43672",58.28,-134.4,28,74,28,6139,162,-95,257,34,59,107,-50,1702,249,90,32,620,282,358,420
"83","150364",61.175,-144.39362,-35,105,29,9143,156,-206,362,73,-40,84,-147,822,97,39,28,283,132,259,181
"84","42712",57.28,-133.25,38,72,29,5893,167,-78,245,43,66,113,-37,1910,293,94,35,712,303,360,505
"85","240810",56.9397,-154.3265,41,63,29,5419,158,-56,214,49,-3,114,-22,1129,126,71,20,354,228,295,293
"86","30432",60.16,-153.58,-27,91,30,7594,143,-160,303,70,-48,77,-113,694,91,35,29,246,119,218,150
"87","88909",52.17,-175.51,44,47,30,3608,130,-25,155,32,69,95,3,1408,172,71,28,487,227,300,365
"88","74736",59.61,-135.13,-17,100,28,8683,166,-190,356,-9,-22,93,-130,540,66,22,29,179,80,128,153
"89","147564",57.448612,-153.19305,17,61,30,5066,133,-68,201,24,-7,88,-36,1386,142,87,16,405,291,342,346
"90","42869",57.46,-135.91,49,64,33,4503,152,-41,193,57,90,109,-3,2188,335,93,37,837,338,567,567
"91","51044",59.96,-138.01,-36,105,30,8475,144,-206,350,28,-47,73,-143,889,105,47,23,283,159,223,226
"93","30512",57.17,-157.26,22,69,27,6525,151,-97,248,77,-30,107,-57,566,74,28,32,211,93,166,109
"96","41715",55.91,-134.25,60,53,31,4126,153,-17,170,40,95,115,12,3738,566,157,37,1384,529,797,1074
"97","24183",57.76,-152.4,47,59,30,4987,160,-36,196,51,114,115,-10,1635,173,91,20,494,337,380,460
"98","246200",54.86155,-163.41486,34,50,27,4554,130,-49,179,46,-11,96,-19,962,112,51,28,335,172,277,193
"99","41716",55.36,-133.6,64,50,30,3949,152,-10,162,46,97,118,19,3014,453,136,35,1110,446,645,850
"100","42871",57.05,-135.33,51,69,34,4585,158,-42,200,59,92,112,-3,2410,368,98,37,917,351,593,643
"101","43671",58.64,-134.9,37,75,28,6454,175,-89,264,41,70,120,-45,1287,194,61,35,481,203,279,316
"102","129993",57.783333,-153.53334,34,67,30,5619,156,-66,222,39,-13,109,-31,1297,140,78,19,394,269,282,351
"103","43670",58.71,-135,43,75,28,6515,181,-85,266,46,78,126,-40,1293,201,61,37,493,199,268,321
"104","43665",58.58,-134.25,1,84,29,6892,151,-138,289,9,34,89,-87,1117,150,53,29,386,181,256,288
"105","58507",60.66,-149.23,-4,76,28,6835,149,-120,269,47,26,90,-81,938,124,42,33,335,143,199,256
"106","60407",59.22,-154.73,0,84,28,7424,157,-136,293,57,-60,98,-89,824,105,50,28,299,153,230,177
"107","37512",52.84,173.16,27,42,26,3922,115,-42,157,70,27,82,-18,1247,161,73,29,450,223,417,252
"112","44658",51.86,-176.75,41,48,31,3548,126,-27,153,29,65,91,0,1541,188,75,28,532,246,317,409
"113","24198",61.13,-145.73,-19,104,29,8889,164,-188,352,43,-22,94,-130,904,113,44,27,310,148,247,215
"114","30516",56.13,-159.96,24,57,26,5565,136,-78,214,74,-27,98,-41,693,88,34,34,261,111,234,137
"115","45880",57.21,-153.2,41,59,29,5020,153,-46,199,47,22,109,-16,1430,153,83,19,432,298,344,398
"117","44657",52.83,173.05,37,43,27,3925,125,-32,157,80,37,92,-8,1239,164,71,29,451,218,415,252
"119","141938",56.75738,-158.086,17,63,27,6022,137,-96,233,70,-36,97,-54,532,69,26,34,201,87,190,100
"120","45190",53.88,-166.38,39,45,25,4221,136,-43,179,49,40,98,-10,934,110,51,27,322,167,268,193
"121","61589",61.13,-145.78,-18,101,29,8672,162,-182,344,43,-22,93,-126,954,120,47,27,328,157,254,230
"123","162870",57.833332,-152.41667,40,59,30,4981,154,-42,196,45,108,109,-15,1617,168,91,19,481,337,378,460
"124","9487",58.41,-134.55,39,72,28,6173,172,-82,254,86,72,119,-39,1572,228,81,33,576,265,354,370
"125","245411",56.565834,-134.81944,42,60,32,4338,143,-39,182,21,80,101,-7,3545,527,145,37,1325,497,761,1019
"128","137857",57.35,-154.63333,32,68,29,5868,156,-74,230,81,-16,110,-37,1030,118,65,20,329,204,240,257
"129","9866",55.22,-131.15,69,65,31,5097,180,-28,208,37,117,135,7,2948,460,118,39,1126,401,428,866
"130","35987",56.34,-157.84,27,61,27,5736,143,-80,223,78,-22,104,-41,570,73,29,31,210,95,192,113
"131","24188",51.83,-176.58,41,48,31,3501,126,-26,152,29,64,90,1,1541,188,75,28,532,246,317,409
"133","58526",60.71,-147.91,26,75,28,6815,168,-95,263,26,63,115,-57,1196,160,59,33,430,193,232,324
"135","148299",51.558315,-178.81944,48,44,29,3558,130,-19,149,36,73,98,7,1362,165,71,27,467,225,302,347
"136","148545",51.564785,-178.81593,48,44,29,3558,130,-19,149,36,73,98,7,1362,165,71,27,467,225,302,347
"139","63760",51.96,177.62,44,37,25,3683,122,-21,143,32,44,95,1,1088,129,58,25,368,191,271,258
"140","45882",57.78,-152.45,40,59,30,4981,154,-42,196,45,108,109,-15,1617,168,91,19,481,337,378,460
"141","47881",58.05,-161.06,NA,NA,NA,NA,NA,NA,NA,NA,NA,NA,NA,NA,NA,NA,NA,NA,NA,NA,NA
"142","63556",59.68,-135.24,-24,101,28,8730,161,-198,359,41,-32,87,-137,513,59,21,28,164,77,129,143
"143","45874",56.91,-158.08,10,64,27,6063,132,-102,234,63,-44,90,-61,545,69,27,33,202,91,194,103
"144","8654",56.25,-133.5,49,59,31,4530,151,-37,188,56,91,109,-4,2835,429,131,35,1041,433,474,782
"145","63759",51.95,-176.13,46,48,31,3563,132,-22,154,34,71,96,6,1483,182,72,29,515,236,309,388
"146","30899",60.73,-142.21,-34,90,28,7925,129,-183,312,25,-46,70,-129,1317,152,69,26,433,229,366,298
"147","24196",56.33,-158.5,20,59,26,5631,134,-86,220,71,-31,96,-45,565,72,29,33,211,94,194,110
"148","162587",58.38425,-152.64626,29,67,30,5483,153,-64,217,33,81,104,-32,1395,150,80,19,418,289,296,384
"149","63543",59.59,-135.32,-2,96,27,8491,176,-169,345,-53,46,106,-112,667,94,29,35,243,92,129,197
"150","30519",57.55,-156.75,20,74,28,6827,156,-104,260,74,-34,108,-64,606,79,31,31,223,102,178,118
"152","88788",51.26,-179.07,50,44,30,3489,131,-15,146,39,73,99,10,1349,163,70,26,461,224,302,344
"153","13026",58.11,-136.45,49,56,29,4693,151,-38,189,56,93,110,-7,2299,356,93,37,876,348,382,615
"154","144407",60.0845,-140.2065,-25,91,30,7549,130,-173,303,33,-77,74,-117,1649,198,102,23,542,322,405,380
"155","63756",53.45,-166.87,41,44,25,4059,135,-38,173,52,42,98,-5,944,112,53,27,324,169,264,199
"156","63755",52.13,177.58,27,37,25,3693,106,-38,144,15,27,79,-16,1145,132,64,23,376,209,294,266
"157","144392",60.1515,-141.45467,20,77,29,6557,149,-110,259,24,52,105,-61,2239,306,119,32,821,401,470,546
"158","88910",51.94,177.78,NA,NA,NA,NA,NA,NA,NA,NA,NA,NA,NA,NA,NA,NA,NA,NA,NA,NA,NA
"159","12037",61.03,-147.13,12,84,28,7513,166,-125,291,65,55,109,-81,1092,140,56,29,379,179,245,284
"160","61353",61.08,-146.78,14,82,28,7375,165,-121,286,13,57,110,-77,1197,154,61,30,416,193,263,315
"161","42868",57.28,-135.6,52,66,33,4556,156,-41,197,60,92,112,-2,2200,337,92,37,843,334,568,571
"162","88791",51.96,-175.69,44,47,30,3554,129,-24,153,32,68,94,4,1447,177,72,28,500,233,306,377
"164","45192",53.48,-167.17,44,44,25,4025,136,-35,171,55,44,100,-3,939,112,53,27,324,168,262,198
"165","4370",57.72,-153.83,24,68,30,5613,147,-76,223,71,-24,100,-39,1232,133,78,18,371,256,277,327
"166","45188",53.91,-166.45,38,45,25,4230,135,-44,179,48,39,97,-10,936,110,51,27,322,167,268,195
"167","44659",51.66,178.65,44,39,27,3619,123,-21,144,32,67,95,2,1191,141,64,24,401,210,287,289
"168","88908",51.39,179.3,49,40,27,3561,128,-16,144,38,71,99,8,1235,147,65,25,419,212,290,305
"169","58997",60.56,-145.7,23,82,31,6290,156,-101,257,71,53,105,-54,1807,242,107,30,648,328,387,438
"170","145793",60.75,-148.75,7,77,28,6889,158,-111,269,6,40,100,-73,1079,142,52,32,378,171,212,302
"172","30513",57.18,-157.26,22,69,27,6525,151,-97,248,77,-30,107,-57,566,74,28,32,211,93,166,109
"173","24191",59.55,-135.03,-30,100,28,8398,150,-198,348,34,-40,77,-138,536,60,22,26,171,82,140,147
"175","63555",59.61,-135.16,-17,100,28,8683,166,-190,356,-9,-22,93,-130,540,66,22,29,179,80,128,153
"176","137594",51.571,-178.83315,48,44,29,3558,130,-19,149,36,73,98,7,1362,165,71,27,467,225,302,347
"177","4464",59.43,-138.93,32,81,31,6337,162,-97,259,39,95,113,-48,2527,370,113,34,938,409,446,651
"178","43667",58.45,-135.83,47,68,29,5640,170,-64,234,51,75,120,-23,1521,247,65,42,611,216,292,391
"180","57452",60.05,-149.06,29,64,27,5910,158,-71,229,31,88,109,-39,1452,214,57,39,553,200,229,412
"182","45875",57.583332,-153.38333,26,63,30,5246,143,-65,208,32,4,97,-32,1360,142,84,17,403,285,338,373
"183","41714",55.87,-134.26,58,53,31,4076,151,-18,169,39,93,113,12,3785,572,159,37,1399,535,806,1090
"184","21050",60.88,-152.98,-51,92,29,8094,127,-189,316,51,-74,60,-141,617,86,28,33,232,101,215,130
"185","11492",53.38,-167.83,44,43,25,3944,135,-34,169,56,44,99,-2,941,113,53,27,324,166,260,201
"187","63758",51.96,-176.01,43,48,31,3567,129,-25,154,31,68,93,3,1479,181,73,28,512,237,309,388
"188","24169",60.96,-145,-20,103,29,8627,160,-185,345,42,-25,91,-127,983,121,49,27,334,163,275,227
"189","30517",57.16,-157.27,14,68,27,6353,142,-102,244,68,-39,98,-61,581,74,30,30,212,99,171,114
"190","148368",59.5122,-150.51054,28,70,29,6014,155,-81,236,31,53,107,-44,932,131,41,39,357,139,177,247
"191","9498",58.42,-134.53,23,77,28,6375,162,-104,266,28,54,105,-58,1382,197,69,32,497,227,309,339
"192","6934",51.75,-176.75,42,48,31,3498,127,-25,152,30,65,91,2,1542,188,75,28,532,246,318,409
"193","9649",59.52,-135.18,-4,96,28,8357,171,-170,341,-53,42,102,-113,667,92,29,34,237,94,135,194
"195","162454",58.4188,-152.7138,36,69,30,5659,161,-62,223,39,90,112,-30,1368,149,77,20,415,280,287,376
"197","145353",57.266666,-154.2,29,65,29,5542,149,-70,219,76,-18,104,-34,1144,125,72,18,350,234,302,297
"200","137775",57.416668,-154.51666,30,69,30,5879,154,-76,230,79,-18,108,-39,1046,119,66,20,332,209,243,263
"201","41717",55.62,-133,63,57,31,4303,159,-21,180,41,101,119,12,2745,415,131,34,1008,425,600,754
"202","7089",59.55,-151.33,28,75,30,6131,157,-86,243,30,55,108,-46,737,99,34,36,272,107,154,194
"203","10048",55.42,-130.4,38,72,32,5587,164,-61,225,1,92,112,-28,1902,291,90,39,728,274,303,578
"204","40541",53.05,-169.74,43,43,27,3729,129,-30,159,56,41,95,-1,974,118,56,26,331,172,256,217
"205","145116",57.31111,-154.60834,34,68,29,5822,156,-72,228,82,-14,111,-35,1031,118,65,20,329,204,239,257
"207","45193",53.64,-167.05,37,44,25,4082,131,-42,173,48,36,94,-10,941,111,52,27,322,168,265,199
"211","129599",57.585556,-153.3986,20,64,30,5275,139,-70,209,26,-2,93,-36,1344,140,84,17,396,282,336,368
"212","63752",52.75,173.93,38,33,24,3647,112,-23,135,55,37,89,-4,890,108,49,27,298,152,259,185
"214","4842",58.25,-152.58,38,65,30,5358,159,-53,212,42,87,110,-23,1509,160,83,19,450,313,313,420
"216","74799",59.56,-135.19,-4,96,28,8357,171,-170,341,-53,42,102,-113,667,92,29,34,237,94,135,194
"217","102703",60.016666,-137.8,-33,110,29,8894,155,-213,368,-90,-41,80,-147,783,95,39,25,253,134,194,204
"218","59354",61.13,-152.06,-5,93,28,8547,170,-160,330,55,-14,108,-108,661,96,25,35,253,98,183,152
"220","48783",60.27,-143.28,23,77,31,5984,148,-95,243,27,9,101,-49,1992,257,104,31,718,343,437,494
"221","37513",52.85,173.18,32,42,26,3916,120,-36,156,75,33,87,-12,1228,160,71,29,445,217,410,248
"223","63144",61.98,-149.16,-34,89,27,8572,148,-180,328,70,-47,82,-132,521,75,22,43,218,73,201,99
"224","33435",55.77,-155.64,40,57,28,5070,148,-53,201,49,-5,109,-19,866,101,53,21,281,167,240,210
"225","148301",51.781616,-178.04123,39,46,30,3577,123,-28,151,27,63,90,-2,1429,173,74,27,488,234,308,373
"227","148302",51.7851,-177.96605,40,46,30,3583,125,-27,152,28,64,91,0,1433,174,74,27,491,233,308,374
"228","37511",52.81,173.15,32,42,26,3902,120,-36,156,75,33,87,-12,1247,163,73,29,451,222,417,253
"229","57016",60.13,-152.58,20,85,29,7353,176,-113,289,75,9,118,-68,786,108,36,32,287,131,186,196
"230","30521",57.55,-156.78,23,74,28,6882,159,-102,261,78,-30,112,-62,591,78,30,31,220,98,174,114
"231","141792",60.283516,-149.72365,11,74,27,6739,159,-107,266,61,40,102,-68,918,137,40,43,362,125,182,245
"235","137593",51.56935,-178.83275,48,44,29,3558,130,-19,149,36,73,98,7,1362,165,71,27,467,225,302,347
"236","63757",51.77,178.36,46,39,27,3647,125,-19,144,34,69,97,4,1143,136,61,25,387,201,277,276
"237","160472",57.16415,-154.22902,32,64,29,5444,150,-65,215,40,-14,106,-30,1151,126,73,18,354,236,301,299
"238","10020",54.82,-130.64,70,64,31,4938,176,-28,204,40,116,133,9,2478,383,101,39,946,340,360,740
"239","45189",52.28,-174.3,39,46,29,3567,124,-30,154,28,62,89,-2,1297,158,69,27,445,216,290,328
"240","42870",57.55,-136.04,54,62,32,4475,155,-35,190,61,94,112,1,2251,348,94,38,866,347,580,584
"241","45873",56.88,-158.15,0,63,27,5992,122,-110,232,52,-55,80,-68,562,72,29,32,205,96,201,97
"244","142352",60.3086,-143.0194,21,75,31,5977,145,-96,241,26,8,100,-50,2021,265,101,32,736,344,440,501
"245","45881",57.66,-152.58,39,58,30,4903,150,-42,192,44,105,106,-15,1604,167,91,19,476,334,374,459
"246","40540",52.56,-171.16,38,43,28,3583,122,-31,153,31,61,89,-3,1067,130,60,26,361,189,265,251
"248","88794",52.93,173.26,32,42,26,3917,120,-36,156,76,33,88,-12,1198,153,69,29,431,211,397,243
"249","30510",56.12,-159.98,24,57,26,5565,136,-78,214,74,-27,98,-41,693,88,34,34,261,111,234,137
"251","9483",58.41,-134.88,49,70,28,6001,178,-66,244,94,80,127,-26,1443,218,68,36,548,235,329,335
"253","44660",51.42,179.29,NA,NA,NA,NA,NA,NA,NA,NA,NA,NA,NA,NA,NA,NA,NA,NA,NA,NA,NA
"254","241003",57.3066,-154.2042,29,65,29,5542,149,-70,219,76,-18,104,-34,1144,125,72,18,350,234,302,297
"255","24190",59.48,-135.11,-24,97,28,8156,152,-186,338,-17,17,81,-128,613,74,26,27,199,95,147,171
"256","101764",54.89333,-159.2617,40,52,27,4840,141,-51,192,86,-4,106,-16,705,90,39,29,249,123,214,154
"258","101762",54.91667,-159.2,42,52,26,4865,143,-50,193,88,-2,108,-15,697,89,38,29,247,121,212,152
"259","639",59.62024,-151.0493,10,74,30,6148,144,-100,244,59,34,93,-61,776,106,39,34,286,119,170,198
"260","640",59.62677,-151.0515,10,74,30,6148,144,-100,244,59,34,93,-61,776,106,39,34,286,119,170,198
"261","CAN 393819",54.781,-127.171,30,104,29,8022,208,-139,347,-22,31,129,-77,541,63,20,29,178,79,142,147
"264","CAN 208658",60.117,-134.883,-16,112,27,10111,186,-220,406,96,-14,107,-153,328,38,10,31,110,42,100,83
"265","CAN 23694",54.317,-130.317,68,61,31,4622,168,-28,196,41,110,128,11,2394,354,100,37,900,336,460,721
"266","CAN 23698",60.083,-134.867,-14,111,27,10003,186,-215,401,60,-11,108,-149,349,40,11,30,115,45,100,92
"267","CAN 394010",53.917,-121.467,10,115,32,8188,193,-166,359,-90,6,112,-97,909,94,44,18,262,171,251,255
"268","CAN 23699",59.917,-136.85,-21,109,28,9135,174,-205,379,-82,31,95,-138,724,100,32,34,269,105,143,218
"274","CAN 23692",55.25,-127.667,42,103,29,8262,222,-131,353,45,0,143,-69,571,69,22,31,187,81,146,157
"276","222315",55.27,-162.69,34,51,27,4744,133,-51,184,48,-10,99,-21,954,113,50,28,335,168,276,188
"277","51063",55.31597,-130.49478,42,69,31,5384,163,-54,217,8,94,114,-21,2059,315,94,39,787,293,321,624
"278","51110",59.883335,-136.73334,-24,106,28,8866,168,-200,368,-82,26,90,-136,743,101,33,34,275,108,146,226
"280","51084",59.416668,-146.33333,56,38,24,4095,143,-10,153,69,61,113,9,1438,210,63,38,560,238,420,330
"283","51106",51.958916,-178.32504,NA,NA,NA,NA,NA,NA,NA,NA,NA,NA,NA,NA,NA,NA,NA,NA,NA,NA,NA
"284","51105",53.055367,-169.74545,43,43,27,3729,129,-30,159,56,41,95,-1,974,118,56,26,331,172,256,217
"293","V171685",60.566666,-145.7,23,82,31,6290,156,-101,257,71,53,105,-54,1807,242,107,30,648,328,387,438
"294","V194250",52.75,-120.95,17,109,32,7672,192,-145,337,-74,13,114,-82,944,101,53,16,283,187,245,272
"295","V223895",53.266666,-132.23334,61,58,32,4139,162,-16,178,43,114,119,16,2149,296,77,40,827,265,341,712
"297","V140802",50.783333,-128.41667,88,48,35,3262,163,26,137,55,129,133,50,2703,359,79,43,1038,292,360,931
"300","V184711",52.583332,-128.51666,75,45,26,4384,168,1,167,50,131,133,23,2898,390,105,39,1084,380,481,944
"301","V215359",49.966667,-123.03333,16,94,32,6268,174,-114,288,-54,97,97,-58,1030,152,46,42,426,150,150,394
"302","V89509",50.266666,-121.916664,23,98,31,7063,190,-118,308,-60,111,114,-64,634,85,37,31,239,120,123,223
"305","V66157",51.033333,-122.46667,8,112,32,7478,185,-160,345,-80,-39,103,-85,459,51,24,22,140,86,132,135
"306","V150089",54.916668,-126.933334,-12,107,30,7777,165,-182,347,-102,-21,87,-112,547,59,22,24,164,88,162,151
"307","V213994",52.941666,-119.03333,-7,103,30,7821,171,-165,336,-101,-12,92,-107,740,74,40,16,212,140,207,205
"308","V149985",49.166668,-120.76667,13,106,33,7202,188,-128,316,-71,104,105,-78,672,97,36,36,270,115,117,248
"309","V217728",54.638332,-130.91667,73,60,31,4544,171,-18,189,47,115,132,18,2411,362,101,37,906,342,473,710
"310","V103318",55.133335,-127.6,-4,100,30,7537,169,-163,332,-92,-13,93,-100,614,66,25,25,191,95,166,174
"312","V220910",51.960567,177.62439,44,37,25,3683,122,-21,143,32,44,95,1,1088,129,58,25,368,191,271,258
"314","V146405",54.116665,-127.5,24,91,29,7117,187,-120,307,-19,17,115,-66,856,113,39,34,315,132,169,266
"315","V188100",58.25,-129.45,-43,113,30,9137,152,-224,376,64,-99,73,-159,509,68,17,32,180,76,175,120
"317","V86054",54.516666,-128.63333,62,75,26,7272,219,-67,286,11,136,155,-32,1423,229,49,52,612,158,174,502
"319","V215360",59.616665,-137.7,-17,100,30,7918,154,-177,331,-67,23,84,-117,1131,153,60,30,397,182,228,313
"323","V168171",55.45,-122.666664,-1,97,27,8822,183,-173,356,111,-9,111,-113,712,82,26,22,221,132,221,188
"325","V42673",49.95,-123,5,95,33,6223,162,-124,286,-63,87,87,-67,1017,148,48,41,415,153,153,387
"328","V215820",50.358334,-127.00833,52,61,36,3832,150,-15,165,14,102,105,10,2018,282,63,48,824,221,261,744
"332","V171913",56.033333,-156.7,36,61,28,5481,149,-66,215,84,-10,109,-29,700,85,41,25,241,127,213,155
"338","V188104",58.25,-129.45,-43,113,30,9137,152,-224,376,64,-99,73,-159,509,68,17,32,180,76,175,120
"339","V45822",49.966667,-123.03333,16,94,32,6268,174,-114,288,-54,97,97,-58,1030,152,46,42,426,150,150,394
"342","24173",52.35,175.93,32,34,24,3684,108,-31,139,20,31,84,-11,997,116,55,24,331,176,268,222
"343","145842",57.448612,-153.19305,17,61,30,5066,133,-68,201,24,-7,88,-36,1386,142,87,16,405,291,342,346
"344","42866",57.03,-135.26,51,69,34,4585,158,-42,200,59,92,112,-3,2410,368,98,37,917,351,593,643
"347","10377",53.38,-167.83,44,43,25,3944,135,-34,169,56,44,99,-2,941,113,53,27,324,166,260,201
"348","30511",57.17,-157.26,22,69,27,6525,151,-97,248,77,-30,107,-57,566,74,28,32,211,93,166,109
"349","88786",51.82,-176.63,40,48,31,3513,125,-27,152,28,64,90,0,1544,188,75,28,533,247,317,410
"350","41718",55.36,-133.6,64,50,30,3949,152,-10,162,46,97,118,19,3014,453,136,35,1110,446,645,850
"352","35988",56.34,-157.84,27,61,27,5736,143,-80,223,78,-22,104,-41,570,73,29,31,210,95,192,113
"362","51084",59.416668,-146.33333,56,38,24,4095,143,-10,153,69,61,113,9,1438,210,63,38,560,238,420,330
"364","51105",53.055367,-169.74545,43,43,27,3729,129,-30,159,56,41,95,-1,974,118,56,26,331,172,256,217
"365","51110",59.883335,-136.73334,-24,106,28,8866,168,-200,368,-82,26,90,-136,743,101,33,34,275,108,146,226
"368","CAN 208657",60.117,-134.883,-16,112,27,10111,186,-220,406,96,-14,107,-153,328,38,10,31,110,42,100,83
"369","CAN 23693",54.317,-130.317,68,61,31,4622,168,-28,196,41,110,128,11,2394,354,100,37,900,336,460,721
"374","24170",52.35,175.93,32,34,24,3684,108,-31,139,20,31,84,-11,997,116,55,24,331,176,268,222
"375","42868",57.28,-135.6,52,66,33,4556,156,-41,197,60,92,112,-2,2200,337,92,37,843,334,568,571
"376","24194",55.88,-134.25,60,53,31,4126,153,-17,170,40,95,115,12,3738,566,157,37,1384,529,797,1074
"378","43668",58.93,-135.76,20,77,28,6573,166,-104,270,-21,52,106,-61,1253,197,50,41,486,167,201,372
"379","24186",56.35,-131.98,50,74,30,5724,177,-62,239,13,107,124,-22,2059,323,103,35,762,331,368,554
"380","45873",56.88,-158.15,0,63,27,5992,122,-110,232,52,-55,80,-68,562,72,29,32,205,96,201,97
"382","148368",59.5122,-150.51054,28,70,29,6014,155,-81,236,31,53,107,-44,932,131,41,39,357,139,177,247
"383","153542",59.9228,-141.3564,35,73,30,6075,155,-88,243,40,63,112,-41,2558,362,125,34,958,448,503,633
"385","57452",60.05,-149.06,29,64,27,5910,158,-71,229,31,88,109,-39,1452,214,57,39,553,200,229,412
"386","45192",53.48,-167.17,44,44,25,4025,136,-35,171,55,44,100,-3,939,112,53,27,324,168,262,198
"387","241003",57.3066,-154.2042,29,65,29,5542,149,-70,219,76,-18,104,-34,1144,125,72,18,350,234,302,297
"388","45875",57.583332,-153.38333,26,63,30,5246,143,-65,208,32,4,97,-32,1360,142,84,17,403,285,338,373
"389","40175",59.61,-135.16,-17,100,28,8683,166,-190,356,-9,-22,93,-130,540,66,22,29,179,80,128,153
"390","246200",54.86155,-163.41486,34,50,27,4554,130,-49,179,46,-11,96,-19,962,112,51,28,335,172,277,193
"391","9487",58.41,-134.55,39,72,28,6173,172,-82,254,86,72,119,-39,1572,228,81,33,576,265,354,370
"392","63754",51.93,-176.04,43,48,31,3567,129,-25,154,31,68,93,3,1479,181,73,28,512,237,309,388
"393","137857",57.35,-154.63333,32,68,29,5868,156,-74,230,81,-16,110,-37,1030,118,65,20,329,204,240,257
"394","45874",56.91,-158.08,10,64,27,6063,132,-102,234,63,-44,90,-61,545,69,27,33,202,91,194,103
"395","43671",58.64,-134.9,37,75,28,6454,175,-89,264,41,70,120,-45,1287,194,61,35,481,203,279,316
"396","63543",59.59,-135.32,-2,96,27,8491,176,-169,345,-53,46,106,-112,667,94,29,35,243,92,129,197
"397","21050",60.88,-152.98,-51,92,29,8094,127,-189,316,51,-74,60,-141,617,86,28,33,232,101,215,130
"398","24183",57.76,-152.4,47,59,30,4987,160,-36,196,51,114,115,-10,1635,173,91,20,494,337,380,460
"399","30516",56.13,-159.96,24,57,26,5565,136,-78,214,74,-27,98,-41,693,88,34,34,261,111,234,137
"400","63755",52.13,177.58,27,37,25,3693,106,-38,144,15,27,79,-16,1145,132,64,23,376,209,294,266
"402","35987",56.34,-157.84,27,61,27,5736,143,-80,223,78,-22,104,-41,570,73,29,31,210,95,192,113
"403","40541",53.05,-169.74,43,43,27,3729,129,-30,159,56,41,95,-1,974,118,56,26,331,172,256,217
"404","30519",57.55,-156.75,20,74,28,6827,156,-104,260,74,-34,108,-64,606,79,31,31,223,102,178,118
"405","148545",51.564785,-178.81593,48,44,29,3558,130,-19,149,36,73,98,7,1362,165,71,27,467,225,302,347
"408","40537",52.36,175.86,33,34,24,3670,108,-30,138,21,33,84,-10,990,115,55,24,329,175,266,220
"409","44658",51.86,-176.75,41,48,31,3548,126,-27,153,29,65,91,0,1541,188,75,28,532,246,317,409
"410","88790",51.96,-175.67,44,47,30,3554,129,-24,153,32,68,94,4,1447,177,72,28,500,233,306,377
"411","141938",56.75738,-158.086,17,63,27,6022,137,-96,233,70,-36,97,-54,532,69,26,34,201,87,190,100
"412","30515",57.55,-156.77,23,74,28,6882,159,-102,261,78,-30,112,-62,591,78,30,31,220,98,174,114
"413","63756",53.45,-166.87,41,44,25,4059,135,-38,173,52,42,98,-5,944,112,53,27,324,169,264,199
"414","24180",52.43,173.6,33,36,25,3646,112,-29,141,75,32,85,-8,1070,126,62,26,367,189,332,220
"415","21137",55.12,-162.83,23,50,27,4597,121,-59,180,36,-23,87,-29,968,111,52,26,331,176,280,195
"416","88908",51.39,179.3,49,40,27,3561,128,-16,144,38,71,99,8,1235,147,65,25,419,212,290,305
"417","57016",60.13,-152.58,20,85,29,7353,176,-113,289,75,9,118,-68,786,108,36,32,287,131,186,196
"418","30521",57.55,-156.78,23,74,28,6882,159,-102,261,78,-30,112,-62,591,78,30,31,220,98,174,114
"419","5138",60.35,-147.75,26,67,28,6085,155,-80,235,28,88,107,-47,1303,177,62,33,473,207,247,350
"420","24196",56.33,-158.5,20,59,26,5631,134,-86,220,71,-31,96,-45,565,72,29,33,211,94,194,110
"421","30517",57.16,-157.27,14,68,27,6353,142,-102,244,68,-39,98,-61,581,74,30,30,212,99,171,114
"422","6759",59.41,-160.08,-2,77,24,8788,163,-148,311,105,-69,112,-110,626,114,24,49,270,85,225,103
"424","10020",54.82,-130.64,70,64,31,4938,176,-28,204,40,116,133,9,2478,383,101,39,946,340,360,740
"425","7089",59.55,-151.33,28,75,30,6131,157,-86,243,30,55,108,-46,737,99,34,36,272,107,154,194
"426","142352",60.3086,-143.0194,21,75,31,5977,145,-96,241,26,8,100,-50,2021,265,101,32,736,344,440,501
"427","45190",53.88,-166.38,39,45,25,4221,136,-43,179,49,40,98,-10,934,110,51,27,322,167,268,193
"428","10377",53.38,-167.83,44,43,25,3944,135,-34,169,56,44,99,-2,941,113,53,27,324,166,260,201
"429","44656",52.81,173.16,32,42,26,3902,120,-36,156,75,33,87,-12,1247,163,73,29,451,222,417,253
"430","51025",59.91,-139.75,30,83,30,6829,164,-109,273,35,99,116,-57,2641,377,128,32,972,459,499,650
"431","24166",60.86,-148.01,18,80,28,7223,169,-112,281,16,57,112,-70,1069,139,55,31,375,176,221,287
"432","63556",59.68,-135.24,-24,101,28,8730,161,-198,359,41,-32,87,-137,513,59,21,28,164,77,129,143
"433","58507",60.66,-149.23,-4,76,28,6835,149,-120,269,47,26,90,-81,938,124,42,33,335,143,199,256
"434","10413",53.38,-168.08,29,43,26,3887,120,-45,165,42,26,84,-15,958,113,55,25,320,171,265,209
"436","30513",57.18,-157.26,22,69,27,6525,151,-97,248,77,-30,107,-57,566,74,28,32,211,93,166,109
"437","145842",57.448612,-153.19305,17,61,30,5066,133,-68,201,24,-7,88,-36,1386,142,87,16,405,291,342,346
"438","45194",53.25,-168.33,43,43,26,3865,132,-33,165,55,42,97,-2,946,114,55,27,324,168,258,204
"441","12037",61.03,-147.13,12,84,28,7513,166,-125,291,65,55,109,-81,1092,140,56,29,379,179,245,284
"442","88788",51.26,-179.07,50,44,30,3489,131,-15,146,39,73,99,10,1349,163,70,26,461,224,302,344
"443","240810",56.9397,-154.3265,41,63,29,5419,158,-56,214,49,-3,114,-22,1129,126,71,20,354,228,295,293
"444","162870",57.833332,-152.41667,40,59,30,4981,154,-42,196,45,108,109,-15,1617,168,91,19,481,337,378,460
"445","141792",60.283516,-149.72365,11,74,27,6739,159,-107,266,61,40,102,-68,918,137,40,43,362,125,182,245
"446","8654",56.25,-133.5,49,59,31,4530,151,-37,188,56,91,109,-4,2835,429,131,35,1041,433,474,782
"447","24168",60.45,-149.75,22,78,27,7218,177,-107,284,74,58,118,-65,829,132,32,47,344,103,164,220
"448","42712",57.28,-133.25,38,72,29,5893,167,-78,245,43,66,113,-37,1910,293,94,35,712,303,360,505
"449","9866",55.22,-131.15,69,65,31,5097,180,-28,208,37,117,135,7,2948,460,118,39,1126,401,428,866
"450","42871",57.05,-135.33,51,69,34,4585,158,-42,200,59,92,112,-3,2410,368,98,37,917,351,593,643
"451","67325",62.33,-147.83,-53,107,27,10247,156,-234,390,81,-58,81,-177,414,71,15,51,186,55,186,72
"452","88907",51.82,-176.63,40,48,31,3513,125,-27,152,28,64,90,0,1544,188,75,28,533,247,317,410
"453","30511",57.17,-157.26,22,69,27,6525,151,-97,248,77,-30,107,-57,566,74,28,32,211,93,166,109
"454","162587",58.38425,-152.64626,29,67,30,5483,153,-64,217,33,81,104,-32,1395,150,80,19,418,289,296,384
"455","129993",57.783333,-153.53334,34,67,30,5619,156,-66,222,39,-13,109,-31,1297,140,78,19,394,269,282,351
"457","30518",57.54,-156.73,20,74,28,6827,156,-104,260,74,-34,108,-64,606,79,31,31,223,102,178,118
"458","10617",54.91,-133.08,68,48,30,3915,154,-4,158,51,100,121,23,2404,354,116,34,883,368,510,675
"460","51401",59.93,-149.7,18,69,28,6198,154,-88,242,20,80,102,-53,1121,167,47,41,438,160,198,305
"461","42866",57.03,-135.26,51,69,34,4585,158,-42,200,59,92,112,-3,2410,368,98,37,917,351,593,643
"462","44659",51.66,178.65,44,39,27,3619,123,-21,144,32,67,95,2,1191,141,64,24,401,210,287,289
"463","43667",58.45,-135.83,47,68,29,5640,170,-64,234,51,75,120,-23,1521,247,65,42,611,216,292,391
"464","45188",53.91,-166.45,38,45,25,4230,135,-44,179,48,39,97,-10,936,110,51,27,322,167,268,195
"466","58526",60.71,-147.91,26,75,28,6815,168,-95,263,26,63,115,-57,1196,160,59,33,430,193,232,324
"468","147536",57.583332,-153.16556,11,61,30,5040,127,-73,200,18,-14,82,-42,1381,141,87,16,400,291,343,346
"471","42870",57.55,-136.04,54,62,32,4475,155,-35,190,61,94,112,1,2251,348,94,38,866,347,580,584
"474","43670",58.71,-135,43,75,28,6515,181,-85,266,46,78,126,-40,1293,201,61,37,493,199,268,321
"476","88787",52.35,173.67,39,35,25,3621,116,-22,138,81,38,90,-2,1030,122,59,26,350,180,314,213
"477","150364",61.175,-144.39362,-35,105,29,9143,156,-206,362,73,-40,84,-147,822,97,39,28,283,132,259,181
"478","137775",57.416668,-154.51666,30,69,30,5879,154,-76,230,79,-18,108,-39,1046,119,66,20,332,209,243,263
"479","58997",60.56,-145.7,23,82,31,6290,156,-101,257,71,53,105,-54,1807,242,107,30,648,328,387,438
"480","88794",52.93,173.26,32,42,26,3917,120,-36,156,76,33,88,-12,1198,153,69,29,431,211,397,243
"481","40539",51.97,178.28,44,39,26,3698,123,-22,145,31,68,96,1,1130,135,60,25,383,199,276,271
"483","59096",60.55,-145.75,23,82,31,6290,156,-101,257,71,53,105,-54,1807,242,107,30,648,328,387,438
"484","137594",51.571,-178.83315,48,44,29,3558,130,-19,149,36,73,98,7,1362,165,71,27,467,225,302,347
"486","30899",60.73,-142.21,-34,90,28,7925,129,-183,312,25,-46,70,-129,1317,152,69,26,433,229,366,298
"488","42273",56.89,-133.04,39,69,30,5447,161,-66,227,44,63,110,-28,2062,314,101,35,762,333,380,550
"490","63753",52.08,-173.35,46,45,29,3507,129,-23,152,36,68,95,5,1234,151,66,27,425,207,281,306
"491","144392",60.1515,-141.45467,20,77,29,6557,149,-110,259,24,52,105,-61,2239,306,119,32,821,401,470,546
"492","24169",60.96,-145,-20,103,29,8627,160,-185,345,42,-25,91,-127,983,121,49,27,334,163,275,227
"494","43672",58.28,-134.4,28,74,28,6139,162,-95,257,34,59,107,-50,1702,249,90,32,620,282,358,420
"495","45880",57.21,-153.2,41,59,29,5020,153,-46,199,47,22,109,-16,1430,153,83,19,432,298,344,398
"496","42131",56.91,-135.21,44,65,34,4439,148,-43,191,53,83,104,-7,2730,410,112,37,1023,395,642,750
"497","43665",58.58,-134.25,1,84,29,6892,151,-138,289,9,34,89,-87,1117,150,53,29,386,181,256,288
"499","24171",60.98,-145.01,-19,103,29,8599,160,-184,344,43,-25,91,-126,995,123,50,27,339,166,276,230
"500","44657",52.83,173.05,37,43,27,3925,125,-32,157,80,37,92,-8,1239,164,71,29,451,218,415,252
"501","145116",57.31111,-154.60834,34,68,29,5822,156,-72,228,82,-14,111,-35,1031,118,65,20,329,204,239,257
"502","59353",59.63,-153.7,8,92,30,7380,170,-129,299,64,-49,107,-80,796,101,44,26,281,144,208,185
"503","63760",51.96,177.62,44,37,25,3683,122,-21,143,32,44,95,1,1088,129,58,25,368,191,271,258
"505","148302",51.7851,-177.96605,40,46,30,3583,125,-27,152,28,64,91,0,1433,174,74,27,491,233,308,374
"506","245411",56.565834,-134.81944,42,60,32,4338,143,-39,182,21,80,101,-7,3545,527,145,37,1325,497,761,1019
"507","88910",51.94,177.78,NA,NA,NA,NA,NA,NA,NA,NA,NA,NA,NA,NA,NA,NA,NA,NA,NA,NA,NA
"508","137593",51.56935,-178.83275,48,44,29,3558,130,-19,149,36,73,98,7,1362,165,71,27,467,225,302,347
"509","74872",59.41,-137.98,-10,92,30,7113,145,-153,298,-54,22,82,-98,1456,199,73,30,510,239,280,398
"510","47881",58.05,-161.06,NA,NA,NA,NA,NA,NA,NA,NA,NA,NA,NA,NA,NA,NA,NA,NA,NA,NA,NA
"512","63759",51.95,-176.13,46,48,31,3563,132,-22,154,34,71,96,6,1483,182,72,29,515,236,309,388
"513","60407",59.22,-154.73,0,84,28,7424,157,-136,293,57,-60,98,-89,824,105,50,28,299,153,230,177
"514","41715",55.91,-134.25,60,53,31,4126,153,-17,170,40,95,115,12,3738,566,157,37,1384,529,797,1074
"515","13026",58.11,-136.45,49,56,29,4693,151,-38,189,56,93,110,-7,2299,356,93,37,876,348,382,615
"517","88791",51.96,-175.69,44,47,30,3554,129,-24,153,32,68,94,4,1447,177,72,28,500,233,306,377
"518","45189",52.28,-174.3,39,46,29,3567,124,-30,154,28,62,89,-2,1297,158,69,27,445,216,290,328
"519","63757",51.77,178.36,46,39,27,3647,125,-19,144,34,69,97,4,1143,136,61,25,387,201,277,276
"520","42714",57.86,-133.15,13,81,29,6692,160,-119,279,19,46,99,-72,1370,197,67,32,491,218,286,361
"521","24175",61.13,-145.75,-19,104,29,8889,164,-188,352,43,-22,94,-130,904,113,44,27,310,148,247,215
"525","45881",57.66,-152.58,39,58,30,4903,150,-42,192,44,105,106,-15,1604,167,91,19,476,334,374,459
"526","24188",51.83,-176.58,41,48,31,3501,126,-26,152,29,64,90,1,1541,188,75,28,532,246,317,409
"529","42869",57.46,-135.91,49,64,33,4503,152,-41,193,57,90,109,-3,2188,335,93,37,837,338,567,567
"531","63144",61.98,-149.16,-34,89,27,8572,148,-180,328,70,-47,82,-132,521,75,22,43,218,73,201,99
"532","74799",59.56,-135.19,-4,96,28,8357,171,-170,341,-53,42,102,-113,667,92,29,34,237,94,135,194
"533","33435",55.77,-155.64,40,57,28,5070,148,-53,201,49,-5,109,-19,866,101,53,21,281,167,240,210
"534","59354",61.13,-152.06,-5,93,28,8547,170,-160,330,55,-14,108,-108,661,96,25,35,253,98,183,152
"535","63758",51.96,-176.01,43,48,31,3567,129,-25,154,31,68,93,3,1479,181,73,28,512,237,309,388
"536","160472",57.16415,-154.22902,32,64,29,5444,150,-65,215,40,-14,106,-30,1151,126,73,18,354,236,301,299
"537","47026",60.02,-152.66,11,85,29,7184,166,-118,284,65,-3,107,-74,788,105,37,30,283,133,193,195
"538","145014",57.466667,-154.65,32,69,29,5950,156,-76,232,81,-17,110,-39,1027,118,65,20,329,204,239,255
"539","5764",58.56,-152.66,37,70,31,5714,163,-62,225,40,91,113,-29,1333,147,74,20,409,268,277,366
"540","45877",57.21,-153.25,41,59,29,5020,153,-46,199,47,22,109,-16,1430,153,83,19,432,298,344,398
"541","45882",57.78,-152.45,40,59,30,4981,154,-42,196,45,108,109,-15,1617,168,91,19,481,337,378,460
"542","16786",54.93,-159.28,41,52,27,4858,142,-50,192,54,-3,108,-15,700,90,38,30,249,121,213,152
"543","41716",55.36,-133.6,64,50,30,3949,152,-10,162,46,97,118,19,3014,453,136,35,1110,446,645,850
"544","148299",51.558315,-178.81944,48,44,29,3558,130,-19,149,36,73,98,7,1362,165,71,27,467,225,302,347
"546","144407",60.0845,-140.2065,-25,91,30,7549,130,-173,303,33,-77,74,-117,1649,198,102,23,542,322,405,380
"547","61589",61.13,-145.78,-18,101,29,8672,162,-182,344,43,-22,93,-126,954,120,47,27,328,157,254,230
"549","40540",52.56,-171.16,38,43,28,3583,122,-31,153,31,61,89,-3,1067,130,60,26,361,189,265,251
"550","13054",58.65,-162.08,-2,68,24,7712,144,-132,276,59,-68,99,-95,1027,175,34,50,452,130,338,157
"552","9498",58.42,-134.53,23,77,28,6375,162,-104,266,28,54,105,-58,1382,197,69,32,497,227,309,339
"554","45193",53.64,-167.05,37,44,25,4082,131,-42,173,48,36,94,-10,941,111,52,27,322,168,265,199
"555","4464",59.43,-138.93,32,81,31,6337,162,-97,259,39,95,113,-48,2527,370,113,34,938,409,446,651
"556","40538",51.95,178.32,44,39,26,3698,123,-22,145,31,68,96,1,1130,135,60,25,383,199,276,271
"557","88909",52.17,-175.51,44,47,30,3608,130,-25,155,32,69,95,3,1408,172,71,28,487,227,300,365
"559","30432",60.16,-153.58,-27,91,30,7594,143,-160,303,70,-48,77,-113,694,91,35,29,246,119,218,150
"561","41714",55.87,-134.26,58,53,31,4076,151,-18,169,39,93,113,12,3785,572,159,37,1399,535,806,1090
"562","102703",60.016666,-137.8,-33,110,29,8894,155,-213,368,-90,-41,80,-147,783,95,39,25,253,134,194,204
"564","45187",54.68,-163.18,34,49,27,4470,130,-47,177,47,-9,96,-17,958,112,51,27,332,173,273,194
"565","244525",52.0593,-173.40398,46,45,29,3507,129,-23,152,36,68,95,5,1234,151,66,27,425,207,281,306
"567","88789",51.95,178.31,44,39,26,3698,123,-22,145,31,68,96,1,1130,135,60,25,383,199,276,271
"568","43669",58.38,-134.36,9,79,29,6408,150,-119,269,16,38,92,-72,1319,184,65,31,467,214,293,334
"569","24190",59.48,-135.11,-24,97,28,8156,152,-186,338,-17,17,81,-128,613,74,26,27,199,95,147,171
"570","57521",60.16,-149.63,5,71,28,6323,147,-102,249,7,29,92,-66,1019,146,47,39,386,148,197,276
"571","30510",56.12,-159.98,24,57,26,5565,136,-78,214,74,-27,98,-41,693,88,34,34,261,111,234,137
"572","44660",51.42,179.29,NA,NA,NA,NA,NA,NA,NA,NA,NA,NA,NA,NA,NA,NA,NA,NA,NA,NA,NA
"573","148300",51.77902,-177.9717,40,46,30,3583,125,-27,152,28,64,91,0,1433,174,74,27,491,233,308,374
"575","145353",57.266666,-154.2,29,65,29,5542,149,-70,219,76,-18,104,-34,1144,125,72,18,350,234,302,297
"577","24198",61.13,-145.73,-19,104,29,8889,164,-188,352,43,-22,94,-130,904,113,44,27,310,148,247,215
"578","41717",55.62,-133,63,57,31,4303,159,-21,180,41,101,119,12,2745,415,131,34,1008,425,600,754
"580","61353",61.08,-146.78,14,82,28,7375,165,-121,286,13,57,110,-77,1197,154,61,30,416,193,263,315
"581","74736",59.61,-135.13,-17,100,28,8683,166,-190,356,-9,-22,93,-130,540,66,22,29,179,80,128,153
"582","51280",59.93,-144.38,45,71,33,5023,158,-55,213,53,61,111,-13,2327,290,110,29,819,396,667,583
"583","45876",56.03,-156.7,36,61,28,5481,149,-66,215,84,-10,109,-29,700,85,41,25,241,127,213,155
"584","47025",60.21,-152.9,5,88,29,7490,166,-130,296,60,-9,105,-83,753,100,35,30,272,126,196,181
"585","6934",51.75,-176.75,42,48,31,3498,127,-25,152,30,65,91,2,1542,188,75,28,532,246,318,409
"590","60532",58.61,-153.77,16,78,30,6383,156,-101,257,67,-37,102,-58,1080,123,69,19,343,219,250,276
"591","148301",51.781616,-178.04123,39,46,30,3577,123,-28,151,27,63,90,-2,1429,173,74,27,488,234,308,373
"593","4370",57.72,-153.83,24,68,30,5613,147,-76,223,71,-24,100,-39,1232,133,78,18,371,256,277,327
"594","37511",52.81,173.15,32,42,26,3902,120,-36,156,75,33,87,-12,1247,163,73,29,451,222,417,253
"595","10048",55.42,-130.4,38,72,32,5587,164,-61,225,1,92,112,-28,1902,291,90,39,728,274,303,578
"596","9649",59.52,-135.18,-4,96,28,8357,171,-170,341,-53,42,102,-113,667,92,29,34,237,94,135,194
"597","245985",58.7983,-134.50214,5,86,28,7190,160,-139,299,13,42,97,-88,1020,140,48,30,357,164,232,263
"599","162454",58.4188,-152.7138,36,69,30,5659,161,-62,223,39,90,112,-30,1368,149,77,20,415,280,287,376
"600","48783",60.27,-143.28,23,77,31,5984,148,-95,243,27,9,101,-49,1992,257,104,31,718,343,437,494
"602","63752",52.75,173.93,38,33,24,3647,112,-23,135,55,37,89,-4,890,108,49,27,298,152,259,185
"603","129599",57.585556,-153.3986,20,64,30,5275,139,-70,209,26,-2,93,-36,1344,140,84,17,396,282,336,368
"604","24191",59.55,-135.03,-30,100,28,8398,150,-198,348,34,-40,77,-138,536,60,22,26,171,82,140,147
"605","145793",60.75,-148.75,7,77,28,6889,158,-111,269,6,40,100,-73,1079,142,52,32,378,171,212,302
"606","9483",58.41,-134.88,49,70,28,6001,178,-66,244,94,80,127,-26,1443,218,68,36,548,235,329,335
"607","37512",52.84,173.16,27,42,26,3922,115,-42,157,70,27,82,-18,1247,161,73,29,450,223,417,252
"609","4842",58.25,-152.58,38,65,30,5358,159,-53,212,42,87,110,-23,1509,160,83,19,450,313,313,420
"610","57982",60.58,-149.06,-9,74,28,6658,141,-120,261,41,18,82,-83,977,126,46,31,342,153,208,266
"612","34320",59.28,-136.11,13,84,28,7344,175,-123,298,-36,90,109,-78,1213,190,42,45,491,142,167,392
"614","37513",52.85,173.18,32,42,26,3916,120,-36,156,75,33,87,-12,1228,160,71,29,445,217,410,248
"615","145542",55.344734,-160.45914,36,54,27,5068,140,-58,198,83,-10,104,-23,771,97,40,31,277,130,240,164
"616","24187",60.38,-149.33,-6,72,28,6506,141,-114,255,44,19,83,-78,1000,134,47,34,359,153,206,272
"618","51044",59.96,-138.01,-36,105,30,8475,144,-206,350,28,-47,73,-143,889,105,47,23,283,159,223,226
"619","CAN 394082",53.917,-121.467,10,115,32,8188,193,-166,359,-90,6,112,-97,909,94,44,18,262,171,251,255
"620","CAN 123936",54.317,-130.317,68,61,31,4622,168,-28,196,41,110,128,11,2394,354,100,37,900,336,460,721
"621","CAN 393732",54.781,-127.171,30,104,29,8022,208,-139,347,-22,31,129,-77,541,63,20,29,178,79,142,147
