"","catalogNumber","lat","lon","bio1","bio2","bio3","bio4","bio5","bio6","bio7","bio8","bio9","bio10","bio11","bio12","bio13","bio14","bio15","bio16","bio17","bio18","bio19"
"1","JEPS63582",38.41585,-120.11491,70,137,44,6161,249,-59,308,0,152,153,0,1151,202,9,76,556,43,51,556
"2","UC1133313",37.98028,-119.49694,33,132,45,5808,202,-91,293,-31,111,112,-31,734,125,15,66,338,51,59,338
"3","JEPS25934",38.87667,-120.13778,37,130,43,6017,209,-89,298,-17,117,119,-28,1159,195,15,69,542,64,69,512
"4","JEPS49044",39.324146,-120.32551,52,147,44,6277,241,-86,327,-21,134,135,-21,1060,184,12,71,504,54,57,504
"5","UC1108042",40.487366,-121.50049,38,132,43,5931,219,-82,301,-15,119,119,-26,1121,165,12,61,490,71,71,456
"6","JEPS73175",38.821976,-120.05046,46,134,43,6129,221,-85,306,-12,127,129,-23,1063,180,14,69,499,59,64,493
"7","UC1133450",38.04778,-119.46306,18,125,43,5682,182,-103,285,-31,94,96,-44,785,132,19,64,360,61,69,340
"8","JEPS28389",40.42895,-121.539345,38,132,43,5931,219,-82,301,-15,119,119,-26,1121,165,12,61,490,71,71,456
"9","JEPS63588",36.49139,-118.34889,33,116,42,5651,193,-81,274,-25,109,111,-28,657,115,12,67,307,48,63,304
"10","JEPS27784",37.324627,-118.74478,-4,112,41,5369,150,-118,268,-56,68,70,-62,711,116,19,58,310,70,83,302
"11","JEPS73177",38.82373,-120.0512,46,134,43,6129,221,-85,306,-12,127,129,-23,1063,180,14,69,499,59,64,493
"12","JEPS63541",40.50869,-121.53563,56,141,44,6068,243,-72,315,-2,138,138,-11,1044,152,10,60,448,66,66,427
"13","JEPS28391",40.508656,-121.46491,56,143,44,6131,245,-75,320,-4,137,137,-13,999,145,10,59,427,65,67,408
"14","JEPS25957",38.250412,-119.67268,38,134,44,5991,210,-91,301,-18,118,118,-29,851,144,15,68,393,55,62,392
"15","JEPS15695",38.60732,-119.93937,37,130,43,6016,207,-91,298,-18,117,118,-29,1092,183,15,68,510,63,68,502
"16","JEPS24151",37.157364,-119.065735,34,117,43,5441,191,-80,271,-21,108,109,-24,714,128,12,70,339,39,53,335
"17","1035861",37.157223,-119.09889,53,122,44,5500,213,-62,275,-6,127,129,-6,796,145,8,75,392,29,44,392
"18","1122232",37.009167,-118.70361,9,112,41,5396,164,-105,269,-44,81,84,-50,690,118,16,62,312,58,72,305
"19","589387",37.866665,-119.65,46,132,44,5818,216,-78,294,-18,124,125,-18,847,147,12,71,400,44,53,400
"20","864796",36.17611,-118.51056,72,123,42,5895,240,-47,287,9,151,152,8,666,122,7,76,330,26,40,330
"21","362729",37.1841,-118.6195,9,116,42,5517,167,-106,273,-47,83,85,-51,622,104,16,58,274,61,74,266
"22","942160",37.161945,-119.09722,53,122,44,5500,213,-62,275,-6,127,129,-6,796,145,8,75,392,29,44,392
"23","1126946",37.023335,-119.12861,81,129,44,5805,250,-39,289,20,160,161,19,868,162,5,80,444,21,35,436
"24","1031620",37.15167,-119.10445,53,122,44,5500,213,-62,275,-6,127,129,-6,796,145,8,75,392,29,44,392
"25","221161",37.42058,-118.75719,2,116,42,5441,159,-113,272,-52,75,77,-57,661,108,18,57,289,65,77,279
"26","394743",36.5861,-118.2326,93,141,42,6739,280,-53,333,14,184,184,14,369,66,7,67,177,27,27,177
"28","185882",37.72167,-119.59333,74,139,45,5988,252,-54,306,7,154,155,7,903,159,8,75,437,34,42,437
"30","360007",38.5455,-120.322,81,137,44,6172,261,-47,308,11,163,164,11,1257,224,8,77,614,39,50,614
"97","185882",37.72167,-119.59333,74,139,45,5988,252,-54,306,7,154,155,7,903,159,8,75,437,34,42,437
"99","1031819",37.161945,-119.09722,53,122,44,5500,213,-62,275,-6,127,129,-6,796,145,8,75,392,29,44,392
